<?xml version="1.0" encoding="UTF-8" standalone="no"?>
<svg
   xmlns:dc="http://purl.org/dc/elements/1.1/"
   xmlns:cc="http://creativecommons.org/ns#"
   xmlns:rdf="http://www.w3.org/1999/02/22-rdf-syntax-ns#"
   xmlns:svg="http://www.w3.org/2000/svg"
   xmlns="http://www.w3.org/2000/svg"
   xmlns:xlink="http://www.w3.org/1999/xlink"
   xmlns:sodipodi="http://sodipodi.sourceforge.net/DTD/sodipodi-0.dtd"
   xmlns:inkscape="http://www.inkscape.org/namespaces/inkscape"
   inkscape:version="1.0beta1 (a01e2b1, 2019-11-16)"
   id="svg8"
   version="1.1"
   viewBox="0 0 198.43751 165.36458"
   height="625"
   width="750"
   sodipodi:docname="about screen 3.1- export.svg">
  <style
     id="style1009" />
  <defs
     id="defs2">
    <inkscape:path-effect
       update_on_knot_move="true"
       attempt_force_join="true"
       miter_limit="4"
       offset="6.7"
       unit="mm"
       linejoin_type="bevel"
       is_visible="true"
       id="path-effect1061"
       effect="offset" />
    <rect
       x="-192.76785"
       y="151.94643"
       width="94.494049"
       height="148.92262"
       id="rect940" />
    <rect
       x="-140.60715"
       y="-137.58333"
       width="191.25595"
       height="108.10119"
       id="rect934" />
    <linearGradient
       id="linearGradient9955">
      <stop
         id="stop9957"
         offset="0"
         style="stop-color:#ffffff;stop-opacity:0.44390243;" />
      <stop
         style="stop-color:#ffffff;stop-opacity:0.15000001;"
         offset="0.5"
         id="stop9963" />
      <stop
         id="stop9959"
         offset="1"
         style="stop-color:#ffffff;stop-opacity:0.44;" />
    </linearGradient>
    <linearGradient
       id="linearGradient3790">
      <stop
         style="stop-color:#ddca97;stop-opacity:1;"
         offset="0"
         id="stop3802" />
      <stop
         id="stop3808"
         offset="0.57251769"
         style="stop-color:#a4966f;stop-opacity:1;" />
      <stop
         id="stop3794"
         offset="1"
         style="stop-color:#363024;stop-opacity:1;" />
    </linearGradient>
    <linearGradient
       id="linearGradient6064">
      <stop
         style="stop-color:#837a66;stop-opacity:1"
         offset="0"
         id="stop6066" />
      <stop
         style="stop-color:#5a5446;stop-opacity:0.43137255;"
         offset="1"
         id="stop6068" />
    </linearGradient>
    <linearGradient
       id="linearGradient4231-4">
      <stop
         id="stop4233-2"
         offset="0"
         style="stop-color:#363024;stop-opacity:1;" />
      <stop
         id="stop4235-7"
         offset="1"
         style="stop-color:#bdb294;stop-opacity:0;" />
    </linearGradient>
    <linearGradient
       id="linearGradient4231">
      <stop
         style="stop-color:#2a251b;stop-opacity:1;"
         offset="0"
         id="stop4355" />
      <stop
         id="stop4235"
         offset="1"
         style="stop-color:#bdb294;stop-opacity:0;" />
    </linearGradient>
    <linearGradient
       id="linearGradient3937">
      <stop
         id="stop3939"
         offset="0"
         style="stop-color:#676150;stop-opacity:1;" />
      <stop
         id="stop3941"
         offset="1"
         style="stop-color:#5a5446;stop-opacity:0.08695652;" />
    </linearGradient>
    <linearGradient
       id="linearGradient5140-7">
      <stop
         style="stop-color:#fdfdfd;stop-opacity:1;"
         offset="0"
         id="stop5142-8" />
      <stop
         id="stop5144-6"
         offset="0.38183475"
         style="stop-color:#ffffff;stop-opacity:1;" />
      <stop
         id="stop5146-5"
         offset="0.73938215"
         style="stop-color:#d9d9d9;stop-opacity:1;" />
      <stop
         style="stop-color:#c5c5c5;stop-opacity:1;"
         offset="0.89802635"
         id="stop5148-6" />
      <stop
         style="stop-color:#eaeaea;stop-opacity:1;"
         offset="1"
         id="stop5150-2" />
    </linearGradient>
    <linearGradient
       id="linearGradient5240-6-7">
      <stop
         style="stop-color:#434e54;stop-opacity:1;"
         offset="0"
         id="stop5248-9-0" />
      <stop
         id="stop5244-3-19"
         offset="1"
         style="stop-color:#23292d;stop-opacity:1" />
    </linearGradient>
    <linearGradient
       id="linearGradient5258-5-2">
      <stop
         style="stop-color:#000000;stop-opacity:1;"
         offset="0"
         id="stop5260-8-1" />
      <stop
         id="stop5262-0-6"
         offset="0.90763313"
         style="stop-color:#434e54;stop-opacity:1;" />
      <stop
         style="stop-color:#23292d;stop-opacity:1"
         offset="1"
         id="stop5264-4-0" />
    </linearGradient>
    <linearGradient
       id="linearGradient5049-0">
      <stop
         id="stop5051-9"
         offset="0"
         style="stop-color:#ffffff;stop-opacity:1;" />
      <stop
         id="stop5053-1"
         offset="1"
         style="stop-color:#ffffff;stop-opacity:0.33816424;" />
    </linearGradient>
    <linearGradient
       id="linearGradient5757">
      <stop
         id="stop5759"
         offset="0"
         style="stop-color:#7b8386;stop-opacity:1;" />
      <stop
         style="stop-color:#24282a;stop-opacity:1"
         offset="0.43472689"
         id="stop5767" />
      <stop
         style="stop-color:#000000;stop-opacity:1;"
         offset="0.74703032"
         id="stop5765" />
      <stop
         id="stop5769"
         offset="0.89803654"
         style="stop-color:#000000;stop-opacity:1;" />
      <stop
         style="stop-color:#3d4143;stop-opacity:1;"
         offset="0.96032226"
         id="stop5771" />
      <stop
         id="stop5761"
         offset="1"
         style="stop-color:#7b8386;stop-opacity:1;" />
    </linearGradient>
    <linearGradient
       id="linearGradient5942">
      <stop
         id="stop5944"
         offset="0"
         style="stop-color:#b9c1c3;stop-opacity:1;" />
      <stop
         id="stop5946"
         offset="1"
         style="stop-color:#2b3132;stop-opacity:1;" />
    </linearGradient>
    <linearGradient
       id="linearGradient6280">
      <stop
         id="stop6282"
         offset="0"
         style="stop-color:#000000;stop-opacity:0;" />
      <stop
         id="stop6284"
         offset="1"
         style="stop-color:#000000;stop-opacity:1;" />
    </linearGradient>
    <linearGradient
       y2="499.72266"
       x2="662.45123"
       y1="511.52164"
       x1="654.31042"
       gradientTransform="translate(-22.911298,41.945036)"
       gradientUnits="userSpaceOnUse"
       id="linearGradient7005"
       xlink:href="#linearGradient6392"
       inkscape:collect="always" />
    <linearGradient
       id="linearGradient6392">
      <stop
         style="stop-color:#c5d914;stop-opacity:0.98823529;"
         offset="0"
         id="stop6394" />
      <stop
         id="stop8982"
         offset="0.00829687"
         style="stop-color:#d27513;stop-opacity:0.98823529;" />
      <stop
         id="stop8980"
         offset="0.01659374"
         style="stop-color:#cc7112;stop-opacity:0.98823529;" />
      <stop
         id="stop8978"
         offset="0.03318748"
         style="stop-color:#bf6a11;stop-opacity:0.98823529;" />
      <stop
         id="stop8976"
         offset="0.06637495"
         style="stop-color:#a65c0e;stop-opacity:0.99215686;" />
      <stop
         id="stop6396"
         offset="0.1327499"
         style="stop-color:#734009;stop-opacity:1" />
      <stop
         style="stop-color:#ce8e4c;stop-opacity:1"
         offset="0.48951015"
         id="stop6404" />
      <stop
         id="stop6398"
         offset="0.63056582"
         style="stop-color:#eec69d;stop-opacity:1" />
      <stop
         id="stop6400"
         offset="0.7128883"
         style="stop-color:#f9d6b3;stop-opacity:1" />
      <stop
         style="stop-color:#d97914;stop-opacity:0.99607843"
         offset="1"
         id="stop6402" />
    </linearGradient>
    <linearGradient
       id="linearGradient6412">
      <stop
         id="stop6414"
         offset="0"
         style="stop-color:#575757;stop-opacity:1" />
      <stop
         style="stop-color:#b8b8b8;stop-opacity:1"
         offset="0.07647054"
         id="stop6424" />
      <stop
         style="stop-color:#a9a9a9;stop-opacity:1"
         offset="0.24232632"
         id="stop6422" />
      <stop
         style="stop-color:#fdfdfd;stop-opacity:1"
         offset="0.69411778"
         id="stop6420" />
      <stop
         id="stop6426"
         offset="0.79705876"
         style="stop-color:#f4f4f4;stop-opacity:0.99215686;" />
      <stop
         id="stop6416"
         offset="1"
         style="stop-color:#c1c1c1;stop-opacity:0.98823529" />
    </linearGradient>
    <linearGradient
       id="linearGradient6492">
      <stop
         id="stop6494"
         offset="0"
         style="stop-color:#050505;stop-opacity:1" />
      <stop
         style="stop-color:#3f3f3f;stop-opacity:1;"
         offset="0.46724156"
         id="stop6500" />
      <stop
         id="stop6502"
         offset="0.73362076"
         style="stop-color:#7b7b7b;stop-opacity:1;" />
      <stop
         style="stop-color:#3d3d3d;stop-opacity:1;"
         offset="0.86681038"
         id="stop6618" />
      <stop
         id="stop6496"
         offset="1"
         style="stop-color:#000000;stop-opacity:1;" />
    </linearGradient>
    <linearGradient
       id="linearGradient8984">
      <stop
         id="stop8986"
         offset="0"
         style="stop-color:#d97914;stop-opacity:0.98823529" />
      <stop
         style="stop-color:#d27513;stop-opacity:0.98823529;"
         offset="0.05147499"
         id="stop8988" />
      <stop
         style="stop-color:#ccc912;stop-opacity:1"
         offset="0.21825004"
         id="stop8990" />
      <stop
         style="stop-color:#8ca021;stop-opacity:1"
         offset="0.33287522"
         id="stop8992" />
      <stop
         style="stop-color:#756347;stop-opacity:1"
         offset="0.50264567"
         id="stop8994" />
      <stop
         style="stop-color:#a78d49;stop-opacity:1"
         offset="0.67643762"
         id="stop8996" />
      <stop
         id="stop8998"
         offset="0.78097403"
         style="stop-color:#568226;stop-opacity:1" />
      <stop
         style="stop-color:#aace3f;stop-opacity:1"
         offset="0.87736088"
         id="stop9000" />
      <stop
         style="stop-color:#bbc93a;stop-opacity:1"
         offset="0.94668293"
         id="stop9002" />
      <stop
         id="stop9004"
         offset="1"
         style="stop-color:#e6ee8e;stop-opacity:1" />
    </linearGradient>
    <linearGradient
       id="linearGradient9734">
      <stop
         id="stop9736"
         offset="0"
         style="stop-color:#866767;stop-opacity:0.93170732;" />
      <stop
         id="stop9738"
         offset="1"
         style="stop-color:#110d0d;stop-opacity:0;" />
    </linearGradient>
    <linearGradient
       id="linearGradient9734-1">
      <stop
         id="stop9736-7"
         offset="0"
         style="stop-color:#866767;stop-opacity:1;" />
      <stop
         id="stop9738-1"
         offset="1"
         style="stop-color:#110d0d;stop-opacity:0.69999999;" />
    </linearGradient>
  </defs>
  <sodipodi:namedview
     units="px"
     inkscape:showpageshadow="false"
     showgrid="false"
     inkscape:document-rotation="0"
     inkscape:current-layer="layer1"
     inkscape:document-units="mm"
     inkscape:cy="524.3597"
     inkscape:cx="334.70791"
     inkscape:zoom="0.7"
     inkscape:pageshadow="2"
     inkscape:pageopacity="0"
     borderopacity="1.0"
     bordercolor="#666666"
     pagecolor="#ffffff"
     id="base"
     inkscape:window-width="1858"
     inkscape:window-height="1163"
     inkscape:window-x="62"
     inkscape:window-y="0"
     inkscape:window-maximized="1">
    <inkscape:grid
       type="axonomgrid"
       id="grid924"
       spacingy="20" />
  </sodipodi:namedview>
  <metadata
     id="metadata5">
    <rdf:RDF>
      <cc:Work
         rdf:about="">
        <dc:format>image/svg+xml</dc:format>
        <dc:type
           rdf:resource="http://purl.org/dc/dcmitype/StillImage" />
        <dc:title></dc:title>
      </cc:Work>
    </rdf:RDF>
  </metadata>
  <g
     id="layer1"
     inkscape:groupmode="layer"
     inkscape:label="Layer 1">
    <rect
       y="-0.43998662"
       x="-2.2777472"
       height="169.63815"
       width="202.4427"
       id="rect1148"
       style="fill:#ffffff;stroke:#000000;stroke-width:0.504761;stroke-linecap:round;stroke-linejoin:round;paint-order:fill markers stroke" />
    <path
       inkscape:transform-center-y="-35.595183"
       inkscape:transform-center-x="177.77936"
       style="fill:none;stroke:#000000;stroke-width:6.86495;stroke-linecap:square;stroke-linejoin:miter;stroke-miterlimit:4;stroke-dasharray:none;paint-order:fill markers stroke"
       d="M -47.661768,150.64875 87.456942,72.637878 V 213.05741"
       id="path926"
       inkscape:connector-curvature="0"
       sodipodi:nodetypes="ccc" />
    <path
       inkscape:transform-center-y="-47.296807"
       inkscape:transform-center-x="171.02343"
       style="fill:none;stroke:#000000;stroke-width:6.86495;stroke-linecap:square;stroke-linejoin:miter;stroke-miterlimit:4;stroke-dasharray:none;paint-order:fill markers stroke"
       d="M -47.661768,135.04656 100.96881,49.234631 V 213.05741"
       id="path928"
       inkscape:connector-curvature="0"
       sodipodi:nodetypes="ccc" />
    <path
       inkscape:transform-center-y="-23.893558"
       inkscape:transform-center-x="184.5353"
       style="fill:none;stroke:#000000;stroke-width:6.86495;stroke-linecap:square;stroke-linejoin:miter;stroke-miterlimit:4;stroke-dasharray:none;paint-order:fill markers stroke"
       d="M -47.661768,166.25091 73.945069,96.041127 V 213.05741"
       id="path930"
       inkscape:connector-curvature="0"
       sodipodi:nodetypes="ccc" />
    <path
       inkscape:transform-center-y="-12.191945"
       inkscape:transform-center-x="191.29124"
       style="fill:none;stroke:#000000;stroke-width:6.86495;stroke-linecap:square;stroke-linejoin:miter;stroke-miterlimit:4;stroke-dasharray:none;paint-order:fill markers stroke"
       d="M -47.661768,181.85307 60.433196,119.44436 v 93.61305"
       id="path932"
       inkscape:connector-curvature="0"
       sodipodi:nodetypes="ccc" />
    <path
       inkscape:transform-center-y="-0.49029456"
       inkscape:transform-center-x="198.04717"
       style="fill:none;stroke:#000000;stroke-width:6.86495;stroke-linecap:square;stroke-linejoin:miter;stroke-miterlimit:4;stroke-dasharray:none;paint-order:fill markers stroke"
       d="m -47.661768,197.45524 94.5831,-54.60758 v 70.20975"
       id="path934"
       inkscape:connector-curvature="0"
       sodipodi:nodetypes="ccc" />
    <path
       inkscape:transform-center-y="11.211331"
       inkscape:transform-center-x="204.80311"
       sodipodi:nodetypes="ccc"
       inkscape:connector-curvature="0"
       id="path2003"
       d="m -47.661768,213.05741 81.071227,-46.8065 v 46.8065"
       style="fill:none;stroke:#000000;stroke-width:6.86495;stroke-linecap:square;stroke-linejoin:miter;stroke-miterlimit:4;stroke-dasharray:none;paint-order:fill markers stroke" />
    <path
       inkscape:transform-center-y="30.714032"
       inkscape:transform-center-x="211.55905"
       style="fill:none;stroke:#000000;stroke-width:6.86495;stroke-linecap:square;stroke-linejoin:miter;stroke-miterlimit:4;stroke-dasharray:none;paint-order:fill markers stroke"
       d="m -47.661768,228.65957 67.559355,-39.00542 v 23.65799"
       id="path936"
       inkscape:connector-curvature="0"
       sodipodi:nodetypes="ccc" />
    <path
       inkscape:transform-center-y="-140.90983"
       inkscape:transform-center-x="103.46407"
       style="fill:none;stroke:#000000;stroke-width:6.86495;stroke-linecap:square;stroke-linejoin:miter;stroke-miterlimit:4;stroke-dasharray:none;paint-order:fill markers stroke"
       d="M -47.661768,119.44436 236.08752,-44.378357"
       id="path938"
       inkscape:connector-curvature="0"
       sodipodi:nodetypes="cc" />
    <path
       inkscape:transform-center-y="-86.30222"
       inkscape:transform-center-x="22.392839"
       style="fill:none;stroke:#000000;stroke-width:6.86495;stroke-linecap:square;stroke-linejoin:miter;stroke-miterlimit:4;stroke-dasharray:none;paint-order:fill markers stroke"
       d="M 114.48069,213.05741 V 41.433548 l 121.60683,-70.20974"
       id="path968"
       inkscape:connector-curvature="0"
       sodipodi:nodetypes="ccc" />
    <path
       inkscape:transform-center-y="-78.501137"
       inkscape:transform-center-x="15.636903"
       style="fill:none;stroke:#000000;stroke-width:6.86495;stroke-linecap:square;stroke-linejoin:miter;stroke-miterlimit:4;stroke-dasharray:none;paint-order:fill markers stroke"
       d="M 127.99255,213.05741 V 49.234631 l 108.09498,-62.408658"
       id="path970"
       inkscape:connector-curvature="0"
       sodipodi:nodetypes="ccc" />
    <path
       inkscape:transform-center-y="-70.700055"
       inkscape:transform-center-x="8.8809678"
       style="fill:none;stroke:#000000;stroke-width:6.86495;stroke-linecap:square;stroke-linejoin:miter;stroke-miterlimit:4;stroke-dasharray:none;paint-order:fill markers stroke"
       d="M 141.50443,213.05741 V 57.035715 L 236.08752,2.4281381"
       id="path972"
       inkscape:connector-curvature="0"
       sodipodi:nodetypes="ccc" />
    <path
       inkscape:transform-center-y="-62.898971"
       inkscape:transform-center-x="2.1250325"
       style="fill:none;stroke:#000000;stroke-width:6.86495;stroke-linecap:square;stroke-linejoin:miter;stroke-miterlimit:4;stroke-dasharray:none;paint-order:fill markers stroke"
       d="M 155.01629,213.05741 V 64.836795 l 81.07124,-46.806493"
       id="path974"
       inkscape:connector-curvature="0"
       sodipodi:nodetypes="ccc" />
    <path
       inkscape:transform-center-y="-55.097893"
       inkscape:transform-center-x="-4.6309079"
       style="fill:none;stroke:#000000;stroke-width:6.86495;stroke-linecap:square;stroke-linejoin:miter;stroke-miterlimit:4;stroke-dasharray:none;paint-order:fill markers stroke"
       d="M 168.52817,213.05741 V 72.637878 l 67.55936,-39.005417"
       id="path976"
       inkscape:connector-curvature="0"
       sodipodi:nodetypes="ccc" />
    <path
       inkscape:transform-center-y="-47.296807"
       inkscape:transform-center-x="-11.386848"
       style="fill:none;stroke:#000000;stroke-width:6.86495;stroke-linecap:square;stroke-linejoin:miter;stroke-miterlimit:4;stroke-dasharray:none;paint-order:fill markers stroke"
       d="M 182.04005,213.05741 V 80.43896 l 54.04748,-31.204329"
       id="path978"
       inkscape:connector-curvature="0"
       sodipodi:nodetypes="ccc" />
    <path
       inkscape:transform-center-y="-39.495724"
       inkscape:transform-center-x="-18.142773"
       style="fill:none;stroke:#000000;stroke-width:6.86495;stroke-linecap:square;stroke-linejoin:miter;stroke-miterlimit:4;stroke-dasharray:none;paint-order:fill markers stroke"
       d="M 195.5519,213.05741 V 88.240044 l 40.53563,-23.403249"
       id="path980"
       inkscape:connector-curvature="0"
       sodipodi:nodetypes="ccc" />
    <path
       inkscape:transform-center-y="-49.595379"
       inkscape:transform-center-x="42.660645"
       style="fill:#000000;stroke:none;stroke-width:6.86495;stroke-linecap:square;stroke-linejoin:miter;stroke-miterlimit:4;stroke-dasharray:none;paint-order:fill markers stroke"
       d="m 114.48069,41.433548 81.07122,46.806496 -1e-5,128.021306 h -81.07121 z"
       id="path982"
       inkscape:connector-curvature="0"
       sodipodi:nodetypes="ccccc" />
    <g
       transform="matrix(0.77593442,0,0,0.77593442,-35.349225,0.51962333)"
       id="g1087">
      <g
         style="font-size:7.50171px;line-height:1.15;font-family:sans-serif;text-align:center;letter-spacing:0px;word-spacing:0px;text-anchor:middle;stroke-width:0.340987"
         id="text3820"
         aria-label="INKSCAPE 1.0
Draw Freely.">
        <path
           inkscape:connector-curvature="0"
           id="path3864"
           style="font-style:normal;font-variant:normal;font-weight:bold;font-stretch:normal;font-family:'Work Sans';-inkscape-font-specification:'Work Sans Bold';text-align:start;text-anchor:start;fill:#ffffff;stroke-width:0.340987"
           d="m 236.06616,168.91856 v 4.95113 h -1.29029 v -4.95113 z" />
        <path
           inkscape:connector-curvature="0"
           id="path3866"
           style="font-style:normal;font-variant:normal;font-weight:bold;font-stretch:normal;font-family:'Work Sans';-inkscape-font-specification:'Work Sans Bold';text-align:start;text-anchor:start;fill:#ffffff;stroke-width:0.340987"
           d="m 241.62762,168.91856 v 4.95113 h -1.43282 l -1.53785,-2.67811 -0.37509,-0.73517 h -0.007 l 0.03,0.91521 v 2.49807 h -1.14026 v -4.95113 h 1.43282 l 1.53785,2.67811 0.37509,0.73517 h 0.007 l -0.03,-0.91521 v -2.49807 z" />
        <path
           inkscape:connector-curvature="0"
           id="path3868"
           style="font-style:normal;font-variant:normal;font-weight:bold;font-stretch:normal;font-family:'Work Sans';-inkscape-font-specification:'Work Sans Bold';text-align:start;text-anchor:start;fill:#ffffff;stroke-width:0.340987"
           d="m 247.21065,168.91856 -2.32553,2.78314 -0.0825,-0.19505 -1.17776,1.43283 -0.24756,-1.04274 2.40055,-2.97818 z m -3.20323,0 v 4.95113 h -1.29029 v -4.95113 z m 1.2978,1.63537 1.99545,3.31576 h -1.46283 l -1.50034,-2.59559 z" />
        <path
           inkscape:connector-curvature="0"
           id="path3870"
           style="font-style:normal;font-variant:normal;font-weight:bold;font-stretch:normal;font-family:'Work Sans';-inkscape-font-specification:'Work Sans Bold';text-align:start;text-anchor:start;fill:#ffffff;stroke-width:0.340987"
           d="m 249.69278,168.84354 q 0.69016,0 1.21528,0.21755 0.53262,0.21005 0.92271,0.62265 l -0.62264,0.83269 q -0.32258,-0.33758 -0.69766,-0.50262 -0.36759,-0.17254 -0.84019,-0.17254 -0.27757,0 -0.45011,0.06 -0.17254,0.06 -0.24755,0.16503 -0.075,0.10503 -0.075,0.24006 0,0.15753 0.14253,0.27006 0.15004,0.10502 0.48011,0.18004 l 0.83269,0.18754 q 0.74267,0.17254 1.08775,0.50262 0.34508,0.33007 0.34508,0.8777 0,0.52512 -0.27006,0.8927 -0.27007,0.36008 -0.74267,0.54763 -0.47261,0.18004 -1.08025,0.18004 -0.49511,0 -0.94521,-0.10503 -0.45011,-0.11252 -0.81019,-0.31507 -0.36008,-0.20254 -0.60764,-0.4651 l 0.62264,-0.8627 q 0.18755,0.21755 0.45761,0.39009 0.27756,0.16504 0.60014,0.26256 0.33007,0.0975 0.66765,0.0975 0.25506,0 0.42759,-0.0525 0.17254,-0.0525 0.26256,-0.15004 0.09,-0.10502 0.09,-0.24755 0.007,-0.15754 -0.11253,-0.27006 -0.11253,-0.11253 -0.4276,-0.18755 l -0.91521,-0.20254 q -0.42009,-0.0975 -0.75017,-0.25506 -0.32257,-0.16504 -0.51011,-0.4351 -0.18755,-0.27756 -0.18755,-0.69016 0,-0.4651 0.25506,-0.82519 0.25506,-0.36758 0.73517,-0.57763 0.48011,-0.21005 1.14776,-0.21005 z" />
        <path
           inkscape:connector-curvature="0"
           id="path3872"
           style="font-style:normal;font-variant:normal;font-weight:bold;font-stretch:normal;font-family:'Work Sans';-inkscape-font-specification:'Work Sans Bold';text-align:start;text-anchor:start;fill:#ffffff;stroke-width:0.340987"
           d="m 256.98093,172.45187 q -0.14254,0.51761 -0.45761,0.85519 -0.31507,0.33008 -0.75017,0.48761 -0.4351,0.15004 -0.96022,0.15004 -0.75017,0 -1.29779,-0.30007 -0.54763,-0.30757 -0.84019,-0.8777 -0.29257,-0.57013 -0.29257,-1.37281 0,-0.80269 0.29257,-1.37282 0.29256,-0.57013 0.84019,-0.8702 0.54762,-0.30757 1.29029,-0.30757 0.51762,0 0.95272,0.15004 0.4351,0.14253 0.73517,0.4426 0.30006,0.30007 0.42759,0.77268 l -1.13276,0.4576 q -0.10502,-0.46511 -0.34507,-0.63765 -0.23256,-0.17253 -0.59264,-0.17253 -0.35258,0 -0.61514,0.17253 -0.25506,0.17254 -0.39759,0.51762 -0.13503,0.33758 -0.13503,0.8477 0,0.50261 0.12753,0.84769 0.12753,0.34508 0.38259,0.51762 0.26256,0.17254 0.64514,0.17254 0.36009,0 0.60764,-0.19505 0.25506,-0.20254 0.34508,-0.61514 z" />
        <path
           inkscape:connector-curvature="0"
           id="path3874"
           style="font-style:normal;font-variant:normal;font-weight:bold;font-stretch:normal;font-family:'Work Sans';-inkscape-font-specification:'Work Sans Bold';text-align:start;text-anchor:start;fill:#ffffff;stroke-width:0.340987"
           d="m 257.18828,173.86969 1.7404,-4.95113 h 1.54535 l 1.73289,4.95113 h -1.3278 l -0.96772,-3.18073 -0.21755,-0.78017 h -0.015 l -0.20255,0.77267 -0.99023,3.18823 z m 1.13276,-1.11775 v -0.8777 h 2.75312 v 0.8777 z" />
        <path
           inkscape:connector-curvature="0"
           id="path3876"
           style="font-style:normal;font-variant:normal;font-weight:bold;font-stretch:normal;font-family:'Work Sans';-inkscape-font-specification:'Work Sans Bold';text-align:start;text-anchor:start;fill:#ffffff;stroke-width:0.340987"
           d="m 265.06308,168.91856 q 0.60764,0 1.03524,0.19505 0.42759,0.19504 0.65265,0.56262 0.22505,0.36759 0.22505,0.89271 0,0.52512 -0.22505,0.8927 -0.22506,0.36758 -0.65265,0.56263 -0.4276,0.19504 -1.03524,0.19504 h -0.98272 v 1.65038 h -1.2903 v -4.95113 z m -0.20255,2.33303 q 0.4051,0 0.60764,-0.16503 0.21005,-0.17254 0.21005,-0.51762 0,-0.34508 -0.21005,-0.51012 -0.20254,-0.17254 -0.60764,-0.17254 h -0.78017 v 1.36531 z" />
        <path
           inkscape:connector-curvature="0"
           id="path3878"
           style="font-style:normal;font-variant:normal;font-weight:bold;font-stretch:normal;font-family:'Work Sans';-inkscape-font-specification:'Work Sans Bold';text-align:start;text-anchor:start;fill:#ffffff;stroke-width:0.340987"
           d="m 267.80097,173.86969 v -4.95113 h 3.85588 v 0.99773 h -2.56559 v 1.00523 h 2.04047 v 0.93771 h -2.04047 v 1.01273 h 2.66311 v 0.99773 z" />
        <path
           inkscape:connector-curvature="0"
           id="path3880"
           style="font-style:normal;font-variant:normal;font-weight:bold;font-stretch:normal;font-family:'Work Sans';-inkscape-font-specification:'Work Sans Bold';text-align:start;text-anchor:start;fill:#ffffff;stroke-width:0.340987"
           d="m 275.41134,173.86969 v -2.85065 q 0,-0.19504 0,-0.39759 0.007,-0.21005 0.007,-0.4276 -0.24756,0.22505 -0.54762,0.39759 -0.30007,0.16504 -0.63015,0.22505 l -0.12003,-1.06524 q 0.19505,-0.015 0.4126,-0.0975 0.22505,-0.0825 0.4426,-0.20255 0.21755,-0.12002 0.39009,-0.25506 0.17254,-0.14253 0.26256,-0.27756 h 1.02773 v 4.95113 z" />
        <path
           inkscape:connector-curvature="0"
           id="path3882"
           style="font-style:normal;font-variant:normal;font-weight:bold;font-stretch:normal;font-family:'Work Sans';-inkscape-font-specification:'Work Sans Bold';text-align:start;text-anchor:start;fill:#ffffff;stroke-width:0.340987"
           d="m 278.3043,172.5794 q 0.35258,0 0.54763,0.18004 0.20254,0.18004 0.20254,0.50261 0,0.31507 -0.20254,0.49511 -0.19505,0.18005 -0.54763,0.18005 -0.34508,0 -0.54762,-0.18005 -0.20255,-0.18004 -0.20255,-0.49511 0,-0.32257 0.20255,-0.50261 0.20254,-0.18004 0.54762,-0.18004 z" />
        <path
           inkscape:connector-curvature="0"
           id="path3884"
           style="font-style:normal;font-variant:normal;font-weight:bold;font-stretch:normal;font-family:'Work Sans';-inkscape-font-specification:'Work Sans Bold';text-align:start;text-anchor:start;fill:#ffffff;stroke-width:0.340987"
           d="m 281.62474,173.94471 q -1.01273,0 -1.53785,-0.64515 -0.51761,-0.64515 -0.51761,-1.90543 0,-1.26029 0.51761,-1.90544 0.52512,-0.64515 1.53785,-0.64515 1.01274,0 1.53035,0.64515 0.52512,0.64515 0.52512,1.90544 0,1.26028 -0.52512,1.90543 -0.51761,0.64515 -1.53035,0.64515 z m 0,-1.00523 q 0.27757,0 0.45011,-0.15004 0.17254,-0.15753 0.24755,-0.49511 0.0825,-0.34508 0.0825,-0.9002 0,-0.55513 -0.0825,-0.89271 -0.075,-0.34508 -0.24755,-0.49511 -0.17254,-0.15754 -0.45011,-0.15754 -0.27006,0 -0.4501,0.15754 -0.17254,0.15003 -0.25506,0.49511 -0.075,0.33758 -0.075,0.89271 0,0.55512 0.075,0.9002 0.0825,0.33758 0.25506,0.49511 0.18004,0.15004 0.4501,0.15004 z" />
        <path
           inkscape:connector-curvature="0"
           id="path3886"
           style="font-style:italic;font-variant:normal;font-weight:normal;font-stretch:normal;font-size:6.81973px;font-family:'Work Sans';-inkscape-font-specification:'Work Sans Italic';text-align:start;text-anchor:start;fill:#ffffff;stroke-width:0.340987"
           d="m 234.54877,182.49666 1.04342,-4.50103 h 1.30257 q 0.57967,0 0.98886,0.2387 0.40918,0.23869 0.62741,0.65469 0.22505,0.416 0.22505,0.94794 0,0.56604 -0.18413,1.05024 -0.17731,0.4842 -0.51148,0.84565 -0.33417,0.36144 -0.80473,0.56603 -0.46374,0.19778 -1.02978,0.19778 z m 0.66151,-0.51148 h 1.07752 q 0.42964,0 0.77063,-0.16368 0.34781,-0.17049 0.5865,-0.45692 0.24551,-0.29325 0.37508,-0.66151 0.12958,-0.37509 0.12958,-0.78427 0,-0.40237 -0.14322,-0.71607 -0.14321,-0.32053 -0.43646,-0.50466 -0.29325,-0.19096 -0.74335,-0.19096 h -0.80473 z" />
        <path
           inkscape:connector-curvature="0"
           id="path3888"
           style="font-style:italic;font-variant:normal;font-weight:normal;font-stretch:normal;font-size:6.81973px;font-family:'Work Sans';-inkscape-font-specification:'Work Sans Italic';text-align:start;text-anchor:start;fill:#ffffff;stroke-width:0.340987"
           d="m 239.20814,182.49666 0.79108,-3.40987 h 0.44329 l -0.075,0.78427 -0.0818,-0.0477 q 0.10912,-0.25233 0.30007,-0.42964 0.19095,-0.18413 0.42964,-0.27961 0.24551,-0.0955 0.4842,-0.0955 0.10912,0 0.19096,0.0136 0.0887,0.0136 0.15685,0.0477 l -0.16367,0.5183 q -0.0682,-0.0341 -0.15686,-0.0477 -0.0818,-0.0205 -0.19777,-0.0205 -0.25915,0 -0.49102,0.12276 -0.22505,0.11593 -0.39554,0.36144 -0.1705,0.24551 -0.25915,0.63424 l -0.42965,1.84815 z" />
        <path
           inkscape:connector-curvature="0"
           id="path3890"
           style="font-style:italic;font-variant:normal;font-weight:normal;font-stretch:normal;font-size:6.81973px;font-family:'Work Sans';-inkscape-font-specification:'Work Sans Italic';text-align:start;text-anchor:start;fill:#ffffff;stroke-width:0.340987"
           d="m 243.25256,182.55121 q -0.39555,0 -0.69562,-0.19095 -0.30007,-0.19095 -0.47056,-0.52512 -0.17049,-0.34098 -0.17049,-0.78427 0,-0.42282 0.12957,-0.79109 0.12958,-0.36826 0.36145,-0.64787 0.23187,-0.27961 0.5524,-0.43646 0.32052,-0.15686 0.69561,-0.15686 0.30007,0 0.53876,0.1023 0.23869,0.1023 0.39554,0.29325 0.15686,0.18413 0.21823,0.44328 l 0.17732,-0.77063 h 0.54557 l -0.79108,3.40987 h -0.47738 l 0.11593,-0.63424 q -0.16367,0.31371 -0.47056,0.50466 -0.30007,0.18413 -0.65469,0.18413 z m 0.14321,-0.46374 q 0.23869,0 0.4501,-0.12275 0.21823,-0.12276 0.38191,-0.33417 0.17049,-0.21823 0.26597,-0.50466 0.0955,-0.29325 0.0955,-0.62741 0,-0.30689 -0.11593,-0.53194 -0.10912,-0.23187 -0.31371,-0.35463 -0.19777,-0.12275 -0.47056,-0.12275 -0.27279,0 -0.49784,0.12275 -0.22505,0.11594 -0.38873,0.32735 -0.16367,0.21141 -0.25915,0.49784 -0.0887,0.27961 -0.0887,0.60695 0,0.33417 0.10911,0.56604 0.10912,0.23187 0.31371,0.35463 0.21141,0.12275 0.5183,0.12275 z" />
        <path
           inkscape:connector-curvature="0"
           id="path3892"
           style="font-style:italic;font-variant:normal;font-weight:normal;font-stretch:normal;font-size:6.81973px;font-family:'Work Sans';-inkscape-font-specification:'Work Sans Italic';text-align:start;text-anchor:start;fill:#ffffff;stroke-width:0.340987"
           d="m 246.6231,182.49666 -0.36827,-3.40987 h 0.52512 l 0.25915,2.72789 1.43897,-2.72789 h 0.54557 l 0.34781,2.76881 1.47306,-2.76881 h 0.57968 l -1.88225,3.40987 h -0.54557 l -0.37509,-2.70744 -1.44578,2.70744 z" />
        <path
           inkscape:connector-curvature="0"
           id="path3894"
           style="font-style:italic;font-variant:normal;font-weight:normal;font-stretch:normal;font-size:6.81973px;font-family:'Work Sans';-inkscape-font-specification:'Work Sans Italic';text-align:start;text-anchor:start;fill:#ffffff;stroke-width:0.340987"
           d="m 257.5905,178.50711 h -2.44146 l -0.34099,1.45261 h 2.03228 l -0.11593,0.51148 h -2.03228 l -0.47056,2.02546 h -0.54558 l 1.04342,-4.50103 h 2.99386 z" />
        <path
           inkscape:connector-curvature="0"
           id="path3896"
           style="font-style:italic;font-variant:normal;font-weight:normal;font-stretch:normal;font-size:6.81973px;font-family:'Work Sans';-inkscape-font-specification:'Work Sans Italic';text-align:start;text-anchor:start;fill:#ffffff;stroke-width:0.340987"
           d="m 257.28308,182.49666 0.79109,-3.40987 h 0.44329 l -0.075,0.78427 -0.0818,-0.0477 q 0.10912,-0.25233 0.30007,-0.42964 0.19095,-0.18413 0.42964,-0.27961 0.24551,-0.0955 0.4842,-0.0955 0.10912,0 0.19096,0.0136 0.0887,0.0136 0.15685,0.0477 l -0.16367,0.5183 q -0.0682,-0.0341 -0.15686,-0.0477 -0.0818,-0.0205 -0.19777,-0.0205 -0.25915,0 -0.49102,0.12276 -0.22505,0.11593 -0.39554,0.36144 -0.1705,0.24551 -0.25915,0.63424 l -0.42965,1.84815 z" />
        <path
           inkscape:connector-curvature="0"
           id="path3898"
           style="font-style:italic;font-variant:normal;font-weight:normal;font-stretch:normal;font-size:6.81973px;font-family:'Work Sans';-inkscape-font-specification:'Work Sans Italic';text-align:start;text-anchor:start;fill:#ffffff;stroke-width:0.340987"
           d="m 261.498,182.55803 q -0.46374,0 -0.80473,-0.19777 -0.33417,-0.20459 -0.5183,-0.5524 -0.17731,-0.3478 -0.17731,-0.78427 0,-0.53875 0.21141,-0.99568 0.21823,-0.45692 0.62741,-0.72971 0.40919,-0.27279 0.97522,-0.27279 0.40919,0 0.70244,0.1705 0.30006,0.17049 0.45692,0.47056 0.16367,0.29325 0.16367,0.66833 0,0.26597 -0.0955,0.5865 h -2.77563 v -0.47738 h 2.53694 l -0.2387,0.19095 q 0.0409,-0.16367 0.0409,-0.32053 0,-0.24551 -0.10229,-0.42964 -0.0955,-0.18413 -0.28643,-0.28643 -0.18413,-0.10229 -0.43646,-0.10229 -0.42283,0 -0.70244,0.22505 -0.27279,0.21823 -0.40236,0.57285 -0.12276,0.34781 -0.12276,0.75017 0,0.30689 0.12276,0.54558 0.12957,0.23187 0.35463,0.36827 0.23187,0.12957 0.53193,0.12957 0.33417,-0.007 0.55922,-0.14321 0.23187,-0.1364 0.38191,-0.38191 l 0.42964,0.28643 q -0.23187,0.33417 -0.60014,0.52512 -0.36144,0.18413 -0.832,0.18413 z" />
        <path
           inkscape:connector-curvature="0"
           id="path3900"
           style="font-style:italic;font-variant:normal;font-weight:normal;font-stretch:normal;font-size:6.81973px;font-family:'Work Sans';-inkscape-font-specification:'Work Sans Italic';text-align:start;text-anchor:start;fill:#ffffff;stroke-width:0.340987"
           d="m 265.36073,182.55803 q -0.46374,0 -0.80472,-0.19777 -0.33417,-0.20459 -0.5183,-0.5524 -0.17732,-0.3478 -0.17732,-0.78427 0,-0.53875 0.21142,-0.99568 0.21823,-0.45692 0.62741,-0.72971 0.40918,-0.27279 0.97522,-0.27279 0.40919,0 0.70243,0.1705 0.30007,0.17049 0.45693,0.47056 0.16367,0.29325 0.16367,0.66833 0,0.26597 -0.0955,0.5865 h -2.77563 v -0.47738 h 2.53694 l -0.23869,0.19095 q 0.0409,-0.16367 0.0409,-0.32053 0,-0.24551 -0.1023,-0.42964 -0.0955,-0.18413 -0.28642,-0.28643 -0.18414,-0.10229 -0.43647,-0.10229 -0.42282,0 -0.70243,0.22505 -0.27279,0.21823 -0.40236,0.57285 -0.12276,0.34781 -0.12276,0.75017 0,0.30689 0.12276,0.54558 0.12957,0.23187 0.35462,0.36827 0.23187,0.12957 0.53194,0.12957 0.33417,-0.007 0.55922,-0.14321 0.23187,-0.1364 0.3819,-0.38191 l 0.42965,0.28643 q -0.23187,0.33417 -0.60014,0.52512 -0.36144,0.18413 -0.83201,0.18413 z" />
        <path
           inkscape:connector-curvature="0"
           id="path3902"
           style="font-style:italic;font-variant:normal;font-weight:normal;font-stretch:normal;font-size:6.81973px;font-family:'Work Sans';-inkscape-font-specification:'Work Sans Italic';text-align:start;text-anchor:start;fill:#ffffff;stroke-width:0.340987"
           d="m 268.5269,182.54439 q -0.47056,0 -0.6547,-0.2796 -0.18413,-0.28643 -0.075,-0.74336 l 0.92748,-4.00318 h 0.54558 l -0.9343,4.02364 q -0.0682,0.27961 0.0409,0.40237 0.10912,0.12275 0.37509,0.12275 0.1023,0 0.17731,-0.007 0.075,-0.007 0.14322,-0.0205 l -0.1364,0.43647 q -0.10911,0.0409 -0.19777,0.0546 -0.0887,0.0136 -0.21141,0.0136 z" />
        <path
           inkscape:connector-curvature="0"
           id="path3904"
           style="font-style:italic;font-variant:normal;font-weight:normal;font-stretch:normal;font-size:6.81973px;font-family:'Work Sans';-inkscape-font-specification:'Work Sans Italic';text-align:start;text-anchor:start;fill:#ffffff;stroke-width:0.340987"
           d="m 269.35443,183.9629 q -0.25915,0 -0.44328,-0.0614 -0.19095,-0.0614 -0.31371,-0.17049 l 0.21823,-0.45692 q 0.23187,0.21141 0.5183,0.21141 0.21823,0 0.38191,-0.12276 0.17049,-0.12275 0.33416,-0.3819 l 0.32053,-0.51148 -0.60014,-3.38259 h 0.53876 l 0.31371,1.95044 0.1364,0.85247 0.47738,-0.79791 1.20709,-2.005 h 0.62059 l -2.57785,4.0782 q -0.17732,0.27961 -0.36827,0.45692 -0.18413,0.17731 -0.37508,0.25915 -0.19096,0.0818 -0.38873,0.0818 z" />
        <path
           inkscape:connector-curvature="0"
           id="path3906"
           style="font-style:italic;font-variant:normal;font-weight:normal;font-stretch:normal;font-size:6.81973px;font-family:'Work Sans';-inkscape-font-specification:'Work Sans Italic';text-align:start;text-anchor:start;fill:#ffffff;stroke-width:0.340987"
           d="m 272.8619,182.56485 q -0.17049,0 -0.28643,-0.10229 -0.10911,-0.10912 -0.10911,-0.27961 0,-0.23187 0.13639,-0.36827 0.1364,-0.13639 0.32735,-0.13639 0.17049,0 0.27961,0.10911 0.11594,0.1023 0.11594,0.27279 0,0.23187 -0.1364,0.36827 -0.12957,0.13639 -0.32735,0.13639 z" />
      </g>
      <g
         inkscape:transform-center-y="2.7155302"
         inkscape:transform-center-x="20.265381"
         style="fill:#000000;stroke:#ffffff;stroke-width:12.0788"
         transform="matrix(0.05113829,0,0,0.05113828,206.89168,166.67671)"
         id="inkscape-logo">
        <path
           style="fill:#000000;fill-opacity:1;stroke:#ffffff;stroke-width:12.0788"
           inkscape:connector-curvature="0"
           id="path2313"
           d="M 193.63281,8.8007812 C 180.74733,8.775016 167.81633,13.467008 158.35938,23.146484 L 24.019531,160.61719 23.597656,161.0918 c -24.16866956,29.92996 -17.767366,47.62014 2.824219,57.29492 11.330069,5.32333 27.073273,8.2796 40.876953,11.61523 6.563243,1.586 12.288916,3.33721 17.388672,5.32422 -1.480852,0.98048 -2.917839,1.94641 -5.275391,3.11719 -8.219165,4.08171 -19.745047,8.36145 -25.083984,14.13476 -4.101725,4.43545 -5.120752,10.81486 0.05273,16.10743 13.338374,13.63402 72.540155,24.74321 82.679695,35.08984 0.5467,0.55882 0.8317,0.75425 -0.84571,3.06641 -0.91813,1.26557 -2.17785,2.62703 -3.57617,4.07617 l -0.39453,-2.81641 c -5.40985,-7.18811 -14.74031,-9.25907 -22.92578,-8.82422 -19.990584,1.062 -41.602863,18.38408 -22.601567,34.8418 10.569074,9.13914 23.904867,5.65109 33.912117,-2.65625 0.23347,3.18997 1.51616,6.31711 4.15234,9.01172 3.38003,3.45495 7.44879,5.36697 11.36914,6.59766 16.66414,5.23126 27.631,1.13306 30.76953,18.23437 5.13276,28.04586 57.55407,14.07715 81.57617,-3.5 l 0.83399,-0.72266 c 3.44589,-3.5252 5.68502,-7.76161 3.73828,-12.89453 -1.23214,-3.24876 -3.86517,-5.28246 -5.8457,-6.5332 -2.64867,-1.67267 -5.65537,-2.90958 -7.85938,-4.11328 26.75137,-26.49159 55.96173,-9.15402 67.13281,-42.61133 4.36996,-13.09212 -11.46997,-21.10909 -21.32226,-26.4375 -4.38587,-2.37201 -7.72215,-4.2723 -9.97266,-6.13672 6.12386,-3.11163 14.2789,-6.09246 24.0293,-9.34765 36.02952,-12.02855 91.20298,-26.3312 85.78906,-60.39649 -1.39289,-8.76431 -6.86833,-17.77367 -16.27148,-27.17969 L 229.53906,23.144531 229.39062,22.996094 C 219.56204,13.559955 206.49121,8.8264923 193.63281,8.8007812 Z M 341.89648,269.69141 c -13.05204,0.4495 -26.9201,7.33305 -30.88086,21.28906 l -0.2539,1.83008 c 0,3.21958 1.80537,5.42824 3.25,6.66797 7.92371,6.79985 37.96918,9.01253 51.00195,3.70117 4.53888,-1.84977 9.39649,-5.48565 9.39649,-11.98047 l -0.36719,-2.1875 c -4.78227,-13.8392 -19.06182,-19.77094 -32.14649,-19.32031 z M 312.5,300.25586 l -5.81445,1.57617 c -21.05152,18.88324 2.21352,42.8214 24.71093,29.59375 l 1.375,-1.07226 C 341.8234,321.1673 331.51358,304.13803 312.5,300.25586 Z"
           inkscape:path-effect="#path-effect1061"
           inkscape:original-d="M 163.15,27.83 28.81,165.3 C -16.58,221.51 59.7,214.97 92.4,231.16 104.13,243.15 47.44,252 59.17,264 c 11.73,11.99 70.93,23.1 82.68,35.09 11.73,11.99 -24.01,24.71 -12.28,36.7 11.73,11.99 38.86,0.63 43.94,28.31 3.62,19.78 48.89,8.5 71.03,-7.7 11.73,-12 -22.44,-10.87 -10.71,-22.86 29.17,-29.83 56.33,-10.84 66.31,-40.73 4.93,-14.77 -42.94,-22.77 -31.19,-34.76 33.75,-19.71 150.4,-32.54 95.05,-87.89 L 224.75,27.83 c -17.03,-16.35 -45.45,-16.53 -61.6,0 z m 154.31,264.98 c 0,6.82 50.25,11.29 50.25,-1.61 -7.16,-20.72 -44.31,-19.32 -50.25,1.61 z M 91.1,329.05 c 11.9,10.29 30.28,-2.56 35.79,-16.92 -11.53,-15.32 -54.69,0.55 -35.79,16.92 z m 220.06,-22.23 c -15.34,13.76 1.72,27.72 16.84,18.83 3.37,-3.42 -0.09,-15.41 -16.84,-18.83 z" />
        <path
           inkscape:connector-curvature="0"
           style="fill:#ffffff;stroke:none;stroke-width:12.0788"
           id="path2315"
           d="m 131,238.6 c 3.59,2.23 57.89,13.26 71.16,15.46 4.6,0.97 1.34,5.71 -5,8.91 -14.3,3.8 -83.66,-24.37 -66.16,-24.37 z" />
        <path
           inkscape:connector-curvature="0"
           style="fill:#ffffff;stroke:none;stroke-width:12.0788"
           id="path2317"
           d="m 216.63,37.47 53.15,53.98 c 5.04,5.15 4.97,15.13 2.15,18 L 245.54,88.34 240.35,119.6 218.3,107.96 182.99,130.27 171.3,83.24 152.33,116.06 h -29 c -11.82,0 -13.21,-15 -2.47,-25.74 18.76,-20.25 40.29,-40.89 51.99,-52.85 11.76,-12.02 32.25,-11.68 43.78,0 z" />
      </g>
    </g>
    <path
       inkscape:transform-center-y="-148.71091"
       inkscape:transform-center-x="198.04717"
       sodipodi:nodetypes="cccccccccccccccccccccccccccccccc"
       inkscape:connector-curvature="0"
       id="path1089"
       d="M 60.433205,-52.17944 141.50443,-5.3729443 127.99256,2.4281381 46.921332,-44.378357 33.409459,-36.577275 114.48069,10.229221 100.96881,18.030302 19.897587,-28.776192 6.385717,-20.97511 87.456942,25.831381 73.945069,33.632461 -7.1261542,-13.174027 -20.638026,-5.3729443 60.433205,41.433548 46.921332,49.234632 -34.149897,2.4281381 -47.661768,10.229221 33.409459,57.035715 19.897587,64.836797 -61.173639,18.030302 -74.68551,25.831381 6.385717,72.637879 -7.1261533,80.43896 -88.197381,33.632461 l -13.511869,7.801087 81.071224,46.806496 -13.511871,7.801083 -81.071233,-46.806495 -13.51186,7.801083 81.071222,46.806495 -13.511871,7.80108 -81.071221,-46.806493"
       style="fill:none;stroke:#000000;stroke-width:6.86495;stroke-linecap:square;stroke-linejoin:miter;stroke-miterlimit:4;stroke-dasharray:none;paint-order:fill markers stroke" />
    <path
       inkscape:transform-center-y="-35.144875"
       inkscape:transform-center-x="-51.10074"
       style="fill:none;stroke:#000000;stroke-width:6.86495;stroke-linecap:square;stroke-linejoin:miter;stroke-miterlimit:4;stroke-dasharray:none;paint-order:fill markers stroke"
       d="m 289.31329,205.70662 1e-5,-15.60217 -81.07122,46.80649 1e-5,-15.60216 81.0712,-46.80649 1e-5,-15.60217 -81.07122,46.80649 -10e-6,-15.60217 81.07122,-46.80649 1e-5,-15.60217 -81.07122,46.8065 -2e-5,-15.60216 81.07124,-46.80649 V 96.491462 l -81.07123,46.806478 -1e-5,-15.60215 81.07124,-46.806497 -1e-5,-15.602158 -81.07122,46.806495 10e-6,-15.602166 81.07122,-46.806499"
       id="path1995"
       inkscape:connector-curvature="0"
       sodipodi:nodetypes="ccccccccccccccccccccc" />
    <text
       xml:space="preserve"
       style="font-size:3.70417px;line-height:1.15;font-family:sans-serif;text-align:center;letter-spacing:0px;word-spacing:0px;text-anchor:middle;fill:#666666;stroke-width:0.264583"
       x="146.15538"
       y="152.47522"
       id="text3820-2"><tspan
         sodipodi:role="line"
         x="146.15538"
         y="152.47522"
         style="font-style:normal;font-variant:normal;font-weight:bold;font-stretch:normal;font-family:'Work Sans';-inkscape-font-specification:'Work Sans Bold';text-align:start;text-anchor:start;fill:#666666;stroke-width:0.264583"
         id="tspan3822-7">www.inkscape.org</tspan></text>
  </g>
</svg>
