<?xml version="1.0" encoding="UTF-8" standalone="no"?>
<svg
   xmlns:dc="http://purl.org/dc/elements/1.1/"
   xmlns:cc="http://creativecommons.org/ns#"
   xmlns:rdf="http://www.w3.org/1999/02/22-rdf-syntax-ns#"
   xmlns:svg="http://www.w3.org/2000/svg"
   xmlns="http://www.w3.org/2000/svg"
   xmlns:xlink="http://www.w3.org/1999/xlink"
   xmlns:sodipodi="http://sodipodi.sourceforge.net/DTD/sodipodi-0.dtd"
   xmlns:inkscape="http://www.inkscape.org/namespaces/inkscape"
   sodipodi:docname="ink-chan.svg"
   inkscape:version="1.0beta1 (32d4812, 2019-09-19)"
   id="svg458"
   version="1.1"
   viewBox="0 0 749.99998 624.99999"
   height="625"
   width="750"
   enable-background="new">
  <title
     id="title2667">黒山いんくちゃん</title>
  <defs
     id="defs452">
    <linearGradient
       inkscape:collect="always"
       id="linearGradient1000">
      <stop
         style="stop-color:#0ab920;stop-opacity:1"
         offset="0"
         id="stop996" />
      <stop
         id="stop1004"
         offset="0.23928571"
         style="stop-color:#6cd18b;stop-opacity:1" />
      <stop
         style="stop-color:#cfe8e9;stop-opacity:1"
         offset="1"
         id="stop998" />
    </linearGradient>
    <linearGradient
       inkscape:collect="always"
       id="linearGradient908">
      <stop
         style="stop-color:#6a848f;stop-opacity:1"
         offset="0"
         id="stop904" />
      <stop
         style="stop-color:#2c384d;stop-opacity:1"
         offset="1"
         id="stop906" />
    </linearGradient>
    <inkscape:path-effect
       effect="powerstroke"
       id="path-effect61"
       is_visible="true"
       offset_points="0.2,1.169585 | 2.0372695,1.3935615 | 0.95073096,1.0081311 | 1.239342,0.98038457 | 3.8021731,0.9764131 | 3.1749737,0.41865895"
       sort_points="true"
       interpolator_type="CentripetalCatmullRom"
       interpolator_beta="0.2"
       start_linecap_type="butt"
       linejoin_type="miter"
       miter_limit="4"
       scale_width="1"
       end_linecap_type="butt" />
    <inkscape:path-effect
       effect="powerstroke"
       id="path-effect59"
       is_visible="true"
       offset_points="0.23562484,1.5859697 | 2.5,1 | 1.7836904,2.3923321 | 4.8893899,1.7782757 | 4.509336,2.6346241 | 3.9894654,2.2680922 | 3.4563859,2.2577181"
       sort_points="true"
       interpolator_type="CentripetalCatmullRom"
       interpolator_beta="0.2"
       start_linecap_type="zerowidth"
       linejoin_type="round"
       miter_limit="4"
       scale_width="1"
       end_linecap_type="zerowidth" />
    <inkscape:path-effect
       effect="powerstroke"
       id="path-effect57"
       is_visible="true"
       offset_points="0.32952879,3.2421702 | 0.022390163,2.1179621 | 1.5,1 | 2.8174596,2.3332993"
       sort_points="true"
       interpolator_type="CentripetalCatmullRom"
       interpolator_beta="0.2"
       start_linecap_type="butt"
       linejoin_type="round"
       miter_limit="4"
       scale_width="1"
       end_linecap_type="butt" />
    <inkscape:path-effect
       effect="powerstroke"
       id="path-effect55"
       is_visible="true"
       offset_points="0.08417468,1.584309 | 0.41832188,2.2236736 | 1,1 | 1.8538503,3.3025671"
       sort_points="true"
       interpolator_type="CentripetalCatmullRom"
       interpolator_beta="0.2"
       start_linecap_type="butt"
       linejoin_type="round"
       miter_limit="4"
       scale_width="1"
       end_linecap_type="butt" />
    <inkscape:path-effect
       effect="powerstroke"
       id="path-effect53"
       is_visible="true"
       offset_points="0.042420191,2.5552317 | 2.5,1 | 1.6840638,3.5796636 | 2.713956,1.5456241 | 3.3415329,3.8908472 | 4.9061761,1.7424383"
       sort_points="true"
       interpolator_type="CentripetalCatmullRom"
       interpolator_beta="0.2"
       start_linecap_type="butt"
       linejoin_type="round"
       miter_limit="4"
       scale_width="1"
       end_linecap_type="zerowidth" />
    <inkscape:path-effect
       effect="powerstroke"
       id="path-effect51"
       is_visible="true"
       offset_points="0.079637107,2.3473733 | 0.99999996,1.0000004 | 0.76336778,1.2724053 | 1.2630993,2.0854688 | 1.9312261,1.3311758"
       sort_points="true"
       interpolator_type="CentripetalCatmullRom"
       interpolator_beta="0.2"
       start_linecap_type="zerowidth"
       linejoin_type="spiro"
       miter_limit="4"
       scale_width="1"
       end_linecap_type="zerowidth" />
    <inkscape:path-effect
       end_linecap_type="butt"
       scale_width="1"
       miter_limit="4"
       linejoin_type="round"
       start_linecap_type="butt"
       interpolator_beta="0.2"
       interpolator_type="CentripetalCatmullRom"
       sort_points="true"
       offset_points="0.08417468,1.584309 | 0.41832188,2.2236736 | 1,1 | 1.8538503,3.3025671"
       is_visible="true"
       id="path-effect124"
       effect="powerstroke" />
    <inkscape:path-effect
       end_linecap_type="butt"
       scale_width="1"
       miter_limit="4"
       linejoin_type="round"
       start_linecap_type="butt"
       interpolator_beta="0.2"
       interpolator_type="CentripetalCatmullRom"
       sort_points="true"
       offset_points="0.32952879,3.2421702 | 0.022390163,2.1179621 | 1.5,1 | 2.8174596,2.3332993"
       is_visible="true"
       id="path-effect122"
       effect="powerstroke" />
    <inkscape:path-effect
       end_linecap_type="butt"
       scale_width="1"
       miter_limit="4"
       linejoin_type="miter"
       start_linecap_type="butt"
       interpolator_beta="0.2"
       interpolator_type="CentripetalCatmullRom"
       sort_points="true"
       offset_points="0.2,1.169585 | 2.0372695,1.3935615 | 0.95073096,1.0081311 | 1.239342,0.98038457 | 3.8021731,0.9764131 | 3.1749737,0.41865895"
       is_visible="true"
       id="path-effect102"
       effect="powerstroke" />
    <inkscape:path-effect
       end_linecap_type="butt"
       scale_width="1"
       miter_limit="4"
       linejoin_type="extrp_arc"
       start_linecap_type="butt"
       interpolator_beta="0.2"
       interpolator_type="CentripetalCatmullRom"
       sort_points="true"
       offset_points="3.9592212,0.9085269 | 0.50003807,1.1695873 | 0.98139115,0.62639444"
       is_visible="true"
       id="path-effect1498"
       effect="powerstroke" />
    <inkscape:path-effect
       end_linecap_type="zerowidth"
       scale_width="1"
       miter_limit="4"
       linejoin_type="round"
       start_linecap_type="zerowidth"
       interpolator_beta="0.2"
       interpolator_type="CentripetalCatmullRom"
       sort_points="true"
       offset_points="0.095312352,0.87764246 | 1.5820774,0.71385311 | 2.1541746,1.2211528 | 1.2496317,0.70825577 | 2.9149064,0.7322095"
       is_visible="true"
       id="path-effect1496"
       effect="powerstroke" />
    <inkscape:path-effect
       end_linecap_type="zerowidth"
       scale_width="1"
       miter_limit="4"
       linejoin_type="round"
       start_linecap_type="zerowidth"
       interpolator_beta="0.2"
       interpolator_type="CentripetalCatmullRom"
       sort_points="true"
       offset_points="0.23562484,1.5859697 | 2.5,1 | 1.7836904,2.3923321 | 4.8893899,1.7782757 | 4.509336,2.6346241 | 3.9894654,2.2680922 | 3.4563859,2.2577181"
       is_visible="true"
       id="path-effect1479"
       effect="powerstroke" />
    <inkscape:path-effect
       end_linecap_type="zerowidth"
       scale_width="1"
       miter_limit="4"
       linejoin_type="round"
       start_linecap_type="butt"
       interpolator_beta="0.2"
       interpolator_type="CentripetalCatmullRom"
       sort_points="true"
       offset_points="0.042420191,2.5552317 | 2.5,1 | 1.6840638,3.5796636 | 2.713956,1.5456241 | 3.3415329,3.8908472 | 4.9061761,1.7424383"
       is_visible="true"
       id="path-effect1477"
       effect="powerstroke" />
    <inkscape:path-effect
       end_linecap_type="zerowidth"
       scale_width="1"
       miter_limit="4"
       linejoin_type="spiro"
       start_linecap_type="zerowidth"
       interpolator_beta="0.2"
       interpolator_type="CentripetalCatmullRom"
       sort_points="true"
       offset_points="0.079637107,2.3473733 | 0.99999996,1.0000004 | 0.76336778,1.2724053 | 1.2630993,2.0854688 | 1.9312261,1.3311758"
       is_visible="true"
       id="path-effect1475"
       effect="powerstroke" />
    <linearGradient
       inkscape:collect="always"
       xlink:href="#linearGradient908"
       id="linearGradient910"
       x1="353.15695"
       y1="277.28323"
       x2="569.88795"
       y2="249.11928"
       gradientUnits="userSpaceOnUse"
       gradientTransform="matrix(1.3230387,0,0,1.3230387,-90.55307,-114.97786)" />
    <linearGradient
       inkscape:collect="always"
       xlink:href="#linearGradient908"
       id="linearGradient918"
       x1="408.42233"
       y1="434.03107"
       x2="494.02737"
       y2="443.6188"
       gradientUnits="userSpaceOnUse"
       gradientTransform="matrix(1.3230387,0,0,1.3230387,-90.55307,-114.97786)" />
    <linearGradient
       inkscape:collect="always"
       xlink:href="#linearGradient908"
       id="linearGradient926"
       x1="407.88797"
       y1="465.72305"
       x2="449.27548"
       y2="493.88699"
       gradientUnits="userSpaceOnUse"
       gradientTransform="matrix(1.3230387,0,0,1.3230387,-90.55307,-114.97786)" />
    <linearGradient
       inkscape:collect="always"
       xlink:href="#linearGradient908"
       id="linearGradient934"
       x1="354.99112"
       y1="256.15463"
       x2="536.38916"
       y2="435.32529"
       gradientUnits="userSpaceOnUse"
       gradientTransform="matrix(1.3230387,0,0,1.3230387,-90.55307,-114.97786)" />
    <linearGradient
       inkscape:collect="always"
       xlink:href="#linearGradient908"
       id="linearGradient942"
       x1="386.47461"
       y1="379.46536"
       x2="337.96738"
       y2="335.72137"
       gradientUnits="userSpaceOnUse"
       gradientTransform="matrix(1.3230387,0,0,1.3230387,-90.55307,-114.97786)" />
    <linearGradient
       inkscape:collect="always"
       xlink:href="#linearGradient1000"
       id="linearGradient1002"
       x1="736"
       y1="598.5"
       x2="736"
       y2="38.5"
       gradientUnits="userSpaceOnUse" />
    <filter
       inkscape:collect="always"
       style="color-interpolation-filters:sRGB"
       id="filter1287">
      <feBlend
         inkscape:collect="always"
         mode="screen"
         in2="BackgroundImage"
         id="feBlend1289" />
    </filter>
    <filter
       inkscape:collect="always"
       style="color-interpolation-filters:sRGB"
       id="filter1335">
      <feBlend
         inkscape:collect="always"
         mode="hard-light"
         in2="BackgroundImage"
         id="feBlend1337" />
    </filter>
    <filter
       inkscape:collect="always"
       style="color-interpolation-filters:sRGB"
       id="filter1450">
      <feBlend
         inkscape:collect="always"
         mode="hue"
         in2="BackgroundImage"
         id="feBlend1452" />
    </filter>
  </defs>
  <sodipodi:namedview
     inkscape:snap-global="false"
     borderlayer="true"
     inkscape:window-maximized="0"
     inkscape:window-y="196"
     inkscape:window-x="711"
     inkscape:window-height="907"
     inkscape:window-width="1605"
     inkscape:pagecheckerboard="true"
     units="px"
     showgrid="false"
     inkscape:document-rotation="0"
     inkscape:current-layer="svg458"
     inkscape:document-units="px"
     inkscape:cy="317.34906"
     inkscape:cx="400"
     inkscape:zoom="1"
     inkscape:pageshadow="2"
     inkscape:pageopacity="0.0"
     borderopacity="1"
     bordercolor="#4f76aa"
     pagecolor="#ffffff"
     id="base"
     inkscape:snap-bbox="true"
     inkscape:bbox-paths="true"
     inkscape:snap-page="true" />
  <metadata
     id="metadata455">
    <rdf:RDF>
      <cc:Work
         rdf:about="">
        <dc:format>image/svg+xml</dc:format>
        <dc:type
           rdf:resource="http://purl.org/dc/dcmitype/StillImage" />
        <dc:title>黒山いんくちゃん</dc:title>
        <cc:license
           rdf:resource="http://creativecommons.org/licenses/by-sa/4.0/" />
        <dc:date> 2019-11-14</dc:date>
        <dc:creator>
          <cc:Agent>
            <dc:title>あきら☆Ｍ</dc:title>
          </cc:Agent>
        </dc:creator>
        <dc:rights>
          <cc:Agent>
            <dc:title> CC-BY-SA</dc:title>
          </cc:Agent>
        </dc:rights>
        <dc:subject>
          <rdf:Bag />
        </dc:subject>
        <dc:description>Inkscape About Screen</dc:description>
      </cc:Work>
      <cc:License
         rdf:about="http://creativecommons.org/licenses/by-sa/4.0/">
        <cc:permits
           rdf:resource="http://creativecommons.org/ns#Reproduction" />
        <cc:permits
           rdf:resource="http://creativecommons.org/ns#Distribution" />
        <cc:requires
           rdf:resource="http://creativecommons.org/ns#Notice" />
        <cc:requires
           rdf:resource="http://creativecommons.org/ns#Attribution" />
        <cc:permits
           rdf:resource="http://creativecommons.org/ns#DerivativeWorks" />
        <cc:requires
           rdf:resource="http://creativecommons.org/ns#ShareAlike" />
      </cc:License>
    </rdf:RDF>
  </metadata>
  <g
     inkscape:groupmode="layer"
     id="layer3"
     inkscape:label="G1"
     sodipodi:insensitive="true">
    <rect
       style="fill:url(#linearGradient1002);fill-opacity:1;stroke:none;stroke-width:8;stroke-miterlimit:4;stroke-dasharray:none;stroke-opacity:1"
       id="rect994"
       width="750"
       height="625"
       x="0"
       y="0" />
    <rect
       style="opacity:1;vector-effect:none;fill:#ff86af;fill-opacity:1;stroke:none;stroke-width:10;stroke-linecap:butt;stroke-linejoin:round;stroke-miterlimit:4;stroke-dasharray:none;stroke-dashoffset:0;stroke-opacity:1;paint-order:markers stroke fill;filter:url(#filter1335)"
       id="rect1015"
       width="179.91554"
       height="331.37589"
       x="53"
       y="0" />
    <rect
       style="opacity:1;vector-effect:none;fill:#46daff;fill-opacity:1;stroke:none;stroke-width:10;stroke-linecap:butt;stroke-linejoin:round;stroke-miterlimit:4;stroke-dasharray:none;stroke-dashoffset:0;stroke-opacity:1;paint-order:markers stroke fill;filter:url(#filter1450)"
       id="rect1017"
       width="189.48351"
       height="442.67136"
       x="429.51654"
       y="183.32866"
       transform="matrix(1.0844287,0,0,1.0888009,-36.013479,-56.589382)" />
  </g>
  <g
     sodipodi:insensitive="true"
     style="display:inline"
     inkscape:label="L1"
     id="layer2"
     inkscape:groupmode="layer">
    <path
       sodipodi:nodetypes="cssc"
       inkscape:connector-curvature="0"
       id="path1447"
       d="m 485.74119,526.81354 c 1.58561,14.27055 0.29509,37.57203 -3.09371,54.29446 -1.57464,7.77013 -5.55717,17.79487 -19.82022,3.96402 -26.16268,-25.36987 -58.30209,-95.60802 -41.65087,-172.51269 4.38886,-24.89661 3.59605,-24.10381 5.97449,-30.44627 2.37842,-6.34246 58.51278,124.49679 58.59031,144.70048 z"
       style="fill:url(#linearGradient926);fill-opacity:1;fill-rule:nonzero;stroke:none;stroke-width:1.32303894;stroke-linecap:butt;stroke-linejoin:miter;stroke-miterlimit:4;stroke-dasharray:none;stroke-opacity:1" />
    <path
       sodipodi:nodetypes="csc"
       inkscape:connector-curvature="0"
       id="path1445"
       d="m 559.1101,445.66981 c 14.96001,11.98052 54.35259,28.1551 59.24768,15.04553 7.24252,-19.39622 -39.06635,-69.46801 -83.2154,-90.75193 -27.91784,-8.46338 -49.41044,2.90011 23.96772,75.7064 z"
       style="fill:url(#linearGradient934);fill-opacity:1;fill-rule:nonzero;stroke:#000000;stroke-width:1.32303894;stroke-linecap:butt;stroke-linejoin:miter;stroke-miterlimit:4;stroke-dasharray:none;stroke-opacity:1" />
    <path
       sodipodi:nodetypes="ccssccsssc"
       inkscape:connector-curvature="0"
       id="path1449"
       d="m 541.13445,398.68451 c 18.23456,30.91954 28.6392,85.49396 27.42818,127.97018 3.90533,16.1805 6.71788,35.08362 7.17888,51.11656 0.28184,9.80246 -7.17249,13.86074 -15.85616,8.7209 -16.91416,-10.01141 -32.20283,-27.55017 -45.51059,-53.8597 -18.43723,-1.31636 -33.01782,-5.26954 -41.24099,-10.19229 -44.3529,-24.3741 -46.9089,-51.79892 -48.64675,-110.09256 -0.95786,-32.13056 11.34035,-42.52625 20.79062,-50.08647 9.45028,-7.56022 62.57563,-8.11084 73.1504,3.22106 3.88522,4.16338 15.01606,20.15081 22.70641,33.20232 z"
       style="fill:url(#linearGradient918);fill-opacity:1;fill-rule:nonzero;stroke:none;stroke-width:1.32303894;stroke-linecap:butt;stroke-linejoin:miter;stroke-miterlimit:4;stroke-dasharray:none;stroke-opacity:1" />
    <path
       style="fill:#efefef;fill-opacity:1;stroke:none;stroke-width:1.32303894px;stroke-linecap:butt;stroke-linejoin:miter;stroke-opacity:1"
       d="m 450.14231,362.29285 c 15.06337,15.06335 45.9829,16.64897 45.19009,9.51369 -0.79281,-7.13527 -35.67639,-7.92808 -45.19009,-9.51369 z"
       id="path986"
       inkscape:connector-curvature="0" />
    <path
       sodipodi:nodetypes="cssssc"
       inkscape:connector-curvature="0"
       id="path1443"
       d="m 517.03108,370.51279 c 40.43323,0 145.32008,-6.75601 146.37673,-44.68915 C 664.6663,280.64414 614.12956,163.04518 545.15521,90.106816 522.76165,66.42624 490.43957,40.465203 446.84697,76.629067 381.41543,130.91021 317.24851,228.54049 312.52685,299.95284 c -1.43517,21.70654 24.4921,36.46693 43.39539,41.64201 49.66424,17.83119 64.64733,24.88422 161.10884,28.91794 z"
       style="fill:url(#linearGradient910);fill-opacity:1;fill-rule:nonzero;stroke:none;stroke-width:1.32303894;stroke-linecap:butt;stroke-linejoin:miter;stroke-miterlimit:4;stroke-dasharray:none;stroke-opacity:1" />
    <path
       sodipodi:nodetypes="csc"
       inkscape:connector-curvature="0"
       id="path618"
       d="m 454.89917,365.46408 c -43.60447,-31.71234 -87.06469,-48.89468 -97.03084,-32.83031 -9.50248,15.31698 34.31621,65.83418 69.19979,83.27595"
       style="fill:url(#linearGradient942);fill-opacity:1;fill-rule:nonzero;stroke:none;stroke-width:1.32303894;stroke-linecap:butt;stroke-linejoin:miter;stroke-miterlimit:4;stroke-dasharray:none;stroke-opacity:1" />
    <path
       style="display:inline;fill:#b0c1cb;fill-opacity:1;fill-rule:nonzero;stroke:none;stroke-width:2.63088894;stroke-linecap:butt;stroke-linejoin:miter;stroke-miterlimit:4;stroke-dasharray:none;stroke-opacity:1"
       d="m 448.62741,316.44323 c 13.67765,-1.15047 35.02499,-0.76698 47.93568,0 1.15047,10.35409 -1.30847,26.32656 -8.43668,34.89716 -4.44054,5.33909 -15.05705,2.43532 -19.17427,-0.76696 -6.90275,-5.36881 -16.48106,-19.10608 -19.16545,-34.06201"
       id="path1455-5"
       inkscape:connector-curvature="0"
       sodipodi:nodetypes="ccssc" />
    <path
       style="display:inline;fill:#efefef;fill-opacity:1;fill-rule:nonzero;stroke:none;stroke-width:1.32303894;stroke-linecap:butt;stroke-linejoin:miter;stroke-miterlimit:4;stroke-dasharray:none;stroke-opacity:1"
       d="m 523.37354,181.82436 c 3.96406,-4.75686 6.57861,-21.02656 12.3921,-30.41859 2.87159,2.52325 25.86773,15.38474 38.18384,23.18691 4.91492,-4.43402 14.53364,-14.21153 7.30178,-40.27346 -11.26416,-15.76804 -23.3661,-30.75085 -36.09605,-44.212404 -22.39357,-23.680561 -54.71564,-49.641601 -98.30824,-13.477749 -18.38634,15.253056 -36.67281,33.929033 -53.5685,54.484343 -5.17629,17.71142 -6.7968,26.32104 -5.43479,33.26916 4.18461,21.34768 16.56398,15.85393 38.63851,16.27215 4.12615,-11.94858 13.61545,-25.11154 19.28162,-37.6386 2.47601,7.01719 10.88255,48.81398 16.04569,55.55625 5.05832,-3.91818 24.60999,-31.17741 38.98438,-36.74406 4.61172,5.65974 18.80311,16.53142 22.57966,19.99605 z"
       id="path1443-6"
       inkscape:connector-curvature="0"
       sodipodi:nodetypes="ccccsscsccccc" />
  </g>
  <g
     sodipodi:insensitive="true"
     inkscape:groupmode="layer"
     id="g49"
     inkscape:label="L2"
     style="display:inline">
    <path
       style="fill:#000000;fill-rule:nonzero;stroke:none;stroke-width:2;stroke-linecap:butt;stroke-linejoin:miter;stroke-miterlimit:4;stroke-dasharray:none;stroke-opacity:1"
       d="m 412.27229,363.13519 c -1.05505,-1.23891 -2.85262,-4.30626 -6.54575,-7.45597 -3.25135,-2.77292 -9.26993,-6.83276 -16.36762,-10.71705 -7.50578,-4.10763 -15.34477,-7.55622 -22.57455,-9.78765 -3.61074,-1.11444 -6.83629,-1.85473 -9.6904,-2.29409 -3.44446,-0.53023 -6.11029,-0.58678 -8.19066,-0.46917 -0.27086,0.0153 -0.5298,0.0334 -0.77729,0.0536 -2.45174,0.19928 -4.28234,0.78675 -5.66953,1.48148 -0.92091,0.4612 -1.73764,1.01589 -2.45468,1.64694 -0.68526,0.60309 -1.33973,1.32904 -1.91864,2.20044 -0.56671,0.8533 -0.96767,1.79953 -1.22423,2.8089 -0.25998,1.02284 -0.38363,2.15817 -0.35072,3.39538 0.0576,2.16612 0.59932,4.83178 1.98783,8.05461 0.12791,0.29688 0.26343,0.59948 0.40695,0.90787 1.02168,2.19535 2.50459,4.90321 4.64713,8.12166 1.96103,2.9458 4.37127,6.16259 7.23679,9.55846 5.65746,6.70453 12.26552,13.13269 18.817,18.43846 6.69492,5.42193 12.19055,8.74669 15.42319,10.26585 3.02247,1.42038 5.26516,1.67964 6.20948,1.91893 -0.80743,-0.65177 -2.20978,-2.19609 -4.83142,-4.19689 -2.95526,-2.25541 -7.62956,-5.50045 -14.14735,-11.15519 -6.23878,-5.41269 -12.51459,-11.64221 -18.03665,-18.17214 -2.77829,-3.28535 -5.1118,-6.34857 -7.02369,-9.12572 -2.08663,-3.03098 -3.53221,-5.51812 -4.54801,-7.48664 -0.14258,-0.2763 -0.27931,-0.54562 -0.41037,-0.80797 -1.40867,-2.81985 -2.25826,-5.02047 -2.6737,-6.69996 -0.24098,-0.9742 -0.35701,-1.85214 -0.33027,-2.64037 0.0264,-0.7777 0.19315,-1.49927 0.54754,-2.13088 0.41301,-0.72774 0.92341,-1.30669 1.48718,-1.77076 0.58892,-0.48477 1.27701,-0.87793 2.06399,-1.18779 1.17356,-0.46205 2.76887,-0.81706 4.93835,-0.88406 0.22054,-0.007 0.45223,-0.009 0.69529,-0.007 1.86095,0.0197 4.30556,0.331 7.45496,1.1536 2.6168,0.68349 5.58625,1.68459 8.92961,3.04568 6.77654,2.75876 13.9446,6.51887 21.2255,10.71665 6.7709,3.90375 12.82962,7.73554 16.52212,9.65559 4.24928,2.20956 7.63018,2.9269 9.17262,3.56492 z"
       id="path33"
       inkscape:connector-curvature="0"
       sodipodi:nodetypes="csc"
       inkscape:path-effect="#path-effect51"
       inkscape:original-d="m 412.27229,363.13519 c -32.95781,-23.96932 -65.8066,-36.95634 -73.33937,-24.81432 -7.18231,11.57711 25.93742,49.75982 52.30367,62.94294"
       transform="matrix(1.3230389,0,0,1.3230389,-90.55308,-114.97788)" />
    <path
       style="fill:#000000;fill-rule:nonzero;stroke:none;stroke-width:2;stroke-linecap:butt;stroke-linejoin:miter;stroke-miterlimit:4;stroke-dasharray:none;stroke-opacity:1"
       d="m 338.1367,342.62943 c -0.18998,-0.052 -0.84255,-0.22233 -1.76788,-0.51434 -1.20156,-0.37918 -4.7504,-1.58298 -9.01019,-3.76661 -3.10219,-1.59022 -6.79138,-3.80776 -10.14168,-6.66538 -2.84588,-2.42738 -5.35659,-5.24208 -7.01584,-8.3841 -0.78011,-1.47725 -1.3617,-3.00821 -1.70995,-4.58736 -0.34378,-1.55895 -0.46326,-3.17613 -0.32064,-4.86023 0.94452,-13.31586 4.7001,-27.74434 10.32698,-42.29328 6.13397,-15.86008 14.27536,-31.32354 22.86641,-45.24602 7.5752,-12.27622 15.36137,-23.14018 22.43364,-32.23509 2.88713,-3.71285 5.82566,-7.35273 8.80382,-10.90575 11.63255,-13.87788 23.62706,-26.14345 35.32799,-36.2466 8.24536,-7.27138 15.50629,-11.06413 21.78689,-12.89143 3.60886,-1.04998 6.93679,-1.46175 9.94845,-1.46779 3.5677,-0.007 6.73663,0.5561 9.39349,1.34651 3.21537,0.95657 5.70193,2.19578 7.5196,3.23607 1.83277,1.04894 4.06062,2.5206 6.63688,4.48565 0.70803,0.54005 1.42412,1.11429 2.14864,1.72347 4.3638,3.66912 8.54529,8.17558 13.06809,13.60087 11.73998,12.9302 23.5643,28.51757 35.03404,46.39085 3.81943,5.95183 7.56176,12.0991 11.20125,18.39765 5.44979,9.43146 11.21519,20.19067 16.80039,31.94291 7.23095,15.21517 13.74699,31.25196 18.30612,46.16904 2.0648,6.75587 3.67294,13.11009 4.73136,18.832 1.03383,5.589 1.51622,10.43228 1.43483,14.37357 -0.0232,1.32916 -0.27002,2.58675 -0.72604,3.79527 -0.45954,1.21787 -1.14193,2.41573 -2.06726,3.6047 -1.88853,2.42658 -4.72265,4.72355 -8.41538,6.85757 -3.78479,2.18722 -8.30263,4.10654 -13.2512,5.78356 -5.20311,1.76329 -10.81208,3.23527 -16.43021,4.46723 -13.00042,2.85076 -26.49838,4.50768 -35.95493,5.51008 -9.56604,1.01401 -16.25367,1.52956 -20.12765,1.97693 -5.79783,0.66953 -8.29924,1.60139 -9.73291,1.8918 1.28213,0.25971 4.17481,1.27363 9.83411,1.59161 3.75104,0.21076 10.81695,0.28878 20.44044,-0.21461 9.68085,-0.5064 23.32476,-1.68904 36.86839,-4.27242 5.81934,-1.11001 11.72535,-2.49964 17.28671,-4.2396 5.26971,-1.64872 10.30799,-3.63607 14.69437,-6.04381 4.24665,-2.33104 8.01663,-5.12902 10.77772,-8.52297 1.37532,-1.69054 2.5081,-3.53879 3.31551,-5.55319 0.80908,-2.01856 1.27392,-4.16112 1.35069,-6.41315 0.15798,-4.66608 -0.36415,-10.09644 -1.42346,-16.02358 -1.09047,-6.10145 -2.75785,-12.77149 -4.87638,-19.75432 -4.67287,-15.40206 -11.37734,-31.82892 -18.79402,-47.27485 -5.73656,-11.94691 -11.68296,-22.87189 -17.32322,-32.41106 -3.76871,-6.37386 -7.67472,-12.57587 -11.68196,-18.5602 -12.03289,-17.96967 -24.63526,-33.47564 -37.15204,-46.1964 -5.35355,-5.01155 -10.20554,-8.9786 -15.16651,-12.37218 -0.81571,-0.55799 -1.61432,-1.08663 -2.39755,-1.58976 -2.86191,-1.83846 -5.33847,-3.08269 -7.3527,-4.00901 -1.84055,-0.84645 -4.79487,-2.1139 -7.99766,-3.09436 -2.76353,-0.84598 -6.0847,-1.63986 -9.87439,-1.93229 -3.20906,-0.24762 -6.83472,-0.14314 -10.84533,0.6349 -7.01614,1.3611 -15.23028,4.78714 -24.47358,12.02213 -12.35805,9.85606 -25.00212,22.00693 -37.12259,35.93847 -3.10414,3.56798 -6.1586,7.2354 -9.1483,10.98818 -7.32123,9.18988 -15.33569,20.23865 -23.10262,32.77072 -8.80044,14.19964 -17.14807,30.09942 -23.41446,46.50934 -5.74057,15.03295 -9.62343,30.21882 -10.50106,44.45872 -0.12874,2.42292 0.12818,4.74338 0.70314,6.9447 0.5802,2.22135 1.47454,4.28508 2.58248,6.18644 2.32863,3.99621 5.60066,7.27776 8.93831,9.883 3.95274,3.08536 8.16005,5.35211 11.57716,6.91606 4.68531,2.14438 8.63778,3.29901 9.91025,3.68168 0.94747,0.28493 1.77488,0.51886 1.92202,0.55914 z"
       id="path35"
       inkscape:connector-curvature="0"
       sodipodi:nodetypes="cssssc"
       inkscape:path-effect="#path-effect53"
       inkscape:original-d="m 337.46199,345.09397 c -14.28778,-3.9115 -33.88454,-15.06794 -32.79977,-31.47452 3.56879,-53.976 52.06844,-127.76846 101.52393,-168.79608 32.94885,-27.33394 57.37903,-7.71166 74.30489,10.18696 52.13327,55.12943 90.33074,144.01492 89.37953,178.16321 -0.79865,28.67121 -80.07588,33.77764 -110.63676,33.77764"
       transform="matrix(1.3230389,0,0,1.3230389,-90.55308,-114.97788)" />
    <path
       style="fill:#000000;fill-rule:nonzero;stroke:none;stroke-width:2;stroke-linecap:butt;stroke-linejoin:miter;stroke-miterlimit:4;stroke-dasharray:none;stroke-opacity:1"
       d="m 472.23497,367.96306 c 1.50569,0.72588 4.52205,2.18003 8.3265,4.43983 4.17223,2.47825 9.62752,6.18807 15.8318,11.14978 5.03446,4.02618 9.93241,8.36919 14.63705,12.90457 2.14007,2.06308 4.26902,4.18579 6.33799,6.35417 2.96527,3.10775 5.7934,6.29509 8.3086,9.47977 2.36952,3.00022 4.44785,5.98172 6.07079,8.84317 1.55648,2.74426 2.67894,5.3526 3.23214,7.71604 0.26956,1.15165 0.4013,2.2346 0.38543,3.23566 -0.0157,0.98857 -0.17519,1.88986 -0.48194,2.69363 -0.18368,0.47509 -0.45477,0.88814 -0.81805,1.23625 -0.33735,0.32327 -0.76107,0.59716 -1.28288,0.81313 -0.49739,0.20586 -1.08317,0.35871 -1.76337,0.44989 -0.65786,0.0882 -1.39501,0.11748 -2.21054,0.0848 -1.59908,-0.0641 -3.44352,-0.36425 -5.47298,-0.87453 -2.03688,-0.51214 -4.19646,-1.21986 -6.38118,-2.05784 -5.00046,-1.91799 -9.68406,-4.33569 -13.27918,-6.40686 -2.05037,-1.18124 -3.69099,-2.21472 -4.93681,-3.00531 -0.32217,-0.20445 -0.63089,-0.4019 -0.92674,-0.59258 -2.51021,-1.61787 -4.06394,-2.73065 -4.70855,-3.24688 l -4.12882,5.15564 c 0.80698,0.64626 2.49297,2.04262 5.32922,3.74294 0.33148,0.19872 0.67792,0.40115 1.03946,0.60646 1.39364,0.79142 3.263,1.75318 5.55339,2.78679 3.9827,1.79732 9.29899,3.8225 14.71373,5.20712 2.40602,0.61525 4.79891,1.09678 7.06745,1.37886 2.25648,0.28058 4.35706,0.35975 6.21851,0.19124 0.95222,-0.0862 1.83826,-0.23687 2.65005,-0.45677 0.84003,-0.22756 1.59785,-0.52853 2.26645,-0.90679 0.70526,-0.399 1.30034,-0.87785 1.7857,-1.43283 0.52336,-0.59843 0.90013,-1.26348 1.15878,-1.97309 0.38112,-1.03839 0.58648,-2.15324 0.64277,-3.32547 0.057,-1.18594 -0.0383,-2.43797 -0.2638,-3.73859 -0.46115,-2.66033 -1.47381,-5.56288 -2.89473,-8.57125 -1.48455,-3.14306 -3.42229,-6.41778 -5.67151,-9.68467 -2.38822,-3.46877 -5.12541,-6.92606 -8.0622,-10.2352 -2.04946,-2.30931 -4.19306,-4.54319 -6.38785,-6.66609 -4.79386,-4.63683 -10.03543,-8.98039 -15.31654,-12.85302 -6.59077,-4.83302 -12.3,-8.25441 -16.64629,-10.73982 -3.9639,-2.26675 -6.95911,-3.79142 -8.54583,-4.55637 z"
       id="path37"
       inkscape:connector-curvature="0"
       sodipodi:nodetypes="csc"
       inkscape:path-effect="#path-effect55"
       inkscape:original-d="m 472.92298,366.53594 c 33.36942,16.08715 68.37133,53.9332 62.89717,68.59355 -3.69989,9.90869 -33.4742,-2.31664 -44.78151,-11.37194"
       transform="matrix(1.3230389,0,0,1.3230389,-90.55308,-114.97788)" />
    <path
       style="fill:#000000;fill-rule:nonzero;stroke:none;stroke-width:2;stroke-linecap:butt;stroke-linejoin:miter;stroke-miterlimit:4;stroke-dasharray:none;stroke-opacity:1"
       d="m 384.71341,398.28328 c -0.0938,0.43339 -0.43405,2.11263 -0.80141,3.9509 -0.78543,3.93035 -2.27515,11.22236 -3.03522,20.64547 -0.77337,9.58817 -0.69023,20.09322 0.78605,31.08989 1.05628,7.86809 2.88373,16.48982 5.72347,25.47721 3.3909,10.73173 7.99963,21.24749 13.60359,30.65777 2.52287,4.23645 5.18936,8.14802 7.9289,11.63411 2.65276,3.37565 5.35265,6.32477 8.0168,8.75465 1.47481,1.27885 2.84032,2.28623 4.10367,3.05015 1.26327,0.76387 2.4239,1.28402 3.49,1.58966 1.08549,0.31119 2.06825,0.3986 2.9557,0.2981 0.91963,-0.10414 1.70178,-0.40586 2.37313,-0.82187 0.65701,-0.40711 1.23405,-0.94595 1.74579,-1.59368 0.47762,-0.60455 0.89275,-1.29689 1.25897,-2.04815 0.70074,-1.43752 1.20689,-3.05885 1.61528,-4.59113 1.58959,-6.82975 2.6808,-14.60333 3.2868,-21.35397 0.38768,-4.31867 0.5579,-7.98041 0.59761,-10.77347 0.0147,-1.03139 0.0115,-1.93977 -0.004,-2.71954 -0.0696,-3.46232 -0.34664,-5.71771 -0.45558,-6.69818 l -4.63806,0.51534 c 0.0975,0.87719 0.27726,3.04808 0.42957,6.33646 0.0346,0.74744 0.0746,1.62037 0.11158,2.61611 0.10094,2.7171 0.17475,6.24034 0.0783,10.50402 -0.15034,6.64533 -0.70803,14.31505 -1.87143,21.07363 -0.20101,1.47767 -0.52204,2.97323 -1.0384,4.24062 -0.26867,0.65942 -0.57835,1.22738 -0.9284,1.69064 -0.37364,0.49449 -0.77759,0.84901 -1.20122,1.07703 -0.42907,0.23094 -0.91535,0.34635 -1.47297,0.3182 -0.54129,-0.0273 -1.17784,-0.19134 -1.92896,-0.555 -0.74285,-0.35966 -1.59503,-0.91336 -2.57268,-1.71917 -0.97749,-0.80567 -2.06495,-1.85056 -3.27648,-3.17692 -2.33648,-2.41944 -4.72073,-5.34384 -7.07604,-8.6935 -2.43133,-3.45778 -4.79877,-7.32125 -7.04073,-11.49599 -4.98801,-9.28818 -9.04901,-19.52846 -12.08535,-29.94135 -2.54331,-8.72207 -4.20555,-16.98582 -5.30681,-24.5496 -1.54473,-10.60973 -2.11437,-20.54704 -1.88404,-29.90954 0.22424,-9.11525 1.19082,-16.31441 1.87336,-20.14035 0.34246,-1.91959 0.66141,-3.29742 0.77936,-3.84217 z"
       id="path39"
       inkscape:connector-curvature="0"
       sodipodi:nodetypes="cssc"
       inkscape:path-effect="#path-effect57"
       inkscape:original-d="m 386.78341,398.73147 c -12.58558,58.12729 11.70653,111.2158 31.48121,130.39125 10.78052,10.45384 13.79067,2.87679 14.98083,-2.99616 2.56138,-12.6394 3.53681,-30.2515 2.33834,-41.03769"
       transform="matrix(1.3230389,0,0,1.3230389,-90.55308,-114.97788)" />
    <path
       style="fill:#000000;fill-rule:nonzero;stroke:none;stroke-width:2;stroke-linecap:butt;stroke-linejoin:miter;stroke-miterlimit:4;stroke-dasharray:none;stroke-opacity:1"
       d="m 426.05465,481.78332 c 0.59648,0.66515 1.79338,2.42407 4.58683,3.96681 1.58779,0.87689 4.0823,1.95315 7.57721,2.98541 4.46342,1.31832 10.2949,2.4856 17.4021,3.12957 5.09237,9.97279 10.44419,17.92433 15.86343,24.23001 3.78635,4.4057 7.36091,7.72236 10.49932,10.22971 3.01559,2.40922 5.90865,4.22771 8.59469,5.63909 2.02826,0.96556 3.9315,1.30492 5.58166,1.26239 1.58275,-0.0408 3.12035,-0.43744 4.47892,-1.2139 1.20586,-0.68918 2.31729,-1.7167 3.14934,-3.2141 0.78165,-1.40669 1.27687,-3.1631 1.37003,-5.23831 0.12566,-6.11204 -0.17304,-12.38629 -0.80849,-17.80111 -0.0697,-0.59428 -0.14249,-1.17863 -0.2177,-1.75282 -0.90847,-6.93535 -2.33594,-13.44279 -3.64986,-19.17748 -0.007,-0.0304 -0.0129,-0.0565 -0.0183,-0.0799 0.5318,-16.82058 -1.0141,-35.39842 -4.54836,-51.95371 -0.0697,-0.32633 -0.13997,-0.65123 -0.21091,-0.97467 -1.87835,-8.56442 -4.12173,-16.69971 -6.79766,-23.90823 -1.8765,-5.05497 -3.76964,-9.10989 -5.48752,-12.0373 -2.3182,-3.9504 -4.88383,-6.41436 -5.96739,-7.6304 0.50694,1.44304 1.3464,5.05386 2.73723,9.11874 1.05049,3.07019 2.57842,7.2032 4.17266,12.12891 2.31391,7.14926 4.4622,14.96148 6.18772,23.41978 0.0647,0.31705 0.12915,0.63545 0.19338,0.95518 3.28509,16.35231 5.56385,34.47274 5.16881,51.03706 a 1.5583191,2.4093792 26.925539 0 0 0.0625,0.5979 c 0.0323,0.12705 0.0643,0.2542 0.096,0.38146 1.38723,5.56329 2.49962,12.02489 3.54268,18.7675 0.0865,0.55945 0.17385,1.12989 0.26135,1.70816 0.80953,5.35017 1.70697,11.25777 2.186,17.29001 0.20021,1.66027 0.0599,3.05753 -0.34947,4.16555 -0.43461,1.17633 -1.16178,1.99436 -2.03347,2.44403 -1.00047,0.51611 -2.13923,0.51622 -3.24507,0.20902 -1.14201,-0.31725 -2.39608,-0.99887 -3.76136,-2.0394 -2.33768,-1.56069 -4.91889,-3.48124 -7.64718,-5.79804 -2.85803,-2.42698 -6.15522,-5.59776 -9.70171,-9.80322 -5.29583,-6.27985 -10.62982,-14.25071 -15.86045,-24.47078 a 2.5300574,2.4668197 77.901356 0 0 -2.05713,-1.36812 c -7.505,-0.47842 -13.51336,-1.43902 -18.13255,-2.40895 -3.34438,-0.70224 -5.84722,-1.38597 -7.46592,-1.77949 -1.88793,-0.45896 -3.86343,-0.55739 -5.75136,-1.01636 z"
       id="path41"
       inkscape:connector-curvature="0"
       sodipodi:nodetypes="ccsscc"
       inkscape:path-effect="#path-effect59"
       inkscape:original-d="m 426.05465,481.78332 c 6.21537,3.72079 17.23591,6.70874 31.17142,7.70369 10.05848,19.88569 21.6142,33.14211 34.39852,40.70909 6.56344,3.88487 12.19769,0.81748 11.98466,-6.59156 -0.34843,-12.11828 -2.47427,-26.40593 -5.42605,-38.63573 0.91533,-32.10504 -6.94886,-73.35434 -20.73121,-96.72443"
       transform="matrix(1.3230389,0,0,1.3230389,-90.55308,-114.97788)" />
    <path
       style="fill:#000000;fill-opacity:1;stroke:none;stroke-width:1.32303894px;stroke-linecap:butt;stroke-linejoin:miter;stroke-opacity:1"
       d="m 400.30826,251.25071 c 8.3708,-35.20666 29.43115,-23.05451 32.97974,-4.60184 3.83486,19.94125 4.58225,39.71338 -1.15046,58.28978 -3.68171,11.93025 -29.50488,5.55689 -33.74672,-6.51924 -3.3719,-9.59952 -2.75121,-27.53294 1.91744,-47.1687 z"
       id="path43"
       inkscape:connector-curvature="0"
       sodipodi:nodetypes="sssss" />
    <path
       style="fill:#000000;fill-opacity:1;stroke:none;stroke-width:1.32303894px;stroke-linecap:butt;stroke-linejoin:miter;stroke-opacity:1"
       d="m 508.83463,253.9351 c 0.39709,-22.26837 17.1134,-32.78756 28.37793,-18.40732 18.02381,23.00913 17.1076,52.31071 15.33938,61.74116 -2.30091,12.27154 -26.84396,19.94124 -33.74671,9.20367 -6.90273,-10.7376 -10.35409,-31.03153 -9.9706,-52.53751 z"
       id="path45"
       inkscape:connector-curvature="0"
       sodipodi:nodetypes="sssss" />
    <path
       sodipodi:nodetypes="ccssc"
       inkscape:connector-curvature="0"
       id="path47"
       d="m 407.62991,327.24894 c 1.17424,-0.0988 3.36249,-0.25372 6.74537,-0.38621 0.54796,-0.0215 1.16041,-0.0437 1.83893,-0.0654 2.65973,-0.0851 5.86176,-0.14597 9.64466,-0.14799 6.78387,-0.004 12.70654,0.18196 16.3638,0.35742 0.22094,0.0106 0.4338,0.021 0.63791,0.0311 0.1365,1.46993 0.18918,3.18098 0.0683,5.20897 -0.006,0.096 -0.0119,0.19314 -0.0186,0.29137 -0.13445,1.97 -0.47308,4.40475 -1.10342,7.00031 -0.53853,2.21754 -1.27845,4.50675 -2.24363,6.65244 -0.92236,2.05048 -2.00886,3.87752 -3.25086,5.37554 -0.0928,0.11234 -0.18965,0.21839 -0.29006,0.31868 -0.23015,0.2299 -0.48999,0.44187 -0.78497,0.63329 -0.40018,0.25969 -0.86654,0.48244 -1.40798,0.65776 -1.04096,0.33707 -2.28665,0.47417 -3.65627,0.40586 -1.33741,-0.0667 -2.69348,-0.32497 -3.91085,-0.69844 -0.62102,-0.19053 -1.19586,-0.40794 -1.70708,-0.63946 -0.53289,-0.24134 -0.99037,-0.49512 -1.36223,-0.74807 -0.96959,-0.69884 -1.95304,-1.59154 -2.87857,-2.58367 -0.42368,-0.45416 -0.84682,-0.94106 -1.26648,-1.45653 -1.46547,-1.8001 -2.83338,-3.8795 -4.03753,-6.06453 -1.81966,-3.3019 -3.02717,-6.39196 -3.92208,-9.02406 -0.98195,-2.88808 -1.48454,-5.09824 -1.71904,-6.40478 l -1.92212,0.345 c 0.24102,1.34277 0.70757,3.75282 1.8008,6.71293 0.99868,2.70411 2.55457,5.82312 4.65273,9.03823 1.40091,2.14668 2.92814,4.1594 4.48134,5.95607 0.44432,0.51397 0.88548,1.00414 1.32049,1.46924 0.94803,1.01362 1.92661,1.97398 2.8928,2.78052 0.38622,0.33656 0.85344,0.68204 1.39485,1.02262 0.51982,0.32701 1.10637,0.64837 1.74652,0.9482 1.24759,0.58433 2.69155,1.08303 4.18779,1.36481 1.51836,0.28595 3.0818,0.3466 4.53401,0.0482 0.76583,-0.15738 1.49357,-0.41324 2.16018,-0.78078 0.49279,-0.2717 0.94307,-0.59949 1.34402,-0.98158 0.17403,-0.16585 0.34048,-0.34326 0.49839,-0.53242 1.46401,-1.75556 2.62644,-3.87262 3.53236,-6.13185 0.95035,-2.37002 1.60284,-4.85552 2.04288,-7.20568 0.51833,-2.76828 0.73623,-5.30881 0.83659,-7.36332 0.005,-0.10259 0.01,-0.20403 0.0142,-0.30428 0.10907,-2.45281 0.042,-4.6862 -0.13075,-6.37525 l -0.0849,-0.83031 -0.84871,-0.0566 c -0.44386,-0.0296 -0.94003,-0.0609 -1.49321,-0.093 -3.74392,-0.21717 -9.57454,-0.48298 -16.45825,-0.56259 -3.78876,-0.0438 -7.0511,-0.0198 -9.72107,0.0422 -0.68511,0.0159 -1.30542,0.0337 -1.85943,0.0522 -3.40356,0.11324 -5.6733,0.29336 -6.8568,0.39291 z"
       style="display:inline;fill:#000000;fill-rule:nonzero;stroke:none;stroke-width:2.33916998;stroke-linecap:butt;stroke-linejoin:miter;stroke-miterlimit:4;stroke-dasharray:none;stroke-opacity:1"
       inkscape:path-effect="#path-effect61"
       inkscape:original-d="m 407.53188,326.08347 c 10.33805,-0.86956 26.47314,-0.5797 36.23149,0 0.86956,7.826 -0.98898,19.89856 -6.37674,26.37653 -3.35632,4.03547 -11.38065,1.8407 -14.4926,-0.5797 -5.21734,-4.05793 -12.45697,-14.44105 -14.48593,-25.74528"
       transform="matrix(1.3230389,0,0,1.3230389,-90.55308,-114.97788)" />
  </g>
  <g
     sodipodi:insensitive="true"
     inkscape:groupmode="layer"
     id="layer1"
     inkscape:label="Lights"
     style="display:inline;opacity:1;filter:url(#filter1287)">
    <path
       sodipodi:type="star"
       style="fill:none;fill-opacity:1;stroke:#f4ff27;stroke-width:8;stroke-miterlimit:4;stroke-dasharray:none;stroke-opacity:1"
       id="path989"
       sodipodi:sides="5"
       sodipodi:cx="301"
       sodipodi:cy="316"
       sodipodi:r1="40.224373"
       sodipodi:r2="17.97941"
       sodipodi:arg1="0.96210699"
       sodipodi:arg2="1.5882422"
       inkscape:flatsided="false"
       inkscape:rounded="0"
       inkscape:randomized="0"
       d="m 324,349 -23.31365,-15.02333 -23.96382,14.09519 7.08371,-26.81506 -20.81055,-18.4353 27.69163,-1.54929 11.1022,-25.48883 10.03065,25.85754 27.67209,2.68234 -21.49235,17.53014 z"
       inkscape:transform-center-x="2.271713"
       inkscape:transform-center-y="4.9714736"
       transform="matrix(1.0705123,0.93512819,-0.93512819,1.0705123,256.51376,-327.9287)" />
    <use
       x="0"
       y="0"
       xlink:href="#path989"
       inkscape:transform-center-x="-0.90566075"
       inkscape:transform-center-y="-0.10012471"
       id="use1173"
       width="100%"
       height="100%"
       transform="matrix(0.22295609,0.21653422,-0.21653422,0.22295609,302.26666,273.91193)" />
    <use
       style="display:inline;opacity:1"
       x="0"
       y="0"
       xlink:href="#path989"
       inkscape:transform-center-x="0.13579891"
       inkscape:transform-center-y="1.0538944"
       id="use1173-3"
       width="100%"
       height="100%"
       transform="matrix(0.10222369,0.20379391,-0.20379391,0.10222369,277.02092,295.81933)" />
    <use
       style="display:inline;opacity:1"
       x="0"
       y="0"
       xlink:href="#path989"
       inkscape:transform-center-x="-1.2253841"
       inkscape:transform-center-y="-0.13547487"
       id="use1173-9"
       width="100%"
       height="100%"
       transform="matrix(0.30166542,0.29297646,-0.29297646,0.30166542,362.30598,204.2178)" />
    <use
       style="display:inline;opacity:1"
       x="0"
       y="0"
       xlink:href="#path989"
       inkscape:transform-center-x="0.68350126"
       inkscape:transform-center-y="-0.018127538"
       id="use1173-0"
       width="100%"
       height="100%"
       transform="matrix(0.14791169,0.04280449,-0.04280449,0.14791169,294.10565,316.41871)" />
    <use
       style="display:inline;opacity:1"
       x="0"
       y="0"
       xlink:href="#path989"
       inkscape:transform-center-x="0.68350126"
       inkscape:transform-center-y="-0.018127538"
       id="use1173-0-5"
       width="100%"
       height="100%"
       transform="matrix(0.14791169,0.04280449,-0.04280449,0.14791169,265.74687,140.77151)" />
    <use
       style="display:inline;opacity:1"
       x="0"
       y="0"
       xlink:href="#path989"
       inkscape:transform-center-x="-0.62761294"
       inkscape:transform-center-y="-0.0044605166"
       id="use1173-0-2"
       width="100%"
       height="100%"
       transform="matrix(0.13490582,-0.07423283,0.07423283,0.13490582,104.76398,298.49593)" />
    <use
       style="display:inline;opacity:1"
       x="0"
       y="0"
       xlink:href="#path989"
       inkscape:transform-center-x="0.68350126"
       inkscape:transform-center-y="-0.018127538"
       id="use1173-0-27"
       width="100%"
       height="100%"
       transform="matrix(0.14791169,0.04280449,-0.04280449,0.14791169,260.74687,409.77151)" />
    <use
       style="display:inline;opacity:1"
       x="0"
       y="0"
       xlink:href="#path989"
       inkscape:transform-center-x="-0.28509246"
       inkscape:transform-center-y="-0.71058146"
       id="use1173-0-3"
       width="100%"
       height="100%"
       transform="matrix(0.24863409,0.1845562,-0.1845562,0.24863409,184.34769,276.50442)" />
    <use
       style="display:inline;opacity:1"
       x="0"
       y="0"
       xlink:href="#path989"
       inkscape:transform-center-x="2.0654053"
       inkscape:transform-center-y="-0.054777866"
       id="use1173-0-7"
       width="100%"
       height="100%"
       transform="matrix(0.44695964,0.12934664,-0.12934664,0.44695964,614.5187,331.84901)" />
    <use
       style="display:inline;opacity:1"
       x="0"
       y="0"
       xlink:href="#path989"
       inkscape:transform-center-x="1.5901078"
       inkscape:transform-center-y="0.80595452"
       id="use1173-0-9"
       width="100%"
       height="100%"
       transform="matrix(0.09072897,0.36743047,-0.36743047,0.09072897,344.53329,-25.078782)" />
    <use
       style="display:inline;opacity:1"
       x="0"
       y="0"
       xlink:href="#path989"
       inkscape:transform-center-x="0.68350126"
       inkscape:transform-center-y="-0.018127538"
       id="use1173-0-27-0"
       width="100%"
       height="100%"
       transform="matrix(0.14791169,0.04280449,-0.04280449,0.14791169,635.40356,392.97553)" />
    <use
       style="display:inline;opacity:1"
       x="0"
       y="0"
       xlink:href="#path989"
       inkscape:transform-center-x="-0.69513526"
       inkscape:transform-center-y="0.14724979"
       id="use1173-0-27-2"
       width="100%"
       height="100%"
       transform="matrix(0.10321284,0.11426811,-0.11426811,0.10321284,689.8251,-22.273015)" />
  </g>
  <g
     sodipodi:insensitive="true"
     inkscape:label="LOGO"
     id="layer4"
     inkscape:groupmode="layer">
    <g
       transform="matrix(0.27101158,0,0,0.27101158,34.09587,41.21004)"
       id="g7508"
       inkscape:label="DF">
      <path
         d="m 200.67967,777.90068 q -2.83434,0 -2.83434,-3.98341 0,-3.98341 4.13661,-8.88606 6.89436,-8.27323 19.151,-9.5755 l 4.21322,-0.22981 q 13.94193,0 20.22346,11.10758 3.7536,6.81775 3.7536,15.70382 0,3.67699 -0.61284,7.737 -2.22151,13.63551 -10.57135,23.13441 -9.19248,10.49475 -21.44912,10.49475 -12.18004,0 -15.47401,-6.81776 -0.99585,-2.14491 -0.99585,-4.51963 0,-2.45133 1.30227,-5.13247 2.52793,-4.90266 6.89436,-4.90266 0.38302,0 0.45962,0.45963 0.15321,0.38302 -0.0766,0.84264 -0.15321,0.45962 -0.53623,0.45962 -2.60454,0 -4.51964,3.37058 -1.22566,2.37472 -1.22566,4.36643 0,1.9917 0.76604,3.67699 2.45133,5.20907 11.72041,5.20907 10.49475,0 18.9978,-10.72456 7.6604,-9.6521 9.88191,-22.67478 0.76604,-4.21322 0.76604,-7.96682 0,-8.34984 -3.75359,-14.09514 -4.97926,-7.737 -15.62722,-7.737 -13.3291,0 -19.99365,8.96267 -3.37057,4.59624 -3.37057,8.57965 0,1.60868 0.68943,1.60868 -0.45962,1.53208 -1.9151,1.53208 z m 11.03098,29.03292 q 0,-11.64381 2.06831,-22.59818 2.06831,-11.03098 5.05586,-17.38911 3.06416,-6.43474 5.89851,-6.43474 1.22566,0 1.22566,1.22567 -3.44718,7.12417 -6.05171,18.99779 -4.82605,21.67893 -4.82605,31.33104 0,0.99585 -1.07246,0.99585 -2.29812,0 -2.29812,-6.12832 z"
         style="font-style:normal;font-variant:normal;font-weight:normal;font-stretch:normal;font-size:medium;line-height:100%;font-family:'Euphoria Script';-inkscape-font-specification:'Euphoria Script';letter-spacing:0px;word-spacing:0px;fill:#ff3975;fill-opacity:1;stroke:none;stroke-width:0.49872401px;stroke-linecap:butt;stroke-linejoin:miter;stroke-opacity:1"
         id="path7108"
         inkscape:connector-curvature="0" />
      <path
         d="m 279.08477,792.53205 q -2.91095,0 -2.91095,-6.35814 0,-3.60038 1.37887,-6.74115 -5.20907,4.51964 -11.64381,16.85288 -6.43473,12.25664 -6.43473,16.01024 0,0.91925 -1.22567,0.91925 -2.22151,0 -2.22151,-6.05172 0,-11.414 2.29812,-20.68308 2.29812,-9.26908 5.59209,-9.26908 1.45547,0 1.45547,1.68528 -3.52378,11.18419 -5.05586,22.9046 h 0.53623 q 6.20492,-14.32495 13.71211,-22.36837 4.28983,-4.59624 7.81361,-4.59624 0.76604,0 1.22567,0.45963 0.53622,0.45962 0.53622,1.14906 -0.53622,0.53622 -1.30226,1.60868 -0.76604,1.07246 -2.06831,5.13247 -1.30227,3.98341 -1.30227,8.73285 0,0.61284 -0.38302,0.61284 z"
         style="font-style:normal;font-variant:normal;font-weight:normal;font-stretch:normal;font-size:medium;line-height:100%;font-family:'Euphoria Script';-inkscape-font-specification:'Euphoria Script';letter-spacing:0px;word-spacing:0px;fill:#ff3975;fill-opacity:1;stroke:none;stroke-width:0.49872401px;stroke-linecap:butt;stroke-linejoin:miter;stroke-opacity:1"
         id="path7110"
         inkscape:connector-curvature="0" />
      <path
         d="m 290.52181,814.5174 q -6.28153,0 -6.28153,-9.88192 0,-5.89851 2.91095,-12.94608 4.06002,-9.88191 10.64796,-13.4823 2.83435,-1.53208 5.28568,-1.53208 2.45133,0 3.8302,1.07245 1.45547,1.07246 1.83849,2.14492 l 0.45963,0.99585 q -0.22981,1.30227 -1.30227,1.30227 -1.22566,0 -1.45548,-0.53623 -0.1532,-0.61283 -0.38302,-0.99585 -0.22981,-0.45963 -1.07245,-1.14906 -0.84265,-0.76604 -1.9151,-0.76604 -4.97926,0 -9.03928,8.96266 -4.59624,10.34154 -4.59624,19.45742 0,4.59624 1.8385,4.59624 1.45548,0 4.06001,-3.21737 2.68114,-3.29397 5.5921,-8.19663 5.05586,-8.42644 8.19662,-14.63136 2.60454,-5.51549 5.36228,-5.51549 1.45548,0 1.45548,1.76189 -0.68944,1.45548 -1.76189,4.13662 -1.07246,2.68114 -2.83435,10.64796 -1.76189,7.96681 -1.76189,15.85702 0,7.89022 2.37472,7.89022 0.91925,0 1.68529,-0.84265 0.76604,-0.76604 1.37887,-2.37472 0.22981,-0.84264 1.07246,-0.84264 0.30641,0 0.45962,0.22981 0.15321,0.22981 0,0.76604 -0.15321,0.53623 -0.53623,1.45547 -0.38302,0.99586 -1.68528,2.60454 -1.22567,1.60868 -2.60454,1.60868 -3.21737,0 -4.97926,-4.21322 -1.68529,-4.21322 -1.68529,-9.95852 0,-5.7453 0.84265,-11.03097 h -0.76604 q -9.72871,16.62307 -14.63137,16.62307 z"
         style="font-style:normal;font-variant:normal;font-weight:normal;font-stretch:normal;font-size:medium;line-height:100%;font-family:'Euphoria Script';-inkscape-font-specification:'Euphoria Script';letter-spacing:0px;word-spacing:0px;fill:#ff3975;fill-opacity:1;stroke:none;stroke-width:0.49872401px;stroke-linecap:butt;stroke-linejoin:miter;stroke-opacity:1"
         id="path7112"
         inkscape:connector-curvature="0" />
      <path
         d="m 362.26266,779.81578 q 2.22151,1.68529 4.21322,1.68529 2.0683,0 2.91095,-0.53623 0,0.99585 -0.91925,1.9151 -0.84264,0.84265 -2.52793,0.84265 -1.60869,0 -3.52379,-0.76604 -0.1532,7.20077 -2.37472,14.78457 -2.22152,7.50719 -5.7453,12.63966 -3.52378,5.05586 -6.97096,5.05586 -3.44718,0 -5.28568,-2.68114 -1.9151,-2.98755 -1.9151,-8.50304 0,-3.14077 0.38302,-6.74115 -9.4989,17.00609 -14.63137,17.00609 -5.05586,0 -5.05586,-8.57965 0,-8.88607 4.36643,-18.9978 3.67699,-8.04342 6.74115,-8.42644 1.45548,0 1.45548,1.60869 -0.91925,2.22151 -2.29812,5.7453 -1.37888,3.44718 -3.677,11.10758 -2.22151,7.6604 -2.22151,11.33739 0,3.60039 1.60868,3.60039 1.99171,0 6.20493,-6.43474 4.28982,-6.43473 7.50719,-12.86947 l 3.29397,-6.35813 q 2.14491,-4.28983 3.8302,-4.28983 1.68529,0 1.68529,1.60869 -4.67284,16.01023 -4.67284,25.04951 0,4.21322 2.45132,4.21322 2.75775,0 5.7453,-4.51964 3.06416,-4.59624 5.05587,-11.87362 2.06831,-7.35398 2.06831,-14.47816 v -0.45962 q -2.22152,-1.60868 -3.60039,-3.8302 -1.37887,-2.22152 -1.37887,-3.29397 0,-1.14906 0.99585,-2.06831 0.99585,-0.91925 2.14491,-0.91925 1.45548,0 2.60454,2.60454 1.14906,2.52793 1.53208,5.8219 z"
         style="font-style:normal;font-variant:normal;font-weight:normal;font-stretch:normal;font-size:medium;line-height:100%;font-family:'Euphoria Script';-inkscape-font-specification:'Euphoria Script';letter-spacing:0px;word-spacing:0px;fill:#ff3975;fill-opacity:1;stroke:none;stroke-width:0.49872401px;stroke-linecap:butt;stroke-linejoin:miter;stroke-opacity:1"
         id="path7114"
         inkscape:connector-curvature="0" />
      <path
         d="m 402.86248,775.29615 q 0,5.66869 3.21737,6.05171 -0.22982,1.07246 -1.7619,1.07246 -3.14076,0 -4.44303,-3.8302 -0.61283,-1.76189 -0.61283,-4.28983 0,-2.60453 1.9917,-6.20492 4.51964,-8.34984 16.39326,-10.72456 4.06001,-0.76604 8.65625,-0.76604 4.67285,0 7.96682,-0.91925 3.29397,-0.91925 4.51964,-2.06831 3.21736,-2.98755 4.74944,-2.98755 1.53208,0 1.53208,0.91924 0,0.22982 0,0.45963 -0.53622,2.14491 -4.59624,4.06001 -2.45132,1.07246 -5.51548,1.68529 -2.52794,1.07245 -4.21323,5.89851 -1.68528,4.74944 -3.52378,13.78872 3.98341,-0.38302 6.58794,-0.38302 0.68944,0 0.61284,0.84264 -0.30642,0.91925 -1.60869,0.99585 -1.30227,0 -6.05171,0.76604 -3.60039,17.77213 -6.28153,25.12612 -6.74115,18.61477 -19.22761,18.61477 -8.96267,0 -11.18418,-8.19663 -0.84265,-2.83435 -0.84265,-5.6687 0,-5.36228 2.83435,-10.72456 4.28983,-8.19662 11.26079,-8.19662 0.99585,0 1.60869,0.45962 0.68943,0.45962 0.91924,1.37887 -6.58794,0 -10.87776,6.81776 -3.37058,5.28567 -3.37058,10.95437 0,8.27323 5.8219,10.11173 1.37888,0.38302 3.60039,0.38302 2.22152,0 4.67285,-1.30227 2.52793,-1.22566 4.51963,-4.59624 2.06831,-3.29397 3.37058,-5.51549 1.30227,-2.29812 2.98755,-8.12002 1.99171,-7.12417 3.37058,-13.17589 1.37887,-6.12832 1.68529,-7.35398 -4.28983,0.68943 -6.51134,0.68943 -2.14491,0 -2.45133,-1.9151 -0.0766,-1.53208 0.84264,-1.76189 0.38302,0.45962 2.37473,0.45962 2.06831,0 6.43473,-0.38302 1.9151,-7.50719 3.677,-12.18003 1.76189,-4.74945 4.13661,-7.20078 -1.22566,0.0766 -3.8302,0.0766 -14.70797,0 -20.60647,8.65626 -2.83435,4.06001 -2.83435,8.19663 z m 33.70576,15.70382 q 0,0.38302 -0.68944,0.38302 -0.68943,0 -1.37887,-0.30642 -0.61283,-0.30642 -0.61283,-0.84264 0,-7.81361 1.76189,-12.56306 1.76189,-4.82605 4.67285,-4.82605 0.76604,0 1.30226,0.53622 0.53623,0.53623 0.53623,1.45548 -3.44718,3.44718 -4.97926,10.26494 -0.61283,2.83435 -0.61283,5.89851 z"
         style="font-style:normal;font-variant:normal;font-weight:normal;font-stretch:normal;font-size:medium;line-height:100%;font-family:'Euphoria Script';-inkscape-font-specification:'Euphoria Script';letter-spacing:0px;word-spacing:0px;fill:#ff3975;fill-opacity:1;stroke:none;stroke-width:0.49872401px;stroke-linecap:butt;stroke-linejoin:miter;stroke-opacity:1"
         id="path7116"
         inkscape:connector-curvature="0" />
      <path
         d="m 465.91925,792.53205 q -2.91096,0 -2.91096,-6.35814 0,-3.60038 1.37888,-6.74115 -5.20908,4.51964 -11.64381,16.85288 -6.43474,12.25664 -6.43474,16.01024 0,0.91925 -1.22566,0.91925 -2.22152,0 -2.22152,-6.05172 0,-11.414 2.29812,-20.68308 2.29812,-9.26908 5.59209,-9.26908 1.45548,0 1.45548,1.68528 -3.52378,11.18419 -5.05586,22.9046 h 0.53622 q 6.20493,-14.32495 13.71212,-22.36837 4.28982,-4.59624 7.81361,-4.59624 0.76604,0 1.22566,0.45963 0.53623,0.45962 0.53623,1.14906 -0.53623,0.53622 -1.30227,1.60868 -0.76604,1.07246 -2.06831,5.13247 -1.30226,3.98341 -1.30226,8.73285 0,0.61284 -0.38302,0.61284 z"
         style="font-style:normal;font-variant:normal;font-weight:normal;font-stretch:normal;font-size:medium;line-height:100%;font-family:'Euphoria Script';-inkscape-font-specification:'Euphoria Script';letter-spacing:0px;word-spacing:0px;fill:#ff3975;fill-opacity:1;stroke:none;stroke-width:0.49872401px;stroke-linecap:butt;stroke-linejoin:miter;stroke-opacity:1"
         id="path7118"
         inkscape:connector-curvature="0" />
      <path
         d="m 490.9918,777.36445 q 5.82191,0 5.82191,6.81776 0,3.9068 -2.60454,8.19663 -4.44303,7.12417 -11.79701,7.12417 -1.14906,0 -1.9151,-0.38302 -0.76604,-0.38302 -1.14907,-1.14906 5.43889,0 9.95853,-6.28153 3.67699,-5.05586 3.67699,-9.26908 0,-3.14077 -2.52793,-3.14077 -5.05587,0 -9.4223,7.89022 -4.67284,8.57964 -4.67284,17.61892 0,7.6604 4.36643,9.19248 0.84264,0.30641 2.14491,0.30641 1.30227,0 2.75774,-0.61283 1.45548,-0.68944 2.45133,-1.60868 1.99171,-1.8385 3.29397,-4.06002 0.30642,-0.61283 1.14906,-0.61283 1.37888,0 1.30227,0.45963 -0.22981,0.84264 -1.76189,2.83434 -1.45548,1.99171 -2.75774,3.21737 -1.22567,1.14906 -3.29398,2.06831 -1.9917,0.99585 -4.06001,0.99585 -8.12002,0 -10.34154,-7.6604 -0.68944,-2.60453 -0.68944,-5.36228 0,-5.13247 2.37473,-11.18418 3.75359,-9.19248 10.34154,-13.25249 3.60039,-2.14492 7.35398,-2.14492 z"
         style="font-style:normal;font-variant:normal;font-weight:normal;font-stretch:normal;font-size:medium;line-height:100%;font-family:'Euphoria Script';-inkscape-font-specification:'Euphoria Script';letter-spacing:0px;word-spacing:0px;fill:#ff3975;fill-opacity:1;stroke:none;stroke-width:0.49872401px;stroke-linecap:butt;stroke-linejoin:miter;stroke-opacity:1"
         id="path7120"
         inkscape:connector-curvature="0" />
      <path
         d="m 520.72822,777.36445 q 5.82191,0 5.82191,6.81776 0,3.9068 -2.60454,8.19663 -4.44303,7.12417 -11.79702,7.12417 -1.14906,0 -1.9151,-0.38302 -0.76604,-0.38302 -1.14906,-1.14906 5.43889,0 9.95853,-6.28153 3.67699,-5.05586 3.67699,-9.26908 0,-3.14077 -2.52793,-3.14077 -5.05587,0 -9.4223,7.89022 -4.67284,8.57964 -4.67284,17.61892 0,7.6604 4.36643,9.19248 0.84264,0.30641 2.14491,0.30641 1.30227,0 2.75774,-0.61283 1.45548,-0.68944 2.45133,-1.60868 1.99171,-1.8385 3.29397,-4.06002 0.30642,-0.61283 1.14906,-0.61283 1.37888,0 1.30227,0.45963 -0.22981,0.84264 -1.76189,2.83434 -1.45548,1.99171 -2.75774,3.21737 -1.22567,1.14906 -3.29398,2.06831 -1.9917,0.99585 -4.06001,0.99585 -8.12002,0 -10.34154,-7.6604 -0.68944,-2.60453 -0.68944,-5.36228 0,-5.13247 2.37473,-11.18418 3.75359,-9.19248 10.34154,-13.25249 3.60039,-2.14492 7.35398,-2.14492 z"
         style="font-style:normal;font-variant:normal;font-weight:normal;font-stretch:normal;font-size:medium;line-height:100%;font-family:'Euphoria Script';-inkscape-font-specification:'Euphoria Script';letter-spacing:0px;word-spacing:0px;fill:#ff3975;fill-opacity:1;stroke:none;stroke-width:0.49872401px;stroke-linecap:butt;stroke-linejoin:miter;stroke-opacity:1"
         id="path7122"
         inkscape:connector-curvature="0" />
      <path
         d="m 541.65518,825.70158 q -4.44303,0 -6.58794,-4.67284 -2.06831,-4.67285 -2.06831,-14.01854 0,-9.34569 2.75774,-22.13855 2.75775,-12.79287 6.43474,-21.21931 3.7536,-8.42644 6.51134,-8.42644 1.30227,0 1.30227,1.53208 -1.60869,3.67699 -4.06001,11.10758 -2.45133,7.35398 -4.13662,13.63551 -1.60868,6.28153 -2.98756,14.70797 -1.30226,8.42644 -1.30226,14.47815 0,5.97512 1.14906,9.19249 1.22566,3.29397 3.29397,3.29397 1.76189,0 3.37057,-1.68529 1.60869,-1.60868 2.29812,-3.21737 0.38302,-0.84264 1.37888,-0.45962 0.38302,0.15321 0.1532,0.61283 -0.1532,0.53623 -0.61283,1.30227 -0.38302,0.76604 -1.45547,2.37472 -2.29812,3.60039 -5.43889,3.60039 z"
         style="font-style:normal;font-variant:normal;font-weight:normal;font-stretch:normal;font-size:medium;line-height:100%;font-family:'Euphoria Script';-inkscape-font-specification:'Euphoria Script';letter-spacing:0px;word-spacing:0px;fill:#ff3975;fill-opacity:1;stroke:none;stroke-width:0.49872401px;stroke-linecap:butt;stroke-linejoin:miter;stroke-opacity:1"
         id="path7124"
         inkscape:connector-curvature="0" />
      <path
         d="m 552.73761,838.49445 q 6.89436,0 10.80116,-6.51134 3.37058,-5.7453 5.20908,-14.32495 -13.86533,0.30642 -21.29592,10.57135 -0.45962,0.68944 -1.45547,0.22981 -0.53623,-0.30641 -0.30642,-0.76604 3.29397,-4.97926 9.19248,-8.50304 5.89851,-3.44718 14.32495,-3.7536 0.84264,-3.8302 1.60868,-8.96267 0.76604,-5.13246 1.7619,-9.95852 h -0.68944 q -9.95852,17.69553 -15.16759,17.69553 -5.82191,0 -5.82191,-8.96267 0,-8.96267 3.8302,-18.00194 3.8302,-9.11588 6.97097,-9.80531 l 0.45962,-0.0766 q 1.30227,0 1.30227,1.68529 -0.84264,2.06831 -2.14491,5.43889 -1.30227,3.29397 -3.44718,10.95437 -2.14491,7.58379 -2.14491,11.87362 0,4.21322 1.83849,4.21322 2.14491,0 6.89436,-7.43059 6.97097,-10.87777 12.10343,-22.06195 2.22152,-4.67285 4.74945,-4.67285 1.60869,0 1.60869,1.7619 -1.45548,2.68114 -3.52379,10.03512 -2.06831,7.35398 -3.37057,14.86118 -1.30227,7.43058 -2.22152,11.64381 5.8219,0.99585 6.74115,5.05586 0.15321,0.68944 0.15321,1.8385 0,1.22566 -0.91925,2.0683 -0.91925,0.91925 -1.60868,0.91925 0.15321,-0.53623 0.0766,-1.9151 -0.0766,-1.30227 -0.53623,-2.22151 -0.38302,-0.91925 -1.53208,-1.9151 -1.14906,-0.99586 -2.98755,-1.45548 -5.89851,22.21516 -20.45327,22.21516 -6.28153,0 -8.34984,-4.44303 -0.0766,-0.22981 -0.0766,-0.38302 0,-0.45963 0.84264,-0.61283 0.76604,-0.0766 1.14906,0.53622 1.37887,3.14077 6.43474,3.14077 z"
         style="font-style:normal;font-variant:normal;font-weight:normal;font-stretch:normal;font-size:medium;line-height:100%;font-family:'Euphoria Script';-inkscape-font-specification:'Euphoria Script';letter-spacing:0px;word-spacing:0px;fill:#ff3975;fill-opacity:1;stroke:none;stroke-width:0.49872401px;stroke-linecap:butt;stroke-linejoin:miter;stroke-opacity:1"
         id="path7126"
         inkscape:connector-curvature="0" />
      <path
         d="m 592.1019,815.05362 q -1.60869,0 -1.60869,-2.98755 0,-1.8385 0.99586,-3.90681 0.99585,-2.06831 2.83434,-2.06831 1.53208,0 1.53208,1.7619 0,1.76189 -2.83434,5.8985 z"
         style="font-style:normal;font-variant:normal;font-weight:normal;font-stretch:normal;font-size:medium;line-height:100%;font-family:'Euphoria Script';-inkscape-font-specification:'Euphoria Script';letter-spacing:0px;word-spacing:0px;fill:#ff3975;fill-opacity:1;stroke:none;stroke-width:0.49872401px;stroke-linecap:butt;stroke-linejoin:miter;stroke-opacity:1"
         id="path7128"
         inkscape:connector-curvature="0" />
    </g>
    <g
       transform="matrix(0.27101158,0,0,0.27101158,34.09587,7.21004)"
       id="g7498"
       inkscape:label="INKSCAPE">
      <path
         d="m 139.06411,694.98079 c -0.24215,-9.92803 -0.36322,-15.49741 -0.36322,-25.54651 0,-10.0491 0,-15.9817 0.36322,-26.15187 0.24215,-10.0491 1.93718,-10.41232 10.41232,-11.01769 0.72644,-0.72644 0.72644,-2.05825 0,-2.78469 -4.47972,0.24215 -11.98628,0.60537 -15.61848,0.60537 -3.6322,0 -11.8652,-0.36322 -15.73955,-0.60537 -0.72644,0.72644 -0.72644,2.05825 0,2.78469 8.47514,0.72644 10.41232,0.96859 10.65446,11.01769 0.24215,10.0491 0.36322,15.9817 0.36322,26.0308 0,10.0491 -0.12107,15.61848 -0.36322,25.66758 -0.24214,10.04909 -2.17932,10.65446 -10.65446,11.01768 -0.72644,0.72644 -0.72644,2.05825 0,2.78469 4.72186,-0.24214 12.10735,-0.60536 15.73955,-0.60536 3.6322,0 10.65447,0.24214 15.61848,0.60536 0.72644,-0.72644 0.72644,-2.05825 0,-2.78469 -8.47514,-0.36322 -10.17017,-0.96859 -10.41232,-11.01768 z"
         style="font-style:normal;font-variant:normal;font-weight:normal;font-stretch:normal;font-size:121.07299805px;line-height:100%;font-family:'Linux Libertine Display O';-inkscape-font-specification:'Linux Libertine Display O';letter-spacing:0px;word-spacing:0px;fill:#f1557e;fill-opacity:1;stroke:none;stroke-width:0.90805101px;stroke-linecap:butt;stroke-linejoin:miter;stroke-opacity:1"
         id="path7131"
         inkscape:connector-curvature="0" />
      <path
         d="m 222.38348,644.61422 0.12107,42.01249 c 0,2.3004 -0.60537,3.63221 -1.45288,3.63221 -0.96859,0 -2.3004,-2.17932 -5.81153,-6.65904 l -41.5282,-53.51448 -15.61848,-0.24215 c -0.72645,0.72644 -0.72645,2.05825 0,2.78469 5.81152,0.36322 8.83836,4.23757 10.17017,8.95944 l -0.12108,52.0616 c 0,10.77554 -2.05824,11.50198 -10.53339,12.34949 -0.72644,0.72644 -0.72644,2.05825 0,2.78469 5.9326,-0.12107 7.99085,-0.60536 13.07594,-0.60536 5.08508,0 6.90119,0.48429 12.95486,0.60536 0.72644,-0.72644 0.72644,-2.05825 0,-2.78469 -8.47514,-0.84751 -10.53339,-1.33181 -10.53339,-12.34949 l -0.12108,-38.62245 c 0,-4.11649 0.60537,-5.9326 1.57396,-5.9326 0.72644,0 2.05825,1.33181 4.1165,3.99543 l 42.25465,53.39341 c 1.3318,1.8161 2.90576,2.90576 4.84293,2.90576 1.69503,0 1.45289,-1.45288 1.45289,-3.75328 l 0.12107,-61.02103 c 0,-10.77555 2.05825,-11.50199 10.53339,-12.3495 0.72644,-0.72644 0.72644,-2.05825 0,-2.78469 -5.9326,0.12107 -7.99085,0.60537 -13.07593,0.60537 -5.08509,0 -6.90119,-0.4843 -12.95487,-0.60537 -0.72644,0.72644 -0.72644,2.05825 0,2.78469 8.47515,0.84751 10.5334,1.33181 10.5334,12.3495 z"
         style="font-style:normal;font-variant:normal;font-weight:normal;font-stretch:normal;font-size:121.07299805px;line-height:100%;font-family:'Linux Libertine Display O';-inkscape-font-specification:'Linux Libertine Display O';letter-spacing:0px;word-spacing:0px;fill:#f1557e;fill-opacity:1;stroke:none;stroke-width:0.90805101px;stroke-linecap:butt;stroke-linejoin:miter;stroke-opacity:1"
         id="path7133"
         inkscape:connector-curvature="0" />
      <path
         d="m 265.81292,694.98079 c -0.24215,-9.68588 -0.36322,-15.25526 -0.36322,-24.82007 4.23757,0.12107 8.47514,2.05825 11.01769,5.20616 l 19.00853,23.97255 c 2.42147,3.14791 4.1165,6.78012 4.35865,8.71729 0,0.36322 0.12107,0.72644 0.60537,0.72644 2.42147,-0.12107 2.17932,-0.60536 5.81152,-0.60536 4.72187,0 7.74871,0.48429 13.43916,0.60536 0.72644,-0.72644 0.72644,-2.05825 0,-2.78469 -2.17932,-0.36322 -7.7487,-1.57395 -11.8652,-6.65904 l -26.51509,-31.47911 c -0.96859,-1.08966 -1.57396,-2.05824 -1.57396,-3.02683 0,-0.84752 0.12107,-1.69503 4.23757,-5.9326 l 17.79781,-18.2821 c 5.56938,-5.9326 11.62305,-7.7487 16.46599,-8.35407 0.72644,-0.72644 0.72644,-2.05825 0,-2.78469 -5.69045,0.12107 -7.86978,0.60537 -12.71272,0.60537 -4.84294,0 -8.59621,-0.4843 -14.28667,-0.60537 -0.72644,0.72644 -0.72644,2.05825 0,2.78469 4.35865,0.36322 9.56481,2.42147 4.60079,7.86978 l -19.37175,21.30893 c -2.54255,2.78469 -6.53797,4.96401 -11.01769,5.32723 0,-8.47514 0.12107,-14.28667 0.36322,-23.48825 0.24215,-10.0491 2.05825,-10.65447 10.53339,-11.01769 0.72644,-0.72644 0.72644,-2.05825 0,-2.78469 -5.9326,0.12107 -9.68588,0.60537 -15.86062,0.60537 -6.05368,0 -9.44374,-0.4843 -15.49741,-0.60537 -0.72644,0.72644 -0.72644,2.05825 0,2.78469 8.47514,0.36322 10.17017,0.96859 10.41232,11.01769 0.24215,10.0491 0.48429,15.9817 0.48429,26.0308 0,10.0491 -0.24214,15.61848 -0.48429,25.66758 -0.24215,10.04909 -1.93718,10.65446 -10.41232,11.01768 -0.72644,0.72644 -0.72644,2.05825 0,2.78469 5.9326,-0.12107 9.56481,-0.60536 15.73955,-0.60536 6.05368,0 9.56481,0.48429 15.61848,0.60536 0.72644,-0.72644 0.72644,-2.05825 0,-2.78469 -8.47514,-0.36322 -10.29124,-0.96859 -10.53339,-11.01768 z"
         style="font-style:normal;font-variant:normal;font-weight:normal;font-stretch:normal;font-size:121.07299805px;line-height:100%;font-family:'Linux Libertine Display O';-inkscape-font-specification:'Linux Libertine Display O';letter-spacing:0px;word-spacing:0px;fill:#f1557e;fill-opacity:1;stroke:none;stroke-width:0.90805101px;stroke-linecap:butt;stroke-linejoin:miter;stroke-opacity:1"
         id="path7135"
         inkscape:connector-curvature="0" />
      <path
         d="m 368.54187,631.78043 c -7.02226,-0.96859 -6.65904,-3.26899 -18.52424,-3.26899 -12.22842,0 -23.00396,8.11192 -23.00396,20.94571 0,11.38091 7.99085,16.82922 17.43458,20.82464 7.62763,3.39006 20.21927,6.05368 20.21927,19.85606 0,9.80695 -5.81152,16.10277 -15.37633,16.10277 -11.38091,0 -19.85605,-6.29582 -22.51967,-18.40317 -1.45288,-0.48429 -1.57395,-0.24215 -2.66362,0.36322 0.4843,9.32266 0.96859,12.47057 2.42147,18.40317 7.62763,0 10.89662,2.78469 21.67216,2.78469 5.56938,0 10.77554,-1.33181 15.01311,-3.87435 6.90119,-4.35865 11.38091,-11.8652 11.38091,-19.61391 0,-11.50198 -7.86978,-16.95028 -16.70814,-20.70356 -5.81153,-2.42147 -22.51967,-7.14334 -22.51967,-19.00854 0,-6.78011 6.41689,-14.77096 13.43916,-14.77096 11.8652,0 16.82921,8.71729 19.25068,16.70814 1.33181,0 1.57396,0.12107 2.66362,-0.72644 -0.36322,-5.81153 -0.84752,-9.20159 -2.17933,-15.61848 z"
         style="font-style:normal;font-variant:normal;font-weight:normal;font-stretch:normal;font-size:121.07299805px;line-height:100%;font-family:'Linux Libertine Display O';-inkscape-font-specification:'Linux Libertine Display O';letter-spacing:0px;word-spacing:0px;fill:#f1557e;fill-opacity:1;stroke:none;stroke-width:0.90805101px;stroke-linecap:butt;stroke-linejoin:miter;stroke-opacity:1"
         id="path7137"
         inkscape:connector-curvature="0" />
      <path
         d="m 421.98069,709.38853 c 11.74413,0 23.7304,-5.56938 31.9634,-16.34492 -0.60537,-1.08966 -1.45288,-1.8161 -2.78469,-1.8161 -8.59622,9.44373 -16.82922,13.19701 -28.08905,13.19701 -18.76639,0 -28.21012,-19.00854 -28.21012,-36.68527 0,-19.73498 12.59164,-35.95882 27.8469,-35.95882 16.70814,0 23.85148,11.13876 26.99939,21.55108 1.08966,0.12107 1.8161,0 2.78469,-0.60537 -0.60537,-6.29582 -1.45289,-12.10735 -2.66362,-18.76639 -6.17475,-0.60537 -11.62305,-5.44831 -26.51509,-5.44831 -23.97255,0 -39.34889,18.76639 -39.34889,41.52821 0,21.43 11.98628,39.34888 38.01708,39.34888 z"
         style="font-style:normal;font-variant:normal;font-weight:normal;font-stretch:normal;font-size:121.07299805px;line-height:100%;font-family:'Linux Libertine Display O';-inkscape-font-specification:'Linux Libertine Display O';letter-spacing:0px;word-spacing:0px;fill:#f1557e;fill-opacity:1;stroke:none;stroke-width:0.90805101px;stroke-linecap:butt;stroke-linejoin:miter;stroke-opacity:1"
         id="path7139"
         inkscape:connector-curvature="0" />
      <path
         d="m 489.70806,674.51937 c -2.66362,0 -3.51113,-0.96859 -3.02684,-2.17933 l 12.71272,-31.35803 h 0.36322 l 11.62305,33.53736 z m -13.68131,25.30435 7.26441,-18.76639 c 0.60537,-1.57395 1.33181,-2.66361 4.23757,-2.66361 h 25.30436 l 7.62763,22.27752 c 1.69503,4.96401 -3.14791,4.96401 -8.95944,5.32723 -0.72644,0.72644 -0.72644,2.05825 0,2.78469 4.47972,-0.12107 11.13877,-0.60536 15.86063,-0.60536 4.96401,0 10.17017,0.48429 14.64989,0.60536 0.72644,-0.72644 0.72644,-2.05825 0,-2.78469 -4.72186,-0.36322 -8.71729,-0.84751 -10.89661,-7.02226 l -25.30436,-70.46477 c -1.8161,1.08966 -4.72187,2.42147 -6.29582,2.42147 l -28.08905,66.10612 c -3.14791,7.38549 -6.78011,8.59622 -12.10735,8.95944 -0.72644,0.72644 -0.72644,2.05825 0,2.78469 4.47972,-0.12107 7.26441,-0.60536 11.98628,-0.60536 4.96401,0 8.59621,0.48429 13.07593,0.60536 0.72644,-0.72644 0.72644,-2.05825 0,-2.78469 -4.60079,-0.24214 -10.29124,-1.08966 -8.35407,-6.17475 z"
         style="font-style:normal;font-variant:normal;font-weight:normal;font-stretch:normal;font-size:121.07299805px;line-height:100%;font-family:'Linux Libertine Display O';-inkscape-font-specification:'Linux Libertine Display O';letter-spacing:0px;word-spacing:0px;fill:#f1557e;fill-opacity:1;stroke:none;stroke-width:0.90805101px;stroke-linecap:butt;stroke-linejoin:miter;stroke-opacity:1"
         id="path7141"
         inkscape:connector-curvature="0" />
      <path
         d="m 565.52655,672.34004 c 2.66362,0.84752 6.17475,1.08966 10.29125,1.08966 22.03537,0 28.33119,-13.80237 28.33119,-24.09362 0,-7.14333 -4.47971,-20.46142 -26.87831,-20.46142 -3.14791,0 -11.62305,1.21074 -16.46599,1.21074 -6.05368,0 -9.44374,-0.4843 -15.49741,-0.60537 -0.72644,0.72644 -0.72644,2.05825 0,2.78469 8.47514,0.36322 10.29125,0.96859 10.41232,11.01769 0.12107,10.0491 0.24215,15.9817 0.24215,26.0308 0,10.0491 0,15.61848 -0.24215,25.66758 -0.24215,10.17017 -1.93718,10.65446 -10.41232,11.01768 -0.72644,0.72644 -0.72644,2.05825 0,2.78469 5.9326,-0.12107 9.56481,-0.60536 15.73955,-0.60536 6.78012,0 11.13876,0.48429 17.19244,0.60536 0.72644,-0.72644 0.72644,-2.05825 0,-2.78469 -8.35407,-0.48429 -12.3495,-1.08966 -12.47057,-8.11192 -0.12107,-9.08051 -0.24215,-16.82922 -0.24215,-25.54651 z m 0.24215,-34.74809 c 0.12107,-3.51113 2.05825,-5.81152 10.77554,-5.81152 8.35407,0 16.95029,4.35864 16.95029,19.73497 0,13.07594 -6.65904,19.00854 -18.40317,19.00854 -2.90577,0 -7.99085,-0.24215 -9.56481,-0.60537 v -0.60536 c 0,-10.0491 0.12108,-21.67216 0.24215,-31.72126 z"
         style="font-style:normal;font-variant:normal;font-weight:normal;font-stretch:normal;font-size:121.07299805px;line-height:100%;font-family:'Linux Libertine Display O';-inkscape-font-specification:'Linux Libertine Display O';letter-spacing:0px;word-spacing:0px;fill:#f1557e;fill-opacity:1;stroke:none;stroke-width:0.90805101px;stroke-linecap:butt;stroke-linejoin:miter;stroke-opacity:1"
         id="path7143"
         inkscape:connector-curvature="0" />
      <path
         d="m 647.32304,664.95456 -14.1656,0.12107 c 0,0 -0.12107,-16.46599 0.24215,-26.39402 0.12107,-2.90576 1.57395,-5.32723 4.47972,-5.32723 h 18.88746 c 9.08051,0 10.89662,6.4169 13.56023,14.77097 1.45288,0.24214 1.69503,0 2.90577,-0.60537 -0.60537,-4.96401 -2.42147,-16.95029 -2.66362,-17.91888 0,-0.24214 -0.12107,-0.36322 -0.48429,-0.36322 -2.05825,0.36322 -3.14791,0.84752 -6.05368,0.84752 h -35.35346 c -3.6322,0 -9.68588,-0.4843 -15.73955,-0.60537 -0.72644,0.72644 -0.72644,2.05825 0,2.78469 8.47514,0.36322 10.0491,0.96859 10.41232,11.01769 0.24215,9.92802 0.24215,15.9817 0.24215,26.0308 0,10.0491 0,15.73955 -0.24215,25.66758 -0.36322,10.04909 -1.93718,10.65446 -10.41232,11.01768 -0.72644,0.72644 -0.72644,2.05825 0,2.78469 5.9326,-0.12107 12.3495,-0.60536 15.9817,-0.60536 h 26.87831 c 5.81153,0 15.49741,0.60536 15.49741,0.60536 1.69503,-6.05367 3.39006,-14.40774 4.35865,-20.58249 -1.21074,-0.72644 -1.33181,-0.96859 -2.90577,-0.60537 -2.42147,8.71729 -6.78011,17.43458 -15.9817,17.43458 h -18.88746 c -2.66362,0 -4.35865,-1.93717 -4.47972,-5.20616 -0.36322,-10.17017 -0.24215,-31.35803 -0.24215,-31.35803 l 14.1656,0.12108 c 10.29125,0.12107 10.77554,2.66361 11.13876,8.11192 0.72644,0.72644 1.93718,0.72644 2.66362,0 -0.12108,-4.23757 -0.4843,-5.69045 -0.4843,-9.44373 0,-3.99543 0.36322,-6.78012 0.4843,-10.41232 -0.72644,-0.72644 -1.93718,-0.72644 -2.66362,0 -0.36322,6.65904 -0.84751,8.11192 -11.13876,8.11192 z"
         style="font-style:normal;font-variant:normal;font-weight:normal;font-stretch:normal;font-size:121.07299805px;line-height:100%;font-family:'Linux Libertine Display O';-inkscape-font-specification:'Linux Libertine Display O';letter-spacing:0px;word-spacing:0px;fill:#f1557e;fill-opacity:1;stroke:none;stroke-width:0.90805101px;stroke-linecap:butt;stroke-linejoin:miter;stroke-opacity:1"
         id="path7145"
         inkscape:connector-curvature="0" />
    </g>
    <g
       id="inkscape-logo"
       transform="matrix(0.25476342,0,0,0.25476339,91.530696,71.12195)">
      <path
         d="M 163.15,27.83 28.81,165.3 C -16.58,221.51 59.7,214.97 92.4,231.16 104.13,243.15 47.44,252 59.17,264 c 11.73,11.99 70.93,23.1 82.68,35.09 11.73,11.99 -24.01,24.71 -12.28,36.7 11.73,11.99 38.86,0.63 43.94,28.31 3.62,19.78 48.89,8.5 71.03,-7.7 11.73,-12 -22.44,-10.87 -10.71,-22.86 29.17,-29.83 56.33,-10.84 66.31,-40.73 4.93,-14.77 -42.94,-22.77 -31.19,-34.76 33.75,-19.71 150.4,-32.54 95.05,-87.89 L 224.75,27.83 c -17.03,-16.35 -45.45,-16.53 -61.6,0 z m 154.31,264.98 c 0,6.82 50.25,11.29 50.25,-1.61 -7.16,-20.72 -44.31,-19.32 -50.25,1.61 z M 91.1,329.05 c 11.9,10.29 30.28,-2.56 35.79,-16.92 -11.53,-15.32 -54.69,0.55 -35.79,16.92 z m 220.06,-22.23 c -15.34,13.76 1.72,27.72 16.84,18.83 3.37,-3.42 -0.09,-15.41 -16.84,-18.83 z"
         id="path2313"
         inkscape:connector-curvature="0"
         style="fill:#000000;fill-opacity:1" />
      <path
         d="m 131,238.6 c 3.59,2.23 57.89,13.26 71.16,15.46 4.6,0.97 1.34,5.71 -5,8.91 -14.3,3.8 -83.66,-24.37 -66.16,-24.37 z"
         id="path2315"
         style="fill:#ffffff"
         inkscape:connector-curvature="0" />
      <path
         d="m 216.63,37.47 53.15,53.98 c 5.04,5.15 4.97,15.13 2.15,18 L 245.54,88.34 240.35,119.6 218.3,107.96 182.99,130.27 171.3,83.24 152.33,116.06 h -29 c -11.82,0 -13.21,-15 -2.47,-25.74 18.76,-20.25 40.29,-40.89 51.99,-52.85 11.76,-12.02 32.25,-11.68 43.78,0 z"
         id="path2317"
         style="fill:#ffffff"
         inkscape:connector-curvature="0" />
    </g>
    <g
       aria-label="1.0"
       style="font-style:normal;font-variant:normal;font-weight:normal;font-stretch:normal;font-size:10.66666698px;line-height:1000%;font-family:Futura;-inkscape-font-specification:Futura;letter-spacing:0px;word-spacing:0px;fill:#ff0063;fill-opacity:1;stroke:none;stroke-width:1px;stroke-linecap:butt;stroke-linejoin:miter;stroke-opacity:1"
       id="text924"
       inkscape:label="1.0">
      <path
         d="m 129.11595,227.6736 c -0.0427,-1.28 -0.0853,-4.48 -0.0853,-7.72267 0,-3.2 0.0427,-6.44267 0.0853,-7.72267 0.0853,-2.56 0.17066,-5.16266 0.256,-5.71733 0,-0.17067 -0.128,-0.21333 -0.256,-0.21333 -2.38934,1.49333 -4.48,2.51733 -8.23467,4.26666 0.0427,0.512 0.256,0.68267 0.64,0.93867 1.92,-0.81067 2.90133,-1.06667 3.712,-1.06667 0.68267,0 0.768,1.024 0.85333,2.47467 0.0427,1.28 0.0427,4.52267 0.0427,7.50933 0,2.98667 0,5.97334 -0.0427,7.25334 -0.128,3.54133 -0.72533,3.75466 -3.712,3.88266 -0.256,0.256 -0.256,0.72534 0,0.98134 2.09067,-0.0427 3.24267,-0.21334 5.376,-0.21334 1.96267,0 2.944,0.17067 5.07734,0.21334 0.256,-0.256 0.256,-0.72534 0,-0.98134 -2.98667,-0.128 -3.62667,-0.34133 -3.712,-3.88266 z"
         style="font-style:normal;font-variant:normal;font-weight:normal;font-stretch:normal;font-size:42.66666794px;font-family:'Linux Libertine Display O';-inkscape-font-specification:'Linux Libertine Display O';letter-spacing:-2.45000005px;fill:#ff0063;fill-opacity:1"
         id="path916"
         inkscape:connector-curvature="0" />
      <path
         d="m 136.89928,230.31893 c 0,1.10933 1.024,2.21867 2.048,2.21867 1.19467,0 2.21867,-1.10934 2.21867,-2.048 0,-1.024 -0.896,-2.21867 -2.048,-2.21867 -1.024,0 -2.21867,1.024 -2.21867,2.048 z"
         style="font-style:normal;font-variant:normal;font-weight:normal;font-stretch:normal;font-size:42.66666794px;font-family:'Linux Libertine Display O';-inkscape-font-specification:'Linux Libertine Display O';letter-spacing:-2.45000005px;fill:#ff0063;fill-opacity:1"
         id="path918"
         inkscape:connector-curvature="0" />
      <path
         d="m 151.20462,207.36426 c 0.72533,0 1.408,0.256 1.92,0.72534 1.32266,1.10933 2.73066,4.77866 2.73066,10.496 0,3.92533 -0.128,7.04 -0.72533,9.216 -0.93867,3.49866 -3.28533,3.88266 -4.05333,3.88266 -3.66934,0 -4.65067,-7.72266 -4.65067,-11.43466 0,-10.496 2.85867,-12.88534 4.77867,-12.88534 z m -0.17067,25.38667 c 3.28533,0 8.27733,-3.328 8.27733,-13.35467 0,-4.224 -1.024,-7.808 -2.90133,-10.28266 -1.32267,-1.74934 -2.64533,-2.816 -5.20533,-2.816 -4.224,0 -8.23467,5.03466 -8.23467,13.48266 0,6.912 3.24267,12.97067 8.064,12.97067 z"
         style="font-style:normal;font-variant:normal;font-weight:normal;font-stretch:normal;font-size:42.66666794px;font-family:'Linux Libertine Display O';-inkscape-font-specification:'Linux Libertine Display O';letter-spacing:-2.45000005px;fill:#ff0063;fill-opacity:1"
         id="path920"
         inkscape:connector-curvature="0" />
    </g>
    <g
       inkscape:label="inkscape.org"
       id="text2671"
       style="font-style:normal;font-weight:normal;font-size:13.33333302px;line-height:1.25;font-family:sans-serif;fill:#ff7eb6;fill-opacity:1;stroke:none"
       aria-label="www.inkscape.org">
      <path
         inkscape:connector-curvature="0"
         id="path1048"
         style="font-style:normal;font-variant:normal;font-weight:normal;font-stretch:normal;font-family:'Linux Libertine Display O';-inkscape-font-specification:'Linux Libertine Display O';fill:#ff7eb6;fill-opacity:1"
         d="m 92.586667,277.78667 c 0.08,-0.08 0.08,-0.22667 0,-0.30667 -0.466667,0.0133 -0.933334,0.0667 -1.333334,0.0667 -0.4,0 -0.786666,-0.0533 -1.12,-0.0667 -0.08,0.08 -0.08,0.22667 0,0.30667 0.6,0.0667 0.746667,0.33333 1.013334,1 l 1.666666,4.10666 c 0.08,0.17334 0.173334,0.25334 0.306667,0.25334 0.12,0 0.2,-0.08 0.293333,-0.28 l 1.293334,-3.12 1.306666,3.14666 c 0.08,0.17334 0.173334,0.25334 0.306667,0.25334 0.12,0 0.213333,-0.08 0.293333,-0.26667 l 1.653333,-4.02667 c 0.213334,-0.52 0.426667,-1.02666 1.08,-1.06666 0.08,-0.08 0.08,-0.22667 0,-0.30667 -0.32,0.0133 -0.44,0.0667 -0.893333,0.0667 -0.48,0 -0.786667,-0.0533 -1.253333,-0.0667 -0.08,0.08 -0.08,0.22667 0,0.30667 0.96,0.0533 0.786666,0.56 0.613333,1.01333 l -1.066666,2.65333 c -0.133334,0.32 -0.226667,0.42667 -0.373334,0.0533 L 95.28,278.72 c -0.24,-0.6 -0.16,-0.88 0.52,-0.93333 0.08,-0.08 0.08,-0.22667 0,-0.30667 -0.466667,0.0133 -0.933333,0.0667 -1.28,0.0667 -0.373333,0 -0.64,-0.0533 -1.106667,-0.0667 -0.08,0.08 -0.08,0.22667 0,0.30667 0.653334,0.0533 0.76,0.57333 0.973334,1.14666 l 0.106666,0.29334 -0.88,2.16 C 93.44,281.8 93.32,281.82667 93.16,281.41333 l -1.013333,-2.62666 c -0.24,-0.61334 -0.173334,-0.96 0.44,-1 z" />
      <path
         inkscape:connector-curvature="0"
         id="path1050"
         style="font-style:normal;font-variant:normal;font-weight:normal;font-stretch:normal;font-family:'Linux Libertine Display O';-inkscape-font-specification:'Linux Libertine Display O';fill:#ff7eb6;fill-opacity:1"
         d="m 102.30021,277.78667 c 0.08,-0.08 0.08,-0.22667 0,-0.30667 -0.46667,0.0133 -0.93334,0.0667 -1.33334,0.0667 -0.4,0 -0.78666,-0.0533 -1.119996,-0.0667 -0.08,0.08 -0.08,0.22667 0,0.30667 0.599996,0.0667 0.746666,0.33333 1.013336,1 l 1.66666,4.10666 c 0.08,0.17334 0.17334,0.25334 0.30667,0.25334 0.12,0 0.2,-0.08 0.29333,-0.28 l 1.29334,-3.12 1.30666,3.14666 c 0.08,0.17334 0.17334,0.25334 0.30667,0.25334 0.12,0 0.21333,-0.08 0.29333,-0.26667 l 1.65334,-4.02667 c 0.21333,-0.52 0.42666,-1.02666 1.08,-1.06666 0.08,-0.08 0.08,-0.22667 0,-0.30667 -0.32,0.0133 -0.44,0.0667 -0.89334,0.0667 -0.48,0 -0.78666,-0.0533 -1.25333,-0.0667 -0.08,0.08 -0.08,0.22667 0,0.30667 0.96,0.0533 0.78667,0.56 0.61333,1.01333 l -1.06666,2.65333 c -0.13334,0.32 -0.22667,0.42667 -0.37334,0.0533 L 104.99354,278.72 c -0.24,-0.6 -0.16,-0.88 0.52,-0.93333 0.08,-0.08 0.08,-0.22667 0,-0.30667 -0.46667,0.0133 -0.93333,0.0667 -1.28,0.0667 -0.37333,0 -0.64,-0.0533 -1.10667,-0.0667 -0.08,0.08 -0.08,0.22667 0,0.30667 0.65334,0.0533 0.76,0.57333 0.97334,1.14666 l 0.10666,0.29334 -0.88,2.16 c -0.17333,0.41333 -0.29333,0.44 -0.45333,0.0267 l -1.01333,-2.62666 c -0.24,-0.61334 -0.17334,-0.96 0.44,-1 z" />
      <path
         inkscape:connector-curvature="0"
         id="path1052"
         style="font-style:normal;font-variant:normal;font-weight:normal;font-stretch:normal;font-family:'Linux Libertine Display O';-inkscape-font-specification:'Linux Libertine Display O';fill:#ff7eb6;fill-opacity:1"
         d="m 112.01375,277.78667 c 0.08,-0.08 0.08,-0.22667 0,-0.30667 -0.46667,0.0133 -0.93333,0.0667 -1.33333,0.0667 -0.4,0 -0.78667,-0.0533 -1.12,-0.0667 -0.08,0.08 -0.08,0.22667 0,0.30667 0.6,0.0667 0.74666,0.33333 1.01333,1 l 1.66667,4.10666 c 0.08,0.17334 0.17333,0.25334 0.30666,0.25334 0.12,0 0.2,-0.08 0.29334,-0.28 l 1.29333,-3.12 1.30667,3.14666 c 0.08,0.17334 0.17333,0.25334 0.30666,0.25334 0.12,0 0.21334,-0.08 0.29334,-0.26667 l 1.65333,-4.02667 c 0.21333,-0.52 0.42667,-1.02666 1.08,-1.06666 0.08,-0.08 0.08,-0.22667 0,-0.30667 -0.32,0.0133 -0.44,0.0667 -0.89333,0.0667 -0.48,0 -0.78667,-0.0533 -1.25334,-0.0667 -0.08,0.08 -0.08,0.22667 0,0.30667 0.96,0.0533 0.78667,0.56 0.61334,1.01333 l -1.06667,2.65333 c -0.13333,0.32 -0.22667,0.42667 -0.37333,0.0533 L 114.70708,278.72 c -0.24,-0.6 -0.16,-0.88 0.52,-0.93333 0.08,-0.08 0.08,-0.22667 0,-0.30667 -0.46666,0.0133 -0.93333,0.0667 -1.28,0.0667 -0.37333,0 -0.64,-0.0533 -1.10666,-0.0667 -0.08,0.08 -0.08,0.22667 0,0.30667 0.65333,0.0533 0.76,0.57333 0.97333,1.14666 l 0.10667,0.29334 -0.88,2.16 c -0.17334,0.41333 -0.29334,0.44 -0.45334,0.0267 l -1.01333,-2.62666 c -0.24,-0.61334 -0.17333,-0.96 0.44,-1 z" />
      <path
         inkscape:connector-curvature="0"
         id="path1054"
         style="font-style:normal;font-variant:normal;font-weight:normal;font-stretch:normal;font-family:'Linux Libertine Display O';-inkscape-font-specification:'Linux Libertine Display O';fill:#ff7eb6;fill-opacity:1"
         d="m 118.95104,282.37333 c 0,0.34667 0.32,0.69334 0.64,0.69334 0.37333,0 0.69333,-0.34667 0.69333,-0.64 0,-0.32 -0.28,-0.69334 -0.64,-0.69334 -0.32,0 -0.69333,0.32 -0.69333,0.64 z" />
      <path
         inkscape:connector-curvature="0"
         id="path1056"
         style="font-style:normal;font-variant:normal;font-weight:normal;font-stretch:normal;font-family:'Linux Libertine Display O';-inkscape-font-specification:'Linux Libertine Display O';fill:#ff7eb6;fill-opacity:1"
         d="m 122.16041,275.01333 c 0,0.34667 0.32,0.69334 0.64,0.69334 0.37334,0 0.69334,-0.34667 0.69334,-0.64 0,-0.32 -0.28,-0.69334 -0.64,-0.69334 -0.32,0 -0.69334,0.32 -0.69334,0.64 z m 1.28,6.53334 c -0.0267,-0.4 -0.0267,-1.06667 -0.0267,-1.46667 0,-0.4 0,-0.82667 0.0267,-1.22667 0.0267,-0.65333 0.08,-1.38666 0.08,-1.38666 0,-0.0533 -0.0667,-0.0933 -0.17333,-0.0933 -0.38667,0.14667 -0.85333,0.26667 -1.77333,0.38667 -0.0267,0.08 0,0.16 0.0267,0.24 0.72,0.08 0.82667,0.13333 0.86667,0.90667 0.0133,0.4 0.0267,0.76 0.0267,1.16 0,0.4 -0.0267,1.08 -0.0267,1.48 -0.04,1.10666 -0.14667,1.14666 -0.96,1.21333 -0.08,0.08 -0.08,0.22667 0,0.30667 0.34667,-0.0267 1.05333,-0.0667 1.45333,-0.0667 0.41334,0 1.04,0.04 1.44,0.0667 0.08,-0.08 0.08,-0.22667 0,-0.30667 -0.81333,-0.0533 -0.92,-0.0933 -0.96,-1.21333 z" />
      <path
         inkscape:connector-curvature="0"
         id="path1058"
         style="font-style:normal;font-variant:normal;font-weight:normal;font-stretch:normal;font-family:'Linux Libertine Display O';-inkscape-font-specification:'Linux Libertine Display O';fill:#ff7eb6;fill-opacity:1"
         d="m 126.99479,278.45333 c -0.04,0.0533 -0.12,0.17334 -0.12,0 0,-0.38666 0.0667,-0.97333 0.0667,-0.97333 0,-0.0667 -0.0533,-0.0933 -0.16,-0.0933 -0.36,0.13333 -0.8,0.24 -1.68,0.36 -0.0267,0.08 0,0.14666 0.0267,0.22666 0.68,0.0667 0.8,0.13334 0.82667,0.86667 0.0133,0.69333 0.0133,2.12 0,2.77333 -0.0267,1.04 -0.13333,1.08 -0.89333,1.14667 -0.08,0.08 -0.08,0.22667 0,0.30667 0.52,-0.0133 0.82666,-0.0667 1.37333,-0.0667 0.49333,0 0.68,0.0533 1.21333,0.0667 0.08,-0.08 0.08,-0.22667 0,-0.30667 -0.65333,-0.0667 -0.73333,-0.10667 -0.76,-1.14667 -0.0267,-0.61333 -0.04,-1.74666 0,-2.38666 0.0133,-0.26667 0.10667,-0.41334 0.21334,-0.53334 0.48,-0.46666 1.18666,-0.74666 1.68,-0.74666 0.25333,0 0.53333,0.16 0.68,0.45333 0.13333,0.25333 0.10666,0.6 0.13333,0.98667 0.0267,0.66666 0.0267,1.56 0,2.22666 -0.0533,1.04 -0.12,1.08 -0.78667,1.14667 -0.0667,0.08 -0.0667,0.22667 0,0.30667 0.53334,-0.0133 0.77334,-0.0667 1.28,-0.0667 0.52,0 0.76,0.0533 1.30667,0.0667 0.0667,-0.08 0.0667,-0.22667 0,-0.30667 -0.70667,-0.0667 -0.81333,-0.10667 -0.85333,-1.14667 -0.0267,-0.65333 -0.0267,-1.38666 0,-2.05333 0,-0.2 0.0133,-0.38667 0.0133,-0.57333 0,-0.45334 -0.0533,-0.84 -0.25333,-1.13334 -0.21334,-0.28 -0.64,-0.44 -1.08,-0.44 -0.62667,0 -1.45334,0.17334 -2.22667,1.04 z" />
      <path
         inkscape:connector-curvature="0"
         id="path1060"
         style="font-style:normal;font-variant:normal;font-weight:normal;font-stretch:normal;font-family:'Linux Libertine Display O';-inkscape-font-specification:'Linux Libertine Display O';fill:#ff7eb6;fill-opacity:1"
         d="M 132.74666,281.62667 C 132.72,282.68 132.6,282.72 131.82666,282.76 c -0.0933,0.0933 -0.08,0.24 0,0.30667 0.53334,-0.0133 0.85334,-0.0667 1.4,-0.0667 0.54667,0 0.86667,0.0533 1.41334,0.0667 0.0667,-0.0667 0.08,-0.21334 0,-0.30667 -0.77334,-0.04 -0.89334,-0.08 -0.92,-1.13333 -0.0133,-0.25334 -0.0267,-0.72 -0.0267,-1.29334 0.64,0.0133 0.85333,0.12 1.14667,0.49334 l 0.92,1.24 c 0.36,0.49333 0.44,0.74666 0.49333,0.93333 0.0133,0.04 0.0133,0.0667 0.0533,0.0667 0.2,-0.0267 0.52,-0.0667 0.70667,-0.0667 0.2,0 0.8,0.04 1.05333,0.0667 0.08,-0.08 0.08,-0.22667 0,-0.30667 -0.42666,-0.0533 -0.76,-0.26667 -1.09333,-0.69333 l -1.68,-2.10667 c -0.04,-0.0533 -0.0933,-0.10667 -0.0933,-0.17333 0,-0.0533 0,-0.08 0.0533,-0.13334 l 1.12,-1.14666 c 0.38667,-0.41334 0.82667,-0.66667 1.33333,-0.72 0.08,-0.08 0.08,-0.22667 0,-0.30667 -0.46666,0.0133 -0.65333,0.0667 -1.10666,0.0667 -0.48,0 -0.78667,-0.0533 -1.25334,-0.0667 -0.08,0.08 -0.08,0.22667 0,0.30667 0.70667,0.0533 0.54667,0.65333 0.42667,0.8 -0.29333,0.37333 -0.69333,0.8 -1.01333,1.04 -0.29334,0.21333 -0.82667,0.37333 -1.06667,0.4 -0.0133,-0.42667 -0.0133,-0.92 -0.0133,-1.41334 0,-1.46666 0.0267,-3.01333 0.04,-3.6 0.0133,-0.82666 0.0533,-1.2 0.0533,-1.2 0,-0.0933 -0.0533,-0.12 -0.17333,-0.12 -0.32,0.13334 -1.2,0.29334 -1.70667,0.33334 -0.0267,0.10666 -0.04,0.17333 0.04,0.25333 0.66667,0.04 0.76,0.10667 0.81333,1.04 0.0133,0.52 0.0267,1.72 0.0267,2.94667 0,1.38666 -0.0133,2.81333 -0.0267,3.36 z" />
      <path
         inkscape:connector-curvature="0"
         id="path1062"
         style="font-style:normal;font-variant:normal;font-weight:normal;font-stretch:normal;font-family:'Linux Libertine Display O';-inkscape-font-specification:'Linux Libertine Display O';fill:#ff7eb6;fill-opacity:1"
         d="m 138.81645,281.32 c 0.0533,0.62667 0.08,1.14667 0.08,1.68 0.13334,-0.0267 0.25334,-0.04 0.32,-0.04 0.0933,0 0.16,0 0.25334,0.0267 0.34666,0.0933 0.69333,0.14666 1.16,0.14666 0.70666,0 2.02666,-0.36 2.02666,-1.61333 0,-0.86667 -0.62666,-1.29333 -1.49333,-1.62667 -0.76,-0.29333 -1.32,-0.54666 -1.32,-1.24 0,-0.52 0.42667,-0.94666 0.94667,-0.94666 0.46666,0 1.14666,0.17333 1.30666,1.25333 0.08,0.0667 0.2,0.0667 0.28,-0.0133 0.04,-0.45334 0.0533,-0.86667 0.0667,-1.28 -0.4,-0.0667 -0.98667,-0.25334 -1.65333,-0.25334 -1.01334,0 -1.8,0.54667 -1.8,1.42667 0,0.93333 0.49333,1.30667 1.4,1.69333 1.04,0.45334 1.33333,0.73334 1.33333,1.28 0,0.62667 -0.65333,1.02667 -1.12,1.02667 -0.49333,0 -0.84,-0.21333 -0.97333,-0.34667 -0.30667,-0.29333 -0.48,-0.86666 -0.56,-1.18666 -0.08,-0.08 -0.17334,-0.0667 -0.25334,0.0133 z" />
      <path
         inkscape:connector-curvature="0"
         id="path1064"
         style="font-style:normal;font-variant:normal;font-weight:normal;font-stretch:normal;font-family:'Linux Libertine Display O';-inkscape-font-specification:'Linux Libertine Display O';fill:#ff7eb6;fill-opacity:1"
         d="m 148.36375,281.84 c -0.0533,-0.12 -0.08,-0.12 -0.2,-0.13333 -0.42667,0.56 -1.10667,0.93333 -1.65333,0.93333 -1,0 -1.85334,-0.96 -1.85334,-2.56 0,-1.4 0.76,-2.36 1.6,-2.36 0.74667,0 0.94667,0.57333 1,1.01333 0.04,0.36 0.21334,0.45334 0.48,0.45334 0.26667,0 0.61334,-0.16 0.61334,-0.56 0,-0.69334 -0.8,-1.21334 -2.02667,-1.21334 -1.25333,0 -2.68,1.14667 -2.68,2.94667 0,1.64 0.98667,2.77333 2.58667,2.77333 0.76,0 1.49333,-0.25333 2.13333,-1.29333 z" />
      <path
         inkscape:connector-curvature="0"
         id="path1066"
         style="font-style:normal;font-variant:normal;font-weight:normal;font-stretch:normal;font-family:'Linux Libertine Display O';-inkscape-font-specification:'Linux Libertine Display O';fill:#ff7eb6;fill-opacity:1"
         d="m 152.68271,280.17333 -0.0667,1.56 c -0.0133,0.16 -0.0667,0.24 -0.17333,0.32 -0.33334,0.26667 -0.78667,0.68 -1.14667,0.68 -0.64,0 -0.98667,-0.56 -0.98667,-0.96 0,-0.49333 0.32,-1.09333 1.28,-1.33333 z m -0.0667,2.21334 c 0.08,0.26666 0.28,0.74666 0.96,0.74666 0.62667,0 1.08,-0.50666 1.08,-0.57333 0,-0.0933 -0.13333,-0.17333 -0.18667,-0.17333 -0.08,0 -0.12,0.21333 -0.38666,0.21333 -0.49334,0 -0.56,-0.4 -0.53334,-1.13333 l 0.0667,-1.89334 c 0.0533,-1.77333 -0.88,-2.16 -1.81333,-2.16 -1.04,0 -2.16,0.66667 -2.16,1.34667 0,0.30667 0.21333,0.52 0.50666,0.52 0.37334,0 0.58667,-0.33333 0.58667,-0.49333 0,-0.0933 -0.0133,-0.17334 -0.04,-0.22667 -0.0133,-0.04 -0.0267,-0.12 -0.0267,-0.25333 0,-0.4 0.54667,-0.6 1.02667,-0.6 0.42667,0 1,0.34666 1,1.78666 0,0.0933 -0.0267,0.26667 -0.0667,0.28 l -1.2,0.26667 c -1.24,0.28 -2.09333,0.92 -2.09333,1.78667 0,0.97333 0.69333,1.30666 1.58667,1.30666 0.58666,0 0.85333,-0.12 1.41333,-0.54666 l 0.25333,-0.2 z" />
      <path
         inkscape:connector-curvature="0"
         id="path1068"
         style="font-style:normal;font-variant:normal;font-weight:normal;font-stretch:normal;font-family:'Linux Libertine Display O';-inkscape-font-specification:'Linux Libertine Display O';fill:#ff7eb6;fill-opacity:1"
         d="m 157.04437,278.62667 c 0.36,-0.44 0.77333,-0.76 1.25333,-0.76 0.81334,0 1.56,0.78666 1.56,2.36 0,1.04 -0.45333,2.6 -1.88,2.6 -0.22666,0 -0.61333,-0.0667 -0.84,-0.26667 -0.25333,-0.22667 -0.32,-0.44 -0.32,-0.89333 0,0 0,-1.68 0.0267,-2.34667 0,-0.26667 0.04,-0.50667 0.2,-0.69333 z M 156.9377,278.32 c -0.04,0.0533 -0.12,0.0533 -0.12,-0.04 0,-0.45333 0.04,-0.81333 0.04,-0.81333 0,-0.0533 -0.0533,-0.08 -0.16,-0.08 -0.36,0.13333 -0.76,0.24 -1.64,0.36 -0.0267,0.08 0,0.14666 0.0267,0.22666 0.68,0.0667 0.78667,0.14667 0.82667,0.86667 0.0267,0.66667 0.0267,5.33333 0,6 -0.0533,1.05333 -0.13334,1.12 -0.90667,1.16 -0.08,0.08 -0.08,0.2 0,0.28 0.53333,-0.0133 0.82667,-0.0667 1.37333,-0.0667 0.58667,0 0.96,0.0533 1.50667,0.0667 0.08,-0.08 0.08,-0.2 0,-0.28 -0.90667,-0.0533 -1,-0.10667 -1.04,-1.16 -0.0267,-0.66667 -0.0267,-1.81333 -0.0267,-1.81333 0,-0.16 0.0667,-0.14667 0.2,-0.0933 0.30667,0.12 0.64,0.2 1.04,0.2 0.70667,0 1.34667,-0.22666 1.86667,-0.72 0.6,-0.58666 0.94667,-1.50666 0.94667,-2.53333 0,-1.48 -0.96,-2.46667 -2.25334,-2.46667 -0.77333,0 -1.24,0.33334 -1.68,0.90667 z" />
      <path
         inkscape:connector-curvature="0"
         id="path1070"
         style="font-style:normal;font-variant:normal;font-weight:normal;font-stretch:normal;font-family:'Linux Libertine Display O';-inkscape-font-specification:'Linux Libertine Display O';fill:#ff7eb6;fill-opacity:1"
         d="m 163.00437,279.54667 c 0.24,-1.44 1.08,-1.82667 1.56,-1.82667 0.61334,0 1.2,0.52 1.2,1.58667 0,0.12 -0.0533,0.17333 -0.18666,0.17333 z m 3.52,2.26666 c -0.46666,0.48 -0.90666,0.82667 -1.64,0.82667 -0.45333,0 -1.12,-0.26667 -1.52,-0.92 -0.25333,-0.41333 -0.4,-1.05333 -0.4,-1.78667 l 3.57334,-0.0533 c 0.14666,0 0.24,-0.0933 0.24,-0.22667 0,-1.06666 -0.44,-2.24 -2.21334,-2.24 -1.21333,0 -2.61333,1.08 -2.61333,3.01334 0,0.70666 0.18667,1.41333 0.6,1.89333 0.42667,0.50667 1.09333,0.81333 2.01333,0.81333 0.96,0 1.72,-0.44 2.22667,-1.10666 -0.04,-0.13334 -0.12,-0.2 -0.26667,-0.21334 z" />
      <path
         inkscape:connector-curvature="0"
         id="path1072"
         style="font-style:normal;font-variant:normal;font-weight:normal;font-stretch:normal;font-family:'Linux Libertine Display O';-inkscape-font-specification:'Linux Libertine Display O';fill:#ff7eb6;fill-opacity:1"
         d="m 167.96145,282.37333 c 0,0.34667 0.32,0.69334 0.64,0.69334 0.37334,0 0.69334,-0.34667 0.69334,-0.64 0,-0.32 -0.28,-0.69334 -0.64,-0.69334 -0.32,0 -0.69334,0.32 -0.69334,0.64 z" />
      <path
         inkscape:connector-curvature="0"
         id="path1074"
         style="font-style:normal;font-variant:normal;font-weight:normal;font-stretch:normal;font-family:'Linux Libertine Display O';-inkscape-font-specification:'Linux Libertine Display O';fill:#ff7eb6;fill-opacity:1"
         d="m 170.6375,280.4 c 0,1.29333 0.86666,2.73333 2.66666,2.73333 0.81334,0 1.42667,-0.29333 1.86667,-0.72 0.57333,-0.56 0.82667,-1.36 0.82667,-2.13333 0,-1.32 -0.72,-2.86667 -2.66667,-2.86667 -0.84,0 -1.52,0.34667 -1.98667,0.89334 -0.46666,0.54666 -0.70666,1.29333 -0.70666,2.09333 z m 2.50666,-2.68 c 1.09334,0 1.84,1.13333 1.84,2.96 0,1.6 -0.89333,2.14667 -1.49333,2.14667 -1.32,0 -1.84,-1.74667 -1.84,-2.72 0,-1.10667 0.34667,-2.38667 1.49333,-2.38667 z" />
      <path
         inkscape:connector-curvature="0"
         id="path1076"
         style="font-style:normal;font-variant:normal;font-weight:normal;font-stretch:normal;font-family:'Linux Libertine Display O';-inkscape-font-specification:'Linux Libertine Display O';fill:#ff7eb6;fill-opacity:1"
         d="m 177.88312,278.84 c 0.0267,0.68 0.0267,2.10667 0,2.77333 -0.0533,1.05334 -0.14667,1.08 -0.93333,1.14667 -0.08,0.08 -0.08,0.22667 0,0.30667 0.4,-0.0267 1,-0.0667 1.4,-0.0667 0.38666,0 1.06666,0.04 1.50666,0.0667 0.08,-0.08 0.08,-0.22667 0,-0.30667 -0.89333,-0.08 -1,-0.0933 -1.04,-1.14667 -0.0267,-0.66666 -0.0133,-1.68 0,-1.93333 0.0133,-0.33333 0.17334,-0.69333 0.30667,-0.92 0.12,-0.2 0.44,-0.68 0.58667,-0.68 0.0933,0 0.2,0.0267 0.25333,0.12 0.0933,0.17333 0.26667,0.41333 0.53333,0.41333 0.30667,0 0.6,-0.26666 0.6,-0.58666 0,-0.24 -0.14666,-0.61334 -0.77333,-0.61334 -0.49333,0 -0.98667,0.42667 -1.41333,1.06667 -0.0933,0.13333 -0.10667,-0.0533 -0.10667,-0.12 0,-0.41333 -0.0133,-0.81333 -0.04,-0.89333 -0.0267,-0.04 -0.0533,-0.08 -0.16,-0.08 -0.36,0.13333 -0.69333,0.24 -1.57333,0.36 -0.0267,0.08 -0.0267,0.14666 0.0267,0.22666 0.68,0.0667 0.8,0.17334 0.82667,0.86667 z" />
      <path
         inkscape:connector-curvature="0"
         id="path1078"
         style="font-style:normal;font-variant:normal;font-weight:normal;font-stretch:normal;font-family:'Linux Libertine Display O';-inkscape-font-specification:'Linux Libertine Display O';fill:#ff7eb6;fill-opacity:1"
         d="m 185.42145,279.45333 c 0,1.18667 -0.64,1.54667 -1.10667,1.54667 -1.06666,0 -1.22666,-1.02667 -1.22666,-1.84 0,-0.89333 0.37333,-1.44 1.06666,-1.44 0.8,0 1.26667,0.68 1.26667,1.73333 z m -2.41333,3.68 c 0.13333,0.04 0.34666,0.0533 0.50666,0.0533 0.4,0 0.76,-0.04 0.93334,-0.04 0.64,0 1.06666,0.0267 1.44,0.22666 0.49333,0.28 0.65333,0.58667 0.65333,0.92 0,0.92 -1.25333,1.65334 -2.4,1.65334 -0.85333,0 -1.57333,-0.62667 -1.57333,-1.49334 0,-0.42666 0.0667,-0.88 0.44,-1.32 z m 3.96,-5.05333 c 0.24,0 0.48,-0.22667 0.48,-0.48 0,-0.26667 -0.24,-0.46667 -0.58667,-0.46667 -0.33333,0 -0.94667,0.21334 -1.28,0.64 -0.14667,-0.10666 -0.57333,-0.36 -1.32,-0.36 -1.13333,0 -2.13333,0.76 -2.13333,1.93334 0,0.68 0.26666,1.08 0.62666,1.42666 -0.36,0.30667 -0.69333,0.73334 -0.69333,1.28 0,0.53334 0.33333,0.85334 0.72,0.98667 -0.68,0.41333 -1.06667,1.12 -1.06667,1.66667 0,1.10666 1.06667,1.57333 2.04,1.57333 1.72,0 3.57334,-0.94667 3.57334,-2.32 0,-0.41333 -0.18667,-0.77333 -0.56,-1.08 -0.49334,-0.41333 -1.38667,-0.42667 -1.85334,-0.42667 -0.22666,0 -0.54666,0.0267 -0.85333,0.0667 -0.18667,0.0133 -0.32,0.0267 -0.38667,0.0267 -0.37333,0 -0.85333,-0.33334 -0.85333,-0.8 0,-0.25334 0.13333,-0.53334 0.28,-0.74667 0.30667,0.17333 0.65333,0.30667 1.14667,0.30667 1.12,0 2.13333,-0.74667 2.13333,-1.98667 0,-0.6 -0.16,-0.93333 -0.53333,-1.32 0.0933,-0.13333 0.36,-0.30667 0.52,-0.30667 0.0933,0 0.17333,0.04 0.25333,0.16 0.0533,0.10667 0.21333,0.22667 0.34667,0.22667 z" />
    </g>
  </g>
</svg>
