<?xml version="1.0" encoding="UTF-8" standalone="no"?>
<svg
   xmlns:dc="http://purl.org/dc/elements/1.1/"
   xmlns:cc="http://creativecommons.org/ns#"
   xmlns:rdf="http://www.w3.org/1999/02/22-rdf-syntax-ns#"
   xmlns:svg="http://www.w3.org/2000/svg"
   xmlns="http://www.w3.org/2000/svg"
   xmlns:xlink="http://www.w3.org/1999/xlink"
   xmlns:sodipodi="http://sodipodi.sourceforge.net/DTD/sodipodi-0.dtd"
   xmlns:inkscape="http://www.inkscape.org/namespaces/inkscape"
   sodipodi:docname="Inkscape 1.0c LukaszDabrowski.svg"
   inkscape:version="0.92.4 (0.92.4+201911060205+13fe9f3)"
   id="svg8"
   version="1.1"
   viewBox="0 0 198.4375 165.36459"
   height="625"
   width="750"
   enable-background="new"
   inkscape:export-filename="C:\users\lukasz\Moje obrazy\Inkscape 1.0c LukaszDabrowski.svg.png"
   inkscape:export-xdpi="96"
   inkscape:export-ydpi="96">
  <title
     id="title842">Inscape 1c Lukasz Dabrowski</title>
  <defs
     id="defs2">
    <linearGradient
       inkscape:collect="always"
       id="linearGradient30305">
      <stop
         style="stop-color:#ffffff;stop-opacity:1;"
         offset="0"
         id="stop30301" />
      <stop
         style="stop-color:#c2c2c2;stop-opacity:1"
         offset="1"
         id="stop30303" />
    </linearGradient>
    <clipPath
       clipPathUnits="userSpaceOnUse"
       id="clipPath968">
      <rect
         style="fill:#ffffff;stroke-width:0.264583;stroke-linecap:round;stroke-linejoin:round"
         id="rect970"
         width="55.057522"
         height="13.363476"
         x="-124.14669"
         y="258.04874" />
    </clipPath>
    <linearGradient
       inkscape:collect="always"
       xlink:href="#linearGradient30305"
       id="linearGradient30317"
       gradientUnits="userSpaceOnUse"
       x1="218.00607"
       y1="59.775185"
       x2="218.00607"
       y2="210.37842"
       gradientTransform="matrix(0.33072916,0,0,0.33072916,-1.8382947,2.1745532)" />
    <linearGradient
       gradientUnits="userSpaceOnUse"
       y2="106.65584"
       x2="87.129868"
       y1="0"
       x1="87.129868"
       id="linearGradient856-5"
       xlink:href="#linearGradient1587"
       inkscape:collect="always"
       gradientTransform="matrix(1.25,0,0,1.25,9.2858884e-6,-2.8833007e-6)" />
    <linearGradient
       inkscape:collect="always"
       id="linearGradient1587">
      <stop
         style="stop-color:#303c80;stop-opacity:1"
         offset="0"
         id="stop1581" />
      <stop
         id="stop1583"
         offset="0.659275"
         style="stop-color:#ff6161;stop-opacity:1" />
      <stop
         style="stop-color:#2059b3;stop-opacity:1"
         offset="1"
         id="stop1585" />
    </linearGradient>
    <linearGradient
       inkscape:collect="always"
       xlink:href="#linearGradient1069"
       id="linearGradient1555"
       gradientUnits="userSpaceOnUse"
       x1="-133.76602"
       y1="287.74765"
       x2="-111.28344"
       y2="286.22528" />
    <linearGradient
       id="linearGradient1069"
       inkscape:collect="always">
      <stop
         id="stop1063"
         offset="0"
         style="stop-color:#4e60cc;stop-opacity:1" />
      <stop
         style="stop-color:#adbaff;stop-opacity:1"
         offset="0.10619942"
         id="stop1065" />
      <stop
         id="stop1067"
         offset="1"
         style="stop-color:#6078ff;stop-opacity:1" />
    </linearGradient>
    <linearGradient
       inkscape:collect="always"
       xlink:href="#linearGradient1031"
       id="linearGradient1557"
       gradientUnits="userSpaceOnUse"
       x1="-264.5842"
       y1="266.04565"
       x2="-209.38011"
       y2="258.22675" />
    <linearGradient
       id="linearGradient1031"
       inkscape:collect="always">
      <stop
         id="stop1027"
         offset="0"
         style="stop-color:#4e60cc;stop-opacity:1" />
      <stop
         style="stop-color:#adbaff;stop-opacity:1"
         offset="0.17693783"
         id="stop1035" />
      <stop
         id="stop1029"
         offset="1"
         style="stop-color:#6078ff;stop-opacity:1" />
    </linearGradient>
    <linearGradient
       inkscape:collect="always"
       xlink:href="#linearGradient1031"
       id="linearGradient1559"
       gradientUnits="userSpaceOnUse"
       gradientTransform="scale(3.7795276)"
       x1="-264.5842"
       y1="266.04565"
       x2="-209.38011"
       y2="258.22675" />
    <linearGradient
       inkscape:collect="always"
       xlink:href="#linearGradient976"
       id="linearGradient1561"
       gradientUnits="userSpaceOnUse"
       x1="-181.84702"
       y1="291.02151"
       x2="-183.25439"
       y2="307.66782" />
    <linearGradient
       id="linearGradient976"
       inkscape:collect="always">
      <stop
         id="stop972"
         offset="0"
         style="stop-color:#adbaff;stop-opacity:1" />
      <stop
         style="stop-color:#6078ff;stop-opacity:1"
         offset="0.2692889"
         id="stop980" />
      <stop
         id="stop974"
         offset="1"
         style="stop-color:#575d80;stop-opacity:1" />
    </linearGradient>
    <radialGradient
       inkscape:collect="always"
       xlink:href="#linearGradient1200"
       id="radialGradient1202-3"
       cx="-210.80328"
       cy="293.62247"
       fx="-210.80328"
       fy="293.62247"
       r="24.743971"
       gradientTransform="matrix(1.9139469,0.3629584,-0.08680217,0.457724,229.78022,224.47726)"
       gradientUnits="userSpaceOnUse" />
    <linearGradient
       id="linearGradient1200"
       inkscape:collect="always">
      <stop
         id="stop1196"
         offset="0"
         style="stop-color:#ffffff;stop-opacity:1" />
      <stop
         id="stop1198"
         offset="1"
         style="stop-color:#000000;stop-opacity:1" />
    </linearGradient>
    <linearGradient
       inkscape:collect="always"
       xlink:href="#linearGradient976"
       id="linearGradient1563"
       gradientUnits="userSpaceOnUse"
       x1="-292.18738"
       y1="281.75787"
       x2="-293.09268"
       y2="297.64862" />
    <linearGradient
       inkscape:collect="always"
       xlink:href="#linearGradient1051"
       id="linearGradient1565"
       gradientUnits="userSpaceOnUse"
       x1="-251.59485"
       y1="376.21426"
       x2="-185.93611"
       y2="348.62201" />
    <linearGradient
       inkscape:collect="always"
       id="linearGradient1051">
      <stop
         style="stop-color:#4e60cc;stop-opacity:1"
         offset="0"
         id="stop1045" />
      <stop
         id="stop1047"
         offset="0.48006019"
         style="stop-color:#adbaff;stop-opacity:1" />
      <stop
         style="stop-color:#6078ff;stop-opacity:1"
         offset="1"
         id="stop1049" />
    </linearGradient>
    <linearGradient
       inkscape:collect="always"
       xlink:href="#linearGradient1077"
       id="linearGradient1567"
       gradientUnits="userSpaceOnUse"
       x1="-119.98556"
       y1="327.76041"
       x2="-101.11603"
       y2="318.28046" />
    <linearGradient
       id="linearGradient1077"
       inkscape:collect="always">
      <stop
         id="stop1071"
         offset="0"
         style="stop-color:#4e60cc;stop-opacity:1" />
      <stop
         style="stop-color:#adbaff;stop-opacity:1"
         offset="0.1185494"
         id="stop1073" />
      <stop
         id="stop1075"
         offset="1"
         style="stop-color:#6078ff;stop-opacity:1" />
    </linearGradient>
    <linearGradient
       inkscape:collect="always"
       xlink:href="#linearGradient976"
       id="linearGradient1569"
       gradientUnits="userSpaceOnUse"
       x1="-303.16821"
       y1="284.42462"
       x2="-302.74957"
       y2="296.73599" />
    <linearGradient
       inkscape:collect="always"
       xlink:href="#linearGradient1023"
       id="linearGradient1571"
       gradientUnits="userSpaceOnUse"
       x1="-109.53561"
       y1="292.76529"
       x2="-95.006554"
       y2="310.93304" />
    <linearGradient
       id="linearGradient1023"
       inkscape:collect="always">
      <stop
         id="stop1019"
         offset="0"
         style="stop-color:#4e60cc;stop-opacity:1" />
      <stop
         id="stop1021"
         offset="1"
         style="stop-color:#303c80;stop-opacity:1" />
    </linearGradient>
    <linearGradient
       inkscape:collect="always"
       xlink:href="#linearGradient1051"
       id="linearGradient1573"
       gradientUnits="userSpaceOnUse"
       gradientTransform="scale(3.7795276)"
       x1="-251.59485"
       y1="376.21426"
       x2="-185.93611"
       y2="348.62201" />
    <linearGradient
       y2="258.22675"
       x2="-209.38011"
       y1="266.04565"
       x1="-264.5842"
       gradientTransform="scale(3.7795276)"
       gradientUnits="userSpaceOnUse"
       id="linearGradient2370"
       xlink:href="#linearGradient1031"
       inkscape:collect="always" />
    <linearGradient
       y2="348.62201"
       x2="-185.93611"
       y1="376.21426"
       x1="-251.59485"
       gradientTransform="scale(3.7795276)"
       gradientUnits="userSpaceOnUse"
       id="linearGradient2372"
       xlink:href="#linearGradient1051"
       inkscape:collect="always" />
    <linearGradient
       y2="348.62201"
       x2="-185.93611"
       y1="376.21426"
       x1="-251.59485"
       gradientTransform="scale(3.7795276)"
       gradientUnits="userSpaceOnUse"
       id="linearGradient2374"
       xlink:href="#linearGradient1051"
       inkscape:collect="always" />
  </defs>
  <sodipodi:namedview
     inkscape:object-paths="true"
     inkscape:window-maximized="1"
     inkscape:window-y="0"
     inkscape:window-x="0"
     inkscape:window-height="875"
     inkscape:window-width="1600"
     inkscape:snap-page="true"
     units="px"
     showgrid="false"
     inkscape:document-rotation="0"
     inkscape:current-layer="layer1"
     inkscape:document-units="px"
     inkscape:cy="314.98293"
     inkscape:cx="374.74596"
     inkscape:zoom="0.93997174"
     inkscape:pageshadow="2"
     inkscape:pageopacity="0.0"
     borderopacity="1.0"
     bordercolor="#666666"
     pagecolor="#ffffff"
     id="base"
     showguides="true"
     inkscape:guide-bbox="true" />
  <metadata
     id="metadata5">
    <rdf:RDF>
      <cc:Work
         rdf:about="">
        <dc:format>image/svg+xml</dc:format>
        <dc:type
           rdf:resource="http://purl.org/dc/dcmitype/StillImage" />
        <dc:title>Inscape 1c Lukasz Dabrowski</dc:title>
        <cc:license
           rdf:resource="http://creativecommons.org/licenses/by-sa/4.0/" />
        <dc:creator>
          <cc:Agent>
            <dc:title>Lukasz Dabrowski</dc:title>
          </cc:Agent>
        </dc:creator>
        <dc:language>Polski</dc:language>
      </cc:Work>
      <cc:License
         rdf:about="http://creativecommons.org/licenses/by-sa/4.0/">
        <cc:permits
           rdf:resource="http://creativecommons.org/ns#Reproduction" />
        <cc:permits
           rdf:resource="http://creativecommons.org/ns#Distribution" />
        <cc:requires
           rdf:resource="http://creativecommons.org/ns#Notice" />
        <cc:requires
           rdf:resource="http://creativecommons.org/ns#Attribution" />
        <cc:permits
           rdf:resource="http://creativecommons.org/ns#DerivativeWorks" />
        <cc:requires
           rdf:resource="http://creativecommons.org/ns#ShareAlike" />
      </cc:License>
    </rdf:RDF>
  </metadata>
  <g
     id="layer1"
     inkscape:groupmode="layer"
     inkscape:label="tlo"
     style="display:inline">
    <path
       style="display:inline;opacity:0.906;vector-effect:none;fill:url(#linearGradient30317);fill-opacity:1;fill-rule:nonzero;stroke:none;stroke-width:0.47741699;stroke-linecap:round;stroke-linejoin:bevel;stroke-miterlimit:4;stroke-dasharray:none;stroke-dashoffset:0;stroke-opacity:0.982079;paint-order:normal"
       d="m 66.288039,3.1137725 a 15.631373,15.631373 0 0 0 -13.136794,7.1881915 8.8864565,8.8864565 0 0 0 -4.857585,2.463029 10.864938,10.864938 0 0 0 -9.199699,10.728673 10.864938,10.864938 0 0 0 7.106802,10.180258 11.401411,11.401411 0 0 0 7.392962,6.016427 16.868248,16.868248 0 0 0 13.879644,7.314156 16.868248,16.868248 0 0 0 4.725165,-0.686006 A 18.539442,18.539442 0 0 0 83.696539,50.34022 18.539442,18.539442 0 0 0 102.23611,31.800652 18.539442,18.539442 0 0 0 83.696539,13.261086 18.539442,18.539442 0 0 0 80.988693,13.477482 15.631373,15.631373 0 0 0 66.288039,3.1137725 Z"
       id="circle30224"
       inkscape:connector-curvature="0" />
    <rect
       y="-1.4210855e-14"
       x="-1.8146973e-06"
       height="165.36459"
       width="198.4375"
       id="rect848-0"
       style="display:inline;fill:url(#linearGradient856-5);fill-opacity:1;stroke-width:0.331249;stroke-linecap:round;stroke-linejoin:round" />
  </g>
  <g
     style="display:inline"
     inkscape:groupmode="layer"
     id="layer2"
     inkscape:label="samolocik">
    <g
       transform="matrix(0.5812591,-0.07971364,0.07971364,0.5812591,174.14038,-129.99665)"
       id="g1393-6"
       style="display:inline">
      <path
         inkscape:connector-curvature="0"
         id="path8849-5"
         d="m -133.34567,297.35108 -0.96314,-22.00373 c 0,0 -0.15316,-2.19393 2.19393,-2.19393 2.34709,0 12.02315,2.03663 12.02315,2.03663 0,0 2.19911,0.62093 3.36334,3.38921 1.16423,2.76828 5.3027,11.82375 5.3027,11.82375 l -1.92011,5.60308 -20.16181,3.26565 z"
         style="fill:url(#linearGradient1555);fill-opacity:1;stroke:none;stroke-width:0.26458299px;stroke-linecap:butt;stroke-linejoin:miter;stroke-opacity:1" />
      <path
         inkscape:connector-curvature="0"
         id="path8845-0"
         d="m -257.44301,283.17883 -7.25836,-65.83219 c 0,0 -0.15858,-2.04744 2.8549,-2.8549 3.01348,-0.80746 10.64667,-0.18328 14.01518,1.04822 3.36852,1.2315 9.96066,3.04253 9.96066,3.04253 0,0 1.4126,0.5433 1.62992,1.34016 0.21733,0.79685 26.33308,61.31943 26.33308,61.31943 l -3.18235,4.89609 -44.72514,1.06489 z"
         style="fill:url(#linearGradient1557);fill-opacity:1;stroke:none;stroke-width:0.26458299px;stroke-linecap:butt;stroke-linejoin:miter;stroke-opacity:1" />
      <path
         inkscape:connector-curvature="0"
         transform="scale(0.26458333)"
         d="m -918.1582,1084.1523 c -0.65961,-0.1015 -1.31485,-0.2436 -1.97461,-0.3437 -6.72831,-1.0207 -13.46576,-1.9639 -20.21094,-2.8242 -6.74518,-0.8604 -13.4988,-1.638 -20.26172,-2.3282 -4.31483,-0.4566 -8.72726,-0.7205 -13.08203,-1.0976 l -0.73242,7.9336 z"
         style="fill:url(#linearGradient2370);fill-opacity:1;stroke:none;stroke-width:0.99999899px;stroke-linecap:butt;stroke-linejoin:miter;stroke-opacity:1"
         id="path1339-6" />
      <path
         inkscape:connector-curvature="0"
         transform="scale(0.26458333)"
         d="m -814.82617,1081.6914 c -7.48612,-1.8782 -14.9535,-3.8511 -22.4668,-5.5918 -13.61386,-3.1541 -27.27196,-6.0716 -40.98047,-8.7129 -13.70851,-2.6413 -27.46719,-5.0074 -41.27734,-7.0566 -6.90508,-1.0247 -13.82406,-1.9703 -20.75586,-2.8321 -6.9318,-0.8617 -13.87654,-1.6391 -20.83594,-2.3281 -4.51881,-0.4569 -9.10924,-0.7187 -13.6582,-1.0937 l 1.78711,16.205 -0.67383,7.2774 c 4.35477,0.3771 8.7672,0.641 13.08203,1.0976 6.76292,0.6902 13.51654,1.4678 20.26172,2.3282 6.74518,0.8603 13.48263,1.8035 20.21094,2.8242 0.65976,0.1001 1.315,0.2422 1.97461,0.3437 z"
         style="opacity:0.5;fill:#ffffff;fill-opacity:1;stroke:none;stroke-width:0.99999899px;stroke-linecap:butt;stroke-linejoin:miter;stroke-opacity:1"
         id="path1359-5" />
      <path
         inkscape:connector-curvature="0"
         id="path8866-0"
         d="m -230.7722,284.38006 c -1.35239,0.18884 -2.62108,0.3179 -3.6866,0.26715 -5.96335,-0.28397 -38.12286,-2.55553 -43.51827,-2.6975 -4.24914,-0.11182 -9.41409,-0.14367 -12.30002,-0.16743 a 15.00777,23.903104 0 0 1 0.40411,1.43764 15.00777,23.903104 0 0 1 0.47335,2.26756 15.00777,23.903104 0 0 1 0.32815,2.33113 15.00777,23.903104 0 0 1 0.18086,2.37194 15.00777,23.903104 0 0 1 0.0377,1.69085 15.00777,23.903104 0 0 1 -0.0749,2.38643 15.00777,23.903104 0 0 1 -0.22428,2.36263 15.00777,23.903104 0 0 1 -0.37103,2.3146 15.00777,23.903104 0 0 1 -0.5147,2.24483 15.00777,23.903104 0 0 1 -0.65216,2.15127 15.00777,23.903104 0 0 1 -0.78445,2.03708 15.00777,23.903104 0 0 1 -0.23047,0.48319 c 3.93589,1.81943 9.04395,3.89755 14.01206,5.05293 9.15801,2.12976 16.04398,3.26594 16.04398,3.26594 0,0 65.38394,12.21075 67.51371,12.35273 2.12977,0.14198 7.59629,0.35478 18.5291,-2.5559 10.93282,-2.91071 21.93685,-5.9636 29.17807,-6.10558 7.24121,-0.142 44.86702,-3.05252 44.86702,-3.05252 0,0 11.855578,-0.7097 12.991459,-9.6547 1.135869,-8.94506 3.12384,-21.36873 3.12384,-21.36873 0,0 0.638638,-1.84581 -1.207162,-2.0588 -1.845799,-0.21299 -10.861868,-1.56218 -10.861868,-1.56218 0,0 -3.052319,-0.49649 -6.317959,2.84014 -3.26565,3.33663 -9.01599,8.73178 -9.01599,8.73178 0,0 -3.83401,4.18867 -11.2882,4.82761 -7.45419,0.63889 -19.52284,1.63296 -19.52284,1.63296 l -35.14101,-6.03478 c 0,0 -1.37684,-0.27982 -3.04632,-1.15083 -0.15573,0.24228 -0.30368,0.49221 -0.50333,0.693 -0.29062,0.29228 -0.6233,0.5434 -0.98547,0.76068 -0.36217,0.21727 -0.754,0.40057 -1.1622,0.55808 -0.40821,0.15753 -0.8327,0.28906 -1.26142,0.40206 -0.42873,0.11301 -0.86146,0.2077 -1.2852,0.29144 -0.84747,0.16751 -1.65928,0.2916 -2.33371,0.43357 -0.67442,0.14198 -2.31211,0.26176 -4.48292,0.36381 -2.17082,0.10205 -4.87514,0.18634 -7.68377,0.25736 -5.61727,0.14197 -11.65119,0.23079 -14.66836,0.30178 -0.75429,0.0177 -1.43455,0.0843 -2.0531,0.18656 -0.61855,0.10218 -1.17554,0.23968 -1.68414,0.39997 -0.50859,0.16028 -0.96877,0.34332 -1.39319,0.53536 -0.42443,0.19203 -0.81321,0.39322 -1.17926,0.59065 -0.73211,0.39492 -1.3734,0.77457 -2.02675,1.03301 -0.32667,0.12925 -0.65633,0.22813 -1.00201,0.28372 -0.34567,0.0556 -0.70715,0.0676 -1.0976,0.0233 -0.39046,-0.0444 -0.75648,-0.17542 -1.09813,-0.37052 -0.34165,-0.19508 -0.65903,-0.45434 -0.95188,-0.75552 -0.29284,-0.30115 -0.56108,-0.64405 -0.80512,-1.00663 -0.24403,-0.36262 -0.46364,-0.74462 -0.65887,-1.12398 -0.39046,-0.75872 -0.68327,-1.50651 -0.8785,-2.06446 -0.19523,-0.55796 -0.29301,-0.92605 -0.29301,-0.92605 0,0 0.42599,-1.20684 1.49087,-3.76256 0.13311,-0.31948 0.18946,-0.64889 0.18655,-0.98083 -0.003,-0.33195 -0.0652,-0.66636 -0.17001,-0.99579 -0.10483,-0.32946 -0.25216,-0.65386 -0.42478,-0.96583 -0.15562,-0.28123 -0.33551,-0.54812 -0.51987,-0.80357 z"
         style="fill:url(#linearGradient1561);fill-opacity:1;stroke:none;stroke-width:0.26458299px;stroke-linecap:butt;stroke-linejoin:miter;stroke-opacity:1" />
      <path
         inkscape:connector-curvature="0"
         transform="scale(0.26458333)"
         d="m -793.35156,1062.9629 c -13.76155,-3.6261 -27.58406,-7.05 -41.47266,-10.2324 -13.8886,-3.1824 -27.84258,-6.1238 -41.86523,-8.7832 -14.02266,-2.6595 -28.11559,-5.0385 -42.2793,-7.0957 -7.08185,-1.0286 -14.1804,-1.9767 -21.29883,-2.8399 -7.11842,-0.8632 -14.25623,-1.6403 -21.41211,-2.3281 -5.21702,-0.5045 -10.48172,-0.801 -15.72265,-1.2031 l 2.60156,23.5957 c 4.54896,0.375 9.13939,0.6368 13.6582,1.0937 6.9594,0.689 13.90414,1.4664 20.83594,2.3281 6.9318,0.8618 13.85078,1.8074 20.75586,2.8321 13.81015,2.0492 27.56883,4.4153 41.27734,7.0566 13.70851,2.6413 27.36661,5.5588 40.98047,8.7129 7.5133,1.7407 14.98068,3.7136 22.4668,5.5918 l 9.44726,-0.2246 z"
         style="opacity:0.5;fill:#303c80;fill-opacity:1;stroke:none;stroke-width:0.99999899px;stroke-linecap:butt;stroke-linejoin:miter;stroke-opacity:1"
         id="path1357-8" />
      <path
         inkscape:connector-curvature="0"
         id="path8861-7"
         d="m -230.7722,284.38006 c 0.18436,0.25546 0.36425,0.52234 0.51987,0.80357 0.17262,0.31197 0.31995,0.63638 0.42478,0.96583 0.10482,0.32944 0.1671,0.66384 0.17001,0.99579 0.003,0.33195 -0.0534,0.66135 -0.18655,0.98084 -1.06488,2.55571 -1.49087,3.76256 -1.49087,3.76256 0,0 0.0978,0.36809 0.29301,0.92604 0.19523,0.55795 0.48804,1.30574 0.8785,2.06446 0.19523,0.37936 0.41484,0.76137 0.65887,1.12398 0.24404,0.36258 0.51228,0.70548 0.80512,1.00663 0.29285,0.30118 0.61023,0.56044 0.95188,0.75552 0.34165,0.1951 0.70767,0.32615 1.09813,0.37052 0.39045,0.0444 0.75193,0.0324 1.0976,-0.0233 0.34568,-0.0556 0.67534,-0.15446 1.00201,-0.28371 0.65335,-0.25845 1.29464,-0.6381 2.02675,-1.03302 0.36605,-0.19743 0.75483,-0.39862 1.17926,-0.59065 0.42442,-0.19204 0.8846,-0.37507 1.39319,-0.53536 0.5086,-0.16028 1.06559,-0.29779 1.68414,-0.39997 0.61855,-0.10221 1.29881,-0.1688 2.0531,-0.18656 3.01717,-0.071 9.05109,-0.15981 14.66836,-0.30178 2.80863,-0.071 5.51295,-0.15531 7.68377,-0.25736 2.17081,-0.10205 3.8085,-0.22183 4.48292,-0.3638 0.67443,-0.14198 1.48624,-0.26607 2.33371,-0.43358 0.42374,-0.0837 0.85647,-0.17843 1.2852,-0.29143 0.42872,-0.11301 0.85321,-0.24453 1.26142,-0.40207 0.4082,-0.1575 0.80003,-0.34081 1.1622,-0.55808 0.36217,-0.21728 0.69485,-0.46839 0.98547,-0.76068 0.19965,-0.20079 0.3476,-0.45072 0.50333,-0.69299 -0.84903,-0.44294 -1.74741,-0.99325 -2.63291,-1.83089 -2.62672,-2.48473 -10.71987,-7.17024 -21.93665,-7.88014 -9.21259,-0.58309 -18.13914,2.20157 -24.35562,3.06959 z"
         style="fill:url(#radialGradient1202-3);fill-opacity:1;stroke:none;stroke-width:0.26458299px;stroke-linecap:butt;stroke-linejoin:miter;stroke-opacity:1" />
      <path
         inkscape:connector-curvature="0"
         id="path8841-3"
         d="m -291.70491,305.86143 a 15.00777,23.903104 0 0 0 0.23047,-0.48319 15.00777,23.903104 0 0 0 0.78445,-2.03708 15.00777,23.903104 0 0 0 0.65216,-2.15127 15.00777,23.903104 0 0 0 0.5147,-2.24483 15.00777,23.903104 0 0 0 0.37103,-2.3146 15.00777,23.903104 0 0 0 0.22428,-2.36263 15.00777,23.903104 0 0 0 0.0749,-2.38643 15.00777,23.903104 0 0 0 -0.0377,-1.69085 15.00777,23.903104 0 0 0 -0.18086,-2.37194 15.00777,23.903104 0 0 0 -0.32815,-2.33113 15.00777,23.903104 0 0 0 -0.47335,-2.26756 15.00777,23.903104 0 0 0 -0.40411,-1.43764 c -0.77854,-0.006 -3.31815,-0.0455 -3.31815,-0.0455 0,0 -2.83981,0.21267 -2.76882,1.98749 -2.12977,0.071 -15.83117,0.63887 -17.10903,6.9572 -0.21298,2.41374 4.7566,6.10565 8.02225,7.38351 3.26564,1.27789 6.8864,2.4846 6.8864,2.4846 0,0 -0.63927,1.27788 0.49661,2.0588 0.51968,0.35727 3.04354,1.7186 6.36292,3.25303 z"
         style="fill:url(#linearGradient1563);fill-opacity:1;stroke:none;stroke-width:0.26458299px;stroke-linecap:butt;stroke-linejoin:miter;stroke-opacity:1" />
      <path
         sodipodi:nodetypes="ccscscsccscc"
         inkscape:connector-curvature="0"
         id="path8843-2"
         d="m -188.5695,321.64446 2.50096,65.60095 c 0,0 -0.11765,2.17135 -2.17135,2.17135 -2.05371,0 -16.40429,0.48173 -16.40429,0.48173 0,0 -9.27971,0.0507 -11.5616,-5.27373 -2.2819,-5.32442 -22.86966,-54.00484 -22.86966,-54.00484 0,0 -0.10142,-0.30425 -0.91276,-1.21701 -0.81134,-0.91276 -14.45201,-16.17609 -14.45201,-16.17609 0,0 -0.91275,-5.17232 5.37514,-5.78081 6.28788,-0.60851 30.83094,1.67339 40.41489,3.90457 9.58396,2.23118 16.93674,4.96945 18.86367,6.23718 1.01437,0.53417 1.2547,4.00163 1.21701,4.0567 z"
         style="fill:url(#linearGradient1565);fill-opacity:1;stroke:none;stroke-width:0.26458299px;stroke-linecap:butt;stroke-linejoin:miter;stroke-opacity:1" />
      <path
         inkscape:connector-curvature="0"
         id="path8847-3"
         d="m -105.10055,306.73608 3.70174,24.64446 c 0,0 0.97585,3.5464 -2.04752,3.5464 -3.02336,0 -9.05771,0 -9.05771,0 0,0 -3.4989,0.51032 -6.08505,-4.45916 -2.58615,-4.96946 -14.70555,-28.80257 -14.70555,-28.80257 z"
         style="fill:url(#linearGradient1567);fill-opacity:1;stroke:none;stroke-width:0.26458299px;stroke-linecap:butt;stroke-linejoin:miter;stroke-opacity:1" />
      <path
         inkscape:connector-curvature="0"
         id="path8851-4"
         d="m -296.36664,283.72429 c -2.135,0.0712 -15.82891,0.64043 -17.10645,6.9572 -0.21298,2.41374 4.7566,6.10565 8.02225,7.38351 3.24106,1.26828 6.81393,2.46044 6.86779,2.47841 2.06773,-2.66711 3.32664,-6.39906 3.3073,-10.56318 -0.0104,-2.24252 -0.40153,-4.36054 -1.09089,-6.25594 z"
         style="opacity:1;vector-effect:none;fill:url(#linearGradient1569);fill-opacity:1;fill-rule:nonzero;stroke:none;stroke-width:0.1;stroke-linecap:round;stroke-linejoin:bevel;stroke-miterlimit:4;stroke-dasharray:none;stroke-dashoffset:0;stroke-opacity:0.982079;paint-order:normal" />
      <path
         inkscape:connector-curvature="0"
         id="path8868-0"
         d="m -98.042836,280.1493 c -1.011541,0.0167 -3.340594,0.36298 -5.789824,2.86546 -3.26565,3.33663 -9.01599,8.73178 -9.01599,8.73178 0,0 -3.83401,4.18867 -11.2882,4.82761 -7.45419,0.63889 -19.52284,1.63296 -19.52284,1.63296 l 10.36526,3.45818 28.19363,5.07103 1.21181,8.25995 c 0.64754,-0.0497 2.32802,-0.17724 2.32802,-0.17724 0,0 11.855578,-0.7097 12.991459,-9.6547 1.135869,-8.94506 3.12384,-21.36873 3.12384,-21.36873 0,0 0.638638,-1.84581 -1.207162,-2.0588 -1.845799,-0.21299 -10.861868,-1.56218 -10.861868,-1.56218 0,0 -0.190952,-0.0309 -0.528135,-0.0254 z"
         style="fill:url(#linearGradient1571);fill-opacity:1;stroke:none;stroke-width:0.26458299px;stroke-linecap:butt;stroke-linejoin:miter;stroke-opacity:1" />
      <path
         inkscape:connector-curvature="0"
         d="m -126.53309,314.94513 c 0.7974,1.5644 1.54598,3.02926 2.33216,4.56972 7.11044,0.45858 14.20752,1.01246 21.28553,1.76837 l -0.67387,-4.48498 c -7.65304,-0.80349 -15.30281,-1.37919 -22.94382,-1.85311 z"
         style="opacity:0.50154802;vector-effect:none;fill:#303c80;fill-opacity:1;fill-rule:nonzero;stroke:none;stroke-width:0.0999998;stroke-linecap:round;stroke-linejoin:bevel;stroke-miterlimit:4;stroke-dasharray:none;stroke-dashoffset:0;stroke-opacity:0.982079;paint-order:normal"
         id="rect8925-1" />
      <path
         inkscape:connector-curvature="0"
         d="m -133.91661,284.30357 0.19378,4.4323 c 7.41649,0.48776 14.82789,1.09075 22.22914,1.86603 l 0.0682,-0.19897 c 0,0 -0.96878,-2.12376 -2.00453,-4.41058 -6.83011,-0.68844 -13.66025,-1.24007 -20.4866,-1.68878 z"
         style="opacity:0.50154802;vector-effect:none;fill:#303c80;fill-opacity:1;fill-rule:nonzero;stroke:none;stroke-width:0.0999998;stroke-linecap:round;stroke-linejoin:bevel;stroke-miterlimit:4;stroke-dasharray:none;stroke-dashoffset:0;stroke-opacity:0.982079;paint-order:normal"
         id="rect8934-3" />
      <path
         inkscape:connector-curvature="0"
         id="path8944-6"
         d="m -302.69789,299.10169 2.56079,0.91043 c 0,0 1.35942,5.57795 1.07545,10.40543 -0.28396,4.82746 -1.56183,18.52898 -1.56183,18.52898 0,0 -1.13587,4.25953 -1.7748,-0.071 -0.63893,-4.33054 -1.06489,-20.3038 -1.06489,-20.3038 0,0 -0.24425,-6.51643 0.76528,-9.47005 z"
         style="fill:#000000;stroke:none;stroke-width:0.26458299px;stroke-linecap:butt;stroke-linejoin:miter;stroke-opacity:1" />
      <path
         inkscape:connector-curvature="0"
         id="path8946-3"
         d="m -306.15359,297.76507 -1.24624,-0.63667 c 0,0 -4.08547,4.77007 -4.7244,6.54487 -0.63893,1.7748 1.77481,-0.85191 1.77481,-0.85191 z"
         style="fill:#000000;stroke:none;stroke-width:0.26458299px;stroke-linecap:butt;stroke-linejoin:miter;stroke-opacity:1" />
      <path
         transform="scale(0.26458333)"
         sodipodi:nodetypes="cccc"
         inkscape:connector-curvature="0"
         d="m -1120.125,1072.3438 c -8.0693,0.2691 -59.8258,2.4205 -64.6543,26.2949 -0.1204,1.3647 0.2039,2.8388 0.8731,4.373 4.843,-23.8634 57.0961,-26.1476 65.1641,-26.4167"
         style="opacity:1;vector-effect:none;fill:#adbaff;fill-opacity:1;fill-rule:nonzero;stroke:none;stroke-width:0.37795299;stroke-linecap:round;stroke-linejoin:bevel;stroke-miterlimit:4;stroke-dasharray:none;stroke-dashoffset:0;stroke-opacity:0.982079;paint-order:normal"
         id="path982-3" />
      <path
         sodipodi:nodetypes="ccscscsc"
         inkscape:connector-curvature="0"
         id="path8948-0"
         d="m -301.40439,288.7649 c 0,0 2.20076,-4.82748 3.97557,-6.95725 1.7748,-2.12976 4.68549,-5.32442 5.5374,-4.5435 0.8519,0.78092 1.34885,1.56181 1.34885,1.56181 0,0 0.49094,0.73935 0.10142,1.44015 -0.3837,0.6903 -3.0466,5.65999 -4.99685,7.29237 -1.95026,1.63237 -3.21797,4.01568 -4.63782,3.10292 -1.41985,-0.91276 -1.32857,-1.8965 -1.32857,-1.8965 z"
         style="fill:#000000;stroke:none;stroke-width:0.26458299px;stroke-linecap:butt;stroke-linejoin:miter;stroke-opacity:1" />
      <path
         style="fill:#000000;stroke:none;stroke-width:0.26458299px;stroke-linecap:butt;stroke-linejoin:miter;stroke-opacity:1"
         d="m -300.70563,284.05791 -2.46257,0.36671 c 0,0 -1.8568,-6.02462 -1.8568,-12.91085 0,-6.88625 -0.42595,-14.26946 -0.42595,-14.26946 0,0 0.14198,-3.05267 2.20076,-3.47862 2.05878,-0.42596 2.98168,0.56794 3.12366,2.27175 0.14199,1.70382 0.99389,15.19236 0.99389,15.19236 0,0 0.26165,9.541 -1.57299,12.82811 z"
         id="path1079-7"
         inkscape:connector-curvature="0" />
      <path
         inkscape:connector-curvature="0"
         transform="scale(0.26458333)"
         d="m -804.94336,1036.0664 c -9.12185,-2.2809 -18.22158,-4.6232 -27.41406,-6.707 -14.16335,-3.2107 -28.41125,-6.1741 -42.74805,-8.8516 -14.3368,-2.6775 -28.76205,-5.0677 -43.2793,-7.1328 -7.25862,-1.0326 -14.54065,-1.985 -21.8457,-2.8496 -7.30505,-0.8646 -14.63398,-1.6414 -21.98633,-2.3281 -5.91765,-0.5476 -11.85535,-0.8769 -17.78515,-1.3008 l 2.59961,23.584 c 5.24093,0.4021 10.50563,0.6986 15.72265,1.2031 7.15588,0.6878 14.29369,1.4649 21.41211,2.3281 7.11843,0.8632 14.21698,1.8113 21.29883,2.8399 14.16371,2.0572 28.25664,4.4362 42.2793,7.0957 14.02265,2.6594 27.97663,5.6008 41.86523,8.7832 13.8886,3.1824 27.71111,6.6063 41.47266,10.2324 0,0 -9.19684,-21.3444 -11.5918,-26.8965 z"
         style="opacity:0.5;fill:#ffffff;fill-opacity:1;stroke:none;stroke-width:0.99999899px;stroke-linecap:butt;stroke-linejoin:miter;stroke-opacity:1"
         id="path1355-1" />
      <path
         inkscape:connector-curvature="0"
         transform="scale(0.26458333)"
         d="m -891.71289,1277.6406 c 8.0771,0.5398 16.15699,1.0735 24.17969,1.8496 7.15587,0.6879 14.29173,1.465 21.41015,2.3282 -7.11842,-0.8632 -14.25428,-1.6423 -21.41015,-2.3301 -8.02268,-0.7758 -16.1026,-1.3081 -24.17969,-1.8477 z"
         style="fill:url(#linearGradient2372);fill-opacity:1;stroke:none;stroke-width:0.99999899px;stroke-linecap:butt;stroke-linejoin:miter;stroke-opacity:1"
         id="path1320-4" />
      <path
         inkscape:connector-curvature="0"
         transform="scale(0.26458333)"
         d="m -707.32031,1356.8926 c -12.74414,-3.3875 -25.50631,-6.6204 -38.29492,-9.6172 -13.33913,-3.1259 -26.70329,-6.0213 -40.09766,-8.6445 -13.39437,-2.6233 -26.81878,-4.9743 -40.27539,-7.0157 -6.7283,-1.0206 -13.46381,-1.9638 -20.20899,-2.8242 -6.74517,-0.8603 -13.49879,-1.638 -20.26171,-2.3281 -1.56531,-0.1657 -3.17544,-0.2435 -4.7461,-0.3984 23.55745,55.6787 48.65578,115.051 54.04883,127.6347 8.62447,20.1238 43.69727,19.9336 43.69727,19.9336 0,0 54.2399,-1.8223 62.00195,-1.8223 7.76201,0 8.20508,-8.205 8.20508,-8.205 z"
         style="fill:url(#linearGradient2374);fill-opacity:1;stroke:none;stroke-width:0.99999899px;stroke-linecap:butt;stroke-linejoin:miter;stroke-opacity:1"
         id="path1336-3" />
      <path
         inkscape:connector-curvature="0"
         transform="scale(0.26458333)"
         d="m -708.24609,1332.5918 c -11.60713,-3.027 -23.22847,-5.9833 -34.90039,-8.6875 -13.61387,-3.1541 -27.27391,-6.0716 -40.98243,-8.7129 -13.70851,-2.6413 -27.46523,-5.0054 -41.27539,-7.0547 -6.90507,-1.0246 -13.82406,-1.9703 -20.75586,-2.832 -6.9318,-0.8618 -13.87654,-1.6392 -20.83593,-2.3281 -4.78994,-0.4844 -9.65478,-0.7676 -14.47852,-1.1602 3.58735,8.4803 5.794,13.67 10.26953,24.2481 1.57066,0.1549 3.18079,0.2327 4.7461,0.3984 6.76292,0.6901 13.51654,1.4678 20.26171,2.3281 6.74518,0.8604 13.48069,1.8036 20.20899,2.8242 13.45661,2.0414 26.88102,4.3924 40.27539,7.0157 13.39437,2.6232 26.75853,5.5186 40.09766,8.6445 12.78861,2.9968 25.55078,6.2297 38.29492,9.6172 z"
         style="opacity:0.5;fill:#ffffff;fill-opacity:1;stroke:none;stroke-width:0.99999899px;stroke-linecap:butt;stroke-linejoin:miter;stroke-opacity:1"
         id="path1334-1" />
      <path
         inkscape:connector-curvature="0"
         transform="scale(0.26458333)"
         d="m -709.17188,1308.3086 c -10.47766,-2.6793 -20.95632,-5.3557 -31.50781,-7.7734 -13.8886,-3.1824 -27.84258,-6.1219 -41.86523,-8.7813 -14.02266,-2.6594 -28.11364,-5.0385 -42.27735,-7.0957 -7.08185,-1.0286 -14.18235,-1.9767 -21.30078,-2.8398 -7.11842,-0.8632 -14.25428,-1.6403 -21.41015,-2.3282 -8.0227,-0.7761 -16.10259,-1.3098 -24.17969,-1.8496 2.20448,5.212 6.66165,15.7208 10.23828,24.1758 4.82374,0.3926 9.68858,0.6758 14.47852,1.1602 6.95939,0.6889 13.90413,1.4663 20.83593,2.3281 6.9318,0.8617 13.85079,1.8074 20.75586,2.832 13.81016,2.0493 27.56688,4.4134 41.27539,7.0547 13.70852,2.6413 27.36856,5.5588 40.98243,8.7129 11.67192,2.7042 23.29326,5.6605 34.90039,8.6875 z"
         style="opacity:0.5;fill:#303c80;fill-opacity:1;stroke:none;stroke-width:0.99999899px;stroke-linecap:butt;stroke-linejoin:miter;stroke-opacity:1"
         id="path1332-0" />
      <path
         inkscape:connector-curvature="0"
         transform="scale(0.26458333)"
         d="m -710.0957,1284.043 c -9.35351,-2.3442 -18.68941,-4.7398 -28.11719,-6.877 -14.16335,-3.2106 -28.41125,-6.174 -42.74805,-8.8515 -14.3368,-2.6776 -28.76205,-5.0697 -43.27929,-7.1348 -7.25863,-1.0326 -14.54066,-1.9831 -21.84571,-2.8477 -7.30505,-0.8646 -14.63202,-1.6433 -21.98437,-2.33 -11.08404,-1.0258 -22.19466,-1.8231 -33.31446,-2.4336 -0.17635,-0.01 -0.35293,-0.012 -0.52929,-0.022 0.34981,0.8271 8.00425,18.8996 10.20117,24.0937 8.07709,0.5396 16.15701,1.0719 24.17969,1.8477 7.15587,0.6878 14.29173,1.4669 21.41015,2.3301 7.11843,0.8631 14.21893,1.8112 21.30078,2.8398 14.16371,2.0572 28.25469,4.4363 42.27735,7.0957 14.02265,2.6594 27.97663,5.5989 41.86523,8.7813 10.55149,2.4177 21.03015,5.0941 31.50781,7.7734 z"
         style="opacity:0.5;fill:#ffffff;fill-opacity:1;stroke:none;stroke-width:0.99999899px;stroke-linecap:butt;stroke-linejoin:miter;stroke-opacity:1"
         id="path1330-1" />
      <path
         inkscape:connector-curvature="0"
         transform="scale(0.26458333)"
         d="m -711.02148,1259.7949 c -8.23182,-2.021 -16.42231,-4.136 -24.72266,-5.998 -14.43809,-3.239 -28.98187,-6.2263 -43.63281,-8.9219 -14.65094,-2.6956 -29.41046,-5.0988 -44.28125,-7.1719 -7.4354,-1.0365 -14.897,-1.9914 -22.38868,-2.8574 -7.49167,-0.866 -15.01172,-1.6445 -22.56054,-2.3301 -11.40872,-1.0109 -22.81505,-1.7934 -34.20117,-2.3886 -6.0496,-0.3163 -12.07448,-0.4556 -18.11133,-0.6719 5.39811,6.0429 13.09787,14.6567 13.87695,15.5332 3.06648,3.4498 3.45117,4.5996 3.45117,4.5996 0,0 1.62025,3.823 1.67774,3.959 0.17636,0.01 0.35294,0.012 0.52929,0.022 11.1198,0.6105 22.23042,1.4078 33.31446,2.4336 7.35235,0.6867 14.67932,1.4654 21.98437,2.33 7.30505,0.8646 14.58708,1.8151 21.84571,2.8477 14.51724,2.0651 28.94249,4.4572 43.27929,7.1348 14.3368,2.6775 28.5847,5.6409 42.74805,8.8515 9.42778,2.1372 18.76368,4.5328 28.11719,6.877 z"
         style="opacity:0.5;fill:#303c80;fill-opacity:1;stroke:none;stroke-width:0.99999899px;stroke-linecap:butt;stroke-linejoin:miter;stroke-opacity:1"
         id="path1328-1" />
      <path
         inkscape:connector-curvature="0"
         transform="scale(0.26458333)"
         d="m -711.94531,1235.5605 c -7.11188,-1.7097 -14.16148,-3.5404 -21.33203,-5.1328 -14.71283,-3.2672 -29.55054,-6.2784 -44.51563,-8.9922 -7.48254,-1.3568 -14.99605,-2.6381 -22.54297,-3.8417 -7.54692,-1.2037 -15.12611,-2.3287 -22.73828,-3.3692 -7.61217,-1.0405 -15.25725,-1.9978 -22.93555,-2.8652 -7.67829,-0.8675 -15.38947,-1.6456 -23.13476,-2.3301 -11.73341,-0.9962 -23.43543,-1.7638 -35.08789,-2.3438 -11.65246,-0.5799 -23.25679,-0.9725 -34.79883,-1.2167 -1.12244,-0.024 -2.22641,-0.01 -3.34766,-0.031 9.40269,10.5221 13.11197,14.6736 21.45899,24.0176 6.03685,0.2163 12.06173,0.3556 18.11133,0.6719 11.38612,0.5952 22.79245,1.3777 34.20117,2.3886 7.54882,0.6856 15.06887,1.4641 22.56054,2.3301 7.49168,0.866 14.95328,1.8209 22.38868,2.8574 14.87079,2.0731 29.63031,4.4763 44.28125,7.1719 14.65094,2.6956 29.19472,5.6829 43.63281,8.9219 8.30035,1.862 16.49084,3.977 24.72266,5.998 z"
         style="opacity:0.5;fill:#ffffff;fill-opacity:1;stroke:none;stroke-width:0.99999899px;stroke-linecap:butt;stroke-linejoin:miter;stroke-opacity:1"
         id="path1326-8" />
      <path
         inkscape:connector-curvature="0"
         transform="scale(0.26458333)"
         d="m -929.44727,1161.6289 c -4.88159,-0.032 -8.92973,0.084 -11.90039,0.3711 -23.76525,2.2998 -20.3164,21.8496 -20.3164,21.8496 0,0 10.83425,12.1309 19.28515,21.5879 1.12125,0.021 2.22522,0.01 3.34766,0.031 11.54204,0.2442 23.14637,0.6368 34.79883,1.2167 11.65246,0.58 23.35448,1.3476 35.08789,2.3438 7.74529,0.6845 15.45647,1.4626 23.13476,2.3301 7.6783,0.8674 15.32338,1.8247 22.93555,2.8652 7.61217,1.0405 15.19136,2.1655 22.73828,3.3692 7.54692,1.2036 15.06043,2.4849 22.54297,3.8417 14.96509,2.7138 29.8028,5.725 44.51563,8.9922 7.17055,1.5924 14.22015,3.4231 21.33203,5.1328 l -0.75781,-19.8964 c 0.14245,-0.2082 -0.76578,-13.3132 -4.59961,-15.3321 -7.28289,-4.7914 -35.07404,-15.1414 -71.29688,-23.5742 -31.69495,-7.3787 -106.67652,-14.9036 -140.84766,-15.1289 z"
         style="fill:url(#linearGradient1573);fill-opacity:1;stroke:none;stroke-width:0.99999899px;stroke-linecap:butt;stroke-linejoin:miter;stroke-opacity:1"
         id="path1324-5" />
      <path
         inkscape:connector-curvature="0"
         transform="scale(0.26458333)"
         d="m -816.50586,1009.2383 c -4.47366,-1.0557 -8.89093,-2.24 -13.38476,-3.2481 -14.43809,-3.2389 -28.97992,-6.22622 -43.63086,-8.92184 -14.65095,-2.69562 -29.41046,-5.09883 -44.28125,-7.17188 -7.4354,-1.03652 -14.89896,-1.98945 -22.39063,-2.85546 -7.49167,-0.86602 -15.01172,-1.64448 -22.56055,-2.33008 -6.62108,-0.58671 -13.2321,-0.94573 -19.84765,-1.38672 l 2.59961,23.57228 c 5.9298,0.4239 11.8675,0.7532 17.78515,1.3008 7.35235,0.6867 14.68128,1.4635 21.98633,2.3281 7.30505,0.8646 14.58708,1.817 21.8457,2.8496 14.51725,2.0651 28.9425,4.4553 43.2793,7.1328 14.3368,2.6775 28.5847,5.6409 42.74805,8.8516 9.19248,2.0838 18.29221,4.4261 27.41406,6.707 -2.38888,-5.5379 -7.41968,-17.2201 -11.5625,-26.8281 z"
         style="opacity:0.5;fill:#303c80;fill-opacity:1;stroke:none;stroke-width:0.99999899px;stroke-linecap:butt;stroke-linejoin:miter;stroke-opacity:1"
         id="path1353-4" />
      <path
         inkscape:connector-curvature="0"
         transform="scale(0.26458333)"
         d="m -828.03125,982.49805 c -14.51478,-3.21553 -29.14602,-6.19063 -43.90625,-8.86719 -7.48254,-1.35686 -14.998,-2.64013 -22.54492,-3.84375 -7.54692,-1.20362 -15.12611,-2.32866 -22.73828,-3.36914 -7.61217,-1.04048 -15.25726,-1.99585 -22.93555,-2.86328 -7.67829,-0.86744 -15.38947,-1.6456 -23.13477,-2.33008 -7.32652,-0.62204 -14.61108,-1.01102 -21.9082,-1.46484 l 2.59766,23.56445 c 6.61555,0.44099 13.22657,0.80001 19.84765,1.38672 7.54883,0.6856 15.06888,1.46406 22.56055,2.33008 7.49167,0.86601 14.95523,1.81894 22.39063,2.85546 14.87079,2.07305 29.6303,4.47626 44.28125,7.17188 14.65094,2.69562 29.19277,5.68294 43.63086,8.92184 4.49383,1.0081 8.9111,2.1924 13.38476,3.2481 -4.12929,-9.57662 -6.27656,-14.56035 -11.52539,-26.74025 z"
         style="opacity:0.5;fill:#ffffff;fill-opacity:1;stroke:none;stroke-width:0.99999899px;stroke-linecap:butt;stroke-linejoin:miter;stroke-opacity:1"
         id="path1351-1" />
      <path
         inkscape:connector-curvature="0"
         transform="scale(0.26458333)"
         d="m -978.36523,809.35352 c -4.50526,0.13526 -8.44364,0.56126 -11.29102,1.32421 -11.38955,3.05182 -10.78905,10.78907 -10.78905,10.78907 l 15.24608,138.29297 c 7.29712,0.45382 14.58168,0.8428 21.9082,1.46484 7.7453,0.68448 15.45648,1.46264 23.13477,2.33008 7.67829,0.86743 15.32338,1.8228 22.93555,2.86328 7.61217,1.04048 15.19136,2.16552 22.73828,3.36914 7.54692,1.20362 15.06238,2.48689 22.54492,3.84375 14.76023,2.67656 29.39147,5.65166 43.90625,8.86719 -29.25364,-67.88303 -64.31424,-149.33915 -64.84766,-151.29493 -0.82136,-3.01175 -6.16015,-5.06445 -6.16015,-5.06445 0,0 -24.91507,-6.84551 -37.64649,-11.5 -9.54853,-3.49086 -28.16392,-5.69096 -41.67968,-5.28515 z"
         style="fill:url(#linearGradient1559);fill-opacity:1;stroke:none;stroke-width:0.99999899px;stroke-linecap:butt;stroke-linejoin:miter;stroke-opacity:1"
         id="path1349-1" />
    </g>
  </g>
  <g
     inkscape:groupmode="layer"
     id="layer3"
     inkscape:label="txt"
     style="display:inline">
    <g
       inkscape:label="text oryginal"
       id="g5392"
       style="display:none"
       transform="translate(39.021352,34.745039)">
      <text
         id="text5102"
         y="117.69747"
         x="186.73436"
         style="font-style:normal;font-variant:normal;font-weight:normal;font-stretch:normal;font-size:4.23332977px;line-height:1.25;font-family:'Saira SemiCondensed';-inkscape-font-specification:'Saira SemiCondensed, ';text-align:center;letter-spacing:0px;word-spacing:0px;text-anchor:middle;fill:#000000;fill-opacity:1;stroke:none;stroke-width:0.26458299"
         xml:space="preserve"><tspan
           sodipodi:role="line"
           id="tspan5100"
           x="186.73436"
           y="117.69747"
           style="font-style:normal;font-variant:normal;font-weight:normal;font-stretch:semi-condensed;font-size:6.3499999px;font-family:'Saira SemiCondensed';-inkscape-font-specification:'Saira SemiCondensed, Semi-Condensed';stroke-width:0.26458299">Draw Freely.</tspan></text>
      <text
         id="text9938"
         y="123.8154"
         x="186.86568"
         style="font-style:normal;font-variant:normal;font-weight:normal;font-stretch:normal;font-size:4.23332977px;line-height:1.25;font-family:'Saira SemiCondensed';-inkscape-font-specification:'Saira SemiCondensed, ';text-align:center;letter-spacing:0px;word-spacing:0px;text-anchor:middle;fill:#000000;fill-opacity:1;stroke:none;stroke-width:0.26458299"
         xml:space="preserve"><tspan
           sodipodi:role="line"
           id="tspan9936"
           x="186.86568"
           y="123.8154"
           style="font-style:normal;font-variant:normal;font-weight:normal;font-stretch:normal;font-family:'Saira SemiCondensed';-inkscape-font-specification:'Saira SemiCondensed, ';stroke-width:0.26458299">www.inkscape.org</tspan></text>
      <text
         id="text9942"
         y="110.11183"
         x="186.70261"
         style="font-style:normal;font-variant:normal;font-weight:normal;font-stretch:normal;font-size:4.23332977px;line-height:1.25;font-family:'Saira SemiCondensed';-inkscape-font-specification:'Saira SemiCondensed, ';text-align:center;letter-spacing:0px;word-spacing:0px;text-anchor:middle;fill:#000000;fill-opacity:1;stroke:none;stroke-width:0.26458299"
         xml:space="preserve"><tspan
           sodipodi:role="line"
           id="tspan9940"
           x="186.70261"
           y="110.11183"
           style="font-style:normal;font-variant:normal;font-weight:bold;font-stretch:semi-condensed;font-size:8.46667004px;font-family:'Saira SemiCondensed';-inkscape-font-specification:'Saira SemiCondensed, Bold Semi-Condensed';stroke-width:0.26458299">INKSCAPE 1.0</tspan></text>
      <text
         id="text5071"
         y="130.42078"
         x="186.8214"
         style="font-style:normal;font-weight:normal;font-size:4.23332977px;line-height:1.25;font-family:sans-serif;text-align:center;letter-spacing:0px;word-spacing:0px;text-anchor:middle;fill:#000000;fill-opacity:1;stroke:none;stroke-width:0.26458299"
         xml:space="preserve"><tspan
           sodipodi:role="line"
           id="tspan5069"
           x="186.8214"
           y="130.42078"
           style="font-style:normal;font-variant:normal;font-weight:normal;font-stretch:normal;font-family:'Saira SemiCondensed';-inkscape-font-specification:'Saira SemiCondensed, ';stroke-width:0.26458299">art by Łukasz Dąbrowski</tspan></text>
    </g>
    <g
       aria-label="www.inkscape.org"
       style="font-style:normal;font-variant:normal;font-weight:normal;font-stretch:normal;font-size:4.23332977px;line-height:1.25;font-family:'Saira SemiCondensed';-inkscape-font-specification:'Saira SemiCondensed, ';text-align:center;letter-spacing:0px;word-spacing:0px;text-anchor:middle;display:inline;fill:#ffffff;fill-opacity:1;stroke:none;stroke-width:0.26458299"
       id="text4988"
       transform="matrix(1.25,0,0,1.25,-74.175765,52.820056)">
      <path
         d="m 63.823453,87.199471 -0.423334,-1.604434 h -0.02963 l -0.4191,1.604434 H 62.566153 L 61.977719,85.04047 h 0.3302 l 0.448734,1.744134 h 0.0254 l 0.448733,-1.744134 h 0.321733 l 0.452967,1.744134 h 0.0254 l 0.4445,-1.744134 h 0.321733 l -0.592666,2.159001 z"
         style="font-style:normal;font-variant:normal;font-weight:normal;font-stretch:normal;font-family:'Saira SemiCondensed';-inkscape-font-specification:'Saira SemiCondensed, ';fill:#ffffff;stroke-width:0.26458299"
         id="path5017"
         inkscape:connector-curvature="0" />
      <path
         d="m 66.874429,87.199471 -0.423333,-1.604434 h -0.02963 l -0.4191,1.604434 H 65.617129 L 65.028696,85.04047 h 0.3302 l 0.448733,1.744134 h 0.0254 l 0.448734,-1.744134 h 0.321733 l 0.452967,1.744134 h 0.0254 l 0.4445,-1.744134 h 0.321733 l -0.592667,2.159001 z"
         style="font-style:normal;font-variant:normal;font-weight:normal;font-stretch:normal;font-family:'Saira SemiCondensed';-inkscape-font-specification:'Saira SemiCondensed, ';fill:#ffffff;stroke-width:0.26458299"
         id="path5019"
         inkscape:connector-curvature="0" />
      <path
         d="m 69.925406,87.199471 -0.423333,-1.604434 h -0.02963 l -0.4191,1.604434 H 68.668106 L 68.079673,85.04047 h 0.3302 l 0.448733,1.744134 h 0.0254 l 0.448733,-1.744134 h 0.321734 l 0.452966,1.744134 h 0.0254 l 0.4445,-1.744134 h 0.321734 l -0.592667,2.159001 z"
         style="font-style:normal;font-variant:normal;font-weight:normal;font-stretch:normal;font-family:'Saira SemiCondensed';-inkscape-font-specification:'Saira SemiCondensed, ';fill:#ffffff;stroke-width:0.26458299"
         id="path5021"
         inkscape:connector-curvature="0" />
      <path
         d="m 71.270349,87.199471 v -0.397934 h 0.372534 v 0.397934 z"
         style="font-style:normal;font-variant:normal;font-weight:normal;font-stretch:normal;font-family:'Saira SemiCondensed';-inkscape-font-specification:'Saira SemiCondensed, ';fill:#ffffff;stroke-width:0.26458299"
         id="path5023"
         inkscape:connector-curvature="0" />
      <path
         d="m 72.210084,84.422404 v -0.3683 h 0.3429 v 0.3683 z m 0.0085,2.777067 V 85.04047 h 0.321734 v 2.159001 z"
         style="font-style:normal;font-variant:normal;font-weight:normal;font-stretch:normal;font-family:'Saira SemiCondensed';-inkscape-font-specification:'Saira SemiCondensed, ';fill:#ffffff;stroke-width:0.26458299"
         id="path5025"
         inkscape:connector-curvature="0" />
      <path
         d="m 74.460364,85.95487 q 0,-0.309033 -0.03387,-0.436033 -0.02963,-0.131233 -0.122767,-0.173567 -0.0889,-0.04233 -0.300567,-0.04233 -0.232833,0 -0.3429,0.0889 -0.105833,0.08467 -0.135466,0.2413 -0.0254,0.156633 -0.0254,0.4445 v 1.121834 h -0.32173 V 85.04047 h 0.287867 l 0.01693,0.3048 h 0.02117 q 0.0635,-0.1651 0.207433,-0.249766 0.148167,-0.0889 0.423334,-0.0889 0.275166,0 0.410633,0.08467 0.1397,0.08467 0.186267,0.258234 0.0508,0.173566 0.0508,0.486833 v 1.363134 h -0.321734 z"
         style="font-style:normal;font-variant:normal;font-weight:normal;font-stretch:normal;font-family:'Saira SemiCondensed';-inkscape-font-specification:'Saira SemiCondensed, ';fill:#ffffff;stroke-width:0.26458299"
         id="path5027"
         inkscape:connector-curvature="0" />
      <path
         d="m 76.637555,87.199471 -0.6477,-0.948267 h -0.249767 v 0.948267 h -0.321733 v -3.145367 h 0.321733 v 1.913466 h 0.249767 l 0.6477,-0.9271 h 0.351366 l -0.7366,1.045634 0.7493,1.113367 z"
         style="font-style:normal;font-variant:normal;font-weight:normal;font-stretch:normal;font-family:'Saira SemiCondensed';-inkscape-font-specification:'Saira SemiCondensed, ';fill:#ffffff;stroke-width:0.26458299"
         id="path5029"
         inkscape:connector-curvature="0" />
      <path
         d="m 78.012727,87.233337 q -0.156633,0 -0.351367,-0.01693 -0.194733,-0.01693 -0.334433,-0.0381 v -0.2667 q 0.334433,0.04233 0.664633,0.04233 0.186267,0 0.275167,-0.03387 0.0889,-0.03387 0.118533,-0.105834 0.02963,-0.07197 0.02963,-0.207433 0,-0.148167 -0.02117,-0.211667 -0.01693,-0.0635 -0.06773,-0.08467 -0.04657,-0.02117 -0.156634,-0.03387 l -0.491066,-0.0635 q -0.2413,-0.02963 -0.325967,-0.1524 -0.08467,-0.127 -0.08467,-0.423334 0,-0.262466 0.0889,-0.397933 0.0889,-0.1397 0.249767,-0.186267 0.160867,-0.04657 0.423333,-0.04657 0.143934,0 0.313267,0.01693 0.169333,0.01693 0.283633,0.04233 v 0.2667 q -0.249766,-0.04657 -0.601133,-0.04657 -0.1651,0 -0.254,0.02117 -0.0889,0.02117 -0.1397,0.09313 -0.04657,0.07197 -0.04657,0.220133 0,0.135467 0.01693,0.198967 0.02117,0.05927 0.06773,0.08467 0.04657,0.02117 0.1524,0.03387 l 0.486833,0.05927 q 0.1651,0.01693 0.249767,0.06773 0.0889,0.0508 0.131233,0.173567 0.04233,0.122766 0.04233,0.359833 0,0.254 -0.08043,0.3937 -0.0762,0.135467 -0.232833,0.1905 -0.1524,0.0508 -0.4064,0.0508 z"
         style="font-style:normal;font-variant:normal;font-weight:normal;font-stretch:normal;font-family:'Saira SemiCondensed';-inkscape-font-specification:'Saira SemiCondensed, ';fill:#ffffff;stroke-width:0.26458299"
         id="path5031"
         inkscape:connector-curvature="0" />
      <path
         d="m 80.474212,87.178304 q -0.1016,0.02117 -0.249767,0.0381 -0.143933,0.01693 -0.270933,0.01693 -0.3556,0 -0.524933,-0.110066 -0.1651,-0.1143 -0.2159,-0.338667 -0.04657,-0.224367 -0.04657,-0.664634 0,-0.440266 0.05927,-0.668866 0.05927,-0.232834 0.224366,-0.338667 0.1651,-0.105833 0.491067,-0.105833 0.131233,0 0.275167,0.01693 0.143933,0.01693 0.2413,0.0381 v 0.2667 q -0.211667,-0.04233 -0.440267,-0.04233 -0.237067,0 -0.347133,0.0635 -0.105834,0.0635 -0.143934,0.232833 -0.03387,0.169333 -0.03387,0.537633 0,0.376767 0.0381,0.5461 0.0381,0.1651 0.143933,0.228601 0.110067,0.05927 0.351367,0.05927 0.2286,0 0.448733,-0.04233 z"
         style="font-style:normal;font-variant:normal;font-weight:normal;font-stretch:normal;font-family:'Saira SemiCondensed';-inkscape-font-specification:'Saira SemiCondensed, ';fill:#ffffff;stroke-width:0.26458299"
         id="path5033"
         inkscape:connector-curvature="0" />
      <path
         d="m 81.47857,87.233337 q -0.338667,0 -0.486833,-0.135466 -0.148167,-0.1397 -0.148167,-0.495301 0,-0.245533 0.0508,-0.381 0.05503,-0.1397 0.182033,-0.198966 0.131234,-0.0635 0.364067,-0.0635 0.118533,0 0.690033,0.02117 v -0.143933 q 0,-0.262467 -0.04233,-0.372533 -0.04233,-0.1143 -0.156633,-0.143934 -0.110067,-0.03387 -0.376767,-0.03387 -0.118533,0 -0.300567,0.0127 -0.1778,0.0127 -0.287866,0.02963 V 85.06587 q 0.296333,-0.05927 0.690033,-0.05927 0.338667,0 0.503767,0.0762 0.169333,0.07197 0.2286,0.245533 0.0635,0.173567 0.0635,0.508 v 1.363134 H 82.16437 L 82.14744,86.8989 h -0.02117 q -0.0762,0.2032 -0.249767,0.270933 -0.169333,0.0635 -0.397933,0.0635 z m 0.1143,-0.2794 q 0.1778,0 0.287867,-0.03387 0.1143,-0.0381 0.169333,-0.148167 0.08043,-0.1651 0.08043,-0.4445 v -0.122767 h -0.605366 q -0.156634,0 -0.232834,0.02963 -0.07197,0.0254 -0.1016,0.105834 -0.02963,0.0762 -0.02963,0.2413 0,0.160866 0.03387,0.237066 0.03387,0.0762 0.122766,0.105834 0.0889,0.02963 0.275167,0.02963 z"
         style="font-style:normal;font-variant:normal;font-weight:normal;font-stretch:normal;font-family:'Saira SemiCondensed';-inkscape-font-specification:'Saira SemiCondensed, ';fill:#ffffff;stroke-width:0.26458299"
         id="path5035"
         inkscape:connector-curvature="0" />
      <path
         d="m 83.083004,85.04047 h 0.287866 l 0.01693,0.3048 h 0.02117 q 0.07197,-0.198966 0.232834,-0.2667 0.160866,-0.07197 0.389466,-0.07197 0.287867,0 0.436034,0.09737 0.148166,0.09313 0.207433,0.325967 0.0635,0.232833 0.0635,0.6858 0,0.452967 -0.05927,0.690033 -0.05927,0.232834 -0.207433,0.330201 -0.148167,0.09737 -0.436033,0.09737 -0.2413,0 -0.389467,-0.06773 -0.148167,-0.07197 -0.2159,-0.237067 h -0.0254 v 1.100667 h -0.321733 z m 0.8255,1.900767 q 0.237066,0 0.334433,-0.05503 0.1016,-0.05503 0.135467,-0.2159 0.0381,-0.1651 0.0381,-0.550334 0,-0.385233 -0.0381,-0.5461 -0.03387,-0.1651 -0.135467,-0.220133 -0.09737,-0.05503 -0.334433,-0.05503 -0.1905,0 -0.300567,0.0635 -0.110067,0.05927 -0.1524,0.198966 -0.03387,0.09737 -0.04233,0.224367 -0.0085,0.127 -0.0085,0.334433 0,0.376767 0.04233,0.524934 0.04657,0.160866 0.156634,0.2286 0.110066,0.06773 0.3048,0.06773 z"
         style="font-style:normal;font-variant:normal;font-weight:normal;font-stretch:normal;font-family:'Saira SemiCondensed';-inkscape-font-specification:'Saira SemiCondensed, ';fill:#ffffff;stroke-width:0.26458299"
         id="path5037"
         inkscape:connector-curvature="0" />
      <path
         d="m 86.839822,86.230037 h -1.2954 q 0,0.3302 0.03387,0.474133 0.0381,0.143934 0.160866,0.198967 0.127,0.05503 0.414867,0.05503 0.270933,0 0.613833,-0.04657 v 0.262467 q -0.1143,0.0254 -0.309033,0.04233 -0.1905,0.01693 -0.372533,0.01693 -0.389467,0 -0.5715,-0.09737 -0.182034,-0.1016 -0.2413,-0.325967 -0.05503,-0.224367 -0.05503,-0.6858 0,-0.4572 0.0508,-0.677334 0.0508,-0.224366 0.2286,-0.3302 0.182034,-0.110066 0.5715,-0.110066 0.364067,0 0.524934,0.105833 0.160866,0.1016 0.2032,0.321733 0.04233,0.2159 0.04233,0.6858 z M 86.060889,85.28177 q -0.2413,0 -0.347134,0.0508 -0.1016,0.0508 -0.135466,0.194734 -0.03387,0.1397 -0.03387,0.461433 h 0.986367 v -0.04233 q 0,-0.300567 -0.04233,-0.436034 -0.0381,-0.1397 -0.135466,-0.182033 -0.09313,-0.04657 -0.2921,-0.04657 z"
         style="font-style:normal;font-variant:normal;font-weight:normal;font-stretch:normal;font-family:'Saira SemiCondensed';-inkscape-font-specification:'Saira SemiCondensed, ';fill:#ffffff;stroke-width:0.26458299"
         id="path5039"
         inkscape:connector-curvature="0" />
      <path
         d="m 87.335521,87.199471 v -0.397934 h 0.372533 v 0.397934 z"
         style="font-style:normal;font-variant:normal;font-weight:normal;font-stretch:normal;font-family:'Saira SemiCondensed';-inkscape-font-specification:'Saira SemiCondensed, ';fill:#ffffff;stroke-width:0.26458299"
         id="path5041"
         inkscape:connector-curvature="0" />
      <path
         d="m 89.04572,87.233337 q -0.397934,0 -0.5715,-0.0889 -0.173567,-0.09313 -0.224367,-0.309033 -0.04657,-0.220134 -0.04657,-0.715434 0,-0.4953 0.04657,-0.7112 0.0508,-0.220133 0.224367,-0.309033 0.173566,-0.09313 0.5715,-0.09313 0.397933,0 0.5715,0.09313 0.173566,0.0889 0.220133,0.309033 0.0508,0.2159 0.0508,0.7112 0,0.4953 -0.0508,0.715434 -0.04657,0.2159 -0.220133,0.309033 -0.173567,0.0889 -0.5715,0.0889 z m 0,-0.2794 q 0.262466,0 0.364066,-0.05503 0.105834,-0.05927 0.131234,-0.211667 0.0254,-0.156633 0.0254,-0.567267 0,-0.410633 -0.0254,-0.563033 -0.0254,-0.156633 -0.131234,-0.211667 -0.1016,-0.05927 -0.364066,-0.05927 -0.262467,0 -0.364067,0.05927 -0.1016,0.05503 -0.127,0.211667 -0.0254,0.1524 -0.0254,0.563033 0,0.414867 0.0254,0.567267 0.0254,0.1524 0.127,0.211667 0.1016,0.05503 0.364067,0.05503 z"
         style="font-style:normal;font-variant:normal;font-weight:normal;font-stretch:normal;font-family:'Saira SemiCondensed';-inkscape-font-specification:'Saira SemiCondensed, ';fill:#ffffff;stroke-width:0.26458299"
         id="path5043"
         inkscape:connector-curvature="0" />
      <path
         d="m 90.441728,85.04047 h 0.287867 l 0.01693,0.410634 h 0.0254 q 0.0635,-0.254 0.220133,-0.347134 0.160867,-0.09737 0.419101,-0.09737 v 0.325966 q -0.254001,0 -0.397934,0.09313 -0.1397,0.0889 -0.194733,0.275166 -0.05503,0.182034 -0.05503,0.486834 v 1.011767 h -0.321733 z"
         style="font-style:normal;font-variant:normal;font-weight:normal;font-stretch:normal;font-family:'Saira SemiCondensed';-inkscape-font-specification:'Saira SemiCondensed, ';fill:#ffffff;stroke-width:0.26458299"
         id="path5045"
         inkscape:connector-curvature="0" />
      <path
         d="m 92.491984,88.058837 q -0.381,0 -0.668866,-0.0381 v -0.262466 q 0.3302,0.02117 0.605366,0.02117 0.287867,0 0.414867,-0.0635 0.127,-0.05927 0.1651,-0.2159 0.04233,-0.156633 0.04233,-0.503766 v -0.0762 h -0.02117 q -0.06773,0.160866 -0.2159,0.232833 -0.148167,0.06773 -0.385234,0.06773 -0.2921,0 -0.4445,-0.09313 -0.148166,-0.09737 -0.207433,-0.325967 -0.05927,-0.232833 -0.05927,-0.681567 0,-0.452966 0.05927,-0.6858 0.0635,-0.237066 0.211667,-0.3302 0.1524,-0.09737 0.440266,-0.09737 0.224367,0 0.385234,0.07197 0.160866,0.07197 0.232833,0.2667 h 0.02117 l 0.01693,-0.3048 h 0.287867 v 1.866901 q 0,0.461433 -0.05927,0.694266 -0.05927,0.237067 -0.245533,0.347134 -0.186267,0.110066 -0.575734,0.110066 z m 0.05927,-1.126066 q 0.186267,0 0.2921,-0.05927 0.110067,-0.05927 0.1524,-0.1905 0.03387,-0.09737 0.04233,-0.220134 0.0127,-0.127 0.0127,-0.347133 0,-0.2032 -0.0085,-0.325967 -0.0085,-0.122766 -0.0381,-0.211666 -0.04657,-0.148167 -0.156634,-0.211667 -0.105833,-0.06773 -0.296333,-0.06773 -0.237067,0 -0.338667,0.05503 -0.1016,0.0508 -0.135466,0.2159 -0.03387,0.160867 -0.03387,0.5461 0,0.381 0.03387,0.5461 0.03387,0.1651 0.135466,0.220134 0.1016,0.0508 0.338667,0.0508 z"
         style="font-style:normal;font-variant:normal;font-weight:normal;font-stretch:normal;font-family:'Saira SemiCondensed';-inkscape-font-specification:'Saira SemiCondensed, ';fill:#ffffff;stroke-width:0.26458299"
         id="path5047"
         inkscape:connector-curvature="0" />
    </g>
    <g
       aria-label="art by Łukasz Dąbrowski"
       style="font-style:normal;font-weight:normal;font-size:4.23332977px;line-height:1.25;font-family:sans-serif;text-align:center;letter-spacing:0px;word-spacing:0px;text-anchor:middle;display:inline;fill:#ffffff;fill-opacity:1;stroke:none;stroke-width:0.26458299"
       id="text5291"
       transform="matrix(1.25,0,0,1.25,-56.789301,17.801309)">
      <path
         d="m 160.38053,115.24834 q -0.33867,0 -0.48683,-0.13547 -0.14817,-0.1397 -0.14817,-0.4953 0,-0.24553 0.0508,-0.381 0.055,-0.1397 0.18203,-0.19897 0.13124,-0.0635 0.36407,-0.0635 0.11853,0 0.69003,0.0212 v -0.14393 q 0,-0.26247 -0.0423,-0.37254 -0.0423,-0.1143 -0.15663,-0.14393 -0.11007,-0.0339 -0.37677,-0.0339 -0.11853,0 -0.30057,0.0127 -0.1778,0.0127 -0.28786,0.0296 v -0.26247 q 0.29633,-0.0593 0.69003,-0.0593 0.33867,0 0.50377,0.0762 0.16933,0.072 0.2286,0.24554 0.0635,0.17356 0.0635,0.508 v 1.36313 h -0.28787 l -0.0169,-0.30057 h -0.0212 q -0.0762,0.2032 -0.24977,0.27094 -0.16933,0.0635 -0.39793,0.0635 z m 0.1143,-0.2794 q 0.1778,0 0.28787,-0.0339 0.1143,-0.0381 0.16933,-0.14817 0.0804,-0.1651 0.0804,-0.4445 v -0.12276 h -0.60536 q -0.15664,0 -0.23284,0.0296 -0.072,0.0254 -0.1016,0.10583 -0.0296,0.0762 -0.0296,0.2413 0,0.16087 0.0339,0.23707 0.0339,0.0762 0.12276,0.10583 0.0889,0.0296 0.27517,0.0296 z"
         style="font-style:normal;font-variant:normal;font-weight:normal;font-stretch:normal;font-family:'Saira SemiCondensed';-inkscape-font-specification:'Saira SemiCondensed, ';fill:#ffffff;stroke-width:0.26458299"
         id="path5293"
         inkscape:connector-curvature="0" />
      <path
         d="m 161.98496,113.05547 h 0.28787 l 0.0169,0.41063 h 0.0254 q 0.0635,-0.254 0.22014,-0.34713 0.16086,-0.0974 0.4191,-0.0974 v 0.32597 q -0.254,0 -0.39794,0.0931 -0.1397,0.0889 -0.19473,0.27517 -0.055,0.18203 -0.055,0.48683 v 1.01177 h -0.32174 z"
         style="font-style:normal;font-variant:normal;font-weight:normal;font-stretch:normal;font-family:'Saira SemiCondensed';-inkscape-font-specification:'Saira SemiCondensed, ';fill:#ffffff;stroke-width:0.26458299"
         id="path5295"
         inkscape:connector-curvature="0" />
      <path
         d="m 163.54719,115.21447 v -1.8796 h -0.37676 v -0.2794 h 0.37676 v -0.62653 h 0.32174 v 0.62653 h 0.4445 v 0.2794 h -0.4445 v 1.8796 z"
         style="font-style:normal;font-variant:normal;font-weight:normal;font-stretch:normal;font-family:'Saira SemiCondensed';-inkscape-font-specification:'Saira SemiCondensed, ';fill:#ffffff;stroke-width:0.26458299"
         id="path5297"
         inkscape:connector-curvature="0" />
      <path
         d="m 166.57952,115.24834 q -0.23284,0 -0.3937,-0.0677 -0.15664,-0.072 -0.2286,-0.2667 h -0.0212 l -0.0169,0.30057 h -0.28787 v -3.14537 h 0.32173 v 1.25307 h 0.0212 q 0.072,-0.16087 0.22013,-0.2286 0.1524,-0.072 0.38947,-0.072 0.28787,0 0.43603,0.0974 0.14817,0.0974 0.20744,0.3302 0.0593,0.23283 0.0593,0.6858 0,0.45297 -0.0635,0.69003 -0.0593,0.23284 -0.20743,0.3302 -0.14817,0.0931 -0.43603,0.0931 z m -0.12277,-0.2921 q 0.23707,0 0.33443,-0.0508 0.1016,-0.055 0.13547,-0.22014 0.0381,-0.1651 0.0381,-0.55033 0,-0.38523 -0.0381,-0.5461 -0.0339,-0.1651 -0.13547,-0.22013 -0.0974,-0.055 -0.33443,-0.055 -0.18203,0 -0.2921,0.055 -0.10583,0.055 -0.14817,0.17356 -0.0381,0.1016 -0.0508,0.2413 -0.0127,0.13547 -0.0127,0.35137 0,0.20743 0.0127,0.3429 0.0127,0.13547 0.0466,0.23707 0.0423,0.127 0.14817,0.18626 0.11006,0.055 0.29633,0.055 z"
         style="font-style:normal;font-variant:normal;font-weight:normal;font-stretch:normal;font-family:'Saira SemiCondensed';-inkscape-font-specification:'Saira SemiCondensed, ';fill:#ffffff;stroke-width:0.26458299"
         id="path5299"
         inkscape:connector-curvature="0" />
      <path
         d="m 168.57527,116.07384 q -0.32173,0 -0.64347,-0.0339 v -0.2667 q 0.34714,0.0212 0.57574,0.0212 0.28363,0 0.41063,-0.072 0.13123,-0.0677 0.16933,-0.22013 0.0381,-0.14817 0.0381,-0.46567 v -0.11007 h -0.0212 q -0.055,0.14394 -0.19897,0.2286 -0.1397,0.0804 -0.41487,0.0804 -0.2794,0 -0.4191,-0.0847 -0.13546,-0.0889 -0.18203,-0.2667 -0.0466,-0.1778 -0.0466,-0.508 v -1.3208 h 0.32174 v 1.24037 q 0,0.3048 0.0339,0.43603 0.0339,0.13123 0.12277,0.17357 0.0931,0.0423 0.3048,0.0423 0.23283,0 0.33867,-0.0889 0.10583,-0.0889 0.13123,-0.2413 0.0296,-0.15663 0.0296,-0.44873 v -1.11337 h 0.32174 v 1.8796 q 0,0.44873 -0.0635,0.68157 -0.0593,0.23706 -0.24554,0.34713 -0.18203,0.11007 -0.56303,0.11007 z"
         style="font-style:normal;font-variant:normal;font-weight:normal;font-stretch:normal;font-family:'Saira SemiCondensed';-inkscape-font-specification:'Saira SemiCondensed, ';fill:#ffffff;stroke-width:0.26458299"
         id="path5301"
         inkscape:connector-curvature="0" />
      <path
         d="m 171.3743,114.90544 h 1.15146 v 0.30903 h -1.49013 v -1.21073 l -0.2413,0.0889 v -0.27517 l 0.2413,-0.0889 v -1.42663 h 0.33867 v 1.29963 l 0.6985,-0.25823 v 0.27516 l -0.6985,0.25824 z"
         style="font-style:normal;font-variant:normal;font-weight:normal;font-stretch:normal;font-family:'Saira SemiCondensed';-inkscape-font-specification:'Saira SemiCondensed, ';fill:#ffffff;stroke-width:0.26458299"
         id="path5303"
         inkscape:connector-curvature="0" />
      <path
         d="m 174.24,114.90967 h -0.0254 q -0.0635,0.1651 -0.20743,0.254 -0.14394,0.0847 -0.4191,0.0847 -0.27517,0 -0.41487,-0.0847 -0.1397,-0.0847 -0.1905,-0.25823 -0.0466,-0.17357 -0.0466,-0.48684 v -1.36313 h 0.32174 v 1.2446 q 0,0.3048 0.0339,0.43603 0.0339,0.13124 0.12277,0.17357 0.0931,0.0423 0.3048,0.0423 0.23283,0 0.33867,-0.0847 0.10583,-0.0889 0.13123,-0.2413 0.0296,-0.15664 0.0296,-0.44874 v -1.12183 h 0.32174 v 2.159 h -0.28787 z"
         style="font-style:normal;font-variant:normal;font-weight:normal;font-stretch:normal;font-family:'Saira SemiCondensed';-inkscape-font-specification:'Saira SemiCondensed, ';fill:#ffffff;stroke-width:0.26458299"
         id="path5305"
         inkscape:connector-curvature="0" />
      <path
         d="m 176.40026,115.21447 -0.6477,-0.94827 h -0.24977 v 0.94827 h -0.32173 v -3.14537 h 0.32173 v 1.91347 h 0.24977 l 0.6477,-0.9271 h 0.35136 l -0.7366,1.04563 0.7493,1.11337 z"
         style="font-style:normal;font-variant:normal;font-weight:normal;font-stretch:normal;font-family:'Saira SemiCondensed';-inkscape-font-specification:'Saira SemiCondensed, ';fill:#ffffff;stroke-width:0.26458299"
         id="path5307"
         inkscape:connector-curvature="0" />
      <path
         d="m 177.70247,115.24834 q -0.33867,0 -0.48683,-0.13547 -0.14817,-0.1397 -0.14817,-0.4953 0,-0.24553 0.0508,-0.381 0.055,-0.1397 0.18203,-0.19897 0.13124,-0.0635 0.36407,-0.0635 0.11853,0 0.69003,0.0212 v -0.14393 q 0,-0.26247 -0.0423,-0.37254 -0.0423,-0.1143 -0.15663,-0.14393 -0.11007,-0.0339 -0.37677,-0.0339 -0.11853,0 -0.30057,0.0127 -0.1778,0.0127 -0.28786,0.0296 v -0.26247 q 0.29633,-0.0593 0.69003,-0.0593 0.33867,0 0.50377,0.0762 0.16933,0.072 0.2286,0.24554 0.0635,0.17356 0.0635,0.508 v 1.36313 h -0.28787 l -0.0169,-0.30057 h -0.0212 q -0.0762,0.2032 -0.24977,0.27094 -0.16933,0.0635 -0.39793,0.0635 z m 0.1143,-0.2794 q 0.1778,0 0.28787,-0.0339 0.1143,-0.0381 0.16933,-0.14817 0.0804,-0.1651 0.0804,-0.4445 v -0.12276 h -0.60536 q -0.15664,0 -0.23284,0.0296 -0.072,0.0254 -0.1016,0.10583 -0.0296,0.0762 -0.0296,0.2413 0,0.16087 0.0339,0.23707 0.0339,0.0762 0.12276,0.10583 0.0889,0.0296 0.27517,0.0296 z"
         style="font-style:normal;font-variant:normal;font-weight:normal;font-stretch:normal;font-family:'Saira SemiCondensed';-inkscape-font-specification:'Saira SemiCondensed, ';fill:#ffffff;stroke-width:0.26458299"
         id="path5309"
         inkscape:connector-curvature="0" />
      <path
         d="m 179.93344,115.24834 q -0.15664,0 -0.35137,-0.0169 -0.19473,-0.0169 -0.33443,-0.0381 v -0.2667 q 0.33443,0.0423 0.66463,0.0423 0.18627,0 0.27517,-0.0339 0.0889,-0.0339 0.11853,-0.10583 0.0296,-0.072 0.0296,-0.20744 0,-0.14816 -0.0212,-0.21166 -0.0169,-0.0635 -0.0677,-0.0847 -0.0466,-0.0212 -0.15663,-0.0339 l -0.49107,-0.0635 q -0.2413,-0.0296 -0.32596,-0.1524 -0.0847,-0.127 -0.0847,-0.42333 0,-0.26247 0.0889,-0.39793 0.0889,-0.1397 0.24977,-0.18627 0.16086,-0.0466 0.42333,-0.0466 0.14393,0 0.31327,0.0169 0.16933,0.0169 0.28363,0.0423 v 0.2667 q -0.24977,-0.0466 -0.60113,-0.0466 -0.1651,0 -0.254,0.0212 -0.0889,0.0212 -0.1397,0.0931 -0.0466,0.072 -0.0466,0.22014 0,0.13546 0.0169,0.19896 0.0212,0.0593 0.0677,0.0847 0.0466,0.0212 0.1524,0.0339 l 0.48683,0.0593 q 0.1651,0.0169 0.24977,0.0677 0.0889,0.0508 0.13123,0.17356 0.0423,0.12277 0.0423,0.35984 0,0.254 -0.0804,0.3937 -0.0762,0.13546 -0.23283,0.1905 -0.1524,0.0508 -0.4064,0.0508 z"
         style="font-style:normal;font-variant:normal;font-weight:normal;font-stretch:normal;font-family:'Saira SemiCondensed';-inkscape-font-specification:'Saira SemiCondensed, ';fill:#ffffff;stroke-width:0.26458299"
         id="path5311"
         inkscape:connector-curvature="0" />
      <path
         d="m 181.03602,115.21447 v -0.254 l 1.09644,-1.6256 h -1.05411 v -0.2794 h 1.45627 v 0.254 l -1.09643,1.6256 h 1.1049 v 0.2794 z"
         style="font-style:normal;font-variant:normal;font-weight:normal;font-stretch:normal;font-family:'Saira SemiCondensed';-inkscape-font-specification:'Saira SemiCondensed, ';fill:#ffffff;stroke-width:0.26458299"
         id="path5313"
         inkscape:connector-curvature="0" />
      <path
         d="m 183.99195,112.30194 h 0.8128 q 0.5207,0 0.7366,0.11006 0.2159,0.10584 0.27516,0.38947 0.0593,0.2794 0.0593,0.95673 0,0.67734 -0.0593,0.96097 -0.0593,0.2794 -0.27516,0.38947 -0.2159,0.10583 -0.7366,0.10583 h -0.8128 z m 0.7747,2.61196 q 0.39793,0 0.53763,-0.055 0.14393,-0.0593 0.18627,-0.2794 0.0466,-0.22013 0.0466,-0.82127 0,-0.5969 -0.0466,-0.81703 -0.0423,-0.22437 -0.18627,-0.2794 -0.14393,-0.0593 -0.53763,-0.0593 h -0.43604 v 2.3114 z"
         style="font-style:normal;font-variant:normal;font-weight:normal;font-stretch:normal;font-family:'Saira SemiCondensed';-inkscape-font-specification:'Saira SemiCondensed, ';fill:#ffffff;stroke-width:0.26458299"
         id="path5315"
         inkscape:connector-curvature="0" />
      <path
         d="m 187.90209,115.8283 q 0.0423,0 0.072,-0.004 v 0.21167 q -0.13547,0.008 -0.15664,0.008 -0.2032,0 -0.29633,-0.0889 -0.0889,-0.0889 -0.0889,-0.2286 0,-0.13123 0.0677,-0.2667 0.072,-0.13123 0.18627,-0.24553 h -0.0127 l -0.0169,-0.30057 h -0.0212 q -0.0762,0.2032 -0.24977,0.27094 -0.16933,0.0635 -0.39793,0.0635 -0.33867,0 -0.48683,-0.13547 -0.14817,-0.1397 -0.14817,-0.4953 0,-0.24553 0.0508,-0.381 0.055,-0.1397 0.18203,-0.19897 0.13124,-0.0635 0.36407,-0.0635 0.11853,0 0.69003,0.0212 v -0.14393 q 0,-0.26247 -0.0423,-0.37254 -0.0423,-0.1143 -0.15663,-0.14393 -0.11007,-0.0339 -0.37677,-0.0339 -0.11853,0 -0.30057,0.0127 -0.1778,0.0127 -0.28786,0.0296 v -0.26247 q 0.29633,-0.0593 0.69003,-0.0593 0.33867,0 0.50377,0.0762 0.16933,0.072 0.2286,0.24554 0.0635,0.17356 0.0635,0.508 v 1.36313 q -0.0931,0.0677 -0.17357,0.19897 -0.0762,0.13123 -0.0762,0.24553 0,0.16933 0.1905,0.16933 z m -0.26247,-1.60866 h -0.60536 q -0.15664,0 -0.23284,0.0296 -0.072,0.0254 -0.1016,0.10583 -0.0296,0.0762 -0.0296,0.2413 0,0.16087 0.0339,0.23707 0.0339,0.0762 0.12276,0.10583 0.0889,0.0296 0.27517,0.0296 0.1778,0 0.28787,-0.0339 0.1143,-0.0381 0.16933,-0.14817 0.0804,-0.1651 0.0804,-0.4445 z"
         style="font-style:normal;font-variant:normal;font-weight:normal;font-stretch:normal;font-family:'Saira SemiCondensed';-inkscape-font-specification:'Saira SemiCondensed, ';fill:#ffffff;stroke-width:0.26458299"
         id="path5317"
         inkscape:connector-curvature="0" />
      <path
         d="m 189.54039,115.24834 q -0.23283,0 -0.3937,-0.0677 -0.15663,-0.072 -0.2286,-0.2667 h -0.0212 l -0.0169,0.30057 h -0.28787 v -3.14537 h 0.32174 v 1.25307 h 0.0212 q 0.072,-0.16087 0.22014,-0.2286 0.1524,-0.072 0.38946,-0.072 0.28787,0 0.43604,0.0974 0.14816,0.0974 0.20743,0.3302 0.0593,0.23283 0.0593,0.6858 0,0.45297 -0.0635,0.69003 -0.0593,0.23284 -0.20744,0.3302 -0.14816,0.0931 -0.43603,0.0931 z m -0.12277,-0.2921 q 0.23707,0 0.33444,-0.0508 0.1016,-0.055 0.13546,-0.22014 0.0381,-0.1651 0.0381,-0.55033 0,-0.38523 -0.0381,-0.5461 -0.0339,-0.1651 -0.13546,-0.22013 -0.0974,-0.055 -0.33444,-0.055 -0.18203,0 -0.2921,0.055 -0.10583,0.055 -0.14816,0.17356 -0.0381,0.1016 -0.0508,0.2413 -0.0127,0.13547 -0.0127,0.35137 0,0.20743 0.0127,0.3429 0.0127,0.13547 0.0466,0.23707 0.0423,0.127 0.14817,0.18626 0.11007,0.055 0.29633,0.055 z"
         style="font-style:normal;font-variant:normal;font-weight:normal;font-stretch:normal;font-family:'Saira SemiCondensed';-inkscape-font-specification:'Saira SemiCondensed, ';fill:#ffffff;stroke-width:0.26458299"
         id="path5319"
         inkscape:connector-curvature="0" />
      <path
         d="m 190.80801,113.05547 h 0.28787 l 0.0169,0.41063 h 0.0254 q 0.0635,-0.254 0.22013,-0.34713 0.16087,-0.0974 0.4191,-0.0974 v 0.32597 q -0.254,0 -0.39793,0.0931 -0.1397,0.0889 -0.19473,0.27517 -0.055,0.18203 -0.055,0.48683 v 1.01177 h -0.32173 z"
         style="font-style:normal;font-variant:normal;font-weight:normal;font-stretch:normal;font-family:'Saira SemiCondensed';-inkscape-font-specification:'Saira SemiCondensed, ';fill:#ffffff;stroke-width:0.26458299"
         id="path5321"
         inkscape:connector-curvature="0" />
      <path
         d="m 192.926,115.24834 q -0.39793,0 -0.5715,-0.0889 -0.17357,-0.0931 -0.22437,-0.30904 -0.0466,-0.22013 -0.0466,-0.71543 0,-0.4953 0.0466,-0.7112 0.0508,-0.22013 0.22437,-0.30903 0.17357,-0.0931 0.5715,-0.0931 0.39793,0 0.5715,0.0931 0.17357,0.0889 0.22013,0.30903 0.0508,0.2159 0.0508,0.7112 0,0.4953 -0.0508,0.71543 -0.0466,0.2159 -0.22013,0.30904 -0.17357,0.0889 -0.5715,0.0889 z m 0,-0.2794 q 0.26247,0 0.36407,-0.055 0.10583,-0.0593 0.13123,-0.21166 0.0254,-0.15664 0.0254,-0.56727 0,-0.41063 -0.0254,-0.56303 -0.0254,-0.15664 -0.13123,-0.21167 -0.1016,-0.0593 -0.36407,-0.0593 -0.26247,0 -0.36407,0.0593 -0.1016,0.055 -0.127,0.21167 -0.0254,0.1524 -0.0254,0.56303 0,0.41487 0.0254,0.56727 0.0254,0.1524 0.127,0.21166 0.1016,0.055 0.36407,0.055 z"
         style="font-style:normal;font-variant:normal;font-weight:normal;font-stretch:normal;font-family:'Saira SemiCondensed';-inkscape-font-specification:'Saira SemiCondensed, ';fill:#ffffff;stroke-width:0.26458299"
         id="path5323"
         inkscape:connector-curvature="0" />
      <path
         d="m 195.9232,115.21447 -0.42333,-1.60443 h -0.0296 l -0.4191,1.60443 h -0.38523 l -0.58843,-2.159 h 0.3302 l 0.44873,1.74413 h 0.0254 l 0.44873,-1.74413 h 0.32174 l 0.45296,1.74413 h 0.0254 l 0.4445,-1.74413 h 0.32174 l -0.59267,2.159 z"
         style="font-style:normal;font-variant:normal;font-weight:normal;font-stretch:normal;font-family:'Saira SemiCondensed';-inkscape-font-specification:'Saira SemiCondensed, ';fill:#ffffff;stroke-width:0.26458299"
         id="path5325"
         inkscape:connector-curvature="0" />
      <path
         d="m 197.95818,115.24834 q -0.15664,0 -0.35137,-0.0169 -0.19473,-0.0169 -0.33443,-0.0381 v -0.2667 q 0.33443,0.0423 0.66463,0.0423 0.18627,0 0.27517,-0.0339 0.0889,-0.0339 0.11853,-0.10583 0.0296,-0.072 0.0296,-0.20744 0,-0.14816 -0.0212,-0.21166 -0.0169,-0.0635 -0.0677,-0.0847 -0.0466,-0.0212 -0.15663,-0.0339 l -0.49107,-0.0635 q -0.2413,-0.0296 -0.32596,-0.1524 -0.0847,-0.127 -0.0847,-0.42333 0,-0.26247 0.0889,-0.39793 0.0889,-0.1397 0.24977,-0.18627 0.16086,-0.0466 0.42333,-0.0466 0.14393,0 0.31327,0.0169 0.16933,0.0169 0.28363,0.0423 v 0.2667 q -0.24977,-0.0466 -0.60113,-0.0466 -0.1651,0 -0.254,0.0212 -0.0889,0.0212 -0.1397,0.0931 -0.0466,0.072 -0.0466,0.22014 0,0.13546 0.0169,0.19896 0.0212,0.0593 0.0677,0.0847 0.0466,0.0212 0.1524,0.0339 l 0.48683,0.0593 q 0.1651,0.0169 0.24977,0.0677 0.0889,0.0508 0.13123,0.17356 0.0423,0.12277 0.0423,0.35984 0,0.254 -0.0804,0.3937 -0.0762,0.13546 -0.23283,0.1905 -0.1524,0.0508 -0.4064,0.0508 z"
         style="font-style:normal;font-variant:normal;font-weight:normal;font-stretch:normal;font-family:'Saira SemiCondensed';-inkscape-font-specification:'Saira SemiCondensed, ';fill:#ffffff;stroke-width:0.26458299"
         id="path5327"
         inkscape:connector-curvature="0" />
      <path
         d="m 200.4112,115.21447 -0.6477,-0.94827 h -0.24977 v 0.94827 H 199.192 v -3.14537 h 0.32173 v 1.91347 h 0.24977 l 0.6477,-0.9271 h 0.35136 l -0.7366,1.04563 0.7493,1.11337 z"
         style="font-style:normal;font-variant:normal;font-weight:normal;font-stretch:normal;font-family:'Saira SemiCondensed';-inkscape-font-specification:'Saira SemiCondensed, ';fill:#ffffff;stroke-width:0.26458299"
         id="path5329"
         inkscape:connector-curvature="0" />
      <path
         d="m 201.19271,112.4374 v -0.3683 h 0.3429 v 0.3683 z m 0.008,2.77707 v -2.159 h 0.32173 v 2.159 z"
         style="font-style:normal;font-variant:normal;font-weight:normal;font-stretch:normal;font-family:'Saira SemiCondensed';-inkscape-font-specification:'Saira SemiCondensed, ';fill:#ffffff;stroke-width:0.26458299"
         id="path5331"
         inkscape:connector-curvature="0" />
    </g>
    <g
       id="g2358">
      <g
         style="stroke-width:1.10092998"
         transform="matrix(0.10311026,0,0,0.10311026,122.81865,87.967492)"
         id="inkscape-logo-9">
        <path
           style="fill:#000000;fill-opacity:1;stroke-width:1.10092998"
           inkscape:connector-curvature="0"
           id="path2313-5"
           d="M 163.15,27.83 28.81,165.3 C -16.58,221.51 59.7,214.97 92.4,231.16 104.13,243.15 47.44,252 59.17,264 c 11.73,11.99 70.93,23.1 82.68,35.09 11.73,11.99 -24.01,24.71 -12.28,36.7 11.73,11.99 38.86,0.63 43.94,28.31 3.62,19.78 48.89,8.5 71.03,-7.7 11.73,-12 -22.44,-10.87 -10.71,-22.86 29.17,-29.83 56.33,-10.84 66.31,-40.73 4.93,-14.77 -42.94,-22.77 -31.19,-34.76 33.75,-19.71 150.4,-32.54 95.05,-87.89 L 224.75,27.83 c -17.03,-16.35 -45.45,-16.53 -61.6,0 z m 154.31,264.98 c 0,6.82 50.25,11.29 50.25,-1.61 -7.16,-20.72 -44.31,-19.32 -50.25,1.61 z M 91.1,329.05 c 11.9,10.29 30.28,-2.56 35.79,-16.92 -11.53,-15.32 -54.69,0.55 -35.79,16.92 z m 220.06,-22.23 c -15.34,13.76 1.72,27.72 16.84,18.83 3.37,-3.42 -0.09,-15.41 -16.84,-18.83 z" />
        <path
           inkscape:connector-curvature="0"
           style="fill:#ffffff;stroke-width:1.10092998"
           id="path2315-7"
           d="m 131,238.6 c 3.59,2.23 57.89,13.26 71.16,15.46 4.6,0.97 1.34,5.71 -5,8.91 -14.3,3.8 -83.66,-24.37 -66.16,-24.37 z" />
        <path
           inkscape:connector-curvature="0"
           style="fill:#ffffff;stroke-width:1.10092998"
           id="path2317-0"
           d="m 216.63,37.47 53.15,53.98 c 5.04,5.15 4.97,15.13 2.15,18 L 245.54,88.34 240.35,119.6 218.3,107.96 182.99,130.27 171.3,83.24 152.33,116.06 h -29 c -11.82,0 -13.21,-15 -2.47,-25.74 18.76,-20.25 40.29,-40.89 51.99,-52.85 11.76,-12.02 32.25,-11.68 43.78,0 z" />
      </g>
      <g
         id="text5336-8"
         style="font-style:normal;font-variant:normal;font-weight:normal;font-stretch:normal;font-size:5.07061005px;line-height:1.25;font-family:'Saira SemiCondensed';-inkscape-font-specification:'Saira SemiCondensed, ';text-align:center;letter-spacing:0px;word-spacing:0px;text-anchor:middle;fill:#000000;fill-opacity:1;stroke:none;stroke-width:0.26458299"
         transform="matrix(1.2569901,0,0,1.2430487,43.865878,34.180814)"
         aria-label="INKSCAPE 1.0">
        <path
           inkscape:connector-curvature="0"
           id="path5050-9"
           style="font-style:normal;font-variant:normal;font-weight:bold;font-stretch:semi-condensed;font-size:8.45102024px;font-family:'Saira SemiCondensed';-inkscape-font-specification:'Saira SemiCondensed, Bold Semi-Condensed';stroke-width:0.26458299"
           d="m 55.598067,82.142326 v -5.814302 h 1.318359 v 5.814302 z" />
        <path
           inkscape:connector-curvature="0"
           id="path5052-7"
           style="font-style:normal;font-variant:normal;font-weight:bold;font-stretch:semi-condensed;font-size:8.45102024px;font-family:'Saira SemiCondensed';-inkscape-font-specification:'Saira SemiCondensed, Bold Semi-Condensed';stroke-width:0.26458299"
           d="m 60.975029,82.142326 -1.707106,-3.321251 h -0.04226 v 3.321251 h -1.259202 v -5.814302 h 1.326811 l 1.597242,3.050819 h 0.04226 v -3.050819 h 1.259202 v 5.814302 z" />
        <path
           inkscape:connector-curvature="0"
           id="path5054-2"
           style="font-style:normal;font-variant:normal;font-weight:bold;font-stretch:semi-condensed;font-size:8.45102024px;font-family:'Saira SemiCondensed';-inkscape-font-specification:'Saira SemiCondensed, Bold Semi-Condensed';stroke-width:0.26458299"
           d="M 66.215057,82.142326 64.9136,79.742237 h -0.354943 v 2.400089 h -1.309908 v -5.814302 h 1.309908 v 2.307129 H 64.9136 l 1.32681,-2.307129 h 1.411321 l -1.690204,2.771935 1.707106,3.042367 z" />
        <path
           inkscape:connector-curvature="0"
           id="path5056-9"
           style="font-style:normal;font-variant:normal;font-weight:bold;font-stretch:semi-condensed;font-size:8.45102024px;font-family:'Saira SemiCondensed';-inkscape-font-specification:'Saira SemiCondensed, Bold Semi-Condensed';stroke-width:0.26458299"
           d="m 70.058159,82.209935 q -1.056377,0 -1.867675,-0.143668 v -1.031024 q 1.047926,0.08451 1.487379,0.08451 0.346492,0 0.540865,-0.0338 0.194374,-0.0338 0.278884,-0.118314 0.07606,-0.07606 0.09296,-0.185923 0.02535,-0.109863 0.02535,-0.312688 0,-0.270432 -0.0338,-0.380296 -0.0338,-0.118314 -0.143667,-0.16902 -0.101412,-0.05071 -0.354943,-0.09296 L 69.145449,79.69153 q -0.642278,-0.09296 -0.870455,-0.49861 -0.228178,-0.405649 -0.228178,-1.166241 0,-0.735238 0.24508,-1.123985 0.245079,-0.388747 0.66763,-0.515512 0.422551,-0.126766 1.07328,-0.126766 0.802847,0 1.647949,0.169021 v 1.014122 q -0.760592,-0.09296 -1.352163,-0.09296 -0.625376,0 -0.802847,0.118314 -0.101412,0.05916 -0.126766,0.169021 -0.02535,0.101412 -0.02535,0.321138 0,0.24508 0.02535,0.346492 0.02535,0.101412 0.109864,0.152119 0.09296,0.04225 0.312687,0.07606 l 1.005672,0.143667 q 0.338041,0.05071 0.557767,0.16902 0.228178,0.118315 0.371845,0.405649 0.177472,0.371845 0.177472,1.064829 0,0.811298 -0.228178,1.225398 -0.228178,0.4141 -0.625376,0.540865 -0.388746,0.126766 -1.022573,0.126766 z" />
        <path
           inkscape:connector-curvature="0"
           id="path5058-2"
           style="font-style:normal;font-variant:normal;font-weight:bold;font-stretch:semi-condensed;font-size:8.45102024px;font-family:'Saira SemiCondensed';-inkscape-font-specification:'Saira SemiCondensed, Bold Semi-Condensed';stroke-width:0.26458299"
           d="m 76.101562,82.066267 q -0.236628,0.05916 -0.600022,0.101412 -0.363394,0.04226 -0.684533,0.04226 -0.954965,0 -1.41132,-0.261982 -0.447904,-0.270433 -0.600023,-0.878906 -0.143667,-0.608474 -0.143667,-1.833872 0,-1.208496 0.152118,-1.816969 0.152119,-0.616924 0.600023,-0.887357 0.456355,-0.270433 1.402869,-0.270433 0.32959,0 0.676082,0.04225 0.354943,0.04225 0.58312,0.109864 v 1.014122 q -0.718337,-0.07606 -0.954965,-0.07606 -0.574669,0 -0.794396,0.118314 -0.211275,0.109863 -0.270433,0.464806 -0.05916,0.346492 -0.05916,1.301457 0,0.954966 0.05916,1.309909 0.05916,0.346491 0.270433,0.464806 0.219727,0.109863 0.794396,0.109863 0.490159,0 0.980318,-0.07606 z" />
        <path
           inkscape:connector-curvature="0"
           id="path5060-3"
           style="font-style:normal;font-variant:normal;font-weight:bold;font-stretch:semi-condensed;font-size:8.45102024px;font-family:'Saira SemiCondensed';-inkscape-font-specification:'Saira SemiCondensed, Bold Semi-Condensed';stroke-width:0.26458299"
           d="m 80.083973,82.142326 -0.295785,-1.16624 h -1.715557 l -0.278884,1.16624 h -1.318359 l 1.554988,-5.814302 h 1.842322 l 1.546537,5.814302 z m -1.132436,-4.631159 h -0.05071 l -0.566219,2.383188 h 1.191594 z" />
        <path
           inkscape:connector-curvature="0"
           id="path5062-8"
           style="font-style:normal;font-variant:normal;font-weight:bold;font-stretch:semi-condensed;font-size:8.45102024px;font-family:'Saira SemiCondensed';-inkscape-font-specification:'Saira SemiCondensed, Bold Semi-Condensed';stroke-width:0.26458299"
           d="m 82.032461,76.328024 h 2.357835 q 0.701435,0 1.056378,0.228178 0.354943,0.219727 0.473257,0.633826 0.126765,0.4141 0.126765,1.107084 0,0.65918 -0.118314,1.07328 -0.109863,0.4141 -0.473257,0.659179 -0.363394,0.24508 -1.07328,0.24508 H 83.34237 v 1.867675 h -1.309909 z m 1.90148,2.856445 q 0.371845,0 0.532414,-0.05916 0.16057,-0.06761 0.211276,-0.236628 0.05071,-0.177472 0.05071,-0.591572 0,-0.4141 -0.05071,-0.58312 Q 84.626921,77.536517 84.466355,77.47736 84.305786,77.4182 83.933941,77.4182 H 83.34237 v 1.766263 z" />
        <path
           inkscape:connector-curvature="0"
           id="path5064-9"
           style="font-style:normal;font-variant:normal;font-weight:bold;font-stretch:semi-condensed;font-size:8.45102024px;font-family:'Saira SemiCondensed';-inkscape-font-specification:'Saira SemiCondensed, Bold Semi-Condensed';stroke-width:0.26458299"
           d="m 86.819172,82.142326 v -5.814302 h 3.498723 v 1.090182 H 88.12908 v 1.2423 h 1.876127 v 1.090182 H 88.12908 v 1.301457 h 2.188815 v 1.090181 z" />
        <path
           inkscape:connector-curvature="0"
           id="path5066-2"
           style="font-style:normal;font-variant:normal;font-weight:bold;font-stretch:semi-condensed;font-size:8.45102024px;font-family:'Saira SemiCondensed';-inkscape-font-specification:'Saira SemiCondensed, Bold Semi-Condensed';stroke-width:0.26458299"
           d="m 93.666085,82.142326 v -4.411432 l -0.971867,0.405649 v -1.107084 l 1.360614,-0.701435 h 0.929612 v 5.814302 z" />
        <path
           inkscape:connector-curvature="0"
           id="path5068-4"
           style="font-style:normal;font-variant:normal;font-weight:bold;font-stretch:semi-condensed;font-size:8.45102024px;font-family:'Saira SemiCondensed';-inkscape-font-specification:'Saira SemiCondensed, Bold Semi-Condensed';stroke-width:0.26458299"
           d="m 96.028278,82.142326 v -1.16624 h 1.318359 v 1.16624 z" />
        <path
           inkscape:connector-curvature="0"
           id="path5070-3"
           style="font-style:normal;font-variant:normal;font-weight:bold;font-stretch:semi-condensed;font-size:8.45102024px;font-family:'Saira SemiCondensed';-inkscape-font-specification:'Saira SemiCondensed, Bold Semi-Condensed';stroke-width:0.26458299"
           d="m 100.25788,82.209935 q -0.971867,0 -1.385967,-0.236629 -0.4141,-0.24508 -0.532414,-0.819749 -0.109864,-0.58312 -0.109864,-1.918382 0,-1.335261 0.109864,-1.90993 0.118314,-0.583121 0.532414,-0.819749 0.4141,-0.24508 1.385967,-0.24508 0.97187,0 1.37752,0.24508 0.4141,0.236628 0.52396,0.811298 0.11831,0.574669 0.11831,1.918381 0,1.343713 -0.11831,1.918382 -0.10986,0.574669 -0.52396,0.819749 -0.40565,0.236629 -1.37752,0.236629 z m 0,-1.07328 q 0.3803,0 0.50706,-0.09296 0.13522,-0.09296 0.16902,-0.439453 0.0338,-0.346492 0.0338,-1.369066 0,-1.022573 -0.0338,-1.369065 -0.0338,-0.346492 -0.16902,-0.439453 -0.12676,-0.09296 -0.50706,-0.09296 -0.380296,0 -0.515512,0.09296 -0.126765,0.09296 -0.16902,0.447904 -0.0338,0.346492 -0.0338,1.360614 0,1.014123 0.0338,1.369066 0.04225,0.346492 0.16902,0.439453 0.135216,0.09296 0.515512,0.09296 z" />
      </g>
      <g
         transform="matrix(1.2485231,0,0,1.2485231,-31.352171,-38.267057)"
         id="text5102-2"
         style="font-style:normal;font-variant:normal;font-weight:normal;font-stretch:normal;font-size:4.23332977px;line-height:1.25;font-family:'Saira SemiCondensed';-inkscape-font-specification:'Saira SemiCondensed, ';text-align:center;letter-spacing:0px;word-spacing:0px;text-anchor:middle;display:inline;fill:#000000;fill-opacity:1;stroke:none;stroke-width:0.26458299"
         aria-label="Draw Freely.">
        <path
           inkscape:connector-curvature="0"
           id="path2280"
           style="font-style:normal;font-variant:normal;font-weight:normal;font-stretch:semi-condensed;font-size:6.3499999px;font-family:'Saira SemiCondensed';-inkscape-font-specification:'Saira SemiCondensed, Semi-Condensed';fill:#000000;stroke-width:0.26458299"
           d="m 123.98803,142.13239 h 1.2192 q 0.78105,0 1.1049,0.1651 0.32385,0.15875 0.41275,0.5842 0.0889,0.4191 0.0889,1.4351 0,1.016 -0.0889,1.44145 -0.0889,0.4191 -0.41275,0.5842 -0.32385,0.15875 -1.1049,0.15875 h -1.2192 z m 1.16205,3.91795 q 0.5969,0 0.80645,-0.0825 0.2159,-0.0889 0.2794,-0.4191 0.0699,-0.3302 0.0699,-1.2319 0,-0.89535 -0.0699,-1.22555 -0.0635,-0.33655 -0.2794,-0.4191 -0.2159,-0.0889 -0.80645,-0.0889 h -0.65405 v 3.4671 z" />
        <path
           inkscape:connector-curvature="0"
           id="path2282"
           style="font-style:normal;font-variant:normal;font-weight:normal;font-stretch:semi-condensed;font-size:6.3499999px;font-family:'Saira SemiCondensed';-inkscape-font-specification:'Saira SemiCondensed, Semi-Condensed';fill:#000000;stroke-width:0.26458299"
           d="m 127.7133,143.26269 h 0.4318 l 0.0254,0.61595 h 0.0381 q 0.0953,-0.381 0.3302,-0.5207 0.2413,-0.14605 0.62865,-0.14605 v 0.48895 q -0.381,0 -0.5969,0.1397 -0.20955,0.13335 -0.2921,0.41275 -0.0825,0.27305 -0.0825,0.73025 v 1.51765 h -0.4826 z" />
        <path
           inkscape:connector-curvature="0"
           id="path2284"
           style="font-style:normal;font-variant:normal;font-weight:normal;font-stretch:semi-condensed;font-size:6.3499999px;font-family:'Saira SemiCondensed';-inkscape-font-specification:'Saira SemiCondensed, Semi-Condensed';fill:#000000;stroke-width:0.26458299"
           d="m 130.49082,146.55199 q -0.508,0 -0.73025,-0.2032 -0.22225,-0.20955 -0.22225,-0.74295 0,-0.3683 0.0762,-0.5715 0.0825,-0.20955 0.27305,-0.29845 0.19685,-0.0953 0.5461,-0.0953 0.1778,0 1.03505,0.0318 v -0.2159 q 0,-0.3937 -0.0635,-0.5588 -0.0635,-0.17145 -0.23495,-0.2159 -0.1651,-0.0508 -0.56515,-0.0508 -0.1778,0 -0.45085,0.019 -0.2667,0.0191 -0.4318,0.0445 v -0.3937 q 0.4445,-0.0889 1.03505,-0.0889 0.508,0 0.75565,0.1143 0.254,0.10795 0.3429,0.3683 0.0953,0.26035 0.0953,0.762 v 2.0447 h -0.4318 l -0.0254,-0.45085 h -0.0318 q -0.1143,0.3048 -0.37465,0.4064 -0.254,0.0952 -0.5969,0.0952 z m 0.17145,-0.4191 q 0.2667,0 0.4318,-0.0508 0.17145,-0.0572 0.254,-0.22225 0.12065,-0.24765 0.12065,-0.66675 v -0.18415 h -0.90805 q -0.23495,0 -0.34925,0.0445 -0.10795,0.0381 -0.1524,0.15875 -0.0445,0.1143 -0.0445,0.36195 0,0.2413 0.0508,0.3556 0.0508,0.1143 0.18415,0.15875 0.13335,0.0445 0.41275,0.0445 z" />
        <path
           inkscape:connector-curvature="0"
           id="path2286"
           style="font-style:normal;font-variant:normal;font-weight:normal;font-stretch:semi-condensed;font-size:6.3499999px;font-family:'Saira SemiCondensed';-inkscape-font-specification:'Saira SemiCondensed, Semi-Condensed';fill:#000000;stroke-width:0.26458299"
           d="m 135.29926,146.50119 -0.635,-2.40665 h -0.0445 l -0.62865,2.40665 h -0.57785 l -0.88265,-3.2385 h 0.4953 l 0.6731,2.6162 h 0.0381 l 0.6731,-2.6162 h 0.4826 l 0.67945,2.6162 h 0.0381 l 0.66675,-2.6162 h 0.4826 l -0.889,3.2385 z" />
        <path
           inkscape:connector-curvature="0"
           id="path2288"
           style="font-style:normal;font-variant:normal;font-weight:normal;font-stretch:semi-condensed;font-size:6.3499999px;font-family:'Saira SemiCondensed';-inkscape-font-specification:'Saira SemiCondensed, Semi-Condensed';fill:#000000;stroke-width:0.26458299"
           d="m 138.83363,146.50119 v -4.3688 h 2.3368 v 0.45085 h -1.8288 v 1.58115 h 1.63195 v 0.45085 h -1.63195 v 1.88595 z" />
        <path
           inkscape:connector-curvature="0"
           id="path2290"
           style="font-style:normal;font-variant:normal;font-weight:normal;font-stretch:semi-condensed;font-size:6.3499999px;font-family:'Saira SemiCondensed';-inkscape-font-specification:'Saira SemiCondensed, Semi-Condensed';fill:#000000;stroke-width:0.26458299"
           d="m 141.85197,143.26269 h 0.4318 l 0.0254,0.61595 h 0.0381 q 0.0952,-0.381 0.3302,-0.5207 0.2413,-0.14605 0.62865,-0.14605 v 0.48895 q -0.381,0 -0.5969,0.1397 -0.20955,0.13335 -0.2921,0.41275 -0.0825,0.27305 -0.0825,0.73025 v 1.51765 h -0.4826 z" />
        <path
           inkscape:connector-curvature="0"
           id="path2292"
           style="font-style:normal;font-variant:normal;font-weight:normal;font-stretch:semi-condensed;font-size:6.3499999px;font-family:'Saira SemiCondensed';-inkscape-font-specification:'Saira SemiCondensed, Semi-Condensed';fill:#000000;stroke-width:0.26458299"
           d="m 146.19735,145.04704 h -1.9431 q 0,0.4953 0.0508,0.7112 0.0572,0.2159 0.2413,0.29845 0.1905,0.0825 0.6223,0.0825 0.4064,0 0.92075,-0.0699 v 0.3937 q -0.17145,0.0381 -0.46355,0.0635 -0.28575,0.0254 -0.5588,0.0254 -0.5842,0 -0.85725,-0.14605 -0.27305,-0.1524 -0.36195,-0.48895 -0.0825,-0.33655 -0.0825,-1.0287 0,-0.6858 0.0762,-1.016 0.0762,-0.33655 0.3429,-0.4953 0.27305,-0.1651 0.85725,-0.1651 0.5461,0 0.7874,0.15875 0.2413,0.1524 0.3048,0.4826 0.0635,0.32385 0.0635,1.0287 z m -1.1684,-1.4224 q -0.36195,0 -0.5207,0.0762 -0.1524,0.0762 -0.2032,0.2921 -0.0508,0.20955 -0.0508,0.69215 h 1.47955 v -0.0635 q 0,-0.45085 -0.0635,-0.65405 -0.0572,-0.20955 -0.2032,-0.27305 -0.1397,-0.0699 -0.43815,-0.0699 z" />
        <path
           inkscape:connector-curvature="0"
           id="path2294"
           style="font-style:normal;font-variant:normal;font-weight:normal;font-stretch:semi-condensed;font-size:6.3499999px;font-family:'Saira SemiCondensed';-inkscape-font-specification:'Saira SemiCondensed, Semi-Condensed';fill:#000000;stroke-width:0.26458299"
           d="m 149.34755,145.04704 h -1.9431 q 0,0.4953 0.0508,0.7112 0.0572,0.2159 0.2413,0.29845 0.1905,0.0825 0.6223,0.0825 0.4064,0 0.92075,-0.0699 v 0.3937 q -0.17145,0.0381 -0.46355,0.0635 -0.28575,0.0254 -0.5588,0.0254 -0.5842,0 -0.85725,-0.14605 -0.27305,-0.1524 -0.36195,-0.48895 -0.0825,-0.33655 -0.0825,-1.0287 0,-0.6858 0.0762,-1.016 0.0762,-0.33655 0.3429,-0.4953 0.27305,-0.1651 0.85725,-0.1651 0.5461,0 0.7874,0.15875 0.2413,0.1524 0.3048,0.4826 0.0635,0.32385 0.0635,1.0287 z m -1.1684,-1.4224 q -0.36195,0 -0.5207,0.0762 -0.1524,0.0762 -0.2032,0.2921 -0.0508,0.20955 -0.0508,0.69215 h 1.47955 v -0.0635 q 0,-0.45085 -0.0635,-0.65405 -0.0572,-0.20955 -0.2032,-0.27305 -0.1397,-0.0699 -0.43815,-0.0699 z" />
        <path
           inkscape:connector-curvature="0"
           id="path2296"
           style="font-style:normal;font-variant:normal;font-weight:normal;font-stretch:semi-condensed;font-size:6.3499999px;font-family:'Saira SemiCondensed';-inkscape-font-specification:'Saira SemiCondensed, Semi-Condensed';fill:#000000;stroke-width:0.26458299"
           d="m 150.18634,146.50119 v -4.71805 h 0.4826 v 4.71805 z" />
        <path
           inkscape:connector-curvature="0"
           id="path2298"
           style="font-style:normal;font-variant:normal;font-weight:normal;font-stretch:semi-condensed;font-size:6.3499999px;font-family:'Saira SemiCondensed';-inkscape-font-specification:'Saira SemiCondensed, Semi-Condensed';fill:#000000;stroke-width:0.26458299"
           d="m 152.71721,147.79024 q -0.4826,0 -0.9652,-0.0508 v -0.40005 q 0.5207,0.0317 0.8636,0.0317 0.42545,0 0.61595,-0.10795 0.19685,-0.1016 0.254,-0.3302 0.0572,-0.22225 0.0572,-0.6985 v -0.1651 h -0.0317 q -0.0825,0.2159 -0.29845,0.3429 -0.20955,0.12065 -0.6223,0.12065 -0.4191,0 -0.62865,-0.127 -0.2032,-0.13335 -0.27305,-0.40005 -0.0699,-0.2667 -0.0699,-0.762 v -1.9812 h 0.4826 v 1.86055 q 0,0.4572 0.0508,0.65405 0.0508,0.19685 0.18415,0.26035 0.1397,0.0635 0.4572,0.0635 0.34925,0 0.508,-0.13335 0.15875,-0.13335 0.19685,-0.36195 0.0445,-0.23495 0.0445,-0.6731 v -1.67005 h 0.4826 v 2.8194 q 0,0.6731 -0.0952,1.02235 -0.0889,0.3556 -0.3683,0.5207 -0.27305,0.1651 -0.84455,0.1651 z" />
        <path
           inkscape:connector-curvature="0"
           id="path2300"
           style="font-style:normal;font-variant:normal;font-weight:normal;font-stretch:semi-condensed;font-size:6.3499999px;font-family:'Saira SemiCondensed';-inkscape-font-specification:'Saira SemiCondensed, Semi-Condensed';fill:#000000;stroke-width:0.26458299"
           d="m 154.8908,146.50119 v -0.5969 h 0.5588 v 0.5969 z" />
      </g>
    </g>
  </g>
</svg>
