<?xml version="1.0" encoding="UTF-8" standalone="no"?>
<svg
   xmlns:dc="http://purl.org/dc/elements/1.1/"
   xmlns:cc="http://creativecommons.org/ns#"
   xmlns:rdf="http://www.w3.org/1999/02/22-rdf-syntax-ns#"
   xmlns:svg="http://www.w3.org/2000/svg"
   xmlns="http://www.w3.org/2000/svg"
   xmlns:xlink="http://www.w3.org/1999/xlink"
   xmlns:sodipodi="http://sodipodi.sourceforge.net/DTD/sodipodi-0.dtd"
   xmlns:inkscape="http://www.inkscape.org/namespaces/inkscape"
   xml:space="preserve"
   width="750"
   height="625"
   viewBox="0 0 750 625"
   y="0px"
   x="0px"
   sodipodi:docname="inkscape_2019b_1.0.svg"
   inkscape:version="0.92.4 (5da689c313, 2019-01-14)"
   id="svg8"
   version="1.1"><metadata
   id="metadata1484">
  <rdf:RDF>
    <cc:Work
   rdf:about="">
      <dc:format>image/svg+xml</dc:format>
      <dc:type
   rdf:resource="http://purl.org/dc/dcmitype/StillImage" />
      <dc:title>From blank to creativity
</dc:title>
    <cc:license
   rdf:resource="http://creativecommons.org/licenses/by/4.0/" /><dc:creator><cc:Agent><dc:title>Robin Fernandes</dc:title></cc:Agent></dc:creator></cc:Work>
  <cc:License
   rdf:about="http://creativecommons.org/licenses/by/4.0/"><cc:permits
     rdf:resource="http://creativecommons.org/ns#Reproduction" /><cc:permits
     rdf:resource="http://creativecommons.org/ns#Distribution" /><cc:requires
     rdf:resource="http://creativecommons.org/ns#Notice" /><cc:requires
     rdf:resource="http://creativecommons.org/ns#Attribution" /><cc:permits
     rdf:resource="http://creativecommons.org/ns#DerivativeWorks" /></cc:License></rdf:RDF>
</metadata>
<defs
   id="defs1482" />

<style
   id="style833"
   type="text/css">
	.st0{fill:url(#rect940_1_);}
	.st1{fill:#FFFFFF;}
	.st2{opacity:9.863010e-02;fill:#FFFFFF;enable-background:new    ;}
	.st3{fill:url(#path946_1_);}
	.st4{opacity:0.1;fill:#FFFFFF;enable-background:new    ;}
	.st5{fill:url(#path3896_1_);}
	.st6{opacity:0.1014;fill:#FFFFFF;enable-background:new    ;}
	.st7{fill:url(#path942_1_);stroke:#FFFFFF;stroke-width:5.2274;stroke-miterlimit:10.4547;}
	.st8{fill:url(#path950_1_);}
	.st9{opacity:9.000000e-02;fill:#FFFFFF;enable-background:new    ;}
	.st10{opacity:0.5;fill:#FFFFFF;enable-background:new    ;}
	.st11{fill:url(#path952_1_);}
	.st12{opacity:0.31;}
	.st13{opacity:0.5;}
	.st14{clip-path:url(#SVGID_3_);}
	.st15{clip-path:url(#SVGID_6_);}
	.st16{fill:url(#path964_1_);}
	.st17{opacity:0.5;fill:none;stroke:#FFFFFF;stroke-width:2;stroke-miterlimit:10;enable-background:new    ;}
	.st18{clip-path:url(#SVGID_9_);}
	.st19{clip-path:url(#SVGID_12_);}
	.st20{clip-path:url(#SVGID_14_);}
	.st21{clip-path:url(#SVGID_16_);}
	.st22{fill:url(#path974_1_);stroke:#FFFFFF;stroke-width:5.2274;stroke-miterlimit:10.4547;}
	.st23{fill:url(#path976_1_);stroke:#FFFFFF;stroke-width:5.2274;stroke-miterlimit:10.4547;}
	.st24{fill:url(#path978_1_);stroke:#FFFFFF;stroke-width:5.2274;stroke-miterlimit:10.4547;}
	.st25{fill:url(#path980_1_);stroke:#FFFFFF;stroke-width:5.2274;stroke-miterlimit:10.4547;}
	.st26{fill:url(#path982_1_);stroke:#FFFFFF;stroke-width:5.2274;stroke-miterlimit:10.4547;}
	.st27{fill:url(#path984_1_);stroke:#FFFFFF;stroke-width:5.2274;stroke-miterlimit:10.4547;}
	.st28{fill:url(#polyline986_1_);stroke:#FFFFFF;stroke-width:5.2274;stroke-miterlimit:10.4547;}
	.st29{fill:url(#path988_1_);stroke:#FFFFFF;stroke-width:5.2274;stroke-miterlimit:10.4547;}
	.st30{fill:url(#path990_1_);stroke:#FFFFFF;stroke-width:5.2274;stroke-miterlimit:10.4547;}
	.st31{fill:url(#path992_1_);stroke:#FFFFFF;stroke-width:5.2274;stroke-miterlimit:10.4547;}
	.st32{fill:url(#path994_1_);stroke:#FFFFFF;stroke-width:5.2274;stroke-miterlimit:10.4547;}
	.st33{fill:url(#path996_1_);stroke:#FFFFFF;stroke-width:5.2274;stroke-miterlimit:10.4547;}
	.st34{fill:url(#path998_1_);stroke:#FFFFFF;stroke-width:5.2274;stroke-miterlimit:10.4547;}
	.st35{fill:url(#path1000_1_);stroke:#FFFFFF;stroke-width:5.2274;stroke-miterlimit:10.4547;}
	.st36{fill:url(#path1026_1_);stroke:#FFFFFF;stroke-width:5.2274;stroke-miterlimit:10.4547;}
	.st37{fill:url(#polyline1028_1_);stroke:#FFFFFF;stroke-width:5.2274;stroke-miterlimit:10.4547;}
	.st38{fill:url(#path1030_1_);stroke:#FFFFFF;stroke-width:5.2274;stroke-miterlimit:10.4547;}
	.st39{fill:url(#path1032_1_);stroke:#FFFFFF;stroke-width:5.2274;stroke-miterlimit:10.4547;}
	.st40{fill:url(#path1034_1_);stroke:#FFFFFF;stroke-width:5.2274;stroke-miterlimit:10.4547;}
	.st41{fill:url(#path1036_1_);stroke:#FFFFFF;stroke-width:5.2274;stroke-miterlimit:10.4547;}
	.st42{fill:url(#path1038_1_);}
	.st43{fill:url(#path1040_1_);}
	.st44{fill:url(#polyline1042_1_);}
	.st45{fill:url(#polyline1044_1_);}
	.st46{fill:url(#polyline1046_1_);}
	.st47{fill:url(#circle1048_1_);}
	.st48{fill:url(#circle1050_1_);}
	.st49{fill:url(#circle1052_1_);}
	.st50{fill:url(#circle1054_1_);}
	.st51{fill:url(#circle1056_1_);}
	.st52{fill:url(#circle1058_1_);}
	.st53{fill:url(#path1060_1_);}
	.st54{opacity:0.1;fill:#1D1D1B;enable-background:new    ;}
	.st55{fill:url(#rect1070_1_);}
	.st56{fill:none;stroke:#1D1D1B;stroke-width:0.5227;stroke-miterlimit:10.4547;}
	.st57{opacity:9.000000e-02;fill:none;stroke:#1D1D1B;stroke-width:0.5227;stroke-miterlimit:10.4547;enable-background:new    ;}
	.st58{opacity:0.5;fill:none;stroke:#1D1D1B;stroke-width:0.5227;stroke-miterlimit:10.4547;enable-background:new    ;}
	.st59{opacity:0.1;fill:none;stroke:#1D1D1B;stroke-width:0.5227;stroke-miterlimit:10.4547;enable-background:new    ;}
	.st60{fill:url(#rect1212_1_);}
	.st61{fill:url(#path2313_1_);}
	.st62{opacity:0.75;}
	.st63{fill:#010101;}
	.st64{font-family:'LinLibertineOZ';}
	.st65{font-size:31.3641px;}
	.st66{fill:#35BC8E;}
	.st67{font-family:'LinBiolinumO';}
	.st68{font-size:16px;}
	.st69{opacity:15;enable-background:new    ;}
	.st70{font-family:'LinBiolinumOI';}
	.st71{fill:url(#path1002_1_);stroke:url(#path1002_2_);stroke-width:3.1364;stroke-miterlimit:10.4547;}
	.st72{fill:url(#circle1004_1_);stroke:url(#circle1004_2_);stroke-width:3.1364;stroke-miterlimit:10.4547;}
	.st73{fill:url(#circle1006_1_);stroke:url(#circle1006_2_);stroke-width:3.1364;stroke-miterlimit:10.4547;}
	.st74{fill:url(#circle1008_1_);stroke:url(#circle1008_2_);stroke-width:3.1364;stroke-miterlimit:10.4547;}
	.st75{fill:url(#path1010_1_);stroke:url(#path1010_2_);stroke-width:3.1364;stroke-miterlimit:10.4547;}
	.st76{fill:url(#circle1012_1_);stroke:url(#circle1012_2_);stroke-width:3.1364;stroke-miterlimit:10.4547;}
	.st77{fill:url(#circle1014_1_);stroke:url(#circle1014_2_);stroke-width:3.1364;stroke-miterlimit:10.4547;}
	.st78{fill:url(#circle1016_1_);stroke:url(#circle1016_2_);stroke-width:3.1364;stroke-miterlimit:10.4547;}
	.st79{fill:url(#polyline1018_1_);stroke:url(#polyline1018_2_);stroke-width:3.1364;stroke-miterlimit:10.4547;}
	.st80{fill:url(#polyline1020_1_);stroke:url(#polyline1020_2_);stroke-width:3.1364;stroke-miterlimit:10.4547;}
	.st81{fill:url(#polyline1022_1_);stroke:url(#polyline1022_2_);stroke-width:3.1364;stroke-miterlimit:10.4547;}
	.st82{fill:url(#path1024_1_);stroke:url(#path1024_2_);stroke-width:3.1364;stroke-miterlimit:10.4547;}
	.st83{fill:url(#path4506_1_);}
	.st84{fill:url(#SVGID_17_);}
	.st85{fill:url(#path4532_1_);}
	.st86{opacity:9.863010e-02;fill:none;stroke:#FFFFFF;stroke-miterlimit:10.4547;enable-background:new    ;}
	.st87{opacity:0.1041;fill:url(#ellipse4545_1_);enable-background:new    ;}
</style>

<title
   id="title1300">From blank to creativity
</title>

<linearGradient
   gradientTransform="matrix(1.0455,0,0,1.0455,-30.4984,-16.649)"
   y2="-28.8627"
   x2="449.16159"
   y1="369.56131"
   x1="449.16159"
   gradientUnits="userSpaceOnUse"
   id="rect940_1_">
	<stop
   id="stop836"
   style="stop-color:#F27781"
   offset="0" />

	<stop
   id="stop838"
   style="stop-color:#D9526B"
   offset="1" />

</linearGradient>

<rect
   height="487.20001"
   width="900.40002"
   class="st0"
   y="-154"
   x="-11.1"
   id="rect940"
   style="fill:url(#rect940_1_)" />

<g
   id="g3865">
	<path
   d="m 599,145 c 7.7,7.6 15.3,15.2 22.9,22.9 l 22.8,23.1 22.6,23.3 11.2,11.7 11.2,11.8 -11.5,-11.4 -11.4,-11.5 -22.8,-23.2 -22.6,-23.3 c -7.5,-7.7 -15,-15.5 -22.4,-23.4 z"
   class="st1"
   inkscape:connector-curvature="0"
   id="path3863"
   style="fill:#ffffff" />

</g>

<circle
   r="33.099998"
   cy="201.89999"
   cx="628.70001"
   class="st1"
   id="circle3867"
   style="fill:#ffffff" />

<circle
   style="opacity:0.09863012;fill:#ffffff;fill-opacity:1"
   r="217.10001"
   cy="201.89999"
   cx="625.79999"
   class="st2"
   id="circle3874" />

<circle
   style="opacity:0.09863012;fill:#fcffff;fill-opacity:1"
   r="164.8"
   cy="201.89999"
   cx="625.79999"
   class="st2"
   id="circle3881" />

<linearGradient
   gradientTransform="matrix(1,0,0,-1,0,625)"
   y2="443.92551"
   x2="983.20538"
   y1="48.330002"
   x1="620.77838"
   gradientUnits="userSpaceOnUse"
   id="path946_1_">
	<stop
   id="stop847"
   style="stop-color:#594746"
   offset="0" />

	<stop
   id="stop849"
   style="stop-color:#846370"
   offset="1" />

</linearGradient>

<path
   d="m 854.4,195.4 c -6.5,-3 -102.9,-59.2 -207.8,-27 -104.9,32.2 -152.6,172 -152.6,172 l 52.3,273.9 503.4,-90.5 z"
   class="st3"
   inkscape:connector-curvature="0"
   id="path946"
   style="fill:url(#path946_1_)" />

<path
   d="m 639.3,186.2 c 0,0 81.2,-28.4 163.6,-12.8 0,0 -97.5,-37.4 -180.7,4.9 -83.2,42.3 6.8,19.6 6.8,19.6 z"
   class="st4"
   inkscape:connector-curvature="0"
   id="path3889"
   style="opacity:0.1;fill:#ffffff;enable-background:new" />

<linearGradient
   gradientTransform="matrix(0.9801,-0.1985,-0.1985,-0.9801,108.9301,762.1011)"
   y2="459.2598"
   x2="798.78137"
   y1="459.2598"
   x1="679.80219"
   gradientUnits="userSpaceOnUse"
   id="path3896_1_">
	<stop
   id="stop854"
   style="stop-color:#03A678"
   offset="0" />

	<stop
   id="stop856"
   style="stop-color:#02735E"
   offset="1" />

</linearGradient>

<path
   d="m 758.2,140.8 c -12.4,5.3 -27,-4.4 -40,-0.7 -9.1,2.6 -15.2,11.3 -24,14.8 -3.1,1.3 -6.6,1.9 -9.3,3.9 -2.7,2 -4.4,6.1 -2.3,8.8 2,2.6 6.1,2.2 9,0.8 2.9,-1.4 5.7,-3.6 8.9,-3.8 5.7,-0.5 10.2,5 15.8,6 4.4,0.8 8.6,-1.3 12.8,-2.8 1.2,-0.4 2.4,-0.8 3.7,-0.6 1.1,0.2 2.1,0.8 3,1.4 3.9,2.8 7,6.6 11.1,9 7.5,4.3 16.7,3.3 25.3,3.9 11.5,0.9 23.6,4.9 34.2,0.3"
   class="st5"
   inkscape:connector-curvature="0"
   id="path3896"
   style="fill:url(#path3896_1_)" />

<g
   id="g3900">
	<path
   d="m 718.2,140.1 c -2.3,0.8 -4.4,1.9 -6.4,3.3 -2,1.3 -3.9,2.8 -5.8,4.4 -3.8,3 -7.7,6.1 -12.3,7.9 -2.3,0.8 -4.7,1.4 -6.8,2.5 -1.1,0.5 -2.1,1.2 -2.8,2 -0.8,0.8 -1.4,1.9 -1.8,2.9 -0.2,0.5 -0.3,1.1 -0.3,1.7 0,0.6 0.1,1.1 0.3,1.7 0.2,0.5 0.5,1 0.9,1.4 0.4,0.4 0.9,0.7 1.4,0.9 1.1,0.5 2.3,0.6 3.5,0.5 1.2,-0.1 2.4,-0.4 3.5,-0.9 -1.1,0.6 -2.2,1 -3.5,1.2 -1.2,0.2 -2.5,0.2 -3.7,-0.3 -0.6,-0.2 -1.2,-0.6 -1.6,-1 -0.5,-0.4 -0.8,-1 -1.1,-1.6 -0.2,-0.6 -0.4,-1.2 -0.4,-1.9 0,-0.6 0.1,-1.3 0.3,-1.9 0.4,-1.2 1,-2.4 1.9,-3.3 0.9,-1 1.9,-1.7 3,-2.2 2.2,-1.1 4.6,-1.7 6.9,-2.6 4.5,-1.6 8.3,-4.7 12.2,-7.6 1.9,-1.5 3.9,-2.9 6,-4.2 2,-1.2 4.3,-2.3 6.6,-2.9 z"
   class="st1"
   inkscape:connector-curvature="0"
   id="path3898"
   style="fill:#ffffff" />

</g>

<g
   id="g3904">
	<path
   d="m 628.5,174.7 c 6.4,-2.6 12.9,-5 19.5,-7 3.3,-1 6.6,-2 10,-2.9 3.3,-0.9 6.7,-1.6 10.1,-2.3 -3.4,0.8 -6.7,1.6 -10,2.6 -3.3,1 -6.6,2 -9.9,3.1 -6.5,2.2 -13,4.7 -19.3,7.5 z"
   class="st1"
   inkscape:connector-curvature="0"
   id="path3902"
   style="fill:#ffffff" />

</g>

<circle
   r="95.699997"
   cy="201.89999"
   cx="628.70001"
   class="st6"
   id="circle3911"
   style="opacity:0.10139998;fill:#ffffff;enable-background:new" />

<linearGradient
   gradientTransform="matrix(1.0455,0,0,1.0455,-30.4984,-16.649)"
   y2="567.71588"
   x2="287.61938"
   y1="168.70599"
   x1="118.5293"
   gradientUnits="userSpaceOnUse"
   id="path942_1_">
	<stop
   id="stop865"
   style="stop-color:#7E8B7C"
   offset="0" />

	<stop
   id="stop867"
   style="stop-color:#846370"
   offset="1" />

</linearGradient>

<path
   d="M 378.6,224.9 C 372.1,222.2 275.7,170.6 170.8,200.2 65.9,229.8 -42.6,540.3 -42.6,540.3 L 494,549 423,235.9 Z"
   class="st7"
   inkscape:connector-curvature="0"
   id="path942"
   style="fill:url(#path942_1_);stroke:#ffffff;stroke-width:5.22739983;stroke-miterlimit:10.45470047" />

<linearGradient
   gradientTransform="matrix(1.0455,0,0,1.0455,-30.4984,-16.649)"
   y2="257.39001"
   x2="518.40509"
   y1="792.5"
   x1="518.40509"
   gradientUnits="userSpaceOnUse"
   id="path950_1_">
	<stop
   id="stop871"
   style="stop-color:#51BFCF"
   offset="0" />

	<stop
   id="stop873"
   style="stop-color:#33519F"
   offset="1" />

</linearGradient>

<path
   d="m 328.4,513.2 c -54.6,-48.1 14.8,-84.6 18.7,-92.8 3.9,-8.2 -21.4,-21 -34.2,-28.5 -12.8,-7.5 -25.1,-19.7 8.9,-35.3 34,-15.6 -1.9,-23.5 -21.6,-26.2 -10,-1.4 -28.4,-10 -29.6,-24.8 -1.8,-23.2 29.6,-50.7 29.6,-50.7 H 708 c 0,0 46.4,18.9 44.4,42.2 -2,23.3 -13.9,51.4 -78.4,71.3 0,0 -50.9,9.4 5.5,27.6 56.4,18.2 12.6,14.2 12.6,14.2 l 15.5,-3.1 c 0,0 49,12.6 8,54.5 -41,41.9 18.2,51.7 18.2,51.7 L 623.7,674.4 H 410.6 Z"
   class="st8"
   inkscape:connector-curvature="0"
   id="path950"
   style="fill:url(#path950_1_)" />

<sodipodi:namedview
   borderlayer="true"
   units="px"
   showguides="true"
   showgrid="false"
   pagecolor="#ffffff"
   inkscape:zoom="0.9899495"
   inkscape:window-y="-8"
   inkscape:window-x="-8"
   inkscape:window-width="1920"
   inkscape:window-maximized="1"
   inkscape:window-height="1017"
   inkscape:pageshadow="2"
   inkscape:pageopacity="0.0"
   inkscape:pagecheckerboard="false"
   inkscape:guide-bbox="true"
   inkscape:document-units="px"
   inkscape:document-rotation="0"
   inkscape:cy="324.26024"
   inkscape:cx="248.60677"
   inkscape:current-layer="svg8"
   id="base"
   borderopacity="1.0"
   bordercolor="#666666"
   inkscape:showpageshadow="false">
	<sodipodi:guide
   position="9.0714286,91.848218"
   orientation="1,0"
   id="guide1155"
   inkscape:locked="false" />

</sodipodi:namedview>

<g
   inkscape:label="Calque 1"
   inkscape:groupmode="layer"
   id="layer1">
</g>

<path
   d="m 126.2,228.1 c 0,0 112.9,-40 197.2,-6.1 84.3,33.9 35.3,-9.3 35.3,-9.3 0,0 -146.4,-54.2 -232.7,11.9 -53.6,40.9 0.2,3.5 0.2,3.5 z"
   class="st9"
   inkscape:connector-curvature="0"
   id="path944"
   style="fill:#ffffff;fill-opacity:1;opacity:0.098" />

<path
   d="m 257.5,136.3 c 0,0 69.6,1.2 85.4,-13.7 15.8,-14.9 9,-72.9 -31.5,-82.6 -26.6,-6.3 -41.5,5.8 -41.5,5.8 0,0 -27.8,-42 -62.4,-40.6 -34.6,1.4 -39.1,38.8 -32.4,54.8 0,0 -23.8,15.9 -29.3,35.1 -8.3,28.4 31.7,45.2 111.7,41.2 z"
   class="st10"
   inkscape:connector-curvature="0"
   id="path948"
   style="opacity:0.5;fill:#ffffff;enable-background:new" />

<linearGradient
   gradientTransform="matrix(1.0455,0,0,1.0455,-30.4984,-16.649)"
   y2="486.96011"
   x2="602.71979"
   y1="300.22021"
   x1="419.9899"
   gradientUnits="userSpaceOnUse"
   id="path952_1_">
	<stop
   id="stop882"
   style="stop-color:#7E8B7C"
   offset="0" />

	<stop
   id="stop884"
   style="stop-color:#846370"
   offset="1" />

</linearGradient>

<path
   d="m 658.4,419.3 c 0,8.6 63.1,14.2 63.1,-2 -9,-26 -55.7,-24.2 -63.1,2 z m -255.5,44.5 c 7.1,-4.9 13.1,-12.3 16.1,-20.2 -9.1,-12 -33.7,-8.8 -45,0.4 m 0,0.1 c -6.8,5.5 -8.9,13.1 0.1,20.8 8.5,7.3 19.6,5.3 28.8,-1.1 M 650.5,437 c -19.3,17.3 2.2,34.8 21.2,23.6 4.2,-4.3 -0.2,-19.3 -21.2,-23.6 z"
   class="st11"
   inkscape:connector-curvature="0"
   id="path952"
   style="fill:url(#path952_1_)" />

<g
   class="st12"
   id="g956"
   style="opacity:0.31000001">
	<path
   d="m 678.9,108.1 c 41.3,2.4 82.7,1.3 123.8,-3.2 3.7,-0.4 7.6,-0.9 10.5,-3.1 2.9,-2.2 4.4,-6.9 2.1,-9.8 -1.6,-2 -4.5,-2.5 -6.9,-3.3 -6.1,-2.1 -10.9,-6.6 -13.4,-12.5 -0.9,-2.2 -1.5,-4.6 -3.1,-6.3 -6.4,-6.5 -19.1,4.9 -26,-1.2 -3.5,-3.1 -2.7,-8.7 -2.9,-13.5 -0.6,-11.4 -10.5,-21.5 -21.9,-22.4 -11.4,-0.9 -22.7,7.7 -25,18.8 -1.3,6.2 -0.1,12.9 -2.8,18.6 -2.6,5.4 -8,8.8 -13.9,8.9 -3.8,0 -8.7,-1.1 -10.7,2.2 -1.6,2.6 0.1,6.1 -0.8,9.1 -1.6,5.6 -9.5,5 -15.3,4.6 -6.1,-0.3 -12.1,1 -17.5,3.8 -1.2,0.5 -2.1,1.4 -2.7,2.6 -0.9,2.9 3.1,4.7 6.3,5 z"
   class="st1"
   inkscape:connector-curvature="0"
   id="path954"
   style="fill:#ffffff" />

</g>

<g
   class="st13"
   id="g960"
   style="opacity:0.5">
	<path
   d="m 459.7,129.9 c 8.6,-0.8 17.2,-2.3 25.9,-2.4 8,-0.1 16.9,0.8 23.3,-4.1 1.4,-1 2.5,-2.4 2.9,-4.1 0.8,-3.9 -3.4,-7 -7.2,-7.8 -8.9,-1.9 -19.1,2.2 -27,-2.5 -3.9,-2.3 -6.5,-6.4 -10.5,-8.5 -5.1,-2.6 -11.2,-1.5 -15.2,2.6 -1.9,2.1 -3.2,5 -5.8,6.2 -1.4,0.6 -2.8,0.9 -4.3,0.9 l -9.3,0.7 c -1.5,0.2 -3,0.1 -4.4,-0.5 -1.1,-0.8 -2.1,-1.8 -2.7,-3 -4.2,-6.3 -5.4,-17.3 -19.9,-19.5 -14.5,-2.2 -21.5,7 -24,12.8 -0.9,2.4 -1.3,4.9 -1.2,7.4 0.4,8 7.5,15.6 14.3,19.9 10.5,6.6 53.8,2.6 53.8,2.6 z"
   class="st1"
   inkscape:connector-curvature="0"
   id="path958"
   style="fill:#ffffff" />

</g>

<g
   inkscape:connector-curvature="0"
   id="path962">
	<g
   id="g3976">
		<g
   id="g3974">
			<g
   id="g927">
				<g
   id="g925">
					<defs
   id="defs893">
  <path
   d="m 503.7,680.5 c 0,0 5,-98.9 56.5,-141.6 51.5,-42.7 52,-73.4 52,-73.4 0,0 114.5,-133.2 278.6,-79.2 0,0 65.1,17.3 110.2,51.8 l -63.9,83.6 c -16.3,9.7 -104,158.9 -427.1,229"
   id="SVGID_1_"
   inkscape:connector-curvature="0" />
</defs>

					<linearGradient
   y2="562.05768"
   x2="1001.0001"
   y1="562.05768"
   x1="503.70001"
   gradientUnits="userSpaceOnUse"
   id="SVGID_2_">
						<stop
   id="stop895"
   style="stop-color:#03A678"
   offset="0" />

						<stop
   id="stop897"
   style="stop-color:#02735E"
   offset="1" />

					</linearGradient>

					<use
   id="use900"
   style="overflow:visible;fill:url(#SVGID_2_)"
   xlink:href="#SVGID_1_"
   x="0"
   y="0"
   width="100%"
   height="100%" />

					<clipPath
   id="SVGID_3_">
						<use
   id="use902"
   style="overflow:visible"
   xlink:href="#SVGID_1_"
   x="0"
   y="0"
   width="100%"
   height="100%" />

					</clipPath>

					<g
   clip-path="url(#SVGID_3_)"
   class="st14"
   id="g3972">
						<g
   id="g3970">
							<g
   id="g3968">
								<g
   id="g920">
									<g
   id="g919">
										<defs
   id="defs906">
  <rect
   height="387.29999"
   width="507.29999"
   y="368.39999"
   x="498.70001"
   id="SVGID_4_" />
</defs>

										<linearGradient
   y2="562.04999"
   x2="1006"
   y1="562.04999"
   x1="498.70001"
   gradientUnits="userSpaceOnUse"
   id="SVGID_5_">
											<stop
   id="stop908"
   style="stop-color:#03A678"
   offset="0" />

											<stop
   id="stop910"
   style="stop-color:#02735E"
   offset="1" />

										</linearGradient>

										<use
   id="use913"
   style="overflow:visible;fill:url(#SVGID_5_)"
   xlink:href="#SVGID_4_"
   x="0"
   y="0"
   width="100%"
   height="100%" />

										<clipPath
   id="SVGID_6_">
											<use
   id="use915"
   style="overflow:visible"
   xlink:href="#SVGID_4_"
   x="0"
   y="0"
   width="100%"
   height="100%" />

										</clipPath>

										<g
   clip-path="url(#SVGID_6_)"
   class="st15"
   id="g3966">
										</g>

									</g>

								</g>

							</g>

						</g>

					</g>

				</g>

			</g>

		</g>

	</g>

</g>

<linearGradient
   gradientTransform="matrix(1.0455,0,0,1.0455,-30.4984,-16.649)"
   y2="581.31091"
   x2="986.60773"
   y1="581.31091"
   x1="510.9502"
   gradientUnits="userSpaceOnUse"
   id="path964_1_">
	<stop
   id="stop932"
   style="stop-color:#02735E"
   offset="0" />

	<stop
   id="stop934"
   style="stop-color:#03A678"
   offset="1" />

</linearGradient>

<path
   d="m 503.7,758.2 c 0,0 89.6,-315.7 364.5,-333.4 40.2,-2.6 84.3,1.2 132.8,13.3"
   class="st16"
   inkscape:connector-curvature="0"
   id="path964"
   style="fill:url(#path964_1_)" />

<path
   d="m 714.9,471.9 c 0,0 -7.6,-41.3 -55,-47.8"
   class="st17"
   inkscape:connector-curvature="0"
   id="path966"
   style="opacity:0.5;fill:none;stroke:#ffffff;stroke-width:2;stroke-miterlimit:10;enable-background:new" />

<path
   d="m 799.3,436.2 c 0,0 -14.6,-47.3 -64.9,-49.9"
   class="st17"
   inkscape:connector-curvature="0"
   id="path968"
   style="opacity:0.5;fill:none;stroke:#ffffff;stroke-width:2;stroke-miterlimit:10;enable-background:new" />

<g
   inkscape:connector-curvature="0"
   id="path970">
	<g
   id="g4011">
		<g
   id="g4009">
			<g
   id="g957">
				<g
   id="g973">
					<defs
   id="defs941">
  <path
   d="M 495.9,749.4 C 172.7,679.3 85.1,530.2 68.8,520.4 L 4.9,436.8 C 50,402.3 115.1,385 115.1,385 c 164.1,-54 278.7,79.2 278.7,79.2 0,0 0.6,30.6 52,73.4 51.4,42.8 56.5,141.6 56.5,141.6"
   id="SVGID_7_"
   inkscape:connector-curvature="0" />
</defs>

					<linearGradient
   y2="560.75763"
   x2="502.29999"
   y1="560.75763"
   x1="4.9000001"
   gradientUnits="userSpaceOnUse"
   id="SVGID_8_">
						<stop
   id="stop943"
   style="stop-color:#03A678"
   offset="0" />

						<stop
   id="stop945"
   style="stop-color:#02735E"
   offset="1" />

					</linearGradient>

					<use
   id="use948"
   style="overflow:visible;fill:url(#SVGID_8_)"
   xlink:href="#SVGID_7_"
   x="0"
   y="0"
   width="100%"
   height="100%" />

					<clipPath
   id="SVGID_9_">
						<use
   id="use950"
   style="overflow:visible"
   xlink:href="#SVGID_7_"
   x="0"
   y="0"
   width="100%"
   height="100%" />

					</clipPath>

					<g
   clip-path="url(#SVGID_9_)"
   class="st18"
   id="g4007">
						<g
   id="g4005">
							<g
   id="g4003">
								<g
   id="g952">
									<g
   id="g967">
										<defs
   id="defs954">
  <rect
   height="387.29999"
   width="507.29999"
   y="367.10001"
   x="-0.1"
   id="SVGID_10_" />
</defs>

										<linearGradient
   y2="560.75"
   x2="507.20001"
   y1="560.75"
   x1="-0.1"
   gradientUnits="userSpaceOnUse"
   id="SVGID_11_">
											<stop
   id="stop956"
   style="stop-color:#03A678"
   offset="0" />

											<stop
   id="stop958"
   style="stop-color:#02735E"
   offset="1" />

										</linearGradient>

										<use
   id="use961"
   style="overflow:visible;fill:url(#SVGID_11_)"
   xlink:href="#SVGID_10_"
   x="0"
   y="0"
   width="100%"
   height="100%" />

										<clipPath
   id="SVGID_12_">
											<use
   id="use963"
   style="overflow:visible"
   xlink:href="#SVGID_10_"
   x="0"
   y="0"
   width="100%"
   height="100%" />

										</clipPath>

										<g
   clip-path="url(#SVGID_12_)"
   class="st19"
   id="g4001">
										</g>

									</g>

								</g>

							</g>

						</g>

					</g>

				</g>

			</g>

		</g>

	</g>

</g>

<g
   inkscape:connector-curvature="0"
   id="path972">
	<g
   id="g4038">
		<g
   id="g4036">
			<g
   id="g981">
				<g
   id="g998">
					<defs
   id="defs980">
  <path
   d="m 502.2,756.9 c 0,0 -89.6,-315.7 -364.5,-333.4 C 97.5,420.9 53.4,424.7 5,436.8"
   id="SVGID_13_"
   inkscape:connector-curvature="0" />
</defs>

					<clipPath
   id="SVGID_14_">
						<use
   id="use982"
   style="overflow:visible"
   xlink:href="#SVGID_13_"
   x="0"
   y="0"
   width="100%"
   height="100%" />

					</clipPath>

					<g
   clip-path="url(#SVGID_14_)"
   class="st20"
   id="g4034">
						<g
   id="g4032">
							<g
   id="g4030">
								<g
   id="g976">
									<g
   id="g992">
										<defs
   id="defs986">
  <rect
   height="344.10001"
   width="507.29999"
   y="417.70001"
   x="-0.1"
   id="SVGID_15_" />
</defs>

										<clipPath
   id="SVGID_16_">
											<use
   id="use988"
   style="overflow:visible"
   xlink:href="#SVGID_15_"
   x="0"
   y="0"
   width="100%"
   height="100%" />

										</clipPath>

										<g
   clip-path="url(#SVGID_16_)"
   class="st21"
   id="g4028">
										</g>

									</g>

								</g>

							</g>

						</g>

					</g>

				</g>

			</g>

		</g>

	</g>

</g>

<linearGradient
   gradientTransform="matrix(1.0455,0,0,1.0455,-30.4984,-16.649)"
   y2="510.32901"
   x2="265.70859"
   y1="510.32901"
   x1="156.5743"
   gradientUnits="userSpaceOnUse"
   id="path974_1_">
	<stop
   id="stop1004"
   style="stop-color:#6DB496"
   offset="0" />

	<stop
   id="stop1006"
   style="stop-color:#B7D26B"
   offset="1" />

</linearGradient>

<path
   d="m 247.3,448.7 c 0,0 -76,36 -114.1,136.4"
   class="st22"
   inkscape:connector-curvature="0"
   id="path974"
   style="fill:url(#path974_1_);stroke:#ffffff;stroke-width:5.22739983;stroke-miterlimit:10.45470047" />

<linearGradient
   gradientTransform="matrix(1.0455,0,0,1.0455,-30.4984,-16.649)"
   y2="459.53989"
   x2="169.1998"
   y1="459.53989"
   x1="82.542702"
   gradientUnits="userSpaceOnUse"
   id="path976_1_">
	<stop
   id="stop1010"
   style="stop-color:#6DB496"
   offset="0" />

	<stop
   id="stop1012"
   style="stop-color:#B7D26B"
   offset="1" />

</linearGradient>

<path
   d="m 146.4,424.2 c 0,0 -77.4,29.8 -90.6,79.2"
   class="st23"
   inkscape:connector-curvature="0"
   id="path976"
   style="fill:url(#path976_1_);stroke:#ffffff;stroke-width:5.22739983;stroke-miterlimit:10.45470047" />

<linearGradient
   gradientTransform="matrix(1.0455,0,0,1.0455,-30.4984,-16.649)"
   y2="443.18411"
   x2="359.92191"
   y1="443.18411"
   x1="307.41119"
   gradientUnits="userSpaceOnUse"
   id="path978_1_">
	<stop
   id="stop1016"
   style="stop-color:#6DB496"
   offset="0" />

	<stop
   id="stop1018"
   style="stop-color:#B7D26B"
   offset="1" />

</linearGradient>

<path
   d="m 290.9,470.6 c 0,0 7.6,-41.3 54.9,-47.8"
   class="st24"
   inkscape:connector-curvature="0"
   id="path978"
   style="fill:none;stroke:#ffffff;stroke-width:2.20346457;stroke-miterlimit:10.45470047;stroke-dasharray:none;opacity:0.5" />

<linearGradient
   gradientTransform="matrix(1.0455,0,0,1.0455,-30.4984,-16.649)"
   y2="408.03351"
   x2="288.8555"
   y1="408.03351"
   x1="226.77991"
   gradientUnits="userSpaceOnUse"
   id="path980_1_">
	<stop
   id="stop1022"
   style="stop-color:#6DB496"
   offset="0" />

	<stop
   id="stop1024"
   style="stop-color:#B7D26B"
   offset="1" />

</linearGradient>

<path
   d="m 206.6,434.9 c 0,0 14.6,-47.3 64.9,-49.9"
   class="st25"
   inkscape:connector-curvature="0"
   id="path980"
   style="fill:none;stroke:#ffffff;stroke-width:2.20346457;stroke-miterlimit:10.45470047;opacity:0.5;stroke-dasharray:none" />

<linearGradient
   gradientTransform="matrix(1.0455,0,0,1.0455,-30.4984,-16.649)"
   y2="397.2731"
   x2="180.008"
   y1="397.2731"
   x1="139.26199"
   gradientUnits="userSpaceOnUse"
   id="path982_1_">
	<stop
   id="stop1028"
   style="stop-color:#6DB496"
   offset="0" />

	<stop
   id="stop1030"
   style="stop-color:#B7D26B"
   offset="1" />

</linearGradient>

<path
   d="m 115.1,422.7 c 0,0 1.3,-39.3 42.6,-48"
   class="st26"
   inkscape:connector-curvature="0"
   id="path982"
   style="fill:url(#path982_1_);stroke:#ffffff;stroke-width:5.22739983;stroke-miterlimit:10.45470047" />

<linearGradient
   gradientTransform="matrix(1.0455,0,0,1.0455,-30.4984,-16.649)"
   y2="587.70831"
   x2="202.452"
   y1="587.70831"
   x1="76.023102"
   gradientUnits="userSpaceOnUse"
   id="path984_1_">
	<stop
   id="stop1034"
   style="stop-color:#6DB496"
   offset="0" />

	<stop
   id="stop1036"
   style="stop-color:#B7D26B"
   offset="1" />

</linearGradient>

<path
   d="m 178.9,719.2 c 0,0 28.2,-189 -114.4,-257 0,0 -67.6,144.8 79.4,271.2"
   class="st27"
   inkscape:connector-curvature="0"
   id="path984"
   style="fill:url(#path984_1_);stroke:#ffffff;stroke-width:5.22739983;stroke-miterlimit:10.45470047" />

<linearGradient
   gradientTransform="matrix(1.0455,0,0,1.0455,-30.4984,-16.649)"
   y2="583.83447"
   x2="182.6862"
   y1="583.83447"
   x1="90.864098"
   gradientUnits="userSpaceOnUse"
   id="polyline986_1_">
	<stop
   id="stop1040"
   style="stop-color:#6DB496"
   offset="0" />

	<stop
   id="stop1042"
   style="stop-color:#B7D26B"
   offset="1" />

</linearGradient>

<polyline
   points="160.5,725.3 83.8,515.1 64.5,462.2 "
   class="st28"
   id="polyline986"
   style="fill:url(#polyline986_1_);stroke:#ffffff;stroke-width:5.22739983;stroke-miterlimit:10.45470047" />

<linearGradient
   gradientTransform="matrix(1.0455,0,0,1.0455,-30.4984,-16.649)"
   y2="494.3558"
   x2="126.2538"
   y1="494.3558"
   x1="109.3242"
   gradientUnits="userSpaceOnUse"
   id="path988_1_">
	<stop
   id="stop1046"
   style="stop-color:#6DB496"
   offset="0" />

	<stop
   id="stop1048"
   style="stop-color:#B7D26B"
   offset="1" />

</linearGradient>

<path
   d="m 83.8,515.1 c 0,0 2.7,-23.9 17.7,-29.8"
   class="st29"
   inkscape:connector-curvature="0"
   id="path988"
   style="fill:url(#path988_1_);stroke:#ffffff;stroke-width:5.22739983;stroke-miterlimit:10.45470047" />

<linearGradient
   gradientTransform="matrix(1.0455,0,0,1.0455,-30.4984,-16.649)"
   y2="531.70642"
   x2="156.5369"
   y1="531.70642"
   x1="125.26"
   gradientUnits="userSpaceOnUse"
   id="path990_1_">
	<stop
   id="stop1052"
   style="stop-color:#6DB496"
   offset="0" />

	<stop
   id="stop1054"
   style="stop-color:#B7D26B"
   offset="1" />

</linearGradient>

<path
   d="m 100.5,560.8 c 0,0 5.4,-33.9 32.7,-43.1"
   class="st30"
   inkscape:connector-curvature="0"
   id="path990"
   style="fill:url(#path990_1_);stroke:#ffffff;stroke-width:5.22739983;stroke-miterlimit:10.45470047" />

<linearGradient
   gradientTransform="matrix(1.0455,0,0,1.0455,-30.4984,-16.649)"
   y2="573.16022"
   x2="180.58189"
   y1="573.16022"
   x1="140.888"
   gradientUnits="userSpaceOnUse"
   id="path992_1_">
	<stop
   id="stop1058"
   style="stop-color:#6DB496"
   offset="0" />

	<stop
   id="stop1060"
   style="stop-color:#B7D26B"
   offset="1" />

</linearGradient>

<path
   d="m 116.8,604.4 c 0,0 16.7,-44.7 41.5,-43.6"
   class="st31"
   inkscape:connector-curvature="0"
   id="path992"
   style="fill:url(#path992_1_);stroke:#ffffff;stroke-width:5.22739983;stroke-miterlimit:10.45470047" />

<linearGradient
   gradientTransform="matrix(1.0455,0,0,1.0455,-30.4984,-16.649)"
   y2="619.68378"
   x2="195.7899"
   y1="619.68378"
   x1="156.5743"
   gradientUnits="userSpaceOnUse"
   id="path994_1_">
	<stop
   id="stop1064"
   style="stop-color:#6DB496"
   offset="0" />

	<stop
   id="stop1066"
   style="stop-color:#B7D26B"
   offset="1" />

</linearGradient>

<path
   d="m 133.2,651.5 c 0,0 18.8,-42 41,-40.5"
   class="st32"
   inkscape:connector-curvature="0"
   id="path994"
   style="fill:url(#path994_1_);stroke:#ffffff;stroke-width:5.22739983;stroke-miterlimit:10.45470047" />

<linearGradient
   gradientTransform="matrix(1.0455,0,0,1.0455,-30.4984,-16.649)"
   y2="614.67938"
   x2="148.73109"
   y1="614.67938"
   x1="92.585701"
   gradientUnits="userSpaceOnUse"
   id="path996_1_">
	<stop
   id="stop1070"
   style="stop-color:#6DB496"
   offset="0" />

	<stop
   id="stop1072"
   style="stop-color:#B7D26B"
   offset="1" />

</linearGradient>

<path
   d="m 125,628.2 c 0,0 -30.5,-16.8 -58.7,2.4"
   class="st33"
   inkscape:connector-curvature="0"
   id="path996"
   style="fill:url(#path996_1_);stroke:#ffffff;stroke-width:5.22739983;stroke-miterlimit:10.45470047" />

<linearGradient
   gradientTransform="matrix(1.0455,0,0,1.0455,-30.4984,-16.649)"
   y2="565.30988"
   x2="131.99271"
   y1="565.30988"
   x1="78.047203"
   gradientUnits="userSpaceOnUse"
   id="path998_1_">
	<stop
   id="stop1076"
   style="stop-color:#6DB496"
   offset="0" />

	<stop
   id="stop1078"
   style="stop-color:#B7D26B"
   offset="1" />

</linearGradient>

<path
   d="m 107.5,580.1 c 0,0 -15.7,-21.8 -56.4,-5.2"
   class="st34"
   inkscape:connector-curvature="0"
   id="path998"
   style="fill:url(#path998_1_);stroke:#ffffff;stroke-width:5.22739983;stroke-miterlimit:10.45470047" />

<linearGradient
   gradientTransform="matrix(1.0455,0,0,1.0455,-30.4984,-16.649)"
   y2="521.88037"
   x2="115.7"
   y1="521.88037"
   x1="76.059998"
   gradientUnits="userSpaceOnUse"
   id="path1000_1_">
	<stop
   id="stop1082"
   style="stop-color:#6DB496"
   offset="0" />

	<stop
   id="stop1084"
   style="stop-color:#B7D26B"
   offset="1" />

</linearGradient>

<path
   d="m 90.5,533.3 c 0,0 -18.4,-12.4 -41.4,-7.5"
   class="st35"
   inkscape:connector-curvature="0"
   id="path1000"
   style="fill:url(#path1000_1_);stroke:#ffffff;stroke-width:5.22739983;stroke-miterlimit:10.45470047" />

<linearGradient
   gradientTransform="matrix(1.0455,0,0,1.0455,-30.4984,-16.649)"
   y2="659.53992"
   x2="267.50101"
   y1="659.53992"
   x1="154.8535"
   gradientUnits="userSpaceOnUse"
   id="path1026_1_">
	<stop
   id="stop1088"
   style="stop-color:#6DB496"
   offset="0" />

	<stop
   id="stop1090"
   style="stop-color:#B7D26B"
   offset="1" />

</linearGradient>



<linearGradient
   gradientTransform="matrix(1.0455,0,0,1.0455,-30.4984,-16.649)"
   y2="656.09662"
   x2="260.25671"
   y1="656.09662"
   x1="168.14771"
   gradientUnits="userSpaceOnUse"
   id="polyline1028_1_">
	<stop
   id="stop1094"
   style="stop-color:#6DB496"
   offset="0" />

	<stop
   id="stop1096"
   style="stop-color:#B7D26B"
   offset="1" />

</linearGradient>

<polyline
   points="145.3,767.2 222.2,610.8 241.6,571.4 "
   class="st37"
   id="polyline1028"
   style="fill:url(#polyline1028_1_);stroke:#ffffff;stroke-width:5.22739983;stroke-miterlimit:10.45470047" />

<linearGradient
   gradientTransform="matrix(1.0455,0,0,1.0455,-30.4984,-16.649)"
   y2="596.55322"
   x2="266.88541"
   y1="596.55322"
   x1="241.73"
   gradientUnits="userSpaceOnUse"
   id="path1030_1_">
	<stop
   id="stop1100"
   style="stop-color:#6DB496"
   offset="0" />

	<stop
   id="stop1102"
   style="stop-color:#B7D26B"
   offset="1" />

</linearGradient>

<path
   d="m 222.2,610.8 c 0,0 14.9,-11.4 26.3,-6.1"
   class="st38"
   inkscape:connector-curvature="0"
   id="path1030"
   style="fill:url(#path1030_1_);stroke:#ffffff;stroke-width:5.22739983;stroke-miterlimit:10.45470047" />

<linearGradient
   gradientTransform="matrix(1.0455,0,0,1.0455,-30.4984,-16.649)"
   y2="628.51172"
   x2="265.80429"
   y1="628.51172"
   x1="225.7278"
   gradientUnits="userSpaceOnUse"
   id="path1032_1_">
	<stop
   id="stop1106"
   style="stop-color:#6DB496"
   offset="0" />

	<stop
   id="stop1108"
   style="stop-color:#B7D26B"
   offset="1" />

</linearGradient>

<path
   d="m 205.5,644.7 c 0,0 22,-15.2 41.9,-4.9"
   class="st39"
   inkscape:connector-curvature="0"
   id="path1032"
   style="fill:url(#path1032_1_);stroke:#ffffff;stroke-width:5.22739983;stroke-miterlimit:10.45470047" />

<linearGradient
   gradientTransform="matrix(1.0455,0,0,1.0455,-30.4984,-16.649)"
   y2="629.84119"
   x2="219.1095"
   y1="629.84119"
   x1="192.7"
   gradientUnits="userSpaceOnUse"
   id="path1034_1_">
	<stop
   id="stop1112"
   style="stop-color:#6DB496"
   offset="0" />

	<stop
   id="stop1114"
   style="stop-color:#B7D26B"
   offset="1" />

</linearGradient>

<path
   d="m 198.5,659.1 c 0,0 3.8,-20.6 -27.5,-34.5"
   class="st40"
   inkscape:connector-curvature="0"
   id="path1034"
   style="fill:url(#path1034_1_);stroke:#ffffff;stroke-width:5.22739983;stroke-miterlimit:10.45470047" />

<linearGradient
   gradientTransform="matrix(1.0455,0,0,1.0455,-30.4984,-16.649)"
   y2="599.99902"
   x2="235.35001"
   y1="599.99902"
   x1="218.02"
   gradientUnits="userSpaceOnUse"
   id="path1036_1_">
	<stop
   id="stop1118"
   style="stop-color:#6DB496"
   offset="0" />

	<stop
   id="stop1120"
   style="stop-color:#B7D26B"
   offset="1" />

</linearGradient>

<path
   d="m 215.6,624.3 c 0,0 -3,-17 -18.1,-27.3"
   class="st41"
   inkscape:connector-curvature="0"
   id="path1036"
   style="fill:url(#path1036_1_);stroke:#ffffff;stroke-width:5.22739983;stroke-miterlimit:10.45470047" />

<linearGradient
   gradientTransform="matrix(1.0455,0,0,1.0455,-30.4984,-16.649)"
   y2="582.94458"
   x2="254.1888"
   y1="563.17468"
   x1="239.5988"
   gradientUnits="userSpaceOnUse"
   id="path1038_1_">
	<stop
   id="stop1124"
   style="stop-color:#FBDED8"
   offset="0" />

	<stop
   id="stop1126"
   style="stop-color:#F9CAD3"
   offset="1" />

</linearGradient>

<path
   d="m 357.4,494.5 c 0,0 45.6,-0.9 58.5,64 2.8,14.1 21.7,5.8 21.7,5.8 -77.5,28.9 -128.9,102.9 -128.9,185.7 0.2,109.3 88.8,198 198.3,198 v 107 c -168.5,0 -305.1,-136.6 -305.1,-305.1 0,-115.6 64.3,-216.2 159.2,-268"
   class="st42"
   inkscape:connector-curvature="0"
   id="path1038"
   style="fill:url(#path1038_1_)" />

<linearGradient
   gradientTransform="matrix(1.0455,0,0,1.0455,-30.4984,-16.649)"
   y2="581.45142"
   x2="420.25809"
   y1="606.42139"
   x1="459.55811"
   gradientUnits="userSpaceOnUse"
   id="path1040_1_">
	<stop
   id="stop1130"
   style="stop-color:#FBDED8"
   offset="0" />

	<stop
   id="stop1132"
   style="stop-color:#F9CAD3"
   offset="1" />

</linearGradient>

<path
   d="m 429,562.8 c 0,25 -20.3,45.3 -45.3,45.3 -9.8,0 -19.4,-3.2 -27.3,-9.1"
   class="st43"
   inkscape:connector-curvature="0"
   id="path1040"
   style="fill:url(#path1040_1_)" />

<linearGradient
   gradientTransform="matrix(1.0455,0,0,1.0455,-30.4984,-16.649)"
   y2="526.14008"
   x2="437.47339"
   y1="496.72009"
   x1="437.97339"
   gradientUnits="userSpaceOnUse"
   id="polyline1042_1_">
	<stop
   id="stop1136"
   style="stop-color:#FBDED8"
   offset="0" />

	<stop
   id="stop1138"
   style="stop-color:#F9CAD3"
   offset="1" />

</linearGradient>

<polyline
   points="403.2,532.5 438.1,516.4 450.5,537.9 423.6,557.3 "
   class="st44"
   id="polyline1042"
   style="fill:url(#polyline1042_1_)" />

<linearGradient
   gradientTransform="matrix(1.0455,0,0,1.0455,-30.4984,-16.649)"
   y2="484.31"
   x2="397.27249"
   y1="454.89001"
   x1="397.27249"
   gradientUnits="userSpaceOnUse"
   id="polyline1044_1_">
	<stop
   id="stop1142"
   style="stop-color:#FBDED8"
   offset="0" />

	<stop
   id="stop1144"
   style="stop-color:#F9CAD3"
   offset="1" />

</linearGradient>

<polyline
   points="378.6,509.4 411.1,487 397.3,465 358.6,483.2 "
   class="st45"
   id="polyline1044"
   style="fill:url(#polyline1044_1_)" />

<linearGradient
   gradientTransform="matrix(1.0455,0,0,1.0455,-30.4984,-16.649)"
   y2="497.02979"
   x2="418.24271"
   y1="475.51981"
   x1="417.99271"
   gradientUnits="userSpaceOnUse"
   id="polyline1046_1_">
	<stop
   id="stop1148"
   style="stop-color:#FBDED8"
   offset="0" />

	<stop
   id="stop1150"
   style="stop-color:#F9CAD3"
   offset="1" />

</linearGradient>

<polyline
   points="378.6,509.4 418.9,489.7 435.1,509.6 403.2,532.5 "
   class="st46"
   id="polyline1046"
   style="fill:url(#polyline1046_1_)" />

<linearGradient
   gradientTransform="matrix(1.0455,0,0,1.0455,-30.4984,-16.649)"
   y2="494.67941"
   x2="379.29459"
   y1="448.93939"
   x1="380.03461"
   gradientUnits="userSpaceOnUse"
   id="circle1048_1_">
	<stop
   id="stop1154"
   style="stop-color:#FBDED8"
   offset="0" />

	<stop
   id="stop1156"
   style="stop-color:#F9CAD3"
   offset="1" />

</linearGradient>

<circle
   r="17.1"
   cy="497.70001"
   cx="366.10001"
   class="st47"
   id="circle1048"
   style="fill:url(#circle1048_1_)" />

<linearGradient
   gradientTransform="matrix(1.0455,0,0,1.0455,-30.4984,-16.649)"
   y2="531.40918"
   x2="423.30939"
   y1="447.10919"
   x1="425.0394"
   gradientUnits="userSpaceOnUse"
   id="circle1050_1_">
	<stop
   id="stop1160"
   style="stop-color:#FBDED8"
   offset="0" />

	<stop
   id="stop1162"
   style="stop-color:#F9CAD3"
   offset="1" />

</linearGradient>

<circle
   r="17.1"
   cy="547.29999"
   cx="411.89999"
   class="st48"
   id="circle1050"
   style="fill:url(#circle1050_1_)" />

<linearGradient
   gradientTransform="matrix(1.0455,0,0,1.0455,-30.4984,-16.649)"
   y2="517.83972"
   x2="402.92639"
   y1="444.4097"
   x1="403.66641"
   gradientUnits="userSpaceOnUse"
   id="circle1052_1_">
	<stop
   id="stop1166"
   style="stop-color:#FBDED8"
   offset="0" />

	<stop
   id="stop1168"
   style="stop-color:#F9CAD3"
   offset="1" />

</linearGradient>

<circle
   r="17.1"
   cy="520.90002"
   cx="390.79999"
   class="st49"
   id="circle1052"
   style="fill:url(#circle1052_1_)" />

<linearGradient
   gradientTransform="matrix(1.0455,0,0,1.0455,-30.4984,-16.649)"
   y2="484.31"
   x2="414.82391"
   y1="454.89001"
   x1="414.82391"
   gradientUnits="userSpaceOnUse"
   id="circle1054_1_">
	<stop
   id="stop1172"
   style="stop-color:#FBDED8"
   offset="0" />

	<stop
   id="stop1174"
   style="stop-color:#F9CAD3"
   offset="1" />

</linearGradient>

<circle
   r="12.8"
   cy="476.89999"
   cx="403.20001"
   class="st50"
   id="circle1054"
   style="fill:url(#circle1054_1_)" />

<linearGradient
   gradientTransform="matrix(1.0455,0,0,1.0455,-30.4984,-16.649)"
   y2="526.38068"
   x2="451.46851"
   y1="496.96069"
   x1="451.96851"
   gradientUnits="userSpaceOnUse"
   id="circle1056_1_">
	<stop
   id="stop1178"
   style="stop-color:#FBDED8"
   offset="0" />

	<stop
   id="stop1180"
   style="stop-color:#F9CAD3"
   offset="1" />

</linearGradient>

<circle
   r="12.8"
   cy="528.5"
   cx="441.60001"
   class="st51"
   id="circle1056"
   style="fill:url(#circle1056_1_)" />

<linearGradient
   gradientTransform="matrix(1.0455,0,0,1.0455,-30.4984,-16.649)"
   y2="496.81061"
   x2="437.42981"
   y1="475.3006"
   x1="437.17981"
   gradientUnits="userSpaceOnUse"
   id="circle1058_1_">
	<stop
   id="stop1184"
   style="stop-color:#FBDED8"
   offset="0" />

	<stop
   id="stop1186"
   style="stop-color:#F9CAD3"
   offset="1" />

</linearGradient>

<circle
   r="12.8"
   cy="499.79999"
   cx="426.79999"
   class="st52"
   id="circle1058"
   style="fill:url(#circle1058_1_)" />

<linearGradient
   gradientTransform="matrix(1.0455,0,0,1.0455,-30.4984,-16.649)"
   y2="565.27417"
   x2="455.14871"
   y1="555.63422"
   x1="497.4187"
   gradientUnits="userSpaceOnUse"
   id="path1060_1_">
	<stop
   id="stop1190"
   style="stop-color:#FBDED8"
   offset="0" />

	<stop
   id="stop1192"
   style="stop-color:#F9CAD3"
   offset="1" />

</linearGradient>

<path
   d="m 409.4,600.1 c 0,0 21.4,-14.9 36.5,-24.6 4.1,-2.8 8.4,-5.3 12.9,-7.5 0,0 -2.2,-18.4 -27.2,-7 l -11.4,4.5"
   class="st53"
   inkscape:connector-curvature="0"
   id="path1060"
   style="fill:url(#path1060_1_)" />

<path
   d="m 527.10153,813.34214 c 0,0 -88.90001,-409.3 -493.000008,-385 -404.100002,24.4 -106.8,498.9 -106.8,498.9 z"
   class="st54"
   inkscape:connector-curvature="0"
   id="path1062"
   style="opacity:0.02999998;fill:#1d1d1b;enable-background:new" />

<path
   style="opacity:0.09863012;fill:#ffffff;fill-opacity:1"
   d="M 502.2,683.6 C 463.8,360.9 171,351.3 115.1,384.9 c 0,0 255.8,-62.5 387.1,298.7 z"
   class="st9"
   inkscape:connector-curvature="0"
   id="path1064" />

<path
   style="opacity:0.09863012;fill:#ffffff;fill-opacity:1"
   d="m 499.3,683.6 c 38.4,-322.7 331.2,-332.4 387.1,-298.7 0,0 -255.8,-62.5 -387.1,298.7 z"
   class="st9"
   inkscape:connector-curvature="0"
   id="path1068" />

<linearGradient
   gradientTransform="matrix(1.1902,0,0,1.5067,-152.7033,-89.021335)"
   y2="306.37909"
   x2="844.39868"
   y1="306.37909"
   x1="76.040398"
   gradientUnits="userSpaceOnUse"
   id="rect1070_1_">
	<stop
   id="stop1199"
   style="stop-color:#FFFFFF"
   offset="0" />

	<stop
   id="stop1201"
   style="stop-color:#FFFFFF;stop-opacity:0.9925"
   offset="0.3991" />

	<stop
   id="stop1203"
   style="stop-color:#FFFFFF;stop-opacity:0.8"
   offset="0.6015" />

	<stop
   id="stop1205"
   style="stop-color:#FFFFFF;stop-opacity:0"
   offset="0.897" />

</linearGradient>

<rect
   style="fill:url(#rect1070_1_)"
   height="940"
   width="914.5"
   class="st55"
   y="-97.423721"
   x="-62.200001"
   id="rect1070" />

<g
   class="st13"
   id="g1210"
   style="opacity:0.5">
	<path
   d="M 423,235.9 378.6,224.8 C 372.1,222.1 275.7,170.5 170.8,200.1 65.9,229.7 -42.6,540.3 -42.6,540.3"
   class="st56"
   inkscape:connector-curvature="0"
   id="path1074"
   style="fill:none;stroke:#1d1d1b;stroke-width:0.52270001;stroke-miterlimit:10.45470047" />

	

	<path
   d="m 491.5,340.2 0.2,-0.6"
   class="st56"
   inkscape:connector-curvature="0"
   id="path1080"
   style="fill:none;stroke:#1d1d1b;stroke-width:0.52270001;stroke-miterlimit:10.45470047" />

	<path
   d="m 257.5,136.3 c 0,0 69.6,1.2 85.4,-13.7 15.8,-14.9 9,-72.9 -31.5,-82.6 -26.6,-6.3 -41.5,5.8 -41.5,5.8 0,0 -27.8,-42 -62.4,-40.6 -34.6,1.4 -39.1,38.8 -32.4,54.8 0,0 -23.8,15.9 -29.3,35.1 -8.3,28.4 31.7,45.2 111.7,41.2 z"
   class="st58"
   inkscape:connector-curvature="0"
   id="path1082"
   style="opacity:0.5;fill:none;stroke:#1d1d1b;stroke-width:0.52270001;stroke-miterlimit:10.45470047;enable-background:new" />

	<path
   d="m 345.5,422.4 c 0.8,-0.8 1.3,-1.5 1.6,-2 3.9,-8.2 -21.4,-21 -34.2,-28.5 -12.8,-7.5 -25.1,-19.7 8.9,-35.3 34,-15.6 -1.9,-23.5 -21.6,-26.2 -10,-1.4 -28.4,-10 -29.6,-24.8 -1.8,-23.2 29.6,-50.7 29.6,-50.7"
   class="st56"
   inkscape:connector-curvature="0"
   id="path1084_1_"
   style="fill:none;stroke:#1d1d1b;stroke-width:0.52270001;stroke-miterlimit:10.45470047" />

	<path
   d="m 402.9,463.8 c 7.1,-4.9 13.1,-12.3 16.1,-20.1 -9.1,-12 -33.6,-8.7 -45,0.4"
   class="st56"
   inkscape:connector-curvature="0"
   id="path1086"
   style="fill:none;stroke:#1d1d1b;stroke-width:0.52270001;stroke-miterlimit:10.45470047" />

	<path
   d="m 507.3,381.9 c -18,4.8 -105.1,-30.6 -83.1,-30.6 4.5,2.8 72.7,16.7 89.4,19.4"
   class="st56"
   inkscape:connector-curvature="0"
   id="path1088"
   style="fill:none;stroke:#1d1d1b;stroke-width:0.52270001;stroke-miterlimit:10.45470047" />

	<path
   d="M 489.5,215.2 474.8,156.1 451,197.3 h -36.4 c -14.9,0 -16.6,-18.8 -3.1,-32.3 23.6,-25.4 50.6,-51.4 65.3,-66.4"
   class="st56"
   inkscape:connector-curvature="0"
   id="path1090"
   style="fill:none;stroke:#1d1d1b;stroke-width:0.52270001;stroke-miterlimit:10.45470047" />

	<path
   d="m 506.1,680.6 -4.8,-0.3 c 1.4,-18.7 4.4,-37.1 9,-55.3"
   class="st56"
   inkscape:connector-curvature="0"
   id="path1092"
   style="fill:none;stroke:#1d1d1b;stroke-width:0.52270001;stroke-miterlimit:10.45470047" />

	<path
   d="m 448.1,539.5 c 49.2,43.7 54.1,139.6 54.1,139.6"
   class="st56"
   inkscape:connector-curvature="0"
   id="path1094_2_"
   style="fill:none;stroke:#1d1d1b;stroke-width:0.52270001;stroke-miterlimit:10.45470047" />

	<path
   d="m 424.2,517.4 c 1.1,1.2 2.2,2.3 3.4,3.5"
   class="st56"
   inkscape:connector-curvature="0"
   id="path1094_5_"
   style="fill:none;stroke:#1d1d1b;stroke-width:0.52270001;stroke-miterlimit:10.45470047" />

	<path
   d="m 404.3,491.6 c 0.7,1.2 1.5,2.4 2.3,3.7"
   class="st56"
   inkscape:connector-curvature="0"
   id="path1094_3_"
   style="fill:none;stroke:#1d1d1b;stroke-width:0.52270001;stroke-miterlimit:10.45470047" />

	<path
   d="M 495.9,749.4 C 172.7,679.3 85.1,530.2 68.8,520.4 L 4.9,436.8 C 50,402.3 115.1,385 115.1,385 c 164.1,-54 278.7,79.2 278.7,79.2 0,0 0.1,1.3 0.3,2.9"
   class="st56"
   inkscape:connector-curvature="0"
   id="path1094"
   style="fill:none;stroke:#1d1d1b;stroke-width:0.52270001;stroke-miterlimit:10.45470047" />

	<path
   d="M 333.2,499.8 C 282.2,459.2 217.8,428.7 137.6,423.5 97.4,420.9 53.3,424.7 4.9,436.8"
   class="st56"
   inkscape:connector-curvature="0"
   id="path1098_1_"
   style="fill:none;stroke:#1d1d1b;stroke-width:0.52270001;stroke-miterlimit:10.45470047" />

	<path
   d="m 502.2,756.9 c 0,0 -23.2,-81.6 -82.1,-164.1"
   class="st56"
   inkscape:connector-curvature="0"
   id="path1098"
   style="fill:none;stroke:#1d1d1b;stroke-width:0.52270001;stroke-miterlimit:10.45470047" />

	<path
   d="m 247.3,448.7 c 0,0 -76,36 -114.1,136.4"
   class="st56"
   inkscape:connector-curvature="0"
   id="path1102"
   style="fill:none;stroke:#1d1d1b;stroke-width:0.52270001;stroke-miterlimit:10.45470047" />

	<path
   d="m 146.4,424.2 c 0,0 -77.4,29.8 -90.6,79.2"
   class="st56"
   inkscape:connector-curvature="0"
   id="path1106"
   style="fill:none;stroke:#1d1d1b;stroke-width:0.52270001;stroke-miterlimit:10.45470047" />

	<path
   d="m 290.9,470.6 c 0,0 7.6,-41.3 54.9,-47.8"
   class="st56"
   inkscape:connector-curvature="0"
   id="path1110"
   style="fill:none;stroke:#1d1d1b;stroke-width:0.52270001;stroke-miterlimit:10.45470047" />

	<path
   d="m 206.6,434.9 c 0,0 14.6,-47.3 64.9,-49.9"
   class="st56"
   inkscape:connector-curvature="0"
   id="path1114"
   style="fill:none;stroke:#1d1d1b;stroke-width:0.52270001;stroke-miterlimit:10.45470047" />

	<path
   d="m 115.1,422.7 c 0,0 1.3,-39.3 42.6,-48"
   class="st56"
   inkscape:connector-curvature="0"
   id="path1118"
   style="fill:none;stroke:#1d1d1b;stroke-width:0.52270001;stroke-miterlimit:10.45470047" />

	<path
   d="m 178.9,719.2 c 0,0 28.2,-189 -114.4,-257 0,0 -67.6,144.8 79.4,271.2"
   class="st56"
   inkscape:connector-curvature="0"
   id="path1122"
   style="fill:none;stroke:#1d1d1b;stroke-width:0.52270001;stroke-miterlimit:10.45470047" />

	<polyline
   points="160.5,725.3 83.8,515.1 64.5,462.2  "
   class="st56"
   id="polyline1126"
   style="fill:none;stroke:#1d1d1b;stroke-width:0.52270001;stroke-miterlimit:10.45470047" />

	<path
   d="m 83.8,515.1 c 0,0 2.7,-23.9 17.7,-29.8"
   class="st56"
   inkscape:connector-curvature="0"
   id="path1130"
   style="fill:none;stroke:#1d1d1b;stroke-width:0.52270001;stroke-miterlimit:10.45470047" />

	<path
   d="m 100.5,560.8 c 0,0 5.4,-33.9 32.7,-43.1"
   class="st56"
   inkscape:connector-curvature="0"
   id="path1134"
   style="fill:none;stroke:#1d1d1b;stroke-width:0.52270001;stroke-miterlimit:10.45470047" />

	<path
   d="m 116.8,604.4 c 0,0 16.7,-44.7 41.5,-43.6"
   class="st56"
   inkscape:connector-curvature="0"
   id="path1138"
   style="fill:none;stroke:#1d1d1b;stroke-width:0.52270001;stroke-miterlimit:10.45470047" />

	<path
   d="m 133.2,651.5 c 0,0 18.8,-42 41,-40.5"
   class="st56"
   inkscape:connector-curvature="0"
   id="path1142"
   style="fill:none;stroke:#1d1d1b;stroke-width:0.52270001;stroke-miterlimit:10.45470047" />

	<path
   d="m 125,628.2 c 0,0 -30.5,-16.8 -58.7,2.4"
   class="st56"
   inkscape:connector-curvature="0"
   id="path1146"
   style="fill:none;stroke:#1d1d1b;stroke-width:0.52270001;stroke-miterlimit:10.45470047" />

	<path
   d="m 67.7,632.5 -2.7,-4 c 29.1,-19.7 59.9,-3.1 61.2,-2.5 l -2.3,4.2 v 0 c -0.4,-0.2 -29.7,-15.7 -56.2,2.3 z"
   class="st56"
   inkscape:connector-curvature="0"
   id="path1148"
   style="fill:none;stroke:#1d1d1b;stroke-width:0.52270001;stroke-miterlimit:10.45470047" />

	<path
   d="m 107.5,580.1 c 0,0 -15.7,-21.8 -56.4,-5.2"
   class="st56"
   inkscape:connector-curvature="0"
   id="path1150"
   style="fill:none;stroke:#1d1d1b;stroke-width:0.52270001;stroke-miterlimit:10.45470047" />

	<path
   d="m 105.6,581.5 c -0.6,-0.8 -15.3,-20 -53.5,-4.4 l -1.8,-4.4 c 41.9,-17.1 58.5,5 59.2,6 z"
   class="st56"
   inkscape:connector-curvature="0"
   id="path1152"
   style="fill:none;stroke:#1d1d1b;stroke-width:0.52270001;stroke-miterlimit:10.45470047" />

	<path
   d="m 90.5,533.3 c 0,0 -18.4,-12.4 -41.4,-7.5"
   class="st56"
   inkscape:connector-curvature="0"
   id="path1154"
   style="fill:none;stroke:#1d1d1b;stroke-width:0.52270001;stroke-miterlimit:10.45470047" />

	<path
   d="m 89.1,535.4 c -0.2,-0.1 -17.9,-11.8 -39.6,-7.1 l -1,-4.7 c 23.7,-5 42.5,7.3 43.3,7.9 z"
   class="st56"
   inkscape:connector-curvature="0"
   id="path1156"
   style="fill:none;stroke:#1d1d1b;stroke-width:0.52270001;stroke-miterlimit:10.45470047" />

	<path
   d="m 158.7,774.3 c 0,0 121.5,-86 82.9,-202.8 0,0 -117.9,40.1 -109.8,190.8"
   class="st56"
   inkscape:connector-curvature="0"
   id="path1158"
   style="fill:none;stroke:#1d1d1b;stroke-width:0.52270001;stroke-miterlimit:10.45470047" />

	<polyline
   points="145.3,767.2 222.2,610.8 241.6,571.4  "
   class="st56"
   id="polyline1162"
   style="fill:none;stroke:#1d1d1b;stroke-width:0.52270001;stroke-miterlimit:10.45470047" />

	<path
   d="m 222.2,610.8 c 0,0 14.9,-11.4 26.3,-6.1"
   class="st56"
   inkscape:connector-curvature="0"
   id="path1166"
   style="fill:none;stroke:#1d1d1b;stroke-width:0.52270001;stroke-miterlimit:10.45470047" />

	<path
   d="m 205.5,644.7 c 0,0 22,-15.2 41.9,-4.9"
   class="st56"
   inkscape:connector-curvature="0"
   id="path1170"
   style="fill:none;stroke:#1d1d1b;stroke-width:0.52270001;stroke-miterlimit:10.45470047" />

	<path
   d="m 198.5,659.1 c 0,0 3.8,-20.6 -27.5,-34.5"
   class="st56"
   inkscape:connector-curvature="0"
   id="path1174"
   style="fill:none;stroke:#1d1d1b;stroke-width:0.52270001;stroke-miterlimit:10.45470047" />

	<path
   d="m 215.6,624.3 c 0,0 -3,-17 -18.1,-27.3"
   class="st56"
   inkscape:connector-curvature="0"
   id="path1178"
   style="fill:none;stroke:#1d1d1b;stroke-width:0.52270001;stroke-miterlimit:10.45470047" />

	<path
   d="m 370.5,606.2 c -38.6,36.7 -61.6,88.2 -61.6,143.7 0,109.4 88.6,198.1 198.1,198.1 v 107 c -168.5,0 -305.1,-136.6 -305.1,-305.1 0,-115.6 64.3,-216.2 159.2,-268"
   class="st56"
   inkscape:connector-curvature="0"
   id="path1182_2_"
   style="fill:none;stroke:#1d1d1b;stroke-width:0.52270001;stroke-miterlimit:10.45470047" />

	<path
   d="m 410,599.8 c -7.4,5.3 -16.5,8.4 -26.3,8.4 -9.8,0 -19.4,-3.2 -27.3,-9.1"
   class="st56"
   inkscape:connector-curvature="0"
   id="path1184_1_"
   style="fill:none;stroke:#1d1d1b;stroke-width:0.52270001;stroke-miterlimit:10.45470047" />

	<line
   y2="554.5"
   x2="427.39999"
   y1="538.59998"
   x1="449.39999"
   class="st56"
   id="polyline1186_2_"
   style="fill:none;stroke:#1d1d1b;stroke-width:0.52270001;stroke-miterlimit:10.45470047" />

	<line
   y2="516.90002"
   x2="436.20001"
   y1="532.5"
   x1="403.20001"
   class="st56"
   id="polyline1186"
   style="fill:none;stroke:#1d1d1b;stroke-width:0.52270001;stroke-miterlimit:10.45470047" />

	<line
   y2="483.20001"
   x2="358.60001"
   y1="465.5"
   x1="397.29999"
   class="st56"
   id="polyline1188_1_"
   style="fill:none;stroke:#1d1d1b;stroke-width:0.52270001;stroke-miterlimit:10.45470047" />

	<line
   y2="487"
   x2="411.10001"
   y1="509.39999"
   x1="378.60001"
   class="st56"
   id="polyline1188"
   style="fill:none;stroke:#1d1d1b;stroke-width:0.52270001;stroke-miterlimit:10.45470047" />

	<line
   y2="534.5"
   x2="399.89999"
   y1="509.60001"
   x1="435.10001"
   class="st56"
   id="polyline1190_2_"
   style="fill:none;stroke:#1d1d1b;stroke-width:0.52270001;stroke-miterlimit:10.45470047" />

	<line
   y2="489.70001"
   x2="418.89999"
   y1="507.89999"
   x1="380.79999"
   class="st56"
   id="polyline1190"
   style="fill:none;stroke:#1d1d1b;stroke-width:0.52270001;stroke-miterlimit:10.45470047" />

	<ellipse
   ry="16.700001"
   rx="16.799999"
   cy="498"
   cx="366.39999"
   class="st56"
   id="circle1192"
   style="fill:none;stroke:#1d1d1b;stroke-width:0.52270001;stroke-miterlimit:10.45470047" />

	<circle
   r="17.1"
   cy="547.29999"
   cx="411.89999"
   class="st56"
   id="circle1194"
   style="fill:none;stroke:#1d1d1b;stroke-width:0.52270001;stroke-miterlimit:10.45470047" />

	<circle
   r="16.4"
   cy="522.20001"
   cx="389"
   class="st56"
   id="circle1196"
   style="fill:none;stroke:#1d1d1b;stroke-width:0.52270001;stroke-miterlimit:10.45470047" />

	<circle
   r="12.8"
   cy="476.89999"
   cx="403.20001"
   class="st56"
   id="circle1198"
   style="fill:none;stroke:#1d1d1b;stroke-width:0.52270001;stroke-miterlimit:10.45470047" />

	<circle
   r="12.8"
   cy="528.5"
   cx="441.60001"
   class="st56"
   id="circle1200"
   style="fill:none;stroke:#1d1d1b;stroke-width:0.52270001;stroke-miterlimit:10.45470047" />

	<circle
   r="12.8"
   cy="499.79999"
   cx="426.79999"
   class="st56"
   id="circle1202"
   style="fill:none;stroke:#1d1d1b;stroke-width:0.52270001;stroke-miterlimit:10.45470047" />

	<path
   d="m 409.4,600.1 c 0,0 21.4,-14.9 36.5,-24.6 4.1,-2.8 8.4,-5.3 12.9,-7.5 0,0 -2.2,-18.4 -27.2,-7 l -11.4,4.5 c -1.3,-0.2 -1.8,-0.9 -2.6,-2"
   class="st56"
   inkscape:connector-curvature="0"
   id="path1204"
   style="fill:none;stroke:#1d1d1b;stroke-width:0.52270001;stroke-miterlimit:10.45470047" />

	<path
   d="M 24,414.2 C -380.2,438.6 -82.8,913.1 -82.8,913.1"
   class="st59"
   inkscape:connector-curvature="0"
   id="path1206"
   style="opacity:0.1;fill:none;stroke:#1d1d1b;stroke-width:0.52270001;stroke-miterlimit:10.45470047;enable-background:new" />

	

</g>

<g
   sodipodi:insensitive="true"
   inkscape:label="Layer 1"
   inkscape:groupmode="layer"
   id="layer3">
</g>

<g
   class="st13"
   id="g960_1_"
   style="opacity:0.5">
	<path
   d="m 459.7,129.9 c 8.6,-0.8 17.2,-2.3 25.9,-2.4 8,-0.1 16.9,0.8 23.3,-4.1 1.4,-1 2.5,-2.4 2.9,-4.1 0.8,-3.9 -3.4,-7 -7.2,-7.8 -8.9,-1.9 -19.1,2.2 -27,-2.5 -3.9,-2.3 -6.5,-6.4 -10.5,-8.5 -5.1,-2.6 -11.2,-1.5 -15.2,2.6 -1.9,2.1 -3.2,5 -5.8,6.2 -1.4,0.6 -2.8,0.9 -4.3,0.9 l -9.3,0.7 c -1.5,0.2 -3,0.1 -4.4,-0.5 -1.1,-0.8 -2.1,-1.8 -2.7,-3 -4.2,-6.3 -5.4,-17.3 -19.9,-19.5 -14.5,-2.2 -21.5,7 -24,12.8 -0.9,2.4 -1.3,4.9 -1.2,7.4 0.4,8 7.5,15.6 14.3,19.9 10.5,6.6 53.8,2.6 53.8,2.6 z"
   class="st56"
   inkscape:connector-curvature="0"
   id="path958_1_"
   style="fill:none;stroke:#1d1d1b;stroke-width:0.52270001;stroke-miterlimit:10.45470047" />

</g>

<linearGradient
   gradientTransform="matrix(1.0455,0,0,1.5067,-30.4984,-89.021316)"
   y2="306.66611"
   x2="406.59811"
   y1="306.66611"
   x1="-30.322001"
   gradientUnits="userSpaceOnUse"
   id="rect1212_1_">
	<stop
   id="stop1268"
   style="stop-color:#FFFFFF"
   offset="0.3819" />

	<stop
   id="stop1270"
   style="stop-color:#FFFFFF;stop-opacity:0"
   offset="1" />

</linearGradient>

<rect
   style="fill:url(#rect1212_1_)"
   height="940.90002"
   width="456.79999"
   class="st60"
   y="-97.423721"
   x="-62.200001"
   id="rect1212" />

<linearGradient
   y2="297.07971"
   x2="799.31989"
   y1="297.07971"
   x1="234.46069"
   gradientUnits="userSpaceOnUse"
   id="path2313_1_">
	<stop
   id="stop1274"
   style="stop-color:#000000"
   offset="0" />

	<stop
   id="stop1276"
   style="stop-color:#594746"
   offset="1" />

</linearGradient>

<path
   d="M 463.9,87 295.2,259.7 c -57,70.6 38.8,62.4 79.9,82.7 14.7,15.1 -56.5,26.2 -41.7,41.2 14.7,15.1 89.1,29 103.8,44.1 14.7,15.1 -30.2,31 -15.4,46.1 14.8,15.1 48.8,0.8 55.2,35.6 4.5,24.8 61.4,10.7 89.2,-9.7 C 580.9,484.6 538,486 552.8,471 c 36.6,-37.5 70.7,-13.6 83.3,-51.1 6.2,-18.5 -53.9,-28.6 -39.2,-43.7 42.4,-24.8 188.9,-40.9 119.4,-110.4 L 541.2,87 C 519.8,66.5 484.1,66.3 463.9,87 Z"
   class="st61"
   inkscape:connector-curvature="0"
   id="path2313"
   style="fill:url(#path2313_1_)" />

<path
   d="m 423.5,351.7 c 4.5,2.8 72.7,16.7 89.4,19.4 5.8,1.2 1.7,7.2 -6.3,11.2 -18,4.8 -105.1,-30.6 -83.1,-30.6 z"
   class="st1"
   inkscape:connector-curvature="0"
   id="path2315"
   style="fill:#ffffff" />

<path
   d="m 531,99.1 66.7,67.8 c 6.3,6.5 6.2,19 2.7,22.6 l -33.1,-26.5 -6.5,39.3 -27.7,-14.6 -44.3,28 -14.7,-59.1 -23.8,41.2 h -36.4 c -14.8,0 -16.6,-18.8 -3.1,-32.3 23.6,-25.4 50.6,-51.3 65.3,-66.4 14.7,-15.1 40.4,-14.6 54.9,0 z"
   class="st1"
   inkscape:connector-curvature="0"
   id="path2317"
   style="fill:#ffffff" />

<g
   class="st62"
   id="g4330"
   style="opacity:0.75">
	<path
   d="m 66.2,150.8 c -0.8,0 -1.1,-0.5 -1.1,-1.6 0.1,-1.3 0.7,-2.6 1.6,-3.5 1.9,-2.2 4.6,-3.6 7.6,-3.8 l 1.7,-0.1 c 3.3,-0.2 6.4,1.5 8,4.4 1,1.9 1.5,4 1.5,6.2 0,1 -0.1,2.1 -0.3,3.1 -0.5,3.4 -1.9,6.6 -4.2,9.1 -2,2.6 -5.2,4.1 -8.5,4.2 -3.2,0 -5.3,-0.9 -6.1,-2.7 -0.3,-0.6 -0.4,-1.2 -0.4,-1.8 0,-0.7 0.2,-1.4 0.5,-2 0.4,-1.1 1.5,-1.9 2.7,-1.9 0.1,0 0.2,0.1 0.2,0.2 0.1,0.1 0.1,0.2 0,0.3 0,0.1 -0.1,0.2 -0.2,0.2 -0.8,0.1 -1.5,0.6 -1.8,1.3 -0.3,0.5 -0.5,1.1 -0.5,1.7 0,0.5 0.1,1 0.3,1.5 0.6,1.4 2.2,2.1 4.6,2.1 2.8,0 5.3,-1.4 7.5,-4.2 2.1,-2.6 3.4,-5.7 3.9,-9 0.2,-1 0.3,-2.1 0.3,-3.1 0.1,-2 -0.5,-3.9 -1.5,-5.6 -1.4,-2.1 -3.7,-3.2 -6.2,-3.1 -3.5,0 -6.1,1.2 -7.9,3.5 -0.8,1 -1.3,2.1 -1.3,3.4 0,0.4 0.1,0.6 0.3,0.6 0,0.4 -0.3,0.7 -0.7,0.6 z m 4.4,11.5 c 0,-3 0.3,-6 0.8,-8.9 0.4,-2.4 1.1,-4.7 2,-6.9 0.8,-1.7 1.6,-2.6 2.3,-2.6 0.2,0 0.5,0.1 0.5,0.4 v 0.1 c -1.1,2.4 -1.9,4.9 -2.4,7.5 -1,4.1 -1.7,8.2 -1.9,12.4 0,0.3 -0.1,0.4 -0.4,0.4 -0.6,0 -0.9,-0.8 -0.9,-2.4 z"
   class="st63"
   inkscape:connector-curvature="0"
   id="path1220"
   style="fill:#010101" />

	<path
   d="m 97.2,156.6 c -0.8,0 -1.2,-0.8 -1.2,-2.5 0,-0.9 0.2,-1.8 0.5,-2.7 -1.9,1.9 -3.5,4.2 -4.6,6.7 -1.7,3.2 -2.6,5.3 -2.6,6.3 0,0.2 -0.2,0.4 -0.5,0.4 -0.6,0 -0.9,-0.8 -0.9,-2.4 0,-2.8 0.3,-5.5 0.9,-8.2 0.6,-2.4 1.3,-3.7 2.2,-3.7 0.4,0 0.6,0.2 0.6,0.7 -0.9,3 -1.6,6 -2,9.1 H 90 c 1.3,-3.2 3.1,-6.2 5.4,-8.8 0.8,-1 1.9,-1.7 3.1,-1.8 0.2,0 0.4,0.1 0.5,0.2 0.1,0.1 0.2,0.3 0.2,0.5 -0.2,0.2 -0.4,0.4 -0.5,0.6 -0.4,0.6 -0.6,1.3 -0.8,2 -0.3,1.1 -0.5,2.3 -0.5,3.5 0,0 0,0 -0.2,0.1 z"
   class="st63"
   inkscape:connector-curvature="0"
   id="path1222"
   style="fill:#010101" />

	<path
   d="m 101.7,165.3 c -1.7,0 -2.5,-1.3 -2.5,-3.9 0,-1.8 0.4,-3.5 1.2,-5.1 0.7,-2.2 2.2,-4.1 4.2,-5.3 0.6,-0.4 1.4,-0.6 2.1,-0.6 0.5,0 1.1,0.1 1.5,0.4 0.3,0.2 0.6,0.5 0.7,0.8 l 0.2,0.4 c -0.1,0.3 -0.2,0.5 -0.5,0.5 -0.3,0 -0.5,-0.1 -0.6,-0.2 0,-0.1 -0.1,-0.3 -0.1,-0.4 -0.1,-0.2 -0.3,-0.3 -0.4,-0.4 -0.2,-0.2 -0.5,-0.3 -0.8,-0.3 -1.3,0 -2.5,1.2 -3.6,3.5 -1.1,2.4 -1.8,5 -1.8,7.7 0,1.2 0.3,1.8 0.7,1.8 0.5,0 0.9,-0.4 1.6,-1.3 0.8,-1 1.6,-2.1 2.2,-3.2 1.3,-2.2 2.4,-4.2 3.2,-5.8 0.7,-1.5 1.4,-2.2 2.1,-2.2 0.4,0 0.6,0.2 0.6,0.7 -0.2,0.4 -0.4,0.9 -0.7,1.6 -0.5,1.4 -0.8,2.8 -1.1,4.2 -0.5,2.1 -0.7,4.2 -0.7,6.3 0,2.1 0.3,3.1 0.9,3.1 0.3,0 0.5,-0.1 0.7,-0.3 0.2,-0.3 0.4,-0.6 0.5,-0.9 0,-0.2 0.2,-0.3 0.4,-0.3 0.1,0 0.1,0 0.2,0.1 0,0.1 0,0.2 0,0.3 -0.1,0.2 -0.1,0.4 -0.2,0.6 -0.2,0.4 -0.4,0.7 -0.7,1 -0.2,0.4 -0.6,0.6 -1,0.6 -0.8,0 -1.5,-0.6 -2,-1.7 -0.5,-1.3 -0.7,-2.6 -0.7,-3.9 0,-1.5 0.1,-2.9 0.3,-4.4 h -0.3 c -2.4,4.4 -4.3,6.6 -5.6,6.6 z"
   class="st63"
   inkscape:connector-curvature="0"
   id="path1224"
   style="fill:#010101" />

	<path
   d="m 130.1,151.6 c 0.5,0.4 1,0.6 1.7,0.7 0.4,0 0.8,0 1.2,-0.2 0,0.3 -0.1,0.6 -0.4,0.8 -0.3,0.2 -0.7,0.4 -1,0.3 -0.5,0 -1,-0.1 -1.4,-0.3 -0.1,2 -0.4,3.9 -0.9,5.8 -0.5,1.8 -1.3,3.5 -2.3,5 -0.9,1.3 -1.9,2 -2.8,2 -0.8,0 -1.6,-0.4 -2.1,-1 -0.6,-1 -0.8,-2.2 -0.8,-3.4 0,-0.9 0.1,-1.8 0.2,-2.7 -2.5,4.5 -4.4,6.7 -5.8,6.7 -1.4,0 -2,-1.1 -2,-3.4 0.1,-2.6 0.6,-5.2 1.7,-7.5 1,-2.1 1.9,-3.2 2.7,-3.3 0.4,0 0.6,0.2 0.6,0.6 -0.2,0.6 -0.5,1.3 -0.9,2.3 -0.4,0.9 -0.8,2.4 -1.5,4.4 -0.5,1.4 -0.8,3 -0.9,4.5 0,1 0.2,1.4 0.6,1.4 0.4,0 1.3,-0.8 2.5,-2.5 1.1,-1.6 2.1,-3.4 3,-5.1 l 1.3,-2.5 c 0.6,-1.1 1,-1.7 1.5,-1.7 0.5,0 0.7,0.2 0.7,0.6 -1.1,3.2 -1.7,6.5 -1.9,9.9 0,1.1 0.3,1.7 1,1.7 0.7,0 1.5,-0.6 2.3,-1.8 0.9,-1.4 1.6,-3 2,-4.7 0.5,-1.9 0.8,-3.8 0.8,-5.7 v -0.2 c -0.6,-0.4 -1,-0.9 -1.4,-1.5 -0.3,-0.4 -0.5,-0.8 -0.5,-1.3 0,-0.3 0.1,-0.6 0.4,-0.8 0.2,-0.2 0.5,-0.4 0.8,-0.4 0.4,0 0.7,0.3 1,1 0.3,0.7 0.5,1.5 0.6,2.3 z"
   class="st63"
   inkscape:connector-curvature="0"
   id="path1226"
   style="fill:#010101" />

	<path
   d="m 146.1,149.8 c 0,1.5 0.4,2.3 1.3,2.4 0,0.3 -0.3,0.4 -0.7,0.4 -0.8,0 -1.4,-0.5 -1.8,-1.5 -0.2,-0.5 -0.3,-1.1 -0.2,-1.7 0.1,-0.9 0.3,-1.7 0.8,-2.5 1.2,-2.2 3.3,-3.6 6.5,-4.2 1.1,-0.2 2.3,-0.3 3.4,-0.3 1.1,0 2.1,-0.1 3.1,-0.4 0.6,-0.1 1.3,-0.4 1.8,-0.8 0.8,-0.8 1.5,-1.2 1.9,-1.2 0.4,0 0.6,0.1 0.6,0.4 v 0.2 c -0.1,0.6 -0.7,1 -1.8,1.6 -0.7,0.3 -1.4,0.5 -2.2,0.7 -0.9,0.5 -1.5,1.4 -1.7,2.3 -0.6,1.8 -1,3.6 -1.4,5.4 1,-0.1 1.9,-0.1 2.6,-0.1 0.2,0 0.3,0.1 0.2,0.3 0,0.2 -0.3,0.4 -0.6,0.4 -0.8,0.1 -1.6,0.2 -2.4,0.3 -0.6,3.4 -1.4,6.7 -2.5,9.9 -1.8,4.9 -4.3,7.3 -7.6,7.3 -2.1,0.2 -4,-1.2 -4.4,-3.2 -0.2,-0.7 -0.3,-1.5 -0.3,-2.2 0,-1.5 0.4,-2.9 1.1,-4.2 1.1,-2.2 2.6,-3.2 4.5,-3.2 0.2,0 0.5,0.1 0.6,0.2 0.2,0.1 0.3,0.3 0.4,0.5 -1.8,0 -3.5,1.1 -4.3,2.7 -0.8,1.3 -1.3,2.8 -1.3,4.3 0,2.2 0.8,3.5 2.3,4 0.5,0.1 0.9,0.2 1.4,0.1 0.6,0 1.3,-0.2 1.9,-0.5 0.8,-0.4 1.4,-1 1.8,-1.8 0.5,-0.9 1,-1.6 1.3,-2.2 0.5,-1 0.9,-2.1 1.2,-3.2 0.5,-1.9 1,-3.6 1.3,-5.2 0.3,-1.6 0.6,-2.6 0.7,-2.9 -0.8,0.2 -1.7,0.2 -2.6,0.3 -0.5,0.1 -0.9,-0.3 -1,-0.7 v 0 c 0,-0.4 0.1,-0.6 0.3,-0.7 0.1,0.1 0.4,0.2 0.9,0.2 0.5,0 1.4,0 2.5,-0.1 0.5,-2 1,-3.6 1.5,-4.8 0.4,-1 0.9,-2 1.6,-2.8 -0.3,0 -0.8,0 -1.5,0 -3.9,0 -6.6,1.1 -8.1,3.4 -0.7,0.7 -1.1,1.8 -1.1,3.1 z m 13.3,6.2 c 0,0.1 -0.1,0.1 -0.3,0.1 -0.2,0 -0.4,0 -0.5,-0.1 -0.1,-0.1 -0.2,-0.2 -0.2,-0.3 -0.1,-1.7 0.2,-3.4 0.7,-5 0.5,-1.3 1,-1.9 1.9,-1.9 0.2,0 0.4,0.1 0.5,0.2 0.1,0.2 0.2,0.4 0.2,0.6 -1,1.1 -1.7,2.5 -2,4.1 -0.2,0.7 -0.3,1.5 -0.3,2.3 z"
   class="st63"
   inkscape:connector-curvature="0"
   id="path1228"
   style="fill:#010101" />

	<path
   d="m 171,156.6 c -0.8,0 -1.2,-0.8 -1.2,-2.5 0,-0.9 0.2,-1.8 0.5,-2.7 -1.9,1.9 -3.5,4.2 -4.6,6.7 -1.7,3.2 -2.5,5.3 -2.5,6.3 0,0.2 -0.2,0.4 -0.5,0.4 -0.6,0 -0.9,-0.8 -0.9,-2.4 0,-2.8 0.3,-5.5 0.9,-8.2 0.6,-2.4 1.3,-3.7 2.2,-3.7 0.4,0 0.6,0.2 0.6,0.7 -0.9,3 -1.6,6 -2,9.1 h 0.2 c 1.3,-3.2 3.1,-6.2 5.4,-8.8 0.7,-1 1.9,-1.7 3.1,-1.8 0.2,0 0.4,0.1 0.5,0.2 0.1,0.1 0.2,0.3 0.2,0.5 -0.2,0.2 -0.4,0.4 -0.5,0.6 -0.4,0.6 -0.6,1.3 -0.8,2 -0.4,1.1 -0.5,2.3 -0.6,3.6 0.2,-0.1 0.1,-0.1 0,0 z"
   class="st63"
   inkscape:connector-curvature="0"
   id="path1230"
   style="fill:#010101" />

	<path
   d="m 180.9,150.6 c 1.5,0 2.3,0.9 2.3,2.7 0,1.2 -0.4,2.3 -1,3.2 -0.9,1.7 -2.7,2.8 -4.7,2.8 -0.3,0 -0.5,0 -0.8,-0.1 -0.2,-0.1 -0.4,-0.3 -0.4,-0.5 1.4,0 2.7,-0.8 3.9,-2.5 0.9,-1 1.4,-2.3 1.5,-3.7 0,-0.8 -0.3,-1.2 -1,-1.2 -1.3,0 -2.6,1 -3.7,3.1 -1.2,2.1 -1.8,4.5 -1.9,7 0,2 0.6,3.2 1.7,3.6 0.3,0.1 0.6,0.1 0.8,0.1 0.4,0 0.7,-0.1 1,-0.2 0.4,-0.2 0.7,-0.4 1,-0.6 0.5,-0.5 1,-1 1.3,-1.6 0.1,-0.2 0.3,-0.3 0.4,-0.2 0.4,0 0.5,0 0.5,0.2 -0.2,0.4 -0.4,0.8 -0.7,1.1 -0.3,0.5 -0.7,0.9 -1.1,1.3 -0.4,0.3 -0.8,0.6 -1.3,0.8 -0.5,0.3 -1,0.4 -1.6,0.4 -1.9,0.2 -3.7,-1.1 -4.1,-3 -0.2,-0.7 -0.3,-1.4 -0.3,-2.1 0,-1.5 0.4,-3 0.9,-4.4 0.8,-2.1 2.2,-4 4.1,-5.2 0.9,-0.5 1.9,-0.8 2.9,-0.9 z"
   class="st63"
   inkscape:connector-curvature="0"
   id="path1232"
   style="fill:#010101" />

	<path
   d="m 192.7,150.6 c 1.5,0 2.3,0.9 2.3,2.7 0,1.2 -0.4,2.3 -1,3.2 -0.9,1.7 -2.7,2.8 -4.7,2.8 -0.3,0 -0.5,0 -0.8,-0.1 -0.2,-0.1 -0.4,-0.3 -0.5,-0.5 1.4,0 2.7,-0.8 3.9,-2.5 0.9,-1 1.4,-2.3 1.5,-3.7 0,-0.8 -0.3,-1.2 -1,-1.2 -1.3,0 -2.6,1 -3.7,3.1 -1.2,2.1 -1.8,4.5 -1.9,7 0,2 0.6,3.2 1.7,3.6 0.6,0.2 1.3,0.1 1.9,-0.1 0.4,-0.2 0.7,-0.4 1,-0.6 0.5,-0.5 1,-1 1.3,-1.6 0.1,-0.2 0.3,-0.3 0.4,-0.2 0.4,0 0.5,0 0.5,0.2 -0.2,0.4 -0.4,0.8 -0.7,1.1 -0.3,0.5 -0.7,0.9 -1,1.3 -0.4,0.3 -0.8,0.6 -1.3,0.8 -0.5,0.3 -1,0.4 -1.6,0.4 -1.9,0.2 -3.7,-1.1 -4.1,-3 -0.2,-0.7 -0.3,-1.4 -0.3,-2.1 0,-1.5 0.4,-3 0.9,-4.4 0.8,-2.1 2.2,-4 4.1,-5.2 1,-0.6 2,-0.9 3.1,-1 z"
   class="st63"
   inkscape:connector-curvature="0"
   id="path1234"
   style="fill:#010101" />

	<path
   d="m 201,169.7 c -1.2,0 -2.2,-0.7 -2.6,-1.9 -0.6,-1.8 -0.9,-3.7 -0.8,-5.5 0,-2.9 0.4,-5.9 1,-8.8 0.6,-2.9 1.4,-5.7 2.6,-8.4 1,-2.2 1.8,-3.3 2.6,-3.3 0.3,0 0.5,0.2 0.5,0.6 -0.4,1 -1,2.4 -1.6,4.4 -0.6,2 -1.2,3.7 -1.6,5.4 -0.4,1.7 -0.8,3.6 -1.2,5.8 -0.3,1.9 -0.5,3.8 -0.5,5.7 0,1.2 0.1,2.5 0.4,3.6 0.3,0.9 0.8,1.3 1.3,1.3 0.5,0 1,-0.3 1.3,-0.7 0.4,-0.4 0.7,-0.8 0.9,-1.3 0.1,-0.2 0.3,-0.3 0.5,-0.2 v 0 c 0.1,0 0.1,0.1 0.1,0.3 -0.1,0.2 -0.1,0.4 -0.2,0.5 -0.1,0.2 -0.3,0.5 -0.6,0.9 -0.4,1 -1.2,1.5 -2.1,1.6 z"
   class="st63"
   inkscape:connector-curvature="0"
   id="path1236"
   style="fill:#010101" />

	<path
   d="m 205.3,174.8 c 1.8,0 3.4,-1 4.3,-2.6 1,-1.8 1.7,-3.7 2.1,-5.7 -3.3,-0.1 -6.4,1.5 -8.4,4.2 -0.1,0.2 -0.3,0.2 -0.6,0.1 -0.3,-0.1 -0.2,-0.2 -0.1,-0.3 0.9,-1.4 2.2,-2.5 3.6,-3.4 1.7,-1 3.7,-1.5 5.7,-1.5 0.2,-1 0.4,-2.2 0.6,-3.5 0.2,-1.3 0.4,-2.7 0.7,-3.9 H 213 c -2.6,4.7 -4.6,7 -6,7 -1.5,0 -2.3,-1.2 -2.3,-3.5 0,-2.5 0.5,-4.9 1.5,-7.1 1,-2.4 1.9,-3.7 2.7,-3.9 h 0.2 c 0.3,0 0.5,0.2 0.5,0.7 -0.2,0.5 -0.5,1.3 -0.8,2.2 -0.3,0.9 -0.8,2.3 -1.4,4.3 -0.5,1.5 -0.8,3.1 -0.8,4.7 0,1.1 0.2,1.7 0.7,1.7 0.5,0 1.5,-1 2.7,-2.9 1.8,-2.8 3.4,-5.7 4.8,-8.7 0.6,-1.2 1.2,-1.9 1.9,-1.9 0.4,0 0.6,0.2 0.6,0.7 -0.6,1.3 -1.1,2.6 -1.4,4 -0.5,1.9 -1,3.9 -1.3,5.9 -0.3,2 -0.6,3.5 -0.9,4.6 1.5,0.3 2.4,0.9 2.7,2 0,0.2 0.1,0.5 0.1,0.7 0,0.6 -0.5,1.1 -1,1.2 0,-0.2 0,-0.5 0,-0.8 0,-0.3 -0.1,-0.6 -0.2,-0.9 -0.1,-0.3 -0.3,-0.6 -0.6,-0.8 -0.3,-0.3 -0.7,-0.5 -1.2,-0.6 -1.5,5.9 -4.2,8.8 -8.1,8.8 -1.4,0.2 -2.7,-0.5 -3.3,-1.8 0,-0.1 0,-0.1 0,-0.2 0,-0.1 0.1,-0.2 0.3,-0.2 0.2,0 0.4,0.1 0.4,0.2 0.4,0.8 1.2,1.2 2.5,1.2 z"
   class="st63"
   inkscape:connector-curvature="0"
   id="path1238"
   style="fill:#010101" />

	<path
   d="m 220.9,165.5 c -0.4,0 -0.6,-0.4 -0.6,-1.2 0,-0.5 0.1,-1.1 0.4,-1.5 0.2,-0.5 0.6,-0.8 1.1,-0.8 0.4,0 0.6,0.2 0.6,0.7 -0.2,0.9 -0.6,1.7 -1.1,2.3 z"
   class="st63"
   inkscape:connector-curvature="0"
   id="path1240"
   style="fill:#010101" />

</g>

<g
   class="st62"
   id="g4340"
   style="opacity:0.75">
	<path
   d="m 73,111.1 c -0.1,-3.9 -0.1,-6.1 -0.1,-10.1 0,-4 0,-6.3 0.1,-10.3 0.1,-4.1 0.8,-4.1 4.1,-4.4 0.3,-0.3 0.3,-0.7 0,-1 -1.8,0.1 -4.7,0.2 -6.2,0.2 -1.5,0 -4.7,-0.1 -6.2,-0.2 -0.3,0.3 -0.3,0.7 0,1 3.3,0.3 4.1,0.4 4.2,4.4 0.1,4 0.1,6.3 0.1,10.3 0,4 0,6.2 -0.1,10.1 -0.1,4 -0.9,4.2 -4.2,4.4 -0.3,0.3 -0.3,0.7 0,1 1.9,-0.1 4.8,-0.2 6.2,-0.2 1.4,0 4.2,0.1 6.2,0.2 0.3,-0.3 0.3,-0.7 0,-1 -3.3,-0.2 -4,-0.5 -4.1,-4.4 z"
   class="st63"
   inkscape:connector-curvature="0"
   id="path1242"
   style="fill:#010101" />

	<path
   d="m 105.9,91.2 v 16.6 c 0,0.9 -0.2,1.4 -0.6,1.4 -0.3,0 -0.9,-0.9 -2.3,-2.6 L 86.7,85.4 80.6,85.3 c -0.3,0.3 -0.3,0.7 0,1 2,0.1 3.7,1.6 4,3.5 v 20.6 c 0,4.3 -0.8,4.5 -4.2,4.9 -0.3,0.3 -0.3,0.7 0,1 2.3,0 3.1,-0.2 5.2,-0.2 2.1,0 2.7,0.2 5.1,0.2 0.3,-0.3 0.3,-0.7 0,-1 -3.4,-0.3 -4.2,-0.5 -4.2,-4.9 V 95.2 c 0,-1.6 0.2,-2.3 0.6,-2.3 0.4,0 0.8,0.5 1.6,1.6 l 16.7,21.1 c 0.4,0.7 1.1,1.1 1.9,1.2 0.7,0 0.6,-0.6 0.6,-1.5 V 91.1 c 0,-4.3 0.8,-4.5 4.2,-4.9 0.3,-0.3 0.3,-0.7 0,-1 -2.3,0 -3.1,0.2 -5.2,0.2 -2,0 -2.7,-0.2 -5.1,-0.2 -0.3,0.3 -0.3,0.7 0,1 3.4,0.3 4.2,0.5 4.1,5 z"
   class="st63"
   inkscape:connector-curvature="0"
   id="path1244"
   style="fill:#010101" />

	<path
   d="m 123.1,111.1 c -0.1,-3.8 -0.1,-6 -0.1,-9.8 1.7,0 3.3,0.8 4.4,2.1 l 7.5,9.5 c 0.8,1 1.4,2.2 1.7,3.4 0,0.1 0.1,0.3 0.2,0.3 0.8,-0.1 1.5,-0.2 2.3,-0.2 1.9,0 3.1,0.2 5.3,0.2 0.3,-0.3 0.3,-0.7 0,-1 -1.8,-0.3 -3.5,-1.2 -4.7,-2.6 l -10.5,-12.4 c -0.3,-0.3 -0.6,-0.7 -0.6,-1.2 0,-0.3 0.1,-0.7 1.7,-2.4 l 7,-7.2 c 1.7,-1.9 4,-3 6.5,-3.3 0.3,-0.3 0.3,-0.7 0,-1 -2.2,0 -3.1,0.2 -5,0.2 -1.9,0 -3.4,-0.2 -5.6,-0.2 -0.3,0.3 -0.3,0.7 0,1 1.7,0.1 3.8,1 1.8,3.1 l -7.7,8.4 c -1.1,1.2 -2.7,2 -4.4,2.1 0,-3.4 0,-5.6 0.1,-9.3 0.1,-4 0.8,-4.2 4.2,-4.4 0.3,-0.3 0.3,-0.7 0,-1 -2.3,0 -3.8,0.2 -6.3,0.2 -2.4,0 -3.7,-0.2 -6.1,-0.2 -0.3,0.3 -0.3,0.7 0,1 3.3,0.1 4,0.4 4.1,4.4 0.1,4 0.2,6.3 0.2,10.3 0,4 -0.1,6.2 -0.2,10.1 -0.1,4 -0.8,4.2 -4.1,4.4 -0.3,0.3 -0.3,0.7 0,1 2.3,0 3.8,-0.2 6.3,-0.2 2.5,0 3.8,0.2 6.2,0.2 0.3,-0.3 0.3,-0.7 0,-1 -3.3,-0.3 -4,-0.5 -4.2,-4.5 z"
   class="st63"
   inkscape:connector-curvature="0"
   id="path1246"
   style="fill:#010101" />

	<path
   d="m 163.7,86.1 c -2.8,-0.4 -2.6,-1.3 -7.3,-1.3 -4.7,0 -9.1,3.2 -9.1,8.3 0,4.5 3.1,6.6 6.9,8.2 3,1.3 8,2.4 8,7.8 0,3.9 -2.3,6.4 -6.1,6.4 -4.5,0 -7.9,-2.5 -8.9,-7.3 -0.6,-0.2 -0.6,-0.1 -1,0.1 0,2.5 0.4,4.9 1,7.3 3,0 4.3,1 8.6,1 2.1,0 4.1,-0.5 5.9,-1.5 2.7,-1.7 4.4,-4.6 4.5,-7.7 0,-4.5 -3.1,-6.7 -6.6,-8.2 -2.3,-1 -8.9,-2.8 -8.9,-7.5 0,-2.7 2.5,-5.8 5.3,-5.8 4.7,0 6.7,3.5 7.6,6.6 0.5,0 0.6,0 1,-0.3 -0.2,-2.1 -0.5,-4.1 -0.9,-6.1 z"
   class="st63"
   inkscape:connector-curvature="0"
   id="path1248"
   style="fill:#010101" />

	<path
   d="m 184.8,116.8 c 5,-0.1 9.7,-2.5 12.6,-6.5 -0.2,-0.4 -0.6,-0.7 -1,-0.7 -3.4,3.7 -6.7,5.2 -11.1,5.2 -7.4,0 -11.2,-7.5 -11.2,-14.5 0,-7.8 5,-14.2 11,-14.2 6.6,0 9.4,4.4 10.7,8.5 0.4,0.1 0.8,0 1.1,-0.2 -0.2,-2.5 -0.6,-4.8 -1,-7.4 -2.4,-0.2 -4.6,-2.1 -10.5,-2.1 -9.5,0 -15.6,7.4 -15.6,16.4 0.1,8.4 4.8,15.5 15,15.5 z"
   class="st63"
   inkscape:connector-curvature="0"
   id="path1250"
   style="fill:#010101" />

	<path
   d="m 211.6,103 c -1,0 -1.4,-0.4 -1.2,-0.9 l 5,-12.4 h 0.1 l 4.6,13.3 z m -5.4,10 2.9,-7.4 c 0.2,-0.6 0.5,-1 1.7,-1 h 10 l 3.1,8.7 c 0.7,2 -1.2,2 -3.5,2.1 -0.3,0.3 -0.3,0.7 0,1 1.8,0 4.4,-0.2 6.3,-0.2 1.9,0 4,0.2 5.8,0.2 0.3,-0.3 0.3,-0.7 0,-1 -1.9,-0.1 -3.5,-0.3 -4.3,-2.8 l -10,-27.8 c -0.8,0.5 -1.6,0.8 -2.5,1 l -11.1,26.1 c -1.2,2.9 -2.7,3.4 -4.8,3.5 -0.3,0.3 -0.3,0.7 0,1 1.8,0 2.9,-0.2 4.7,-0.2 1.9,0 3.4,0.2 5.2,0.2 0.3,-0.3 0.3,-0.7 0,-1 -2,-0.1 -4.3,-0.4 -3.5,-2.4 z"
   class="st63"
   inkscape:connector-curvature="0"
   id="path1252"
   style="fill:#010101" />

	<path
   d="m 241.6,102.1 c 1.3,0.3 2.7,0.5 4.1,0.4 8.7,0 11.2,-5.5 11.2,-9.5 0,-2.8 -1.8,-8.1 -10.6,-8.1 -1.2,0 -4.6,0.5 -6.5,0.5 -2.4,0 -3.7,-0.2 -6.1,-0.2 -0.3,0.3 -0.3,0.7 0,1 3.3,0.1 4.1,0.4 4.1,4.4 0,4 0.1,6.3 0.1,10.3 0,4 0,6.2 -0.1,10.1 -0.1,4 -0.8,4.2 -4.1,4.4 -0.3,0.3 -0.3,0.7 0,1 2.3,0 3.8,-0.2 6.2,-0.2 2.7,0 4.4,0.2 6.8,0.2 0.3,-0.3 0.3,-0.7 0,-1 -3.3,-0.2 -4.9,-0.4 -4.9,-3.2 -0.2,-3.6 -0.2,-6.7 -0.2,-10.1 z m 0,-13.7 c 0,-1.4 0.8,-2.3 4.3,-2.3 3.4,0 6.7,1.7 6.7,7.8 0,5.2 -2.6,7.5 -7.3,7.5 -1.3,0 -2.5,-0.1 -3.8,-0.2 V 101 c 0,-4.1 0,-8.6 0.1,-12.6 z"
   class="st63"
   inkscape:connector-curvature="0"
   id="path1254"
   style="fill:#010101" />

	<path
   d="m 273.9,99.2 h -5.6 c 0,0 0,-6.5 0.1,-10.5 0,-1.2 0.6,-2.1 1.8,-2.1 h 7.5 c 3.6,0 4.3,2.5 5.4,5.8 0.4,0.1 0.8,0 1.1,-0.2 -0.2,-2 -1,-6.7 -1,-7.1 0,-0.1 0,-0.1 -0.2,-0.1 -0.8,0.2 -1.6,0.3 -2.4,0.3 h -14 c -1.4,0 -3.8,-0.2 -6.3,-0.2 -0.3,0.3 -0.3,0.7 0,1 3.4,0.1 4,0.4 4.1,4.4 0.1,4 0.1,6.3 0.1,10.3 0,4 0,6.3 -0.1,10.1 -0.1,3.9 -0.8,4.2 -4.1,4.4 -0.3,0.3 -0.3,0.7 0,1 2.3,0 4.9,-0.2 6.3,-0.2 h 10.6 c 2.3,0 6.1,0.2 6.1,0.2 0.7,-2.7 1.3,-5.4 1.7,-8.1 -0.5,-0.3 -0.5,-0.4 -1.2,-0.2 -1,3.5 -2.7,6.9 -6.3,6.9 H 270 c -1,0 -1.7,-0.8 -1.8,-2.1 -0.1,-4 -0.1,-12.4 -0.1,-12.4 h 5.6 c 4.1,0 4.3,1 4.4,3.2 0.3,0.3 0.8,0.3 1,0 -0.1,-1.7 -0.2,-2.2 -0.2,-3.7 0,-1.5 0.1,-2.7 0.2,-4.1 -0.3,-0.3 -0.8,-0.3 -1,0 -0.1,2.6 -0.3,3.2 -4.4,3.2 z"
   class="st63"
   inkscape:connector-curvature="0"
   id="path1256"
   style="fill:#010101" />

</g>

<text
   style="font-size:31.3640995px;font-family:LinLibertineOZ;opacity:0.75"
   id="text1303"
   class="st64 st65"
   x="296.98029"
   y="116.3514"><tspan
     id="tspan1486"
     style="font-style:normal;font-variant:normal;font-weight:600;font-stretch:normal;font-family:'Linux Libertine O';">1.0</tspan></text>





<text
   style="font-style:normal;font-variant:normal;font-weight:normal;font-stretch:normal;font-size:16px;font-family:'Linux Biolinum OI';fill:#35bc8e"
   id="text1305"
   class="st66 st67 st68"
   x="64.534698"
   y="563.46753">www.inkscape.org</text>





<g
   style="opacity:0.15068491"
   class="st69"
   id="g4347">
	<text
   style="font-size:16px;font-family:'Linux Biolinum O'"
   id="text1307"
   class="st69 st70 st68"
   transform="translate(64.5347,582.5552)">by EhcuodTep</text>





</g>

<path
   d="m 508.3,744.5 c 0,0 123,-401 499.1,-307.6"
   class="st17"
   inkscape:connector-curvature="0"
   id="path4349"
   style="opacity:0.5;fill:none;stroke:#ffffff;stroke-width:2;stroke-miterlimit:10;enable-background:new" />

<linearGradient
   gradientTransform="matrix(1.0455,0,0,1.0455,-30.4984,-16.649)"
   y2="576.04199"
   x2="674.4126"
   y1="576.04199"
   x1="587.74988"
   gradientUnits="userSpaceOnUse"
   id="path1002_1_">
	<stop
   id="stop1311"
   style="stop-color:#FBDED8"
   offset="0" />

	<stop
   id="stop1313"
   style="stop-color:#F9CAD3"
   offset="1" />

</linearGradient>

<linearGradient
   gradientTransform="matrix(1.0455,0,0,1.0455,-30.4984,-16.649)"
   y2="576.81348"
   x2="675.98077"
   y1="576.81348"
   x1="586.18158"
   gradientUnits="userSpaceOnUse"
   id="path1002_2_">
	<stop
   id="stop1316"
   style="stop-color:#FBDED8"
   offset="0" />

	<stop
   id="stop1318"
   style="stop-color:#F9CAD3"
   offset="1" />

</linearGradient>

<path
   d="m 584,562.6 c -0.4,25 19.6,45.6 44.6,46 25,0.4 45.6,-19.6 46,-44.6 0,-0.5 0,-0.9 0,-1.4"
   class="st71"
   inkscape:connector-curvature="0"
   id="path1002"
   style="fill:url(#path1002_1_);stroke:url(#path1002_2_);stroke-width:3.13639998;stroke-miterlimit:10.45470047" />

<linearGradient
   gradientTransform="matrix(1.0455,0,0,1.0455,-30.4984,-16.649)"
   y2="491.77328"
   x2="664.25"
   y1="491.77328"
   x1="631.60999"
   gradientUnits="userSpaceOnUse"
   id="circle1004_1_">
	<stop
   id="stop1322"
   style="stop-color:#FBDED8"
   offset="0" />

	<stop
   id="stop1324"
   style="stop-color:#F9CAD3"
   offset="1" />

</linearGradient>

<linearGradient
   gradientTransform="matrix(1.0455,0,0,1.0455,-30.4984,-16.649)"
   y2="491.77328"
   x2="665.75"
   y1="491.77328"
   x1="630.10999"
   gradientUnits="userSpaceOnUse"
   id="circle1004_2_">
	<stop
   id="stop1327"
   style="stop-color:#FBDED8"
   offset="0" />

	<stop
   id="stop1329"
   style="stop-color:#F9CAD3"
   offset="1" />

</linearGradient>

<circle
   r="17.1"
   cy="497.5"
   cx="646.90002"
   class="st72"
   id="circle1004"
   style="fill:url(#circle1004_1_);stroke:url(#circle1004_2_);stroke-width:3.13639998;stroke-miterlimit:10.45470047" />

<linearGradient
   gradientTransform="matrix(1.0455,0,0,1.0455,-30.4984,-16.649)"
   y2="536.15399"
   x2="616.91998"
   y1="536.15399"
   x1="584.28003"
   gradientUnits="userSpaceOnUse"
   id="circle1006_1_">
	<stop
   id="stop1333"
   style="stop-color:#FBDED8"
   offset="0" />

	<stop
   id="stop1335"
   style="stop-color:#F9CAD3"
   offset="1" />

</linearGradient>

<linearGradient
   gradientTransform="matrix(1.0455,0,0,1.0455,-30.4984,-16.649)"
   y2="536.15399"
   x2="618.41998"
   y1="536.15399"
   x1="582.78003"
   gradientUnits="userSpaceOnUse"
   id="circle1006_2_">
	<stop
   id="stop1338"
   style="stop-color:#FBDED8"
   offset="0" />

	<stop
   id="stop1340"
   style="stop-color:#F9CAD3"
   offset="1" />

</linearGradient>

<circle
   r="17.1"
   cy="543.90002"
   cx="597.40002"
   class="st73"
   id="circle1006"
   style="fill:url(#circle1006_1_);stroke:url(#circle1006_2_);stroke-width:3.13639998;stroke-miterlimit:10.45470047" />

<linearGradient
   gradientTransform="matrix(1.0455,0,0,1.0455,-30.4984,-16.649)"
   y2="513.86798"
   x2="640.63"
   y1="513.86798"
   x1="607.98999"
   gradientUnits="userSpaceOnUse"
   id="circle1008_1_">
	<stop
   id="stop1344"
   style="stop-color:#FBDED8"
   offset="0" />

	<stop
   id="stop1346"
   style="stop-color:#F9CAD3"
   offset="1" />

</linearGradient>

<linearGradient
   gradientTransform="matrix(1.0455,0,0,1.0455,-30.4984,-16.649)"
   y2="513.86798"
   x2="642.13"
   y1="513.86798"
   x1="606.48999"
   gradientUnits="userSpaceOnUse"
   id="circle1008_2_">
	<stop
   id="stop1349"
   style="stop-color:#FBDED8"
   offset="0" />

	<stop
   id="stop1351"
   style="stop-color:#F9CAD3"
   offset="1" />

</linearGradient>

<circle
   r="17.1"
   cy="520.59998"
   cx="622.20001"
   class="st74"
   id="circle1008"
   style="fill:url(#circle1008_1_);stroke:url(#circle1008_2_);stroke-width:3.13639998;stroke-miterlimit:10.45470047" />

<linearGradient
   gradientTransform="matrix(1.0455,0,0,1.0455,-30.4984,-16.649)"
   y2="569.23602"
   x2="606.5025"
   y1="569.23602"
   x1="559.34802"
   gradientUnits="userSpaceOnUse"
   id="path1010_1_">
	<stop
   id="stop1355"
   style="stop-color:#FBDED8"
   offset="0" />

	<stop
   id="stop1357"
   style="stop-color:#F9CAD3"
   offset="1" />

</linearGradient>

<linearGradient
   gradientTransform="matrix(1.0455,0,0,1.0455,-30.4984,-16.649)"
   y2="569.09448"
   x2="607.33282"
   y1="569.09448"
   x1="557.65302"
   gradientUnits="userSpaceOnUse"
   id="path1010_2_">
	<stop
   id="stop1360"
   style="stop-color:#FBDED8"
   offset="0" />

	<stop
   id="stop1362"
   style="stop-color:#F9CAD3"
   offset="1" />

</linearGradient>

<path
   d="m 603.6,599.9 c 0,0 -40.2,-28.1 -49.3,-32.1 0,0 2.2,-18.4 27.2,-7 l 11.4,4.5"
   class="st75"
   inkscape:connector-curvature="0"
   id="path1010"
   style="fill:url(#path1010_1_);stroke:url(#path1010_2_);stroke-width:3.13639998;stroke-miterlimit:10.45470047" />

<linearGradient
   gradientTransform="matrix(1.0455,0,0,1.0455,-30.4984,-16.649)"
   y2="471.87851"
   x2="624.73578"
   y1="471.87851"
   x1="600.25"
   gradientUnits="userSpaceOnUse"
   id="circle1012_1_">
	<stop
   id="stop1366"
   style="stop-color:#FBDED8"
   offset="0" />

	<stop
   id="stop1368"
   style="stop-color:#F9CAD3"
   offset="1" />

</linearGradient>

<linearGradient
   gradientTransform="matrix(1.0455,0,0,1.0455,-30.4984,-16.649)"
   y2="471.87851"
   x2="626.22998"
   y1="471.87851"
   x1="598.76001"
   gradientUnits="userSpaceOnUse"
   id="circle1012_2_">
	<stop
   id="stop1371"
   style="stop-color:#FBDED8"
   offset="0" />

	<stop
   id="stop1373"
   style="stop-color:#F9CAD3"
   offset="1" />

</linearGradient>

<circle
   r="12.8"
   cy="476.70001"
   cx="609.79999"
   class="st76"
   id="circle1012"
   style="fill:url(#circle1012_1_);stroke:url(#circle1012_2_);stroke-width:3.13639998;stroke-miterlimit:10.45470047" />

<linearGradient
   gradientTransform="matrix(1.0455,0,0,1.0455,-30.4984,-16.649)"
   y2="519.31989"
   x2="585.07739"
   y1="519.31989"
   x1="560.59149"
   gradientUnits="userSpaceOnUse"
   id="circle1014_1_">
	<stop
   id="stop1377"
   style="stop-color:#FBDED8"
   offset="0" />

	<stop
   id="stop1379"
   style="stop-color:#F9CAD3"
   offset="1" />

</linearGradient>

<linearGradient
   gradientTransform="matrix(1.0455,0,0,1.0455,-30.4984,-16.649)"
   y2="519.31989"
   x2="586.56"
   y1="519.31989"
   x1="559.08002"
   gradientUnits="userSpaceOnUse"
   id="circle1014_2_">
	<stop
   id="stop1382"
   style="stop-color:#FBDED8"
   offset="0" />

	<stop
   id="stop1384"
   style="stop-color:#F9CAD3"
   offset="1" />

</linearGradient>

<circle
   r="12.8"
   cy="526.29999"
   cx="568.40002"
   class="st77"
   id="circle1014"
   style="fill:url(#circle1014_1_);stroke:url(#circle1014_2_);stroke-width:3.13639998;stroke-miterlimit:10.45470047" />

<linearGradient
   gradientTransform="matrix(1.0455,0,0,1.0455,-30.4984,-16.649)"
   y2="493.68631"
   x2="602.10272"
   y1="493.68631"
   x1="577.61682"
   gradientUnits="userSpaceOnUse"
   id="circle1016_1_">
	<stop
   id="stop1388"
   style="stop-color:#FBDED8"
   offset="0" />

	<stop
   id="stop1390"
   style="stop-color:#F9CAD3"
   offset="1" />

</linearGradient>

<linearGradient
   gradientTransform="matrix(1.0455,0,0,1.0455,-30.4984,-16.649)"
   y2="493.68631"
   x2="603.59003"
   y1="493.68631"
   x1="576.12"
   gradientUnits="userSpaceOnUse"
   id="circle1016_2_">
	<stop
   id="stop1393"
   style="stop-color:#FBDED8"
   offset="0" />

	<stop
   id="stop1395"
   style="stop-color:#F9CAD3"
   offset="1" />

</linearGradient>

<circle
   r="12.8"
   cy="499.5"
   cx="586.20001"
   class="st78"
   id="circle1016"
   style="fill:url(#circle1016_1_);stroke:url(#circle1016_2_);stroke-width:3.13639998;stroke-miterlimit:10.45470047" />

<linearGradient
   gradientTransform="matrix(1.0455,0,0,1.0455,-30.4984,-16.649)"
   y2="528.50208"
   x2="612.48102"
   y1="528.50208"
   x1="567.19122"
   gradientUnits="userSpaceOnUse"
   id="polyline1018_1_">
	<stop
   id="stop1399"
   style="stop-color:#FBDED8"
   offset="0" />

	<stop
   id="stop1401"
   style="stop-color:#F9CAD3"
   offset="1" />

</linearGradient>

<linearGradient
   gradientTransform="matrix(1.0455,0,0,1.0455,-30.4984,-16.649)"
   y2="528.10602"
   x2="613.12"
   y1="528.10602"
   x1="565.27002"
   gradientUnits="userSpaceOnUse"
   id="polyline1018_2_">
	<stop
   id="stop1404"
   style="stop-color:#FBDED8"
   offset="0" />

	<stop
   id="stop1406"
   style="stop-color:#F9CAD3"
   offset="1" />

</linearGradient>

<polyline
   points="609.9,532.2 574.9,516.2 562.5,537.7 585,555.6 "
   class="st79"
   id="polyline1018"
   style="fill:url(#polyline1018_1_);stroke:url(#polyline1018_2_);stroke-width:3.13639998;stroke-miterlimit:10.45470047" />

<linearGradient
   gradientTransform="matrix(1.0455,0,0,1.0455,-30.4984,-16.649)"
   y2="481.6824"
   x2="656.79211"
   y1="481.6824"
   x1="604.97223"
   gradientUnits="userSpaceOnUse"
   id="polyline1020_1_">
	<stop
   id="stop1410"
   style="stop-color:#FBDED8"
   offset="0" />

	<stop
   id="stop1412"
   style="stop-color:#F9CAD3"
   offset="1" />

</linearGradient>

<linearGradient
   gradientTransform="matrix(1.0455,0,0,1.0455,-30.4984,-16.649)"
   y2="481.33121"
   x2="657.43671"
   y1="481.33121"
   x1="602.91998"
   gradientUnits="userSpaceOnUse"
   id="polyline1020_2_">
	<stop
   id="stop1415"
   style="stop-color:#FBDED8"
   offset="0" />

	<stop
   id="stop1417"
   style="stop-color:#F9CAD3"
   offset="1" />

</linearGradient>

<polyline
   points="634.5,509.1 602,486.8 615.7,464.8 656.1,483.1 "
   class="st80"
   id="polyline1020"
   style="fill:url(#polyline1020_1_);stroke:url(#polyline1020_2_);stroke-width:3.13639998;stroke-miterlimit:10.45470047" />

<linearGradient
   gradientTransform="matrix(1.0455,0,0,1.0455,-30.4984,-16.649)"
   y2="504.5423"
   x2="635.99103"
   y1="504.5423"
   x1="581.92102"
   gradientUnits="userSpaceOnUse"
   id="polyline1022_1_">
	<stop
   id="stop1421"
   style="stop-color:#FBDED8"
   offset="0" />

	<stop
   id="stop1423"
   style="stop-color:#F9CAD3"
   offset="1" />

</linearGradient>

<linearGradient
   gradientTransform="matrix(1.0455,0,0,1.0455,-30.4984,-16.649)"
   y2="504.20432"
   x2="636.69"
   y1="504.20432"
   x1="579.78998"
   gradientUnits="userSpaceOnUse"
   id="polyline1022_2_">
	<stop
   id="stop1426"
   style="stop-color:#FBDED8"
   offset="0" />

	<stop
   id="stop1428"
   style="stop-color:#F9CAD3"
   offset="1" />

</linearGradient>

<polyline
   points="634.5,509.1 594.1,489.5 577.9,509.3 609.9,532.2 "
   class="st81"
   id="polyline1022"
   style="fill:url(#polyline1022_1_);stroke:url(#polyline1022_2_);stroke-width:3.13639998;stroke-miterlimit:10.45470047" />

<linearGradient
   gradientTransform="matrix(1.0455,0,0,1.0455,-30.4984,-16.649)"
   y2="742.37109"
   x2="805.06769"
   y1="742.37109"
   x1="513.24573"
   gradientUnits="userSpaceOnUse"
   id="path1024_1_">
	<stop
   id="stop1432"
   style="stop-color:#FBDED8"
   offset="0" />

	<stop
   id="stop1434"
   style="stop-color:#F9CAD3"
   offset="1" />

</linearGradient>

<linearGradient
   gradientTransform="matrix(1.0455,0,0,1.0455,-30.4984,-16.649)"
   y2="742.42242"
   x2="806.63593"
   y1="742.42242"
   x1="511.67749"
   gradientUnits="userSpaceOnUse"
   id="path1024_2_">
	<stop
   id="stop1437"
   style="stop-color:#FBDED8"
   offset="0" />

	<stop
   id="stop1439"
   style="stop-color:#F9CAD3"
   offset="1" />

</linearGradient>

<path
   d="m 588.5,510.3 c 0,0 -22.8,16.6 4.8,45.3 10,10.4 -18,8.4 -18,8.4 77.5,28.9 128.9,102.9 128.9,185.6 0,109.4 -88.7,198.1 -198.1,198.1 v 107 c 168.5,0 305.1,-136.6 305.1,-305.1 0,-130.3 -81.7,-241.5 -196.7,-285.3"
   class="st82"
   inkscape:connector-curvature="0"
   id="path1024"
   style="fill:url(#path1024_1_);stroke:url(#path1024_2_);stroke-width:3.13639998;stroke-miterlimit:10.45470047" />

<path
   d="m 492.9,795.2 c 0,0 88.9,-409.3 493,-385 404.1,24.3 106.7,498.9 106.7,498.9 z"
   class="st54"
   inkscape:connector-curvature="0"
   id="path1066"
   style="opacity:0.03;fill:#1d1d1b;enable-background:new" />

<path
   d="m 569.1,618.9 c 0,0 -6.4,-20.6 -46.1,-23.9"
   class="st17"
   inkscape:connector-curvature="0"
   id="path966_1_"
   style="opacity:0.5;fill:none;stroke:#ffffff;stroke-width:2;stroke-miterlimit:10;enable-background:new" />

<path
   d="m 859.1,597.8 c 0,0 -17.9,-116.5 -128.7,-135"
   class="st17"
   inkscape:connector-curvature="0"
   id="path966_2_"
   style="opacity:0.5;fill:none;stroke:#ffffff;stroke-width:2;stroke-miterlimit:10;enable-background:new" />

<g
   id="g4499">
	<path
   d="m 532,99.1 66.8,67.8 c 6.3,6.5 6.3,19 2.7,22.6 l -33.2,-26.5 -6.5,39.3 -27.7,-14.6 -44.4,28 -14.6,-59.1 -23.8,41.2 h -36.5 c -14.8,0 -16.6,-18.8 -3.1,-32.3 23.6,-25.4 50.6,-51.4 65.3,-66.4 14.7,-15 40.5,-14.7 55,0 z"
   class="st1"
   inkscape:connector-curvature="0"
   id="path1218"
   style="fill:#ffffff" />

	<path
   d="m 424.4,351.7 c 4.5,2.8 72.7,16.7 89.4,19.4 5.8,1.2 1.7,7.2 -6.3,11.2 -18,4.8 -105.1,-30.6 -83.1,-30.6 z"
   class="st1"
   inkscape:connector-curvature="0"
   id="path1216"
   style="fill:#ffffff" />

</g>

<linearGradient
   gradientTransform="matrix(0.9801,-0.1985,-0.1985,-0.9801,108.9301,762.1011)"
   y2="273.418"
   x2="1019.7921"
   y1="273.418"
   x1="680.4007"
   gradientUnits="userSpaceOnUse"
   id="path4506_1_">
	<stop
   id="stop1449"
   style="stop-color:#03A678"
   offset="0" />

	<stop
   id="stop1451"
   style="stop-color:#02735E"
   offset="1" />

</linearGradient>

<path
   d="m 932.8,256 c -35.4,15 -76.9,-12.7 -113.9,-2 -25.9,7.5 -43.4,32.1 -68.4,42.2 -8.9,3.6 -18.8,5.4 -26.5,11 -7.8,5.7 -12.5,17.4 -6.6,25 5.7,7.3 17.3,6.2 25.7,2.2 8.4,-4 16.2,-10.1 25.4,-10.9 16.2,-1.3 29.1,14.3 45.2,17 12.4,2.1 24.6,-3.6 36.5,-7.9 3.4,-1.2 6.9,-2.3 10.5,-1.8 3.1,0.5 5.9,2.2 8.5,4 11,7.9 19.9,18.7 31.6,25.6 21.3,12.3 47.6,9.3 72.2,11.1 32.8,2.4 67.2,14 97.5,0.9"
   class="st83"
   inkscape:connector-curvature="0"
   id="path4506"
   style="fill:url(#path4506_1_)" />

<g
   id="g4525">
	<g
   id="g4523">
		<g
   id="g4521">
			<g
   id="use4516">
				<linearGradient
   y2="344.79999"
   x2="765.59998"
   y1="344.79999"
   x1="734.40002"
   gradientUnits="userSpaceOnUse"
   id="SVGID_17_">
					<stop
   id="stop1455"
   style="stop-color:#594746"
   offset="0" />

					<stop
   id="stop1457"
   style="stop-color:#846370"
   offset="1" />

				</linearGradient>

				<path
   d="m 734.4,319 c 0,0 8.3,8.4 8.3,17.5 0,9.1 -0.2,32.7 -4.1,36.8 h 9.2 c 0,0 -1.6,-29.3 0,-36.8 1.6,-7.5 17.8,-15.9 17.8,-15.9 l -1.9,-1.6 -15.1,10 3.8,-12.7 H 750 l -5.2,9.4 -9.3,-7.3 z"
   class="st84"
   inkscape:connector-curvature="0"
   id="SVGID_22_"
   style="fill:url(#SVGID_17_)" />

			</g>

		</g>

	</g>

</g>

<linearGradient
   gradientTransform="matrix(1,0,0,-1,0,625)"
   y2="252.6722"
   x2="754.86462"
   y1="252.6722"
   x1="733.92798"
   gradientUnits="userSpaceOnUse"
   id="path4532_1_">
	<stop
   id="stop1465"
   style="stop-color:#03A678"
   offset="0" />

	<stop
   id="stop1467"
   style="stop-color:#02735E"
   offset="1" />

</linearGradient>

<path
   d="m 754.6,374.5 c 0.8,-1.7 -0.5,-3.9 -2.3,-4.1 -1.5,-0.2 -2.9,0.9 -4.1,2 0.4,-0.8 0.1,-2 -0.7,-2.5 -0.8,-0.5 -2,-0.2 -2.5,0.6 -0.2,0.3 -0.3,0.6 -0.5,0.9 -0.2,0.3 -0.7,0.4 -0.9,0.1 -0.2,-0.2 -0.1,-0.6 -0.4,-0.9 -0.1,-0.1 -0.3,-0.2 -0.5,-0.2 -0.9,-0.1 -1.9,-0.2 -2.8,0 -0.9,0.3 -1.7,1 -1.7,2 -0.7,-0.9 -2.2,-1.2 -3.1,-0.5 -1,0.6 -1.4,2 -0.9,3.1 z"
   class="st85"
   inkscape:connector-curvature="0"
   id="path4532"
   style="fill:url(#path4532_1_)" />

<path
   style="opacity:0.09315066;fill:none;stroke:#ffffff;stroke-opacity:1"
   d="m 650.4,405.8 c 1.7,1.3 3.4,2.7 5,4 1.2,1 2.6,2.2 2.5,3.8 0,1 -0.7,1.9 -1.2,2.8 -0.7,1.3 -1.2,2.8 -1.2,4.3 0.1,1.5 0.8,3 2.1,3.8"
   class="st86"
   inkscape:connector-curvature="0"
   id="path4534" />

<path
   style="opacity:0.09315066;fill:none;stroke:#ffffff;stroke-opacity:1"
   d="m 653.9,401.9 c 1.7,0.6 3,2 4.3,3.2 1.3,1.2 3,2.2 4.8,2"
   class="st86"
   inkscape:connector-curvature="0"
   id="path4536" />

<radialGradient
   gradientUnits="userSpaceOnUse"
   gradientTransform="matrix(1.8141,0,0,-1.7188,-493.9542,936.5009)"
   r="19.841999"
   cy="442.92581"
   cx="619.45538"
   id="ellipse4545_1_">
	<stop
   id="stop1473"
   style="stop-color:#FFFFFF"
   offset="0" />

	<stop
   id="stop1475"
   style="stop-color:#FFFFFF;stop-opacity:0.8617"
   offset="0.1383" />

	<stop
   id="stop1477"
   style="stop-color:#FFFFFF;stop-opacity:0"
   offset="1" />

</radialGradient>

<ellipse
   ry="34.099998"
   rx="36"
   cy="175.2"
   cx="629.79999"
   class="st87"
   id="ellipse4545"
   style="opacity:0.10410001;fill:url(#ellipse4545_1_);enable-background:new" />

</svg>