<?xml version="1.0" encoding="UTF-8" standalone="no"?>
<svg
   xmlns:dc="http://purl.org/dc/elements/1.1/"
   xmlns:cc="http://creativecommons.org/ns#"
   xmlns:rdf="http://www.w3.org/1999/02/22-rdf-syntax-ns#"
   xmlns:svg="http://www.w3.org/2000/svg"
   xmlns="http://www.w3.org/2000/svg"
   xmlns:xlink="http://www.w3.org/1999/xlink"
   xmlns:sodipodi="http://sodipodi.sourceforge.net/DTD/sodipodi-0.dtd"
   xmlns:inkscape="http://www.inkscape.org/namespaces/inkscape"
   width="750"
   height="625"
   version="1.1"
   id="svg2"
   sodipodi:docname="Inkscape_About_Screen_by_44pes.svg"
   inkscape:version="0.92.4 (5da689c313, 2019-01-14)">
  <metadata
     id="metadata8">
    <rdf:RDF>
      <cc:Work
         rdf:about="">
        <dc:format>image/svg+xml</dc:format>
        <dc:type
           rdf:resource="http://purl.org/dc/dcmitype/StillImage" />
        <dc:title></dc:title>
        <cc:license
           rdf:resource="http://creativecommons.org/licenses/by-sa/4.0/" />
      </cc:Work>
      <cc:License
         rdf:about="http://creativecommons.org/licenses/by-sa/4.0/">
        <cc:permits
           rdf:resource="http://creativecommons.org/ns#Reproduction" />
        <cc:permits
           rdf:resource="http://creativecommons.org/ns#Distribution" />
        <cc:requires
           rdf:resource="http://creativecommons.org/ns#Notice" />
        <cc:requires
           rdf:resource="http://creativecommons.org/ns#Attribution" />
        <cc:permits
           rdf:resource="http://creativecommons.org/ns#DerivativeWorks" />
        <cc:requires
           rdf:resource="http://creativecommons.org/ns#ShareAlike" />
      </cc:License>
    </rdf:RDF>
  </metadata>
  <defs
     id="defs6">
    <linearGradient
       inkscape:collect="always"
       id="linearGradient927">
      <stop
         style="stop-color:#ffffff;stop-opacity:1;"
         offset="0"
         id="stop923" />
      <stop
         style="stop-color:#ffffff;stop-opacity:0;"
         offset="1"
         id="stop925" />
    </linearGradient>
    <linearGradient
       gradientUnits="userSpaceOnUse"
       id="linearGradient975">
      <stop
         id="stop971"
         offset="0"
         style="stop-color:white;stop-opacity:1" />
      <stop
         style="stop-color:#ffffff;stop-opacity:1"
         offset="0.30000001"
         id="stop977" />
      <stop
         id="stop973"
         offset="1"
         style="stop-color:white;stop-opacity:0" />
    </linearGradient>
    <linearGradient
       inkscape:collect="always"
       id="linearGradient920">
      <stop
         style="stop-color:#ffffff;stop-opacity:1;"
         offset="0"
         id="stop916" />
      <stop
         style="stop-color:#c8c8c8;stop-opacity:1"
         offset="1"
         id="stop918" />
    </linearGradient>
    <linearGradient
       id="linearGradient5785"
       gradientUnits="userSpaceOnUse">
      <stop
         style="stop-color:#c0cdf9;stop-opacity:1"
         offset="0"
         id="stop5787" />
      <stop
         style="stop-color:#07092d;stop-opacity:0.28804347"
         offset="1"
         id="stop5789" />
    </linearGradient>
    <linearGradient
       gradientTransform="matrix(1.009184,0,0,1.009184,-0.3890738,-0.3831933)"
       id="shinySpecular-4"
       xlink:href="#WhiteTransparent-4"
       x1="33"
       y1="35"
       x2="58"
       y2="60"
       gradientUnits="userSpaceOnUse" />
    <linearGradient
       id="WhiteTransparent-4"
       gradientUnits="userSpaceOnUse">
      <stop
         style="stop-color:white;stop-opacity:1"
         offset="0"
         id="stop7606-4" />
      <stop
         style="stop-color:white;stop-opacity:0"
         offset="1"
         id="stop7608-7" />
    </linearGradient>
    <linearGradient
       id="IcecapTip-6"
       xlink:href="#WhiteTransparent-4"
       x1="60"
       y1="20"
       x2="90"
       y2="50"
       gradientUnits="userSpaceOnUse" />
    <inkscape:path-effect
       effect="spiro"
       id="path-effect838"
       is_visible="true" />
    <inkscape:path-effect
       is_visible="true"
       id="path-effect834"
       effect="spiro" />
    <inkscape:path-effect
       is_visible="true"
       id="path-effect838-5"
       effect="spiro" />
    <inkscape:path-effect
       effect="spiro"
       id="path-effect834-3"
       is_visible="true" />
    <filter
       inkscape:menu="Textures"
       inkscape:label="Watercolor"
       inkscape:menu-tooltip="Cloudy watercolor effect"
       height="2"
       y="-0.5"
       width="1.6"
       x="-0.3"
       style="color-interpolation-filters:sRGB;"
       id="filter944">
      <feGaussianBlur
         stdDeviation="15"
         result="result8"
         id="feGaussianBlur926" />
      <feTurbulence
         seed="27"
         result="result7"
         type="fractalNoise"
         numOctaves="5"
         baseFrequency="0.025"
         id="feTurbulence928" />
      <feComposite
         in2="result8"
         result="result6"
         operator="over"
         in="result7"
         id="feComposite930" />
      <feColorMatrix
         result="result9"
         values="1 0 0 0 0 0 1 0 0 0 0 0 1 0 0 0 0 0 6 -4 "
         id="feColorMatrix932" />
      <feDisplacementMap
         in="result7"
         in2="result9"
         xChannelSelector="A"
         yChannelSelector="A"
         scale="45"
         result="result4"
         id="feDisplacementMap934" />
      <feComposite
         in2="result4"
         result="result2"
         operator="in"
         in="result8"
         id="feComposite936" />
      <feComposite
         result="fbSourceGraphic"
         in="result2"
         operator="in"
         in2="result9"
         id="feComposite938" />
      <feComposite
         operator="arithmetic"
         k2="1"
         k1="0.5"
         in="fbSourceGraphic"
         in2="fbSourceGraphic"
         result="result91"
         id="feComposite940" />
      <feBlend
         in="fbSourceGraphic"
         mode="multiply"
         in2="result91"
         id="feBlend942" />
    </filter>
    <filter
       inkscape:label="Watercolor"
       inkscape:menu="Textures"
       inkscape:menu-tooltip="Cloudy watercolor effect"
       height="2"
       y="-0.5"
       width="1.6"
       x="-0.3"
       style="color-interpolation-filters:sRGB;"
       id="filter1020">
      <feTurbulence
         type="fractalNoise"
         baseFrequency="0.07"
         numOctaves="4"
         result="result0"
         id="feTurbulence1008" />
      <feDisplacementMap
         in2="result0"
         in="SourceGraphic"
         xChannelSelector="R"
         yChannelSelector="G"
         scale="10"
         result="result2"
         id="feDisplacementMap1010" />
      <feBlend
         result="result5"
         in="result2"
         mode="multiply"
         in2="result2"
         id="feBlend1012" />
      <feGaussianBlur
         stdDeviation="10"
         in="result2"
         result="result4"
         id="feGaussianBlur1014" />
      <feComposite
         operator="arithmetic"
         in2="result4"
         in="result0"
         k3="0.5"
         k1="2"
         result="result6"
         id="feComposite1016" />
      <feComposite
         operator="in"
         in2="result5"
         in="result6"
         result="fbSourceGraphic"
         id="feComposite1018" />
      <feColorMatrix
         result="fbSourceGraphicAlpha"
         in="fbSourceGraphic"
         values="0 0 0 -1 0 0 0 0 -1 0 0 0 0 -1 0 0 0 0 1 0"
         id="feColorMatrix1022" />
      <feGaussianBlur
         id="feGaussianBlur1024"
         stdDeviation="15"
         result="result8"
         in="fbSourceGraphic" />
      <feTurbulence
         id="feTurbulence1026"
         seed="27"
         result="result7"
         type="fractalNoise"
         numOctaves="5"
         baseFrequency="0.025" />
      <feComposite
         in2="result8"
         id="feComposite1028"
         result="result6"
         operator="over"
         in="result7" />
      <feColorMatrix
         id="feColorMatrix1030"
         result="result9"
         values="1 0 0 0 0 0 1 0 0 0 0 0 1 0 0 0 0 0 6 -4 " />
      <feDisplacementMap
         in2="result9"
         id="feDisplacementMap1032"
         in="result7"
         xChannelSelector="A"
         yChannelSelector="A"
         scale="45"
         result="result4" />
      <feComposite
         in2="result4"
         id="feComposite1034"
         result="result2"
         operator="in"
         in="result8" />
      <feComposite
         in2="result9"
         id="feComposite1036"
         result="fbSourceGraphic"
         in="result2"
         operator="in" />
      <feComposite
         in2="fbSourceGraphic"
         id="feComposite1038"
         operator="arithmetic"
         k2="1"
         k1="0.5"
         in="fbSourceGraphic"
         result="result91" />
      <feBlend
         in2="result91"
         id="feBlend1040"
         in="fbSourceGraphic"
         mode="multiply" />
    </filter>
    <linearGradient
       inkscape:collect="always"
       xlink:href="#linearGradient920"
       id="linearGradient922"
       x1="-382.7334"
       y1="-625"
       x2="-375"
       y2="0"
       gradientUnits="userSpaceOnUse" />
    <radialGradient
       inkscape:collect="always"
       xlink:href="#linearGradient975"
       id="radialGradient963"
       cx="198.01227"
       cy="140.34344"
       fx="224.73076"
       fy="140.34344"
       r="120.49665"
       gradientUnits="userSpaceOnUse"
       gradientTransform="matrix(0.90081346,0,0,0.90081346,19.640153,13.920182)" />
    <radialGradient
       inkscape:collect="always"
       xlink:href="#linearGradient927"
       id="radialGradient929"
       cx="207.39595"
       cy="125"
       fx="207.39595"
       fy="125"
       r="99.971879"
       gradientUnits="userSpaceOnUse"
       gradientTransform="translate(-9.3836753,15.343438)" />
  </defs>
  <sodipodi:namedview
     pagecolor="#ffffff"
     bordercolor="#666666"
     borderopacity="1"
     objecttolerance="10"
     gridtolerance="10"
     guidetolerance="10"
     inkscape:pageopacity="0"
     inkscape:pageshadow="2"
     inkscape:window-width="1920"
     inkscape:window-height="1056"
     id="namedview4"
     showgrid="true"
     units="px"
     inkscape:pagecheckerboard="true"
     inkscape:zoom="1.0057887"
     inkscape:cx="535.01867"
     inkscape:cy="342.88183"
     inkscape:window-x="0"
     inkscape:window-y="0"
     inkscape:window-maximized="1"
     inkscape:current-layer="svg2">
    <inkscape:grid
       type="xygrid"
       id="grid815"
       spacingx="125"
       spacingy="125" />
  </sodipodi:namedview>
  <g
     id="g1020"
     inkscape:label="image">
    <rect
       transform="scale(-1)"
       y="-625"
       x="-750"
       height="625"
       width="750"
       id="rect1073"
       style="opacity:1;fill:url(#linearGradient922);fill-opacity:1;stroke:none;stroke-width:3;stroke-linecap:square;stroke-linejoin:round;stroke-miterlimit:4;stroke-dasharray:none;stroke-opacity:1" />
    <circle
       style="opacity:1;fill:url(#radialGradient929);fill-opacity:1;stroke:#282828;stroke-width:0;stroke-linecap:square;stroke-linejoin:round;stroke-miterlimit:4;stroke-dasharray:none;stroke-opacity:1"
       id="path919"
       cx="198.01227"
       cy="140.34344"
       r="99.971878" />
    <path
       style="opacity:1;fill:url(#radialGradient963);fill-opacity:1;stroke:#282828;stroke-width:0;stroke-linecap:square;stroke-linejoin:round;stroke-miterlimit:4;stroke-dasharray:none;stroke-opacity:1"
       id="path912"
       r="120.49665"
       cy="140.34344"
       cx="198.01227"
       d=""
       inkscape:connector-curvature="0" />
    <g
       id="g936">
      <path
         inkscape:connector-curvature="0"
         id="path7108"
         style="font-style:normal;font-variant:normal;font-weight:normal;font-stretch:normal;font-size:medium;line-height:100%;font-family:'Euphoria Script';-inkscape-font-specification:'Euphoria Script';letter-spacing:0px;word-spacing:0px;fill:#000000;fill-opacity:1;stroke:none;stroke-width:0.49872401px;stroke-linecap:butt;stroke-linejoin:miter;stroke-opacity:1"
         d="m 139.90406,209.31776 q -0.84058,0 -0.84058,-1.18136 0,-1.18136 1.22679,-2.63534 2.04466,-2.4536 5.67961,-2.83981 l 1.24952,-0.0682 q 4.13476,0 5.99767,3.29417 1.11321,2.02194 1.11321,4.65728 0,1.09049 -0.18175,2.29457 -0.65884,4.04388 -3.13515,6.86097 -2.72621,3.11243 -6.36117,3.11243 -3.61223,0 -4.58912,-2.02195 -0.29534,-0.63611 -0.29534,-1.34038 0,-0.72699 0.38621,-1.52214 0.74971,-1.45398 2.04466,-1.45398 0.11359,0 0.13631,0.13631 0.0454,0.11359 -0.0227,0.2499 -0.0454,0.13631 -0.15903,0.13631 -0.77242,0 -1.34039,0.99961 -0.36349,0.70428 -0.36349,1.29496 0,0.59068 0.22718,1.09048 0.727,1.54486 3.47593,1.54486 3.11243,0 5.63418,-3.18059 2.27184,-2.86252 2.93067,-6.72466 0.22719,-1.24951 0.22719,-2.36272 0,-2.47631 -1.1132,-4.18019 -1.4767,-2.29457 -4.63457,-2.29457 -3.95301,0 -5.92952,2.65806 -0.99961,1.36311 -0.99961,2.54447 0,0.47709 0.20447,0.47709 -0.13631,0.45437 -0.56796,0.45437 z m 3.27145,8.61029 q 0,-3.45321 0.6134,-6.70194 0.6134,-3.27146 1.49942,-5.15709 0.90874,-1.90835 1.74932,-1.90835 0.36349,0 0.36349,0.36349 -1.02233,2.11282 -1.79475,5.63418 -1.43126,6.42932 -1.43126,9.29185 0,0.29534 -0.31806,0.29534 -0.68156,0 -0.68156,-1.81748 z" />
      <path
         inkscape:connector-curvature="0"
         id="path7110"
         style="font-style:normal;font-variant:normal;font-weight:normal;font-stretch:normal;font-size:medium;line-height:100%;font-family:'Euphoria Script';-inkscape-font-specification:'Euphoria Script';letter-spacing:0px;word-spacing:0px;fill:#000000;fill-opacity:1;stroke:none;stroke-width:0.49872401px;stroke-linecap:butt;stroke-linejoin:miter;stroke-opacity:1"
         d="m 163.15666,213.65698 q -0.8633,0 -0.8633,-1.88563 0,-1.06777 0.40893,-1.99923 -1.54485,1.34039 -3.4532,4.99806 -1.90835,3.63496 -1.90835,4.74816 0,0.27262 -0.3635,0.27262 -0.65883,0 -0.65883,-1.79476 0,-3.38505 0.68155,-6.13398 0.68155,-2.74893 1.65845,-2.74893 0.43165,0 0.43165,0.49981 -1.04505,3.31689 -1.49942,6.79281 h 0.15903 q 1.84019,-4.24835 4.0666,-6.63379 1.27223,-1.3631 2.31728,-1.3631 0.22719,0 0.3635,0.13631 0.15903,0.13631 0.15903,0.34078 -0.15903,0.15902 -0.38622,0.47708 -0.22718,0.31806 -0.61339,1.52214 -0.38622,1.18136 -0.38622,2.5899 0,0.18175 -0.11359,0.18175 z" />
      <path
         inkscape:connector-curvature="0"
         id="path7112"
         style="font-style:normal;font-variant:normal;font-weight:normal;font-stretch:normal;font-size:medium;line-height:100%;font-family:'Euphoria Script';-inkscape-font-specification:'Euphoria Script';letter-spacing:0px;word-spacing:0px;fill:#000000;fill-opacity:1;stroke:none;stroke-width:0.49872401px;stroke-linecap:butt;stroke-linejoin:miter;stroke-opacity:1"
         d="m 166.54854,220.17718 q -1.86291,0 -1.86291,-2.93068 0,-1.74932 0.8633,-3.83942 1.20408,-2.93068 3.15787,-3.99845 0.84058,-0.45437 1.56757,-0.45437 0.72699,0 1.13592,0.31806 0.43165,0.31806 0.54524,0.63612 l 0.13632,0.29534 q -0.0682,0.38621 -0.38622,0.38621 -0.36349,0 -0.43165,-0.15903 -0.0454,-0.18175 -0.11359,-0.29534 -0.0682,-0.13631 -0.31806,-0.34077 -0.2499,-0.22719 -0.56796,-0.22719 -1.4767,0 -2.68078,2.65806 -1.36311,3.06699 -1.36311,5.77048 0,1.36311 0.54525,1.36311 0.43165,0 1.20407,-0.95417 0.79515,-0.9769 1.65845,-2.43088 1.49942,-2.49903 2.43088,-4.33922 0.77242,-1.63573 1.59029,-1.63573 0.43165,0 0.43165,0.52252 -0.20447,0.43165 -0.52252,1.2268 -0.31806,0.79515 -0.84059,3.15787 -0.52252,2.36271 -0.52252,4.70271 0,2.34001 0.70427,2.34001 0.27262,0 0.49981,-0.24991 0.22718,-0.22718 0.40893,-0.70427 0.0681,-0.2499 0.31806,-0.2499 0.0909,0 0.13631,0.0682 0.0454,0.0682 0,0.22719 -0.0454,0.15903 -0.15903,0.43165 -0.1136,0.29534 -0.49981,0.77243 -0.36349,0.47708 -0.77243,0.47708 -0.95417,0 -1.47669,-1.24951 -0.49981,-1.24952 -0.49981,-2.9534 0,-1.70389 0.2499,-3.27146 h -0.22718 q -2.88525,4.92991 -4.33923,4.92991 z" />
      <path
         inkscape:connector-curvature="0"
         id="path7114"
         style="font-style:normal;font-variant:normal;font-weight:normal;font-stretch:normal;font-size:medium;line-height:100%;font-family:'Euphoria Script';-inkscape-font-specification:'Euphoria Script';letter-spacing:0px;word-spacing:0px;fill:#000000;fill-opacity:1;stroke:none;stroke-width:0.49872401px;stroke-linecap:butt;stroke-linejoin:miter;stroke-opacity:1"
         d="m 187.82473,209.88572 q 0.65883,0.4998 1.24951,0.4998 0.6134,0 0.8633,-0.15903 0,0.29534 -0.27262,0.56797 -0.2499,0.2499 -0.74971,0.2499 -0.47708,0 -1.04505,-0.22718 -0.0454,2.13553 -0.70427,4.38466 -0.65883,2.2264 -1.70388,3.74854 -1.04505,1.49942 -2.06738,1.49942 -1.02233,0 -1.56757,-0.79515 -0.56796,-0.88602 -0.56796,-2.52175 0,-0.93145 0.11359,-1.99922 -2.81709,5.0435 -4.33923,5.0435 -1.49941,0 -1.49941,-2.54447 0,-2.63534 1.29495,-5.63418 1.09048,-2.38543 1.99922,-2.49903 0.43165,0 0.43165,0.47709 -0.27262,0.65884 -0.68155,1.70389 -0.40894,1.02233 -1.09049,3.29417 -0.65883,2.27185 -0.65883,3.36233 0,1.06777 0.47708,1.06777 0.59069,0 1.8402,-1.90835 1.27223,-1.90835 2.22641,-3.8167 l 0.97689,-1.88563 q 0.63612,-1.27224 1.13592,-1.27224 0.49981,0 0.49981,0.47709 -1.38582,4.74816 -1.38582,7.42894 0,1.24951 0.72698,1.24951 0.81787,0 1.70389,-1.34039 0.90874,-1.36311 1.49942,-3.52136 0.6134,-2.18097 0.6134,-4.29379 v -0.13631 q -0.65884,-0.47708 -1.06777,-1.13592 -0.40893,-0.65884 -0.40893,-0.97689 0,-0.34078 0.29534,-0.6134 0.29534,-0.27262 0.63611,-0.27262 0.43165,0 0.77243,0.77243 0.34078,0.7497 0.45437,1.7266 z" />
      <path
         inkscape:connector-curvature="0"
         id="path7116"
         style="font-style:normal;font-variant:normal;font-weight:normal;font-stretch:normal;font-size:medium;line-height:100%;font-family:'Euphoria Script';-inkscape-font-specification:'Euphoria Script';letter-spacing:0px;word-spacing:0px;fill:#000000;fill-opacity:1;stroke:none;stroke-width:0.49872401px;stroke-linecap:butt;stroke-linejoin:miter;stroke-opacity:1"
         d="m 199.86542,208.54533 q 0,1.68116 0.95418,1.79476 -0.0682,0.31806 -0.52253,0.31806 -0.93146,0 -1.31767,-1.13593 -0.18175,-0.52252 -0.18175,-1.27223 0,-0.77243 0.59068,-1.8402 1.34039,-2.47631 4.86175,-3.18058 1.20408,-0.22718 2.56718,-0.22718 1.38583,0 2.36272,-0.27263 0.9769,-0.27262 1.34039,-0.61339 0.95418,-0.88602 1.40855,-0.88602 0.45437,0 0.45437,0.27262 0,0.0682 0,0.13631 -0.15903,0.63612 -1.36311,1.20408 -0.72699,0.31806 -1.63573,0.4998 -0.74971,0.31806 -1.24952,1.74933 -0.4998,1.40854 -1.04504,4.08932 1.18136,-0.1136 1.95378,-0.1136 0.20447,0 0.18175,0.24991 -0.0909,0.27262 -0.47709,0.29534 -0.38621,0 -1.79475,0.22718 -1.06777,5.27068 -1.86292,7.45165 -1.99922,5.52059 -5.70233,5.52059 -2.65806,0 -3.31689,-2.43088 -0.24991,-0.84058 -0.24991,-1.68116 0,-1.5903 0.84059,-3.18059 1.27223,-2.43087 3.33961,-2.43087 0.29534,0 0.47709,0.13631 0.20446,0.13631 0.27262,0.40893 -1.95379,0 -3.22602,2.02194 -0.99961,1.56758 -0.99961,3.24874 0,2.45359 1.7266,2.99884 0.40893,0.11359 1.06777,0.11359 0.65883,0 1.38582,-0.38621 0.74971,-0.3635 1.34039,-1.36311 0.6134,-0.97689 0.99961,-1.63573 0.38622,-0.68155 0.88602,-2.40815 0.59068,-2.11282 0.99961,-3.90758 0.40894,-1.81747 0.49981,-2.18097 -1.27223,0.20447 -1.93107,0.20447 -0.63611,0 -0.72699,-0.56797 -0.0227,-0.45436 0.2499,-0.52252 0.1136,0.13631 0.70428,0.13631 0.6134,0 1.90834,-0.11359 0.56797,-2.22641 1.09049,-3.61223 0.52253,-1.40855 1.2268,-2.13554 -0.3635,0.0227 -1.13593,0.0227 -4.36194,0 -6.11126,2.56719 -0.84058,1.20407 -0.84058,2.43087 z m 9.99612,4.65728 q 0,0.11359 -0.20447,0.11359 -0.20446,0 -0.40893,-0.0909 -0.18175,-0.0909 -0.18175,-0.2499 0,-2.31728 0.52253,-3.72583 0.52252,-1.43126 1.38582,-1.43126 0.22719,0 0.38622,0.15903 0.15902,0.15903 0.15902,0.43165 -1.02233,1.02233 -1.47669,3.04427 -0.18175,0.84058 -0.18175,1.74932 z" />
      <path
         inkscape:connector-curvature="0"
         id="path7118"
         style="font-style:normal;font-variant:normal;font-weight:normal;font-stretch:normal;font-size:medium;line-height:100%;font-family:'Euphoria Script';-inkscape-font-specification:'Euphoria Script';letter-spacing:0px;word-spacing:0px;fill:#000000;fill-opacity:1;stroke:none;stroke-width:0.49872401px;stroke-linecap:butt;stroke-linejoin:miter;stroke-opacity:1"
         d="m 218.56617,213.65698 q -0.8633,0 -0.8633,-1.88563 0,-1.06777 0.40893,-1.99923 -1.54486,1.34039 -3.45321,4.99806 -1.90835,3.63496 -1.90835,4.74816 0,0.27262 -0.36349,0.27262 -0.65884,0 -0.65884,-1.79476 0,-3.38505 0.68156,-6.13398 0.68155,-2.74893 1.65844,-2.74893 0.43165,0 0.43165,0.49981 -1.04504,3.31689 -1.49941,6.79281 h 0.15902 q 1.8402,-4.24835 4.06661,-6.63379 1.27223,-1.3631 2.31728,-1.3631 0.22719,0 0.3635,0.13631 0.15903,0.13631 0.15903,0.34078 -0.15903,0.15902 -0.38622,0.47708 -0.22718,0.31806 -0.6134,1.52214 -0.38621,1.18136 -0.38621,2.5899 0,0.18175 -0.11359,0.18175 z" />
      <path
         inkscape:connector-curvature="0"
         id="path7120"
         style="font-style:normal;font-variant:normal;font-weight:normal;font-stretch:normal;font-size:medium;line-height:100%;font-family:'Euphoria Script';-inkscape-font-specification:'Euphoria Script';letter-spacing:0px;word-spacing:0px;fill:#000000;fill-opacity:1;stroke:none;stroke-width:0.49872401px;stroke-linecap:butt;stroke-linejoin:miter;stroke-opacity:1"
         d="m 226.00194,209.15873 q 1.7266,0 1.7266,2.02194 0,1.15864 -0.77243,2.43087 -1.31767,2.11282 -3.49864,2.11282 -0.34078,0 -0.56796,-0.11359 -0.22718,-0.11359 -0.34078,-0.34078 1.61301,0 2.9534,-1.86291 1.09049,-1.49942 1.09049,-2.74893 0,-0.93146 -0.74971,-0.93146 -1.49942,0 -2.79437,2.34 -1.38583,2.54446 -1.38583,5.22524 0,2.27185 1.29496,2.72622 0.2499,0.0909 0.63611,0.0909 0.38622,0 0.81786,-0.18175 0.43166,-0.20446 0.727,-0.47708 0.59068,-0.54525 0.97689,-1.20408 0.0909,-0.18175 0.34077,-0.18175 0.40894,0 0.38622,0.13631 -0.0682,0.2499 -0.52252,0.84058 -0.43166,0.59068 -0.81787,0.95418 -0.36349,0.34077 -0.97689,0.6134 -0.59068,0.29534 -1.20408,0.29534 -2.40816,0 -3.06699,-2.27185 -0.20447,-0.77242 -0.20447,-1.59029 0,-1.52214 0.70427,-3.31689 1.11321,-2.72622 3.067,-3.93029 1.06776,-0.63612 2.18097,-0.63612 z" />
      <path
         inkscape:connector-curvature="0"
         id="path7122"
         style="font-style:normal;font-variant:normal;font-weight:normal;font-stretch:normal;font-size:medium;line-height:100%;font-family:'Euphoria Script';-inkscape-font-specification:'Euphoria Script';letter-spacing:0px;word-spacing:0px;fill:#000000;fill-opacity:1;stroke:none;stroke-width:0.49872401px;stroke-linecap:butt;stroke-linejoin:miter;stroke-opacity:1"
         d="m 234.82087,209.15873 q 1.7266,0 1.7266,2.02194 0,1.15864 -0.77243,2.43087 -1.31767,2.11282 -3.49864,2.11282 -0.34078,0 -0.56796,-0.11359 -0.22719,-0.11359 -0.34078,-0.34078 1.61301,0 2.9534,-1.86291 1.09049,-1.49942 1.09049,-2.74893 0,-0.93146 -0.74971,-0.93146 -1.49942,0 -2.79437,2.34 -1.38583,2.54446 -1.38583,5.22524 0,2.27185 1.29496,2.72622 0.2499,0.0909 0.63611,0.0909 0.38622,0 0.81787,-0.18175 0.43165,-0.20446 0.72699,-0.47708 0.59068,-0.54525 0.97689,-1.20408 0.0909,-0.18175 0.34078,-0.18175 0.40893,0 0.38621,0.13631 -0.0682,0.2499 -0.52252,0.84058 -0.43166,0.59068 -0.81787,0.95418 -0.36349,0.34077 -0.97689,0.6134 -0.59068,0.29534 -1.20408,0.29534 -2.40815,0 -3.06699,-2.27185 -0.20447,-0.77242 -0.20447,-1.59029 0,-1.52214 0.70428,-3.31689 1.1132,-2.72622 3.06699,-3.93029 1.06776,-0.63612 2.18097,-0.63612 z" />
      <path
         inkscape:connector-curvature="0"
         id="path7124"
         style="font-style:normal;font-variant:normal;font-weight:normal;font-stretch:normal;font-size:medium;line-height:100%;font-family:'Euphoria Script';-inkscape-font-specification:'Euphoria Script';letter-spacing:0px;word-spacing:0px;fill:#000000;fill-opacity:1;stroke:none;stroke-width:0.49872401px;stroke-linecap:butt;stroke-linejoin:miter;stroke-opacity:1"
         d="m 241.02718,223.49407 q -1.31767,0 -1.95379,-1.38582 -0.6134,-1.38583 -0.6134,-4.15748 0,-2.77165 0.81787,-6.56563 0.81786,-3.79399 1.90835,-6.29301 1.1132,-2.49903 1.93106,-2.49903 0.38622,0 0.38622,0.45436 -0.47709,1.09049 -1.20408,3.29418 -0.72699,2.18097 -1.2268,4.04388 -0.47708,1.86292 -0.88602,4.36195 -0.38621,2.49903 -0.38621,4.29378 0,1.77204 0.34078,2.72622 0.36349,0.97689 0.97689,0.97689 0.52253,0 0.99961,-0.4998 0.47709,-0.47709 0.68156,-0.95418 0.11359,-0.2499 0.40893,-0.13631 0.11359,0.0454 0.0454,0.18175 -0.0454,0.15903 -0.18174,0.38621 -0.1136,0.22719 -0.43165,0.70427 -0.68156,1.06777 -1.61301,1.06777 z" />
      <path
         inkscape:connector-curvature="0"
         id="path7126"
         style="font-style:normal;font-variant:normal;font-weight:normal;font-stretch:normal;font-size:medium;line-height:100%;font-family:'Euphoria Script';-inkscape-font-specification:'Euphoria Script';letter-spacing:0px;word-spacing:0px;fill:#000000;fill-opacity:1;stroke:none;stroke-width:0.49872401px;stroke-linecap:butt;stroke-linejoin:miter;stroke-opacity:1"
         d="m 244.31389,227.28805 q 2.04466,0 3.2033,-1.93107 0.99962,-1.70388 1.54486,-4.24835 -4.11204,0.0909 -6.31573,3.13515 -0.13631,0.20447 -0.43165,0.0682 -0.15903,-0.0909 -0.0909,-0.22718 0.9769,-1.4767 2.72622,-2.52175 1.74932,-1.02233 4.24835,-1.1132 0.2499,-1.13593 0.47709,-2.65806 0.22718,-1.52214 0.52252,-2.9534 h -0.20446 q -2.9534,5.24796 -4.49826,5.24796 -1.7266,0 -1.7266,-2.65806 0,-2.65806 1.13592,-5.33883 1.13592,-2.7035 2.06738,-2.90796 l 0.13631,-0.0227 q 0.38622,0 0.38622,0.49981 -0.24991,0.61339 -0.63612,1.61301 -0.38621,0.97689 -1.02233,3.24874 -0.63612,2.24912 -0.63612,3.52136 0,1.24951 0.54524,1.24951 0.63612,0 2.04467,-2.20369 2.06738,-3.22602 3.58951,-6.54291 0.65884,-1.38583 1.40854,-1.38583 0.47709,0 0.47709,0.52253 -0.43165,0.79514 -1.04505,2.97611 -0.6134,2.18097 -0.99961,4.40738 -0.38621,2.20369 -0.65883,3.45321 1.7266,0.29534 1.99922,1.49941 0.0454,0.20447 0.0454,0.54525 0,0.36349 -0.27262,0.61339 -0.27263,0.27263 -0.47709,0.27263 0.0454,-0.15903 0.0227,-0.56797 -0.0227,-0.38621 -0.15903,-0.65883 -0.1136,-0.27262 -0.45437,-0.56796 -0.34078,-0.29534 -0.88602,-0.43165 -1.74932,6.58835 -6.06583,6.58835 -1.86291,0 -2.47631,-1.31767 -0.0227,-0.0682 -0.0227,-0.11359 0,-0.13631 0.24991,-0.18175 0.22718,-0.0227 0.34077,0.15903 0.40893,0.93146 1.90835,0.93146 z" />
      <path
         inkscape:connector-curvature="0"
         id="path7128"
         style="font-style:normal;font-variant:normal;font-weight:normal;font-stretch:normal;font-size:medium;line-height:100%;font-family:'Euphoria Script';-inkscape-font-specification:'Euphoria Script';letter-spacing:0px;word-spacing:0px;fill:#000000;fill-opacity:1;stroke:none;stroke-width:0.49872401px;stroke-linecap:butt;stroke-linejoin:miter;stroke-opacity:1"
         d="m 255.98816,220.3362 q -0.47709,0 -0.47709,-0.88601 0,-0.54525 0.29535,-1.15865 0.29533,-0.61339 0.84058,-0.61339 0.45436,0 0.45436,0.52252 0,0.52253 -0.84058,1.74932 z" />
      <path
         inkscape:connector-curvature="0"
         id="path7131"
         style="font-style:normal;font-variant:normal;font-weight:normal;font-stretch:normal;font-size:121.07348633px;line-height:100%;font-family:'Linux Libertine Display O';-inkscape-font-specification:'Linux Libertine Display O';letter-spacing:0px;word-spacing:0px;fill:#000000;fill-opacity:1;stroke:none;stroke-width:0.90805125px;stroke-linecap:butt;stroke-linejoin:miter;stroke-opacity:1"
         d="m 121.63073,184.7262 c -0.0718,-2.94436 -0.10772,-4.59607 -0.10772,-7.57633 0,-2.98026 0,-4.73969 0.10772,-7.75586 0.0718,-2.98026 0.57451,-3.08798 3.08798,-3.26752 0.21544,-0.21544 0.21544,-0.61041 0,-0.82585 -1.32855,0.0718 -3.55477,0.17953 -4.63197,0.17953 -1.07721,0 -3.51887,-0.10772 -4.66788,-0.17953 -0.21544,0.21544 -0.21544,0.61041 0,0.82585 2.51347,0.21544 3.08798,0.28726 3.15979,3.26752 0.0718,2.98026 0.10772,4.73969 0.10772,7.71996 0,2.98026 -0.0359,4.63197 -0.10772,7.61223 -0.0718,2.98026 -0.64632,3.15979 -3.15979,3.26751 -0.21544,0.21544 -0.21544,0.61042 0,0.82586 1.40036,-0.0718 3.59067,-0.17953 4.66788,-0.17953 1.0772,0 3.15979,0.0718 4.63197,0.17953 0.21544,-0.21544 0.21544,-0.61042 0,-0.82586 -2.51347,-0.10772 -3.01617,-0.28725 -3.08798,-3.26751 z" />
      <path
         inkscape:connector-curvature="0"
         id="path7133"
         style="font-style:normal;font-variant:normal;font-weight:normal;font-stretch:normal;font-size:121.07348633px;line-height:100%;font-family:'Linux Libertine Display O';-inkscape-font-specification:'Linux Libertine Display O';letter-spacing:0px;word-spacing:0px;fill:#000000;fill-opacity:1;stroke:none;stroke-width:0.90805125px;stroke-linecap:butt;stroke-linejoin:miter;stroke-opacity:1"
         d="m 146.34076,169.78899 0.0359,12.45964 c 0,0.68223 -0.17953,1.07721 -0.43088,1.07721 -0.28725,0 -0.68223,-0.64633 -1.72353,-1.97488 l -12.31602,-15.87079 -4.63197,-0.0718 c -0.21544,0.21544 -0.21544,0.61041 0,0.82585 1.72352,0.10772 2.62119,1.25674 3.01617,2.6571 l -0.0359,15.43992 c 0,3.1957 -0.61041,3.41114 -3.12389,3.66248 -0.21544,0.21544 -0.21544,0.61042 0,0.82586 1.75943,-0.0359 2.36985,-0.17953 3.87793,-0.17953 1.50809,0 2.04669,0.14362 3.84203,0.17953 0.21544,-0.21544 0.21544,-0.61042 0,-0.82586 -2.51347,-0.25134 -3.12389,-0.39497 -3.12389,-3.66248 l -0.0359,-11.45427 c 0,-1.22082 0.17954,-1.75943 0.46679,-1.75943 0.21544,0 0.61042,0.39498 1.22083,1.18493 l 12.53146,15.83488 c 0.39498,0.5386 0.86177,0.86176 1.43627,0.86176 0.5027,0 0.43089,-0.43088 0.43089,-1.11311 l 0.0359,-18.097 c 0,-3.19571 0.61042,-3.41115 3.12389,-3.6625 0.21544,-0.21544 0.21544,-0.61041 0,-0.82585 -1.75943,0.0359 -2.36985,0.17953 -3.87793,0.17953 -1.50808,0 -2.04669,-0.14363 -3.84203,-0.17953 -0.21544,0.21544 -0.21544,0.61041 0,0.82585 2.51348,0.25135 3.1239,0.39498 3.1239,3.6625 z" />
      <path
         inkscape:connector-curvature="0"
         id="path7135"
         style="font-style:normal;font-variant:normal;font-weight:normal;font-stretch:normal;font-size:121.07348633px;line-height:100%;font-family:'Linux Libertine Display O';-inkscape-font-specification:'Linux Libertine Display O';letter-spacing:0px;word-spacing:0px;fill:#000000;fill-opacity:1;stroke:none;stroke-width:0.90805125px;stroke-linecap:butt;stroke-linejoin:miter;stroke-opacity:1"
         d="m 159.22063,184.7262 c -0.0718,-2.87254 -0.10772,-4.52425 -0.10772,-7.36089 1.25673,0.0359 2.51347,0.61042 3.26751,1.54399 l 5.63736,7.10954 c 0.71814,0.93358 1.22083,2.01078 1.29265,2.58529 0,0.10772 0.0359,0.21544 0.17953,0.21544 0.71814,-0.0359 0.64632,-0.17953 1.72353,-0.17953 1.40036,0 2.29803,0.14362 3.98565,0.17953 0.21544,-0.21544 0.21544,-0.61042 0,-0.82586 -0.64632,-0.10772 -2.29803,-0.46678 -3.51886,-1.97487 l -7.86359,-9.33576 c -0.28725,-0.32316 -0.46679,-0.61041 -0.46679,-0.89767 0,-0.25134 0.0359,-0.50269 1.25674,-1.75943 l 5.2783,-5.42192 c 1.65171,-1.75943 3.44705,-2.29803 4.88332,-2.47757 0.21544,-0.21544 0.21544,-0.61041 0,-0.82585 -1.68762,0.0359 -2.33394,0.17953 -3.77021,0.17953 -1.43628,0 -2.54938,-0.14363 -4.237,-0.17953 -0.21544,0.21544 -0.21544,0.61041 0,0.82585 1.29264,0.10772 2.83663,0.71814 1.36445,2.33394 l -5.74508,6.31959 c -0.75404,0.82586 -1.93896,1.47218 -3.26751,1.5799 0,-2.51347 0.0359,-4.237 0.10772,-6.96591 0.0718,-2.98026 0.61041,-3.1598 3.12388,-3.26752 0.21544,-0.21544 0.21544,-0.61041 0,-0.82585 -1.75943,0.0359 -2.87254,0.17953 -4.70378,0.17953 -1.79534,0 -2.80073,-0.14363 -4.59607,-0.17953 -0.21544,0.21544 -0.21544,0.61041 0,0.82585 2.51347,0.10772 3.01617,0.28726 3.08798,3.26752 0.0718,2.98026 0.14363,4.73969 0.14363,7.71996 0,2.98026 -0.0718,4.63197 -0.14363,7.61223 -0.0718,2.98026 -0.57451,3.15979 -3.08798,3.26751 -0.21544,0.21544 -0.21544,0.61042 0,0.82586 1.75943,-0.0359 2.83664,-0.17953 4.66788,-0.17953 1.79534,0 2.83664,0.14362 4.63197,0.17953 0.21544,-0.21544 0.21544,-0.61042 0,-0.82586 -2.51347,-0.10772 -3.05207,-0.28725 -3.12388,-3.26751 z" />
      <path
         inkscape:connector-curvature="0"
         id="path7137"
         style="font-style:normal;font-variant:normal;font-weight:normal;font-stretch:normal;font-size:121.07348633px;line-height:100%;font-family:'Linux Libertine Display O';-inkscape-font-specification:'Linux Libertine Display O';letter-spacing:0px;word-spacing:0px;fill:#000000;fill-opacity:1;stroke:none;stroke-width:0.90805125px;stroke-linecap:butt;stroke-linejoin:miter;stroke-opacity:1"
         d="m 189.68696,165.98287 c -2.0826,-0.28726 -1.97488,-0.96949 -5.49374,-0.96949 -3.62658,0 -6.82228,2.40576 -6.82228,6.21187 0,3.37524 2.36984,4.99105 5.17057,6.17597 2.26213,1.00539 5.99643,1.79534 5.99643,5.88871 0,2.90845 -1.72352,4.7756 -4.56016,4.7756 -3.37524,0 -5.88871,-1.86715 -6.67866,-5.45783 -0.43088,-0.14363 -0.46679,-0.0718 -0.78995,0.10772 0.14363,2.76482 0.28726,3.6984 0.71814,5.45783 2.26212,0 3.23161,0.82585 6.42731,0.82585 1.65171,0 3.1957,-0.39497 4.45244,-1.14901 2.04668,-1.29265 3.37524,-3.51886 3.37524,-5.8169 0,-3.41114 -2.33395,-5.02694 -4.95514,-6.14006 -1.72352,-0.71813 -6.67866,-2.1185 -6.67866,-5.63736 0,-2.01078 1.90306,-4.38062 3.98565,-4.38062 3.51887,0 4.99104,2.58528 5.70918,4.95513 0.39497,0 0.46679,0.0359 0.78995,-0.21544 -0.10772,-1.72353 -0.25135,-2.72892 -0.64632,-4.63197 z" />
      <path
         inkscape:connector-curvature="0"
         id="path7139"
         style="font-style:normal;font-variant:normal;font-weight:normal;font-stretch:normal;font-size:121.07348633px;line-height:100%;font-family:'Linux Libertine Display O';-inkscape-font-specification:'Linux Libertine Display O';letter-spacing:0px;word-spacing:0px;fill:#000000;fill-opacity:1;stroke:none;stroke-width:0.90805125px;stroke-linecap:butt;stroke-linejoin:miter;stroke-opacity:1"
         d="m 205.53531,188.9991 c 3.48296,0 7.03772,-1.65171 9.47938,-4.84741 -0.17953,-0.32316 -0.43088,-0.5386 -0.82585,-0.5386 -2.54938,2.80073 -4.99104,3.91384 -8.33037,3.91384 -5.56555,0 -8.36628,-5.63737 -8.36628,-10.87975 0,-5.85281 3.73431,-10.66431 8.25856,-10.66431 4.95513,0 7.07363,3.30342 8.00721,6.3914 0.32316,0.0359 0.5386,0 0.82585,-0.17953 -0.17953,-1.86715 -0.43088,-3.59068 -0.78995,-5.56555 -1.83124,-0.17954 -3.44704,-1.61581 -7.86358,-1.61581 -7.10954,0 -11.6697,5.56555 -11.6697,12.31603 0,6.35549 3.55477,11.66969 11.27473,11.66969 z" />
      <path
         inkscape:connector-curvature="0"
         id="path7141"
         style="font-style:normal;font-variant:normal;font-weight:normal;font-stretch:normal;font-size:121.07348633px;line-height:100%;font-family:'Linux Libertine Display O';-inkscape-font-specification:'Linux Libertine Display O';letter-spacing:0px;word-spacing:0px;fill:#000000;fill-opacity:1;stroke:none;stroke-width:0.90805125px;stroke-linecap:butt;stroke-linejoin:miter;stroke-opacity:1"
         d="m 225.62122,178.65796 c -0.78995,0 -1.0413,-0.28726 -0.89767,-0.64633 l 3.77021,-9.29985 h 0.10772 l 3.44705,9.94618 z m -4.05747,7.50451 2.15441,-5.56555 c 0.17953,-0.46679 0.39497,-0.78995 1.25673,-0.78995 h 7.50452 l 2.26212,6.60685 c 0.5027,1.47217 -0.93357,1.47217 -2.6571,1.57989 -0.21544,0.21544 -0.21544,0.61042 0,0.82586 1.32855,-0.0359 3.30343,-0.17953 4.70379,-0.17953 1.47218,0 3.01617,0.14362 4.34472,0.17953 0.21544,-0.21544 0.21544,-0.61042 0,-0.82586 -1.40036,-0.10772 -2.58529,-0.25134 -3.23161,-2.08259 l -7.50451,-20.89774 c -0.5386,0.32316 -1.40037,0.71814 -1.86716,0.71814 l -8.33037,19.60509 c -0.93357,2.19032 -2.01077,2.54938 -3.59067,2.6571 -0.21544,0.21544 -0.21544,0.61042 0,0.82586 1.32855,-0.0359 2.1544,-0.17953 3.55477,-0.17953 1.47217,0 2.54938,0.14362 3.87793,0.17953 0.21544,-0.21544 0.21544,-0.61042 0,-0.82586 -1.36446,-0.0718 -3.05208,-0.32316 -2.47757,-1.83124 z" />
      <path
         inkscape:connector-curvature="0"
         id="path7143"
         style="font-style:normal;font-variant:normal;font-weight:normal;font-stretch:normal;font-size:121.07348633px;line-height:100%;font-family:'Linux Libertine Display O';-inkscape-font-specification:'Linux Libertine Display O';letter-spacing:0px;word-spacing:0px;fill:#000000;fill-opacity:1;stroke:none;stroke-width:0.90805125px;stroke-linecap:butt;stroke-linejoin:miter;stroke-opacity:1"
         d="m 248.10671,178.01163 c 0.78995,0.25135 1.83125,0.32316 3.05208,0.32316 6.53503,0 8.40218,-4.09337 8.40218,-7.14544 0,-2.1185 -1.32855,-6.06825 -7.9713,-6.06825 -0.93358,0 -3.44705,0.35907 -4.88332,0.35907 -1.79534,0 -2.80073,-0.14363 -4.59607,-0.17953 -0.21544,0.21544 -0.21544,0.61041 0,0.82585 2.51347,0.10772 3.05208,0.28726 3.08798,3.26752 0.0359,2.98026 0.0718,4.73969 0.0718,7.71996 0,2.98026 0,4.63197 -0.0718,7.61223 -0.0718,3.01617 -0.57451,3.15979 -3.08798,3.26751 -0.21544,0.21544 -0.21544,0.61042 0,0.82586 1.75943,-0.0359 2.83664,-0.17953 4.66788,-0.17953 2.01078,0 3.30342,0.14362 5.09876,0.17953 0.21544,-0.21544 0.21544,-0.61042 0,-0.82586 -2.47757,-0.14362 -3.66249,-0.32316 -3.6984,-2.40575 -0.0359,-2.69301 -0.0718,-4.99104 -0.0718,-7.57633 z m 0.0718,-10.30524 c 0.0359,-1.0413 0.61042,-1.72352 3.19571,-1.72352 2.47756,0 5.02694,1.29264 5.02694,5.8528 0,3.87793 -1.97487,5.63736 -5.45782,5.63736 -0.86177,0 -2.36985,-0.0718 -2.83664,-0.17953 v -0.17953 c 0,-2.98027 0.0359,-6.42732 0.0718,-9.40758 z" />
      <path
         inkscape:connector-curvature="0"
         id="path7145"
         style="font-style:normal;font-variant:normal;font-weight:normal;font-stretch:normal;font-size:121.07348633px;line-height:100%;font-family:'Linux Libertine Display O';-inkscape-font-specification:'Linux Libertine Display O';letter-spacing:0px;word-spacing:0px;fill:#000000;fill-opacity:1;stroke:none;stroke-width:0.90805125px;stroke-linecap:butt;stroke-linejoin:miter;stroke-opacity:1"
         d="m 272.3651,175.82132 -4.20109,0.0359 c 0,0 -0.0359,-4.88332 0.0718,-7.82768 0.0359,-0.86176 0.46679,-1.5799 1.32855,-1.5799 h 5.60146 c 2.693,0 3.23161,1.90306 4.02155,4.38063 0.43088,0.0718 0.5027,0 0.86177,-0.17953 -0.17954,-1.47218 -0.71814,-5.02695 -0.78995,-5.31421 0,-0.0718 -0.0359,-0.10772 -0.14363,-0.10772 -0.61041,0.10772 -0.93357,0.25135 -1.79534,0.25135 h -10.48478 c -1.0772,0 -2.87254,-0.14363 -4.66787,-0.17953 -0.21544,0.21544 -0.21544,0.61041 0,0.82585 2.51347,0.10772 2.98026,0.28726 3.08798,3.26752 0.0718,2.94435 0.0718,4.73969 0.0718,7.71996 0,2.98026 0,4.66787 -0.0718,7.61223 -0.10772,2.98026 -0.57451,3.15979 -3.08798,3.26751 -0.21544,0.21544 -0.21544,0.61042 0,0.82586 1.75943,-0.0359 3.66249,-0.17953 4.73969,-0.17953 h 7.9713 c 1.72353,0 4.59607,0.17953 4.59607,0.17953 0.50269,-1.79534 1.00539,-4.2729 1.29264,-6.10415 -0.35907,-0.21544 -0.39497,-0.28725 -0.86176,-0.17953 -0.71814,2.58528 -2.01078,5.17057 -4.73969,5.17057 h -5.60146 c -0.78995,0 -1.29264,-0.57451 -1.32855,-1.54399 -0.10772,-3.01617 -0.0718,-9.29985 -0.0718,-9.29985 l 4.20109,0.0359 c 3.05207,0.0359 3.1957,0.78994 3.30342,2.40575 0.21544,0.21544 0.57451,0.21544 0.78995,0 -0.0359,-1.25674 -0.14363,-1.68762 -0.14363,-2.80073 0,-1.18492 0.10772,-2.01078 0.14363,-3.08798 -0.21544,-0.21544 -0.57451,-0.21544 -0.78995,0 -0.10772,1.97487 -0.25135,2.40575 -3.30342,2.40575 z" />
      <path
         style="fill:#000000;fill-opacity:1;stroke-width:0.94004619"
         inkscape:connector-curvature="0"
         id="path2313"
         d="M 188.72437,56.313726 151.27178,94.638922 C 138.61752,110.30968 159.88359,108.4864 169,113 c 3.27021,3.34269 -12.53437,5.80997 -9.26417,9.15545 3.2702,3.34268 19.77454,6.44004 23.05032,9.78272 3.2702,3.34269 -6.69374,6.88889 -3.42354,10.23158 3.2702,3.34268 10.83376,0.17563 12.25001,7.89253 1.00922,5.51445 13.63003,2.36971 19.80243,-2.14668 3.2702,-3.34548 -6.25604,-3.03044 -2.98584,-6.37313 8.13229,-8.31629 15.70422,-3.02208 18.48654,-11.3551 1.37443,-4.11772 -11.97123,-6.34803 -8.69545,-9.69072 9.40915,-5.49494 41.92995,-9.07181 26.49895,-24.502811 L 205.8978,56.313726 c -4.74778,-4.558208 -12.67098,-4.60839 -17.17343,0 z m 43.02001,73.873644 c 0,1.90135 14.00918,3.14754 14.00918,-0.44885 -1.99614,-5.77652 -12.35317,-5.38621 -14.00918,0.44885 z m -63.1068,10.10334 c 3.31759,2.86874 8.44175,-0.71371 9.97788,-4.71712 -3.21445,-4.27106 -15.247,0.15333 -9.97788,4.71712 z m 61.35043,-6.1975 c -4.27664,3.83615 0.47951,7.72805 4.69481,5.24961 0.93952,-0.95346 -0.0251,-4.29615 -4.69481,-5.24961 z" />
      <path
         inkscape:connector-curvature="0"
         style="fill:#ffffff;stroke-width:0.94004619"
         id="path2315"
         d="m 179.76128,115.07419 c 1.00086,0.6217 16.13913,3.69675 19.83867,4.31009 1.28243,0.27043 0.37357,1.59189 -1.39395,2.48401 -3.98669,1.0594 -23.32354,-6.7941 -18.44472,-6.7941 z" />
      <path
         inkscape:connector-curvature="0"
         style="fill:#ffffff;stroke-width:0.94004619"
         id="path2317"
         d="m 203.63403,59.001257 14.81766,15.049059 c 1.4051,1.435766 1.38559,4.218085 0.5994,5.018211 l -7.35725,-5.885247 -1.44692,8.714961 -6.14731,-3.24511 -9.84406,6.219794 -3.25905,-13.111471 -5.28864,9.149872 h -8.08489 c -3.2953,0 -3.68281,-4.181843 -0.68861,-7.176043 5.23009,-5.645487 11.23243,-11.399703 14.49426,-14.734026 3.27857,-3.35105 8.99097,-3.256261 12.20541,0 z" />
    </g>
    <path
       inkscape:connector-curvature="0"
       id="circle1079"
       d="m 543.85352,456.19336 c -15.56442,-3.1e-4 -28.18197,12.61722 -28.18164,28.18164 0.004,4.65668 1.1612,9.23988 3.36914,13.33984 -0.26086,-0.12755 -0.45767,-0.21225 -0.48047,-0.18945 -0.0633,0.0633 0.70841,1.43978 1.71484,3.06055 4.23975,6.82776 8.1244,16.52618 9.8418,24.5664 0.72043,3.37254 0.78983,4.64607 0.79883,14.76368 0.01,10.22007 -0.0501,11.35307 -0.78516,14.7207 -4.22883,19.37387 -15.76389,36.33877 -31.875,46.88086 -4.53969,2.97049 -12.01238,6.59121 -17.07422,8.27148 -19.01567,6.31222 -38.99297,4.85252 -56.83594,-4.15234 -12.63628,-6.33765 -24.5328,-15.51878 -35.58789,-20.99414 C 312.38905,540.80293 257.89516,507.66783 169.83789,507.52734 122.99458,507.53434 49.256336,522.55033 0,536.69922 V 625 H 448.53516 680.38477 750 v -56.8125 a 73.775955,73.775955 0 0 0 -12,1.31445 v -0.01 c -27.66091,4.82021 -48.99319,19.89356 -67.55078,33.17578 -9.00849,6.47085 -21.13934,11.21059 -32.99219,12.89258 -4.62744,0.65666 -15.66338,0.56405 -20.38672,-0.17188 -15.1887,-2.36653 -28.97202,-9.08377 -39.87109,-19.42969 -21.95358,-20.83939 -29.02215,-52.70385 -17.91016,-80.74414 1.75726,-4.43434 4.16514,-9.21626 6.37305,-12.66211 0.41882,-0.65364 0.75259,-1.22845 1.0293,-1.72656 3.46175,-4.78796 5.33105,-10.54286 5.34375,-16.45117 3.1e-4,-15.56418 -12.61722,-28.18171 -28.18164,-28.1814 z"
       style="opacity:1;fill:#282828;fill-opacity:1;stroke:none;stroke-width:3;stroke-linecap:square;stroke-linejoin:round;stroke-miterlimit:4;stroke-dasharray:none;stroke-opacity:1" />
    <path
       inkscape:connector-curvature="0"
       id="path1346"
       style="font-style:normal;font-variant:normal;font-weight:normal;font-stretch:normal;font-size:332.46795654px;line-height:1.25;font-family:'Linux Libertine O';-inkscape-font-specification:'Linux Libertine O';letter-spacing:0px;word-spacing:0px;fill:#282828;fill-opacity:1;stroke:none;stroke-width:1"
       d="M 419.58302,399.26185 V 283.89547 c 0,-19.94808 0.33246,-40.22863 0.9974,-44.55071 0,-1.32987 -0.9974,-1.66234 -1.99481,-1.66234 -18.6182,11.63638 -35.90654,19.61561 -65.16372,33.2468 0.33247,3.98961 1.99481,6.98182 4.98702,8.97663 14.96106,-6.31689 22.60782,-8.3117 28.92471,-8.3117 5.31949,0 6.64936,7.97923 6.64936,19.28314 v 108.38456 c 0,27.59484 -8.97663,29.25718 -32.24939,30.25458 -1.99481,1.99481 -1.99481,8.97664 0,10.97144 16.29093,-0.33247 27.92731,-0.66493 46.21305,-0.66493 15.62599,0 23.93769,0.33246 40.56109,0.66493 1.99481,-1.9948 1.99481,-8.97663 0,-10.97144 -23.27276,-0.9974 -28.92471,-2.65974 -28.92471,-30.25458 z" />
    <path
       inkscape:connector-curvature="0"
       id="path1348"
       style="font-style:normal;font-variant:normal;font-weight:normal;font-stretch:normal;font-size:332.46795654px;line-height:1.25;font-family:'Linux Libertine O';-inkscape-font-specification:'Linux Libertine O';letter-spacing:0px;word-spacing:0px;fill:#282828;fill-opacity:1;stroke:none;stroke-width:1"
       d="m 497.32857,425.52681 c 0,9.64158 7.97923,17.62081 17.6208,17.62081 9.64158,0 17.62081,-7.97923 17.62081,-17.62081 0,-9.64157 -7.97923,-17.6208 -17.62081,-17.6208 -9.64157,0 -17.6208,7.97923 -17.6208,17.6208 z" />
    <path
       inkscape:connector-curvature="0"
       id="path1350"
       style="font-style:normal;font-variant:normal;font-weight:normal;font-stretch:normal;font-size:332.46795654px;line-height:1.25;font-family:'Linux Libertine O';-inkscape-font-specification:'Linux Libertine O';letter-spacing:0px;word-spacing:0px;fill:#282828;fill-opacity:1;stroke:none;stroke-width:1"
       d="m 628.88717,248.65386 c 5.65196,0 10.97145,1.99481 14.96106,5.65196 10.30651,8.64416 19.28314,33.91173 19.28314,78.46244 0,30.58705 -0.9974,51.53253 -5.65195,68.48839 -7.3143,27.26238 -23.60523,30.25459 -29.58965,30.25459 -30.91952,0 -34.2442,-56.85202 -34.2442,-85.77673 0,-81.78712 20.28055,-97.08065 35.2416,-97.08065 z m -1.32987,194.49376 c 25.60003,0 64.49879,-25.9325 64.49879,-104.06247 0,-32.91433 -7.97924,-61.17411 -22.60783,-80.45725 -8.97663,-11.30391 -22.60782,-21.61042 -40.56109,-21.61042 -32.91432,0 -64.16631,39.23122 -64.16631,105.05988 0,35.57407 10.63897,69.15333 28.92471,87.1066 9.64157,9.64157 20.94548,13.96366 33.91173,13.96366 z" />
    <path
       d="m 69.944089,583.94995 c 0.154057,-0.15405 0.154057,-0.69325 0,-0.84731 -0.770285,0.0257 -1.668951,0.0514 -2.593293,0.0514 -0.975694,0 -1.668951,-0.0257 -2.336531,-0.0514 -0.154057,0.15406 -0.154057,0.69326 0,0.84731 1.20678,0.12838 1.489217,0.38514 2.028417,1.72031 l 3.363578,8.2934 c 0.154057,0.35946 0.359466,0.51352 0.616228,0.51352 0.231086,0 0.436495,-0.15406 0.616228,-0.56487 l 2.593293,-6.31634 2.644645,6.36769 c 0.154057,0.35946 0.359467,0.51352 0.616228,0.51352 0.231086,0 0.436495,-0.15406 0.590552,-0.5392 l 3.337902,-8.13934 c 0.436495,-1.02705 0.87299,-1.77166 2.182475,-1.84869 0.154057,-0.15405 0.154057,-0.69325 0,-0.84731 -0.513524,0.0257 -1.078399,0.0514 -1.848685,0.0514 -0.770285,0 -1.848684,-0.0257 -2.618969,-0.0514 -0.154057,0.15406 -0.154057,0.69326 0,0.84731 1.925713,0.10271 1.643275,0.84732 1.283809,1.74598 l -2.131122,5.34064 c -0.256762,0.64191 -0.359467,0.64191 -0.590552,0.10271 l -2.208151,-5.62308 c -0.462171,-1.20678 -0.410818,-1.46354 0.950019,-1.56625 0.154057,-0.15405 0.154057,-0.69325 0,-0.84731 -0.770285,0.0257 -1.797332,0.0514 -2.567617,0.0514 -0.641904,0 -1.489218,-0.0257 -2.259503,-0.0514 -0.154057,0.15406 -0.154057,0.69326 0,0.84731 1.20678,0.12838 1.489218,0.87299 1.951389,2.00274 l 0.179733,0.41082 -1.797332,4.54468 c -0.33379,0.84732 -0.410819,0.89867 -0.744609,0.0514 l -2.054093,-5.28929 c -0.462171,-1.23246 -0.436495,-1.64328 0.795961,-1.72031 z"
       style="font-style:normal;font-variant:normal;font-weight:normal;font-stretch:normal;font-size:25.67616844px;line-height:1.25;font-family:'Linux Libertine O';-inkscape-font-specification:'Linux Libertine O';letter-spacing:0px;word-spacing:0px;fill:#ffffff;fill-opacity:1;stroke:none;stroke-width:1"
       id="path1313"
       inkscape:connector-curvature="0" />
    <path
       d="m 89.502109,583.94995 c 0.154057,-0.15405 0.154057,-0.69325 0,-0.84731 -0.770285,0.0257 -1.668951,0.0514 -2.593293,0.0514 -0.975695,0 -1.668951,-0.0257 -2.336532,-0.0514 -0.154057,0.15406 -0.154057,0.69326 0,0.84731 1.20678,0.12838 1.489218,0.38514 2.028418,1.72031 l 3.363578,8.2934 c 0.154057,0.35946 0.359466,0.51352 0.616228,0.51352 0.231085,0 0.436495,-0.15406 0.616228,-0.56487 l 2.593293,-6.31634 2.644645,6.36769 c 0.154057,0.35946 0.359466,0.51352 0.616228,0.51352 0.231086,0 0.436495,-0.15406 0.590552,-0.5392 l 3.337906,-8.13934 c 0.43649,-1.02705 0.87299,-1.77166 2.18247,-1.84869 0.15406,-0.15405 0.15406,-0.69325 0,-0.84731 -0.51352,0.0257 -1.0784,0.0514 -1.84868,0.0514 -0.77029,0 -1.848688,-0.0257 -2.618973,-0.0514 -0.154057,0.15406 -0.154057,0.69326 0,0.84731 1.925713,0.10271 1.643273,0.84732 1.283808,1.74598 l -2.131122,5.34064 c -0.256761,0.64191 -0.359466,0.64191 -0.590552,0.10271 l -2.20815,-5.62308 c -0.462171,-1.20678 -0.410819,-1.46354 0.950018,-1.56625 0.154057,-0.15405 0.154057,-0.69325 0,-0.84731 -0.770285,0.0257 -1.797332,0.0514 -2.567617,0.0514 -0.641904,0 -1.489217,-0.0257 -2.259502,-0.0514 -0.154057,0.15406 -0.154057,0.69326 0,0.84731 1.206779,0.12838 1.489217,0.87299 1.951388,2.00274 l 0.179734,0.41082 -1.797332,4.54468 c -0.33379,0.84732 -0.410819,0.89867 -0.744609,0.0514 l -2.054094,-5.28929 c -0.462171,-1.23246 -0.436494,-1.64328 0.795962,-1.72031 z"
       style="font-style:normal;font-variant:normal;font-weight:normal;font-stretch:normal;font-size:25.67616844px;line-height:1.25;font-family:'Linux Libertine O';-inkscape-font-specification:'Linux Libertine O';letter-spacing:0px;word-spacing:0px;fill:#ffffff;fill-opacity:1;stroke:none;stroke-width:1"
       id="path1315"
       inkscape:connector-curvature="0" />
    <path
       d="m 109.06013,583.94995 c 0.15406,-0.15405 0.15406,-0.69325 0,-0.84731 -0.77029,0.0257 -1.66895,0.0514 -2.59329,0.0514 -0.9757,0 -1.66896,-0.0257 -2.33654,-0.0514 -0.15405,0.15406 -0.15405,0.69326 0,0.84731 1.20678,0.12838 1.48922,0.38514 2.02842,1.72031 l 3.36358,8.2934 c 0.15406,0.35946 0.35947,0.51352 0.61623,0.51352 0.23108,0 0.43649,-0.15406 0.61623,-0.56487 l 2.59329,-6.31634 2.64464,6.36769 c 0.15406,0.35946 0.35947,0.51352 0.61623,0.51352 0.23109,0 0.4365,-0.15406 0.59055,-0.5392 l 3.33791,-8.13934 c 0.43649,-1.02705 0.87299,-1.77166 2.18247,-1.84869 0.15406,-0.15405 0.15406,-0.69325 0,-0.84731 -0.51352,0.0257 -1.0784,0.0514 -1.84868,0.0514 -0.77029,0 -1.84869,-0.0257 -2.61897,-0.0514 -0.15406,0.15406 -0.15406,0.69326 0,0.84731 1.92571,0.10271 1.64327,0.84732 1.2838,1.74598 l -2.13112,5.34064 c -0.25676,0.64191 -0.35946,0.64191 -0.59055,0.10271 l -2.20815,-5.62308 c -0.46217,-1.20678 -0.41082,-1.46354 0.95002,-1.56625 0.15406,-0.15405 0.15406,-0.69325 0,-0.84731 -0.77029,0.0257 -1.79733,0.0514 -2.56762,0.0514 -0.6419,0 -1.48922,-0.0257 -2.2595,-0.0514 -0.15406,0.15406 -0.15406,0.69326 0,0.84731 1.20678,0.12838 1.48922,0.87299 1.95139,2.00274 l 0.17973,0.41082 -1.79733,4.54468 c -0.33379,0.84732 -0.41082,0.89867 -0.74461,0.0514 l -2.05409,-5.28929 c -0.46217,-1.23246 -0.4365,-1.64328 0.79596,-1.72031 z"
       style="font-style:normal;font-variant:normal;font-weight:normal;font-stretch:normal;font-size:25.67616844px;line-height:1.25;font-family:'Linux Libertine O';-inkscape-font-specification:'Linux Libertine O';letter-spacing:0px;word-spacing:0px;fill:#ffffff;fill-opacity:1;stroke:none;stroke-width:1"
       id="path1317"
       inkscape:connector-curvature="0" />
    <path
       d="m 122.96377,593.06499 c 0,0.74461 0.61623,1.36084 1.36084,1.36084 0.74461,0 1.36084,-0.61623 1.36084,-1.36084 0,-0.74461 -0.61623,-1.36083 -1.36084,-1.36083 -0.74461,0 -1.36084,0.61622 -1.36084,1.36083 z"
       style="font-style:normal;font-variant:normal;font-weight:normal;font-stretch:normal;font-size:25.67616844px;line-height:1.25;font-family:'Linux Libertine O';-inkscape-font-specification:'Linux Libertine O';letter-spacing:0px;word-spacing:0px;fill:#ffffff;fill-opacity:1;stroke:none;stroke-width:1"
       id="path1319"
       inkscape:connector-curvature="0" />
    <path
       d="m 129.4779,578.78904 c 0,0.66758 0.61622,1.33516 1.23245,1.33516 0.71894,0 1.33516,-0.66758 1.33516,-1.23245 0,-0.61623 -0.5392,-1.33516 -1.23245,-1.33516 -0.61623,0 -1.33516,0.61622 -1.33516,1.23245 z m 2.33653,12.24753 v -5.10955 c 0,-1.28381 0.1027,-2.92709 0.1027,-2.92709 0,-0.1027 -0.12838,-0.17973 -0.33379,-0.17973 -0.74461,0.28244 -1.74598,0.51352 -3.51763,0.74461 -0.0513,0.15406 0,0.56488 0.0514,0.71893 1.38651,0.15406 1.66895,0.28244 1.66895,1.74598 v 5.00685 c 0,2.13113 -0.28244,2.20816 -1.84868,2.33654 -0.15406,0.15405 -0.15406,0.69325 0,0.84731 0.84731,-0.0257 1.84868,-0.0513 2.87573,-0.0513 1.02704,0 2.00274,0.0257 2.85005,0.0513 0.15406,-0.15406 0.15406,-0.69326 0,-0.84731 -1.56624,-0.10271 -1.84868,-0.20541 -1.84868,-2.33654 z"
       style="font-style:normal;font-variant:normal;font-weight:normal;font-stretch:normal;font-size:25.67616844px;line-height:1.25;font-family:'Linux Libertine O';-inkscape-font-specification:'Linux Libertine O';letter-spacing:0px;word-spacing:0px;fill:#ffffff;fill-opacity:1;stroke:none;stroke-width:1"
       id="path1321"
       inkscape:connector-curvature="0" />
    <path
       d="m 138.86213,584.977 c -0.17973,0.17973 -0.30811,0.25676 -0.30811,0 -0.0257,-0.69326 -0.10271,-1.66895 -0.20541,-1.95139 -0.077,-0.1027 -0.1027,-0.20541 -0.30811,-0.20541 -0.71894,0.28244 -1.38652,0.51352 -3.15817,0.74461 -0.0514,0.15406 0,0.56488 0.0514,0.71893 1.38651,0.12838 1.66895,0.25676 1.66895,1.74598 v 5.00685 c 0,2.10545 -0.25676,2.20816 -1.79733,2.33654 -0.15406,0.15405 -0.15406,0.69325 0,0.84731 0.77028,-0.0257 1.79733,-0.0513 2.82438,-0.0513 1.02704,0 1.79733,0.0257 2.56761,0.0513 0.15406,-0.15406 0.15406,-0.69326 0,-0.84731 -1.30948,-0.12838 -1.56624,-0.23109 -1.56624,-2.33654 v -4.21089 c 0,-0.5392 0.23108,-0.84731 0.43649,-1.0784 0.9757,-0.95001 2.13112,-1.51489 3.1325,-1.51489 0.51352,0 1.05272,0.33379 1.36083,0.92434 0.25676,0.51353 0.30812,1.20678 0.30812,1.97707 v 3.90277 c 0,2.10545 -0.25677,2.20816 -1.59193,2.33654 -0.12838,0.15405 -0.12838,0.69325 0,0.84731 0.77029,-0.0257 1.59193,-0.0513 2.61897,-0.0513 1.02705,0 1.95139,0.0257 2.72168,0.0513 0.12838,-0.15406 0.12838,-0.69326 0,-0.84731 -1.43787,-0.12838 -1.72031,-0.23109 -1.72031,-2.33654 v -3.82574 c 0,-1.41219 -0.1027,-2.64465 -0.69325,-3.44061 -0.4365,-0.56488 -1.23246,-0.87299 -2.13113,-0.87299 -1.25813,0 -2.69599,0.33379 -4.21089,2.07977 z"
       style="font-style:normal;font-variant:normal;font-weight:normal;font-stretch:normal;font-size:25.67616844px;line-height:1.25;font-family:'Linux Libertine O';-inkscape-font-specification:'Linux Libertine O';letter-spacing:0px;word-spacing:0px;fill:#ffffff;fill-opacity:1;stroke:none;stroke-width:1"
       id="path1323"
       inkscape:connector-curvature="0" />
    <path
       d="m 150.28723,591.03657 c 0,2.13113 -0.28244,2.23383 -1.7203,2.33654 -0.15406,0.15405 -0.15406,0.69325 0,0.84731 0.84731,-0.0257 1.7203,-0.0513 2.74735,-0.0513 0.89866,0 1.74598,0.0257 2.33653,0.0513 0.15405,-0.15406 0.15405,-0.69326 0,-0.84731 -1.05273,-0.10271 -1.33516,-0.20541 -1.33516,-2.33654 v -2.20815 c 0.48784,0 0.84731,0.0514 1.10407,0.12839 0.28244,0.17973 0.51353,0.41081 0.82164,0.82163 l 1.87436,2.51627 c 0.74461,1.02704 1.02705,1.51489 1.0784,1.79733 0,0.077 0.0257,0.12838 0.1027,0.12838 0.51353,-0.0257 1.0784,-0.0513 1.59193,-0.0513 0.79596,0 1.59192,0.0257 2.10544,0.0513 0.15406,-0.15406 0.15406,-0.69326 0,-0.84731 -0.87299,-0.10271 -1.54057,-0.20541 -2.20815,-1.0784 l -3.38925,-4.26225 c -0.10271,-0.1027 -0.17974,-0.23108 -0.17974,-0.35946 0,-0.10271 0,-0.15406 0.10271,-0.25676 l 2.2595,-2.33654 c 0.77029,-0.82163 1.66895,-1.02704 2.696,-1.12975 0.15406,-0.15405 0.15406,-0.69325 0,-0.84731 -0.59055,0.0257 -1.30949,0.0514 -2.23383,0.0514 -0.97569,0 -1.92571,-0.0257 -2.51626,-0.0514 -0.15406,0.15406 -0.15406,0.69326 0,0.84731 1.43786,0.10271 0.82163,1.02705 0.59055,1.30949 -0.59055,0.74461 -1.41219,1.6176 -2.05409,2.10544 -0.59056,0.4365 -1.28381,0.74461 -1.74598,0.79596 v -8.96098 c 0,-1.66895 0.1027,-2.696 0.1027,-2.696 0,-0.17973 -0.1027,-0.25676 -0.33379,-0.25676 -0.6419,0.25676 -2.56762,0.61623 -3.59466,0.69326 -0.0514,0.20541 0,0.61623 0.15405,0.77028 1.33517,0.077 1.64328,-0.0513 1.64328,2.10545 z"
       style="font-style:normal;font-variant:normal;font-weight:normal;font-stretch:normal;font-size:25.67616844px;line-height:1.25;font-family:'Linux Libertine O';-inkscape-font-specification:'Linux Libertine O';letter-spacing:0px;word-spacing:0px;fill:#ffffff;fill-opacity:1;stroke:none;stroke-width:1"
       id="path1325"
       inkscape:connector-curvature="0" />
    <path
       d="m 162.45051,590.62576 c 0.10271,1.25813 0.17973,2.46491 0.17973,3.54331 0.25677,-0.0514 0.51353,-0.077 0.64191,-0.077 0.17973,0 0.33379,0 0.51352,0.0513 0.69326,0.17973 1.38652,0.28244 2.33653,0.28244 1.43787,0 4.08251,-0.69326 4.08251,-3.2352 0,-1.74598 -1.25813,-2.77302 -3.00411,-3.41493 -1.56624,-0.56487 -2.56761,-0.97569 -2.56761,-2.38788 0,-1.05273 0.92434,-1.64328 1.79733,-1.64328 0.56487,0 2.05409,0.20541 2.38788,2.38789 0.15406,0.15405 0.66758,0.12838 0.82164,-0.0257 0.077,-0.92434 0.12838,-1.87436 0.15406,-2.72167 -0.79597,-0.12838 -2.02842,-0.48785 -3.36358,-0.48785 -1.90004,0 -3.62034,1.23246 -3.62034,2.87573 0,1.87436 0.84731,2.67032 2.82438,3.49196 2.13112,0.87299 2.61897,1.41219 2.61897,2.51626 0,1.25814 -1.23246,1.79734 -2.18248,1.79734 -1.00137,0 -1.56624,-0.33379 -1.82301,-0.61623 -0.56487,-0.59055 -0.84731,-1.72031 -1.00137,-2.36221 -0.15405,-0.15406 -0.6419,-0.12838 -0.79596,0.0257 z"
       style="font-style:normal;font-variant:normal;font-weight:normal;font-stretch:normal;font-size:25.67616844px;line-height:1.25;font-family:'Linux Libertine O';-inkscape-font-specification:'Linux Libertine O';letter-spacing:0px;word-spacing:0px;fill:#ffffff;fill-opacity:1;stroke:none;stroke-width:1"
       id="path1327"
       inkscape:connector-curvature="0" />
    <path
       d="m 181.46693,591.83254 c -0.10271,-0.23109 -0.30812,-0.33379 -0.5392,-0.35947 -0.87299,1.12975 -1.97707,1.69463 -3.08114,1.69463 -1.87436,0 -3.44061,-1.90004 -3.44061,-4.90415 0,-2.82438 1.23246,-4.51901 2.92708,-4.51901 1.5149,0 1.72031,0.89867 1.82301,1.79733 0.077,0.69326 0.4365,0.92435 0.97569,0.92435 0.5392,0 1.25814,-0.33379 1.25814,-1.12975 0,-1.41219 -1.46354,-2.43924 -3.92846,-2.43924 -2.54194,0 -5.26361,2.28518 -5.26361,5.93119 0,3.31223 1.84868,5.59741 5.08388,5.59741 1.54057,0 2.90141,-0.48785 4.18522,-2.59329 z"
       style="font-style:normal;font-variant:normal;font-weight:normal;font-stretch:normal;font-size:25.67616844px;line-height:1.25;font-family:'Linux Libertine O';-inkscape-font-specification:'Linux Libertine O';letter-spacing:0px;word-spacing:0px;fill:#ffffff;fill-opacity:1;stroke:none;stroke-width:1"
       id="path1329"
       inkscape:connector-curvature="0" />
    <path
       d="m 189.75351,588.18652 v 3.38925 c 0,0.33379 -0.15406,0.51353 -0.35947,0.66758 -0.66758,0.5392 -1.54057,1.12976 -2.2595,1.12976 -1.28381,0 -1.84868,-1.02705 -1.84868,-1.82301 0,-1.15543 0.5392,-2.33653 2.43923,-2.82438 z m 0,4.75009 c 0.15406,0.79596 0.41082,1.48922 1.7203,1.48922 0.9757,0 1.90004,-0.4365 2.43924,-0.95002 -0.0513,-0.30811 -0.15406,-0.51352 -0.4365,-0.69326 -0.20541,0.17974 -0.6419,0.41082 -0.95001,0.41082 -0.74461,0 -0.77029,-1.00137 -0.77029,-2.18247 v -3.7744 c 0,-3.64601 -2.00274,-4.33927 -3.8771,-4.33927 -2.10545,0 -4.23657,1.38651 -4.23657,2.85005 0,0.61623 0.30812,0.92435 0.89867,0.92435 0.74461,0 1.20678,-0.5392 1.20678,-0.87299 0,-0.17974 -0.0257,-0.35947 -0.077,-0.46217 -0.0257,-0.077 -0.0513,-0.23109 -0.0513,-0.51353 0,-0.79596 1.0784,-1.0784 2.05409,-1.0784 0.87299,0 2.07977,0.4365 2.07977,3.3379 0,0.17974 -0.077,0.28244 -0.15406,0.30812 l -2.20815,0.5392 c -2.46491,0.61623 -4.23657,1.97706 -4.23657,3.72304 0,2.10545 1.43787,2.77303 3.2352,2.77303 0.87299,0 1.66895,-0.20541 2.7987,-1.0784 l 0.51353,-0.41082 z"
       style="font-style:normal;font-variant:normal;font-weight:normal;font-stretch:normal;font-size:25.67616844px;line-height:1.25;font-family:'Linux Libertine O';-inkscape-font-specification:'Linux Libertine O';letter-spacing:0px;word-spacing:0px;fill:#ffffff;fill-opacity:1;stroke:none;stroke-width:1"
       id="path1331"
       inkscape:connector-curvature="0" />
    <path
       d="m 198.45852,585.67026 c 0.66758,-0.82164 1.82301,-1.59193 2.5933,-1.59193 1.64327,0 3.05546,1.84869 3.05546,4.75009 0,2.10545 -0.74461,4.72442 -3.62034,4.72442 -0.46217,0 -1.36084,-0.12838 -1.82301,-0.5392 -0.5392,-0.46217 -0.61622,-0.59055 -0.61622,-1.54057 v -4.67306 c 0,-0.5392 0.1027,-0.74461 0.41081,-1.12975 z m -0.48784,-0.95002 c -0.0514,-0.77029 -0.10271,-1.41219 -0.20541,-1.69463 -0.077,-0.1027 -0.10271,-0.20541 -0.30812,-0.20541 -0.71893,0.28244 -1.38651,0.51352 -3.15817,0.74461 -0.0514,0.15406 0,0.56488 0.0514,0.71893 1.38651,0.12838 1.66895,0.25676 1.66895,1.74598 v 10.96373 c 0,2.13112 -0.28244,2.2595 -1.84869,2.33653 -0.15405,0.15405 -0.15405,0.69325 0,0.84731 0.89867,-0.0257 1.84869,-0.0513 2.87573,-0.0513 1.02705,0 2.25951,0.0257 3.10682,0.0513 0.15406,-0.15406 0.15406,-0.69326 0,-0.84731 -1.82301,-0.10271 -2.10544,-0.20541 -2.10544,-2.33653 v -2.77303 c 0,-0.33379 0.077,-0.28244 0.35946,-0.17973 0.61623,0.25676 1.41219,0.38514 2.23383,0.38514 1.43786,0 2.72167,-0.4365 3.7744,-1.43787 1.20678,-1.1811 1.90003,-2.77302 1.90003,-4.85279 0,-2.72168 -1.92571,-5.23794 -4.54468,-5.23794 -1.20678,0 -2.51626,0.79596 -3.51764,1.92571 -0.15405,0.17974 -0.28243,0.15406 -0.28243,-0.1027 z"
       style="font-style:normal;font-variant:normal;font-weight:normal;font-stretch:normal;font-size:25.67616844px;line-height:1.25;font-family:'Linux Libertine O';-inkscape-font-specification:'Linux Libertine O';letter-spacing:0px;word-spacing:0px;fill:#ffffff;fill-opacity:1;stroke:none;stroke-width:1"
       id="path1333"
       inkscape:connector-curvature="0" />
    <path
       d="m 210.68922,586.92839 c 0.48784,-2.90141 2.28517,-3.13249 2.9014,-3.13249 0.9757,0 2.13112,0.53919 2.13112,2.69599 0,0.23109 -0.1027,0.35947 -0.38514,0.35947 z m 6.72715,4.85279 c -0.95002,0.9757 -1.69463,1.38652 -3.18384,1.38652 -0.92434,0 -2.00274,-0.5392 -2.79871,-1.84869 -0.51352,-0.84731 -0.82163,-2.02841 -0.82163,-3.51763 l 6.82986,0.0513 c 0.30811,0 0.48785,-0.15406 0.48785,-0.43649 0,-2.1568 -0.77029,-4.46766 -4.33928,-4.46766 -2.23382,0 -5.13523,2.13112 -5.13523,6.0339 0,1.43787 0.35947,2.82438 1.20678,3.80007 0.87299,1.02705 2.07977,1.64328 3.92845,1.64328 1.95139,0 3.3379,-0.89867 4.36495,-2.23383 -0.077,-0.25676 -0.23108,-0.38514 -0.5392,-0.41082 z"
       style="font-style:normal;font-variant:normal;font-weight:normal;font-stretch:normal;font-size:25.67616844px;line-height:1.25;font-family:'Linux Libertine O';-inkscape-font-specification:'Linux Libertine O';letter-spacing:0px;word-spacing:0px;fill:#ffffff;fill-opacity:1;stroke:none;stroke-width:1"
       id="path1335"
       inkscape:connector-curvature="0" />
    <path
       d="m 220.20223,593.06499 c 0,0.74461 0.61623,1.36084 1.36084,1.36084 0.74461,0 1.36084,-0.61623 1.36084,-1.36084 0,-0.74461 -0.61623,-1.36083 -1.36084,-1.36083 -0.74461,0 -1.36084,0.61622 -1.36084,1.36083 z"
       style="font-style:normal;font-variant:normal;font-weight:normal;font-stretch:normal;font-size:25.67616844px;line-height:1.25;font-family:'Linux Libertine O';-inkscape-font-specification:'Linux Libertine O';letter-spacing:0px;word-spacing:0px;fill:#ffffff;fill-opacity:1;stroke:none;stroke-width:1"
       id="path1337"
       inkscape:connector-curvature="0" />
    <path
       d="m 225.45823,588.90545 c 0,2.61897 1.74597,5.52038 5.39199,5.52038 1.64328,0 2.87573,-0.56488 3.74872,-1.43787 1.15543,-1.10407 1.69463,-2.72167 1.69463,-4.31359 0,-2.67032 -1.46354,-5.77714 -5.392,-5.77714 -1.69462,0 -3.10681,0.69326 -4.03116,1.79733 -0.92434,1.10408 -1.41218,2.59329 -1.41218,4.21089 z m 5.0582,-5.10955 c 2.20815,0 3.56899,2.00274 3.56899,5.7001 0,3.2352 -1.66895,4.03116 -2.87573,4.03116 -2.67032,0 -3.54331,-3.23519 -3.54331,-5.21226 0,-2.23383 0.5392,-4.519 2.85005,-4.519 z"
       style="font-style:normal;font-variant:normal;font-weight:normal;font-stretch:normal;font-size:25.67616844px;line-height:1.25;font-family:'Linux Libertine O';-inkscape-font-specification:'Linux Libertine O';letter-spacing:0px;word-spacing:0px;fill:#ffffff;fill-opacity:1;stroke:none;stroke-width:1"
       id="path1339"
       inkscape:connector-curvature="0" />
    <path
       d="m 241.86289,584.977 c -0.0513,-1.02705 -0.1027,-1.66895 -0.20541,-1.95139 -0.077,-0.1027 -0.1027,-0.20541 -0.30811,-0.20541 -0.71893,0.28244 -1.38651,0.51352 -3.15817,0.74461 -0.0514,0.15406 0,0.56488 0.0513,0.71893 1.38652,0.12838 1.66895,0.25676 1.66895,1.74598 v 5.00685 c 0,2.13113 -0.30811,2.23383 -1.90003,2.33654 -0.15406,0.15405 -0.15406,0.69325 0,0.84731 0.89866,-0.0257 1.90003,-0.0513 2.92708,-0.0513 1.02705,0 2.20815,0.0257 3.10682,0.0513 0.15405,-0.15406 0.15405,-0.69326 0,-0.84731 -1.79733,-0.12838 -2.10545,-0.20541 -2.10545,-2.33654 v -3.56898 c 0,-0.66758 0.30812,-1.25813 0.61623,-1.72031 0.28244,-0.41081 0.87299,-1.25813 1.1811,-1.25813 0.23109,0 0.46217,0.077 0.64191,0.33379 0.20541,0.25676 0.48784,0.59055 0.95002,0.59055 0.61622,0 1.20678,-0.6419 1.20678,-1.2838 0,-0.48785 -0.46218,-1.23246 -1.54057,-1.23246 -1.20678,0 -2.25951,1.12975 -2.85006,2.13112 -0.15406,0.28244 -0.28244,0.077 -0.28244,-0.0514 z"
       style="font-style:normal;font-variant:normal;font-weight:normal;font-stretch:normal;font-size:25.67616844px;line-height:1.25;font-family:'Linux Libertine O';-inkscape-font-specification:'Linux Libertine O';letter-spacing:0px;word-spacing:0px;fill:#ffffff;fill-opacity:1;stroke:none;stroke-width:1"
       id="path1341"
       inkscape:connector-curvature="0" />
    <path
       d="m 255.06284,587.00542 c 0,2.38788 -1.20678,2.87573 -2.15679,2.87573 -2.1568,0 -2.38789,-1.82301 -2.38789,-3.46629 0,-1.79733 0.64191,-2.72167 2.0541,-2.72167 1.61759,0 2.49058,1.1811 2.49058,3.31223 z m -4.80144,7.42041 c 0.28244,0.077 0.69326,0.12838 1.02705,0.12838 0.79596,0 1.51489,-0.077 1.87436,-0.077 1.28381,0 2.36221,0.0257 3.10681,0.4365 1.00137,0.56487 1.30949,0.92434 1.30949,1.59192 0,1.84868 -2.72168,2.82438 -5.03253,2.82438 -0.92434,0 -3.08114,-0.74461 -3.08114,-2.49059 0,-0.87299 0.0513,-1.5149 0.79596,-2.41356 z m 8.01097,-10.19344 c 0.48784,0 0.95001,-0.46217 0.95001,-0.97569 0,-0.5392 -0.48784,-0.95002 -1.1811,-0.95002 -0.66758,0 -1.90004,0.43649 -2.56762,1.30948 -0.30811,-0.20541 -1.15542,-0.71893 -2.67032,-0.71893 -2.28518,0 -4.39062,1.54057 -4.39062,3.90278 0,1.38651 0.61622,2.18247 1.33516,2.87573 -0.71894,0.61623 -1.12975,1.7203 -1.12975,2.59329 0,0.92434 0.51352,1.64328 1.1811,1.97707 -1.38651,0.82163 -2.10545,2.00274 -2.10545,3.10681 0,2.23383 2.10545,2.92709 4.08251,2.92709 3.46629,0 7.21501,-1.66896 7.21501,-4.44198 0,-0.82164 -0.38514,-1.46354 -1.12975,-2.07977 -1.00137,-0.82164 -2.79871,-0.84731 -3.74872,-0.84731 -0.46217,0 -1.10408,0.0514 -1.72031,0.12838 -0.38514,0.0257 -0.6419,0.0514 -0.77028,0.0514 -0.74461,0 -1.64328,-0.35947 -1.64328,-1.46354 0,-0.51353 0.15406,-1.05273 0.46217,-1.48922 0.61623,0.35947 1.33516,0.5392 2.33654,0.5392 2.2595,0 4.33927,-1.41219 4.33927,-3.92846 0,-1.20678 -0.35947,-1.90003 -1.10408,-2.67032 0.17974,-0.25676 0.69326,-0.61622 1.02705,-0.61622 0.17973,0 0.35947,0.077 0.51352,0.30811 0.10271,0.20541 0.4365,0.46217 0.71894,0.46217 z"
       style="font-style:normal;font-variant:normal;font-weight:normal;font-stretch:normal;font-size:25.67616844px;line-height:1.25;font-family:'Linux Libertine O';-inkscape-font-specification:'Linux Libertine O';letter-spacing:0px;word-spacing:0px;fill:#ffffff;fill-opacity:1;stroke:none;stroke-width:1"
       id="path1343"
       inkscape:connector-curvature="0" />
    <path
       d="m 722.43066,616.38028 v 3.68758 h -2.44558 c 0.65301,-1.04994 1.5621,-2.47119 2.44558,-3.68758 z m 2.03585,3.68758 h -1.06274 v -3.73879 c 0,-0.64021 0,-1.13957 0.0256,-1.242 l -0.0256,-0.0256 h -0.40973 c -0.0896,0 -0.16646,0.0896 -0.20487,0.14085 -0.80665,0.99872 -2.30473,3.09858 -3.4699,4.92957 0.0384,0.19206 0.11524,0.53777 0.49936,0.53777 h 2.61203 v 1.17797 c 0,0.58899 -0.48656,0.58899 -1.03713,0.6274 -0.0768,0.0768 -0.0768,0.34571 0,0.42254 0.40973,-0.0128 0.92189,-0.0256 1.51088,-0.0256 0.49936,0 0.98591,0.0128 1.39564,0.0256 0.0768,-0.0768 0.0768,-0.34571 0,-0.42254 -0.6274,-0.0512 -0.89628,-0.0256 -0.89628,-0.6274 v -1.17797 h 0.88348 c 0.17926,0 0.37132,-0.24328 0.37132,-0.39693 0,-0.12804 -0.0512,-0.20486 -0.19206,-0.20486 z"
       style="font-style:normal;font-variant:normal;font-weight:normal;font-stretch:normal;font-size:12.80407238px;line-height:1.25;font-family:'Linux Libertine O';-inkscape-font-specification:'Linux Libertine O';letter-spacing:0px;word-spacing:0px;fill:#7c7c7c;fill-opacity:1;stroke:none;stroke-width:1"
       id="path1302"
       inkscape:connector-curvature="0" />
    <path
       d="m 728.38255,616.38028 v 3.68758 h -2.44558 c 0.65301,-1.04994 1.5621,-2.47119 2.44558,-3.68758 z m 2.03585,3.68758 h -1.06274 v -3.73879 c 0,-0.64021 0,-1.13957 0.0256,-1.242 l -0.0256,-0.0256 h -0.40973 c -0.0896,0 -0.16645,0.0896 -0.20487,0.14085 -0.80665,0.99872 -2.30473,3.09858 -3.4699,4.92957 0.0384,0.19206 0.11524,0.53777 0.49936,0.53777 h 2.61203 v 1.17797 c 0,0.58899 -0.48655,0.58899 -1.03713,0.6274 -0.0768,0.0768 -0.0768,0.34571 0,0.42254 0.40973,-0.0128 0.92189,-0.0256 1.51088,-0.0256 0.49936,0 0.98592,0.0128 1.39565,0.0256 0.0768,-0.0768 0.0768,-0.34571 0,-0.42254 -0.6274,-0.0512 -0.89629,-0.0256 -0.89629,-0.6274 v -1.17797 h 0.88348 c 0.17926,0 0.37132,-0.24328 0.37132,-0.39693 0,-0.12804 -0.0512,-0.20486 -0.19206,-0.20486 z"
       style="font-style:normal;font-variant:normal;font-weight:normal;font-stretch:normal;font-size:12.80407238px;line-height:1.25;font-family:'Linux Libertine O';-inkscape-font-specification:'Linux Libertine O';letter-spacing:0px;word-spacing:0px;fill:#7c7c7c;fill-opacity:1;stroke:none;stroke-width:1"
       id="path1304"
       inkscape:connector-curvature="0" />
    <path
       d="m 733.28451,615.77849 c 0,-0.37132 0.19206,-0.81946 1.11395,-0.81946 0.88349,0 1.76697,0.2945 1.76697,1.92061 0,1.38284 -0.66582,1.94622 -1.90781,1.94622 -0.3201,0 -0.83227,-0.0256 -0.97311,-0.064 z m -1.08835,0.39693 v 5.13443 c 0,1.06274 -0.21767,1.12676 -1.11395,1.16517 -0.0768,0.0768 -0.0768,0.34571 0,0.42254 0.57618,-0.0128 1.20358,-0.0256 1.66453,-0.0256 0.44814,0 1.20358,0.0128 1.84379,0.0256 0.0768,-0.0768 0.0768,-0.34571 0,-0.42254 -0.99872,-0.0512 -1.30602,-0.10243 -1.30602,-1.16517 v -2.17669 c 0.28169,0.0896 0.58899,0.12804 1.03713,0.12804 2.33034,0 3.03456,-1.52368 3.03456,-2.61203 0,-0.75544 -0.49935,-2.12548 -2.86811,-2.12548 -0.49936,0 -1.24199,0.0896 -1.75416,0.0896 -0.47375,0 -1.13956,-0.0128 -1.65172,-0.0256 -0.0768,0.0768 -0.0768,0.34571 0,0.42254 0.89628,0.0384 1.11395,0.10243 1.11395,1.16517 z"
       style="font-style:normal;font-variant:normal;font-weight:normal;font-stretch:normal;font-size:12.80407238px;line-height:1.25;font-family:'Linux Libertine O';-inkscape-font-specification:'Linux Libertine O';letter-spacing:0px;word-spacing:0px;fill:#7c7c7c;fill-opacity:1;stroke:none;stroke-width:1"
       id="path1306"
       inkscape:connector-curvature="0" />
    <path
       d="m 739.37945,619.2612 c 0.24328,-1.44686 1.13956,-1.5621 1.44686,-1.5621 0.48655,0 1.06274,0.26889 1.06274,1.34443 0,0.11524 -0.0512,0.17926 -0.19206,0.17926 z m 3.35467,2.41997 c -0.47375,0.48655 -0.84507,0.69142 -1.58771,0.69142 -0.46095,0 -0.99872,-0.26889 -1.39564,-0.92189 -0.25608,-0.42254 -0.40973,-1.01153 -0.40973,-1.75416 l 3.40588,0.0256 c 0.15365,0 0.24328,-0.0768 0.24328,-0.21767 0,-1.07554 -0.38412,-2.22791 -2.16389,-2.22791 -1.11395,0 -2.56082,1.06274 -2.56082,3.00896 0,0.71702 0.17926,1.40844 0.6018,1.895 0.43533,0.51216 1.03713,0.81946 1.95902,0.81946 0.97311,0 1.66453,-0.44814 2.17669,-1.11396 -0.0384,-0.12804 -0.11523,-0.19206 -0.26888,-0.20486 z"
       style="font-style:normal;font-variant:normal;font-weight:normal;font-stretch:normal;font-size:12.80407238px;line-height:1.25;font-family:'Linux Libertine O';-inkscape-font-specification:'Linux Libertine O';letter-spacing:0px;word-spacing:0px;fill:#7c7c7c;fill-opacity:1;stroke:none;stroke-width:1"
       id="path1308"
       inkscape:connector-curvature="0" />
    <path
       d="m 744.13316,621.10499 c 0.0512,0.6274 0.0896,1.22919 0.0896,1.76696 0.12804,-0.0256 0.25608,-0.0384 0.3201,-0.0384 0.0896,0 0.16645,0 0.25608,0.0256 0.34571,0.0896 0.69142,0.14085 1.16517,0.14085 0.71703,0 2.03585,-0.34571 2.03585,-1.61331 0,-0.87068 -0.6274,-1.38284 -1.49808,-1.70295 -0.78105,-0.28169 -1.2804,-0.48655 -1.2804,-1.19077 0,-0.52497 0.46094,-0.81947 0.89628,-0.81947 0.28169,0 1.02433,0.10244 1.19078,1.19078 0.0768,0.0768 0.33291,0.064 0.40973,-0.0128 0.0384,-0.46095 0.064,-0.9347 0.0768,-1.35723 -0.39692,-0.064 -1.01152,-0.24328 -1.67733,-0.24328 -0.9475,0 -1.80537,0.6146 -1.80537,1.43406 0,0.93469 0.42253,1.33162 1.40844,1.74135 1.06274,0.43534 1.30602,0.70422 1.30602,1.2548 0,0.6274 -0.6146,0.89628 -1.08835,0.89628 -0.49935,0 -0.78104,-0.16645 -0.90909,-0.30729 -0.28168,-0.2945 -0.42253,-0.85788 -0.49935,-1.17798 -0.0768,-0.0768 -0.32011,-0.064 -0.39693,0.0128 z"
       style="font-style:normal;font-variant:normal;font-weight:normal;font-stretch:normal;font-size:12.80407238px;line-height:1.25;font-family:'Linux Libertine O';-inkscape-font-specification:'Linux Libertine O';letter-spacing:0px;word-spacing:0px;fill:#7c7c7c;fill-opacity:1;stroke:none;stroke-width:1"
       id="path1310"
       inkscape:connector-curvature="0" />
  </g>
  <g
     id="g920"
     style="display:none"
     inkscape:label="text">
    <g
       id="g1288"
       transform="translate(609.56806,2)">
      <text
         xml:space="preserve"
         style="font-style:normal;font-weight:normal;font-size:332.46795654px;line-height:1.25;font-family:sans-serif;letter-spacing:0px;word-spacing:0px;fill:#282828;fill-opacity:1;stroke:none;stroke-width:1"
         x="169.83224"
         y="437.82294"
         id="text1286"><tspan
           style="font-style:normal;font-variant:normal;font-weight:normal;font-stretch:normal;font-family:'Linux Libertine O';-inkscape-font-specification:'Linux Libertine O';fill:#282828;fill-opacity:1;stroke-width:1"
           sodipodi:role="line"
           id="tspan1284"
           x="169.83224"
           y="437.82294">1.0</tspan></text>
    </g>
    <text
       id="text1296"
       y="691.18817"
       x="64.731827"
       style="font-style:normal;font-weight:normal;font-size:25.67616844px;line-height:1.25;font-family:sans-serif;letter-spacing:0px;word-spacing:0px;fill:#ffffff;fill-opacity:1;stroke:none;stroke-width:1"
       xml:space="preserve"><tspan
         style="font-style:normal;font-variant:normal;font-weight:normal;font-stretch:normal;font-family:'Linux Libertine O';-inkscape-font-specification:'Linux Libertine O';fill:#ffffff;fill-opacity:1;stroke-width:1"
         y="691.18817"
         x="64.731827"
         id="tspan1294"
         sodipodi:role="line">www.inkscape.org</tspan></text>
    <text
       id="text1300"
       y="657.67053"
       x="718.96075"
       style="font-style:normal;font-weight:normal;font-size:12.80407238px;line-height:1.25;font-family:sans-serif;letter-spacing:0px;word-spacing:0px;fill:#7c7c7c;fill-opacity:1;stroke:none;stroke-width:1"
       xml:space="preserve"><tspan
         style="font-style:normal;font-variant:normal;font-weight:normal;font-stretch:normal;font-family:'Linux Libertine O';-inkscape-font-specification:'Linux Libertine O';fill:#7c7c7c;fill-opacity:1;stroke-width:1"
         y="657.67053"
         x="718.96075"
         id="tspan1298"
         sodipodi:role="line">44Pes</tspan></text>
  </g>
</svg>
