<?xml version="1.0" encoding="UTF-8" standalone="no"?>
<!-- Created with Inkscape (http://www.inkscape.org/) -->

<svg
   xmlns:dc="http://purl.org/dc/elements/1.1/"
   xmlns:cc="http://creativecommons.org/ns#"
   xmlns:rdf="http://www.w3.org/1999/02/22-rdf-syntax-ns#"
   xmlns:svg="http://www.w3.org/2000/svg"
   xmlns="http://www.w3.org/2000/svg"
   xmlns:xlink="http://www.w3.org/1999/xlink"
   xmlns:sodipodi="http://sodipodi.sourceforge.net/DTD/sodipodi-0.dtd"
   xmlns:inkscape="http://www.inkscape.org/namespaces/inkscape"
   width="750"
   height="625"
   viewBox="0 0 750 625"
   version="1.1"
   id="svg8"
   inkscape:version="0.92.4 (0.92.4+201911060205+13fe9f3)"
   sodipodi:docname="Inkscape 1.0 Splash screen.svg">
  <title
     id="title6940">Inkscape 1.0 Splash Screen</title>
  <defs
     id="defs2">
    <linearGradient
       inkscape:collect="always"
       id="linearGradient6932">
      <stop
         style="stop-color:#653631;stop-opacity:1;"
         offset="0"
         id="stop6928" />
      <stop
         style="stop-color:#653631;stop-opacity:0;"
         offset="1"
         id="stop6930" />
    </linearGradient>
    <linearGradient
       inkscape:collect="always"
       id="linearGradient6924">
      <stop
         style="stop-color:#361d1a;stop-opacity:1;"
         offset="0"
         id="stop6920" />
      <stop
         style="stop-color:#361d1a;stop-opacity:0;"
         offset="1"
         id="stop6922" />
    </linearGradient>
    <linearGradient
       inkscape:collect="always"
       id="linearGradient6916">
      <stop
         style="stop-color:#361d1a;stop-opacity:1;"
         offset="0"
         id="stop6912" />
      <stop
         style="stop-color:#000000;stop-opacity:1"
         offset="1"
         id="stop6914" />
    </linearGradient>
    <inkscape:path-effect
       effect="envelope"
       id="path-effect5925"
       is_visible="true"
       yy="true"
       xx="true"
       bendpath1="m -756.67363,-185.47891 h 180.23157"
       bendpath2="M -576.44206,-185.47891 V 872.68845"
       bendpath3="m -756.67363,872.68845 h 180.23157"
       bendpath4="M -756.67363,-185.47891 V 872.68845" />
    <inkscape:path-effect
       effect="envelope"
       id="path-effect5922"
       is_visible="true"
       yy="true"
       xx="true"
       bendpath1="M -185.75626,578.06284 H 872.68845"
       bendpath2="M 872.68845,667.34917 Z"
       bendpath3="M -185.75626,756.6355 H 872.68845"
       bendpath4="M -185.75626,578.06284 V 756.6355"
       bendpath2-nodetypes="cc" />
    <inkscape:path-effect
       effect="transform_2pts"
       start="-185.75626,667.34917"
       end="872.68845,667.34917"
       id="path-effect2214"
       is_visible="true"
       first_knot="1"
       last_knot="2"
       helper_size="3"
       stretch="1"
       offset="0"
       elastic="false"
       from_original_width="true"
       flip_vertical="false"
       flip_horizontal="false"
       lock_lenght="false"
       lock_angle="false" />
    <inkscape:path-effect
       effect="interpolate_points"
       id="path-effect969"
       is_visible="true"
       interpolator_type="CubicBezierFit" />
    <linearGradient
       id="linearGradient5785"
       gradientUnits="userSpaceOnUse">
      <stop
         style="stop-color:#c0cdf9;stop-opacity:1"
         offset="0"
         id="stop5787" />
      <stop
         style="stop-color:#07092d;stop-opacity:0.28804347"
         offset="1"
         id="stop5789" />
    </linearGradient>
    <linearGradient
       gradientTransform="matrix(1.009184,0,0,1.009184,-0.3890738,-0.3831933)"
       id="shinySpecular-4"
       xlink:href="#WhiteTransparent-4"
       x1="33"
       y1="35"
       x2="58"
       y2="60"
       gradientUnits="userSpaceOnUse" />
    <linearGradient
       id="WhiteTransparent-4"
       gradientUnits="userSpaceOnUse">
      <stop
         style="stop-color:white;stop-opacity:1"
         offset="0"
         id="stop7606-4" />
      <stop
         style="stop-color:white;stop-opacity:0"
         offset="1"
         id="stop7608-7" />
    </linearGradient>
    <linearGradient
       id="IcecapTip-6"
       xlink:href="#WhiteTransparent-4"
       x1="60"
       y1="20"
       x2="90"
       y2="50"
       gradientUnits="userSpaceOnUse" />
    <clipPath
       clipPathUnits="userSpaceOnUse"
       id="clipPath1274">
      <path
         style="opacity:1;fill:#f2f2f2;fill-opacity:1;stroke:none;stroke-width:5.29889774;stroke-linecap:square;stroke-linejoin:round;stroke-miterlimit:4;stroke-dasharray:none;paint-order:fill markers stroke"
         d="m 602.98176,573.76553 a 62.420001,62.420001 0 0 0 -62.41993,62.41993 62.420001,62.420001 0 0 0 62.41993,62.41994 62.420001,62.420001 0 0 0 62.41994,-62.41994 62.420001,62.420001 0 0 0 -62.41994,-62.41993 z"
         id="path1276"
         inkscape:connector-curvature="0" />
    </clipPath>
    <radialGradient
       inkscape:collect="always"
       xlink:href="#linearGradient6916"
       id="radialGradient6918"
       cx="375"
       cy="444.13547"
       fx="375"
       fy="444.13547"
       r="375"
       gradientTransform="matrix(1,0,-1.020932e-6,1.252697,4.5177833e-4,-112.2317)"
       gradientUnits="userSpaceOnUse" />
    <linearGradient
       inkscape:collect="always"
       xlink:href="#linearGradient6924"
       id="linearGradient6926"
       x1="383.14154"
       y1="427.36136"
       x2="375.62082"
       y2="100.50051"
       gradientUnits="userSpaceOnUse" />
    <linearGradient
       inkscape:collect="always"
       xlink:href="#linearGradient6932"
       id="linearGradient6934"
       x1="136.20345"
       y1="718.17627"
       x2="-159.8952"
       y2="707.88928"
       gradientUnits="userSpaceOnUse" />
    <linearGradient
       inkscape:collect="always"
       xlink:href="#linearGradient6932"
       id="linearGradient6936"
       gradientUnits="userSpaceOnUse"
       x1="69.88385"
       y1="718.10181"
       x2="3.9831545"
       y2="717.38416" />
    <linearGradient
       inkscape:collect="always"
       xlink:href="#linearGradient6932"
       id="linearGradient6938"
       gradientUnits="userSpaceOnUse"
       x1="168.36713"
       y1="720.59625"
       x2="-6.9986382"
       y2="718.0824" />
  </defs>
  <sodipodi:namedview
     id="base"
     pagecolor="#000000"
     bordercolor="#666666"
     borderopacity="1.0"
     inkscape:pageopacity="0"
     inkscape:pageshadow="2"
     inkscape:zoom="0.65902538"
     inkscape:cx="690.34251"
     inkscape:cy="311.59232"
     inkscape:document-units="px"
     inkscape:current-layer="layer1"
     showgrid="false"
     inkscape:snap-center="true"
     inkscape:snap-text-baseline="false"
     inkscape:snap-object-midpoints="true"
     units="px"
     showguides="true"
     inkscape:guide-bbox="true"
     inkscape:snap-page="true"
     inkscape:window-width="1920"
     inkscape:window-height="1050"
     inkscape:window-x="0"
     inkscape:window-y="0"
     inkscape:window-maximized="1"
     inkscape:snap-intersection-paths="true"
     inkscape:snap-bbox="true"
     inkscape:bbox-nodes="false"
     inkscape:snap-global="true"
     inkscape:snap-midpoints="true" />
  <metadata
     id="metadata5">
    <rdf:RDF>
      <cc:Work
         rdf:about="">
        <dc:format>image/svg+xml</dc:format>
        <dc:type
           rdf:resource="http://purl.org/dc/dcmitype/StillImage" />
        <dc:title>Inkscape 1.0 Splash Screen</dc:title>
        <cc:license
           rdf:resource="http://creativecommons.org/licenses/by-sa/4.0/" />
        <dc:creator>
          <cc:Agent>
            <dc:title>jai ganesh</dc:title>
          </cc:Agent>
        </dc:creator>
        <dc:description>@jaigansa</dc:description>
      </cc:Work>
      <cc:License
         rdf:about="http://creativecommons.org/licenses/by-sa/4.0/">
        <cc:permits
           rdf:resource="http://creativecommons.org/ns#Reproduction" />
        <cc:permits
           rdf:resource="http://creativecommons.org/ns#Distribution" />
        <cc:requires
           rdf:resource="http://creativecommons.org/ns#Notice" />
        <cc:requires
           rdf:resource="http://creativecommons.org/ns#Attribution" />
        <cc:permits
           rdf:resource="http://creativecommons.org/ns#DerivativeWorks" />
        <cc:requires
           rdf:resource="http://creativecommons.org/ns#ShareAlike" />
      </cc:License>
    </rdf:RDF>
  </metadata>
  <g
     inkscape:label="Layer 1"
     inkscape:groupmode="layer"
     id="layer1"
     transform="translate(0,-131.63548)">
    <path
       style="opacity:1;fill:url(#radialGradient6918);fill-opacity:1;stroke:none;stroke-width:2;stroke-linecap:round;stroke-linejoin:round;stroke-miterlimit:4;stroke-dasharray:none"
       d="m 0,131.63548 h 750 v 625 H 0 Z"
       id="rect1154"
       inkscape:connector-curvature="0" />
    <path
       style="color:#000000;font-style:normal;font-variant:normal;font-weight:normal;font-stretch:normal;font-size:medium;line-height:normal;font-family:sans-serif;font-variant-ligatures:normal;font-variant-position:normal;font-variant-caps:normal;font-variant-numeric:normal;font-variant-alternates:normal;font-feature-settings:normal;text-indent:0;text-align:start;text-decoration:none;text-decoration-line:none;text-decoration-style:solid;text-decoration-color:#000000;letter-spacing:normal;word-spacing:normal;text-transform:none;writing-mode:lr-tb;direction:ltr;text-orientation:mixed;dominant-baseline:auto;baseline-shift:baseline;text-anchor:start;white-space:normal;shape-padding:0;clip-rule:nonzero;display:inline;overflow:visible;visibility:visible;opacity:1;isolation:auto;mix-blend-mode:normal;color-interpolation:sRGB;color-interpolation-filters:linearRGB;solid-color:#000000;solid-opacity:1;vector-effect:none;fill:#ffffff;fill-opacity:1;fill-rule:nonzero;stroke:none;stroke-width:18.95800018;stroke-linecap:butt;stroke-linejoin:miter;stroke-miterlimit:4;stroke-dasharray:37.91600037, 37.91600037;stroke-dashoffset:0;stroke-opacity:1;color-rendering:auto;image-rendering:auto;shape-rendering:auto;text-rendering:auto;enable-background:accumulate"
       d="m 581.48828,349.94531 v 37.91602 h 18.95899 v -37.91602 z m 0,75.83203 v 37.91602 h 18.95899 v -37.91602 z m 0,75.83204 v 37.91601 h 18.95899 v -37.91601 z m 0,75.83203 v 37.91601 h 18.95899 v -37.91601 z m 0,75.83203 v 37.91601 h 18.95899 v -37.91601 z"
       id="path6397"
       inkscape:connector-curvature="0" />
    <path
       style="color:#000000;font-style:normal;font-variant:normal;font-weight:normal;font-stretch:normal;font-size:medium;line-height:normal;font-family:sans-serif;font-variant-ligatures:normal;font-variant-position:normal;font-variant-caps:normal;font-variant-numeric:normal;font-variant-alternates:normal;font-feature-settings:normal;text-indent:0;text-align:start;text-decoration:none;text-decoration-line:none;text-decoration-style:solid;text-decoration-color:#000000;letter-spacing:normal;word-spacing:normal;text-transform:none;writing-mode:lr-tb;direction:ltr;text-orientation:mixed;dominant-baseline:auto;baseline-shift:baseline;text-anchor:start;white-space:normal;shape-padding:0;clip-rule:nonzero;display:inline;overflow:visible;visibility:visible;opacity:1;isolation:auto;mix-blend-mode:normal;color-interpolation:sRGB;color-interpolation-filters:linearRGB;solid-color:#000000;solid-opacity:1;vector-effect:none;fill:#dc1c4b;fill-opacity:1;fill-rule:nonzero;stroke:none;stroke-width:18.95832443;stroke-linecap:butt;stroke-linejoin:miter;stroke-miterlimit:4;stroke-dasharray:none;stroke-dashoffset:0;stroke-opacity:1;color-rendering:auto;image-rendering:auto;shape-rendering:auto;text-rendering:auto;enable-background:accumulate"
       d="m 581.48828,349.94531 v 361.53766 l 18.95899,5.08004 v -366.6177 z"
       id="path6380"
       inkscape:connector-curvature="0"
       sodipodi:nodetypes="ccccc" />
    <path
       style="opacity:1;fill:url(#linearGradient6926);fill-opacity:1;stroke:none;stroke-width:15.76854706;stroke-linecap:round;stroke-linejoin:round;stroke-miterlimit:4;stroke-dasharray:none"
       d="m 372.58604,180.9223 c -8.7745,-0.0168 -17.46435,3.16908 -23.76133,9.61408 L 244.06742,297.73345 c -35.39478,43.83192 24.09319,38.73298 49.59233,51.35778 9.14685,9.34967 -35.06222,16.25352 -25.91538,25.61097 9.14708,9.34972 55.31193,18.01732 64.4746,27.36707 9.14684,9.34955 -18.71904,19.26772 -9.57195,28.61743 9.14685,9.34967 30.29927,0.48613 34.26045,22.07066 2.82301,15.42431 38.12525,6.62904 55.38986,-6.0035 9.14684,-9.35751 -17.50127,-8.46891 -8.35442,-17.81858 22.74663,-23.26114 43.92663,-8.45653 51.70896,-31.76435 3.84442,-11.51749 -33.48577,-17.75976 -24.32309,-27.10952 26.31771,-15.36955 117.2781,-25.37327 74.1168,-68.53479 L 396.86237,190.53638 c -6.63985,-6.37477 -15.50185,-9.5997 -24.27633,-9.61408 z m 0.94587,10.20412 c 6.26461,0.0331 12.50357,2.37675 16.99895,6.93075 l 41.44864,42.09492 c 3.93026,4.01584 3.87558,11.79683 1.67669,14.03474 l -20.58154,-16.46051 -4.04606,24.37469 -17.19125,-9.07554 -27.54027,17.39711 -9.1176,-36.67677 -14.78878,25.59225 h -22.6186 c -9.21709,0 -10.29484,-11.69613 -1.92005,-20.07105 14.62886,-15.79068 31.41658,-31.88357 40.54017,-41.20984 4.58529,-4.68654 10.87508,-6.9672 17.1397,-6.93075 z m -49.77022,163.77164 c 2.79952,1.73893 45.13554,10.33841 55.48337,12.05387 3.58691,0.75644 1.04778,4.45418 -3.89621,6.94948 -11.1508,2.9632 -65.23346,-19.00335 -51.58716,-19.00335 z m 166.22543,29.46035 c -9.04278,-0.22849 -18.36441,4.14196 -20.82513,12.81252 2.3e-4,5.31813 39.17757,8.80418 39.17757,-1.25504 -2.61729,-7.57376 -10.37373,-11.35559 -18.35244,-11.55748 z m -181.24367,23.03536 c -12.28035,-0.11389 -26.69294,8.85907 -16.09982,18.034 9.27943,8.02402 23.61818,-1.99874 27.91479,-13.19652 -2.52882,-3.35997 -7.00957,-4.79073 -11.81497,-4.83748 z m 155.5062,0.69777 c -11.96194,10.72992 1.33574,21.62267 13.12625,14.69036 2.62784,-2.6669 -0.0647,-12.02354 -13.12625,-14.69036 z"
       id="path6695"
       inkscape:connector-curvature="0" />
    <rect
       transform="rotate(90)"
       style="opacity:1;fill:#ef937e;fill-opacity:1;stroke:none;stroke-width:2;stroke-linecap:round;stroke-linejoin:round;stroke-miterlimit:4;stroke-dasharray:none"
       id="rect936"
       width="750"
       height="625"
       x="1386.2319"
       y="-5961.9556" />
    <rect
       inkscape:transform-center-y="221.53927"
       inkscape:transform-center-x="185.12185"
       y="-6586.9556"
       x="1386.2318"
       height="625"
       width="750"
       id="rect938"
       style="opacity:1;fill:#ef937e;fill-opacity:1;stroke:none;stroke-width:2;stroke-linecap:round;stroke-linejoin:round;stroke-miterlimit:4;stroke-dasharray:none"
       transform="rotate(90)" />
    <path
       sodipodi:nodetypes="cc"
       style="fill:none;stroke:#dc1c4b;stroke-width:10;stroke-linecap:butt;stroke-linejoin:miter;stroke-miterlimit:4;stroke-dasharray:none;stroke-opacity:1"
       d="M 169.15863,265.12373 V 579.96517"
       id="path6228"
       inkscape:connector-curvature="0" />
    <path
       style="opacity:1;fill:#000000;fill-opacity:1;stroke:none;stroke-width:1.26987565;stroke-linecap:round;stroke-linejoin:round;stroke-miterlimit:4;stroke-dasharray:none"
       d="M 0,245.4668 V 424.03906 L 750,625 V 446.42969 Z"
       transform="translate(0,131.63548)"
       id="rect5949"
       inkscape:connector-curvature="0" />
    <path
       style="fill:#0d0d0d;fill-opacity:1;stroke:none;stroke-width:1px;stroke-linecap:butt;stroke-linejoin:miter;stroke-opacity:1"
       d="M 0,390.45666 V 405.7781 L 750,606.74 V 578.06517 L 0,377.10228 Z"
       id="path6910"
       inkscape:connector-curvature="0" />
    <path
       style="fill:#0d0d0d;fill-opacity:1;stroke:none;stroke-width:1px;stroke-linecap:butt;stroke-linejoin:miter;stroke-opacity:1"
       d="M 0,410.68359 V 424.03906 464.25 l 22.900391,6.13477 V 430.17578 L 73.4375,443.7168 v 40.20898 l 34.0332,9.11914 v -40.20898 l 50.53516,13.54101 v 40.20899 l 34.03711,9.12109 v -40.21094 l 50.53515,13.54102 v 40.21094 l 34.03321,9.11914 v -40.21094 l 50.53711,13.54102 v 40.21093 l 34.03711,9.1211 v -40.21094 l 50.53515,13.54102 v 40.20898 l 34.03321,9.11914 v -40.20898 l 50.53515,13.54101 v 40.20899 l 34.03711,9.12109 v -40.21094 l 51.16211,13.70899 v 40.21093 L 599.92969,625 h 14.96484 v -36.20117 l 50.53516,13.54101 V 625 H 699.4668 V 611.45898 L 750,625 V 611.64453 L 15.746094,414.90234 Z"
       id="path6897"
       inkscape:connector-curvature="0"
       transform="translate(0,131.63548)" />
    <path
       style="fill:#1a1a1a;fill-opacity:1;stroke:none;stroke-width:1px;stroke-linecap:butt;stroke-linejoin:miter;stroke-opacity:1"
       d="M 746.03516,590.35618 0,390.45666 v -13.35438 l 750,200.96189 z"
       id="path6895"
       inkscape:connector-curvature="0" />
    <path
       style="opacity:1;fill:#ffffff;fill-opacity:1;stroke:none;stroke-width:6.54083633;stroke-linecap:butt;stroke-linejoin:round;stroke-miterlimit:4;stroke-dasharray:13.08167254, 26.16334504;stroke-dashoffset:0;paint-order:fill markers stroke"
       d="m 183.12305,55.166016 c -4.62933,0.234572 -9.34096,0.99029 -14.06446,2.255859 -39.09909,10.476642 -70.79508,52.941425 -70.794918,94.847655 0.0404,39.82522 28.816118,65.13469 65.894528,57.95703 v 17.62422 l 10,10 v -30.2414 c 37.02225,-12.7859 65.69313,-53.49503 65.69532,-93.2793 C 239.8533,78.23495 216.12904,53.492976 183.12305,55.166016 Z M 164.1582,243.48828 v 22.66614 l 10,10 v -22.66614 z m 0,38.6443 v 14.26382 c 3.26488,3.00261 8.91844,1.87059 10,0 v -4.26382 z"
       id="circle6232"
       inkscape:connector-curvature="0"
       sodipodi:nodetypes="ccccccccccccccccccc"
       transform="translate(0,131.63548)" />
    <path
       style="opacity:1;fill:#dc1c4b;fill-opacity:1;stroke:none;stroke-width:5.57547379;stroke-linecap:round;stroke-linejoin:round;stroke-miterlimit:4;stroke-dasharray:none"
       d="m 169.15864,197.10971 a 57.481982,75.085358 33.815369 0 0 -63.45797,85.01755 57.481982,75.085358 33.815369 0 0 63.45797,51.01049 57.481982,75.085358 33.815369 0 0 63.45795,-85.01751 57.481982,75.085358 33.815369 0 0 -63.45795,-51.01053 z"
       id="path6257"
       inkscape:connector-curvature="0" />
    <path
       style="opacity:1;fill:#ffffff;fill-opacity:1;stroke:none;stroke-width:0.34727433;stroke-linecap:round;stroke-linejoin:round;stroke-miterlimit:4;stroke-dasharray:none"
       d="m 11.775391,248.62109 7.15625,15.27149 50.537109,13.54297 -7.158203,-15.27344 z m 84.570312,22.66016 7.158207,15.27344 50.53515,13.54101 -7.1582,-15.27343 z m 84.572267,22.66016 7.1543,15.27343 50.53906,13.54102 -7.16016,-15.27344 z m 84.56836,22.66015 7.16015,15.27344 50.53321,13.54102 -7.15625,-15.27344 z m 84.57226,22.66211 7.15625,15.27344 50.53711,13.54101 -7.16015,-15.27539 z m 84.56836,22.66016 7.15821,15.27344 50.53515,13.54101 -7.15625,-15.27344 z m 84.57032,22.66015 7.1582,15.27344 50.53711,13.54102 -7.16016,-15.27344 z m 84.57031,22.66016 7.1582,15.27344 50.53711,13.54101 -7.15625,-15.27343 z m -588.021486,7.6582 7.154297,15.27149 50.537109,13.54101 -7.158203,-15.27343 z m 672.593746,15.00196 7.15821,15.27343 50.53711,13.54297 -7.16016,-15.27539 z m -588.02539,7.6582 7.15625,15.27148 50.53516,13.54102 -7.1543,-15.27148 z m 84.57227,22.66016 7.15625,15.27343 50.53515,13.54102 -7.1582,-15.27344 z m 84.56836,22.66015 7.15625,15.27344 50.53711,13.54102 -7.1543,-15.27344 z m 84.57226,22.66211 7.15821,15.27149 50.53515,13.54101 -7.1582,-15.27148 z m 84.57227,22.66016 7.1543,15.27344 50.53515,13.54101 -7.15429,-15.27344 z m 84.56836,22.66015 7.1582,15.27344 50.53516,13.54102 -7.15821,-15.27344 z m 84.57226,22.66016 7.1543,15.27344 50.53516,13.54101 -7.1543,-15.27343 z m 84.56836,22.66016 7.15821,15.27343 L 750,625 742.84375,609.72656 Z"
       id="path5951"
       inkscape:connector-curvature="0"
       transform="translate(0,131.63548)" />
    <path
       style="color:#000000;font-style:normal;font-variant:normal;font-weight:normal;font-stretch:normal;font-size:medium;line-height:normal;font-family:sans-serif;font-variant-ligatures:normal;font-variant-position:normal;font-variant-caps:normal;font-variant-numeric:normal;font-variant-alternates:normal;font-feature-settings:normal;text-indent:0;text-align:start;text-decoration:none;text-decoration-line:none;text-decoration-style:solid;text-decoration-color:#000000;letter-spacing:normal;word-spacing:normal;text-transform:none;writing-mode:lr-tb;direction:ltr;text-orientation:mixed;dominant-baseline:auto;baseline-shift:baseline;text-anchor:start;white-space:normal;shape-padding:0;clip-rule:nonzero;display:inline;overflow:visible;visibility:visible;opacity:1;isolation:auto;mix-blend-mode:normal;color-interpolation:sRGB;color-interpolation-filters:linearRGB;solid-color:#000000;solid-opacity:1;vector-effect:none;fill:#ffffff;fill-opacity:1;fill-rule:nonzero;stroke:none;stroke-width:13;stroke-linecap:butt;stroke-linejoin:miter;stroke-miterlimit:4;stroke-dasharray:103.99999882, 51.99999941;stroke-dashoffset:0;stroke-opacity:1;color-rendering:auto;image-rendering:auto;shape-rendering:auto;text-rendering:auto;enable-background:accumulate"
       d="m 0,328.02344 v 13.45898 l 1.1191406,0.30078 3.3632813,-12.55859 z m 54.710938,14.66015 -3.363282,12.55664 100.455074,26.91797 3.36524,-12.55664 z m 150.685542,40.375 -3.36523,12.5586 100.45703,26.91601 3.36328,-12.55664 z m 150.6836,40.37696 -3.36524,12.55664 100.45704,26.91797 3.36523,-12.5586 z m 150.68554,40.375 -3.36523,12.55664 100.45508,26.91797 3.36523,-12.55664 z m 150.6836,40.37695 -3.36524,12.55664 L 750,542.44336 v -13.45898 z"
       transform="translate(0,131.63548)"
       id="path5953"
       inkscape:connector-curvature="0" />
    <g
       id="g6742"
       style="fill:#4d4d4d;fill-opacity:1"
       transform="matrix(0.84060921,0,0,0.84060921,58.988589,96.464621)">
      <path
         d="m 251.25154,561.96402 q -1.71699,-0.46006 -1.71699,-3.04638 0,-2.58632 2.50588,-5.09803 4.17646,-4.25251 11.60129,-3.10856 l 2.55228,0.53467 q 8.44574,2.26303 12.25096,10.49449 2.27386,5.03586 2.27386,10.80534 0,2.38737 -0.37125,4.92395 -1.34574,8.49258 -6.40391,13.30463 -5.56862,5.32185 -12.99344,3.33237 -7.37843,-1.97704 -9.37385,-6.9383 -0.60326,-1.55428 -0.60326,-3.09612 0,-1.59158 0.78889,-3.12099 1.53137,-2.77284 4.17646,-2.06408 0.23203,0.0622 0.27843,0.37303 0.0928,0.27355 -0.0464,0.53467 -0.0928,0.27355 -0.32484,0.21137 -1.57778,-0.42276 -2.73791,1.45481 -0.74248,1.3429 -0.74248,2.63606 0,1.29316 0.46405,2.51171 1.48497,3.78 7.09999,5.28455 6.35751,1.70348 11.50849,-3.87948 4.64051,-5.02343 5.98626,-13.11811 0.46405,-2.61119 0.46405,-5.0483 0,-5.42132 -2.27385,-9.76087 -3.01633,-5.83164 -9.46665,-7.56 -8.0745,-2.16356 -12.11175,2.57388 -2.04183,2.43711 -2.04183,5.02343 0,1.04447 0.41765,1.15638 -0.27843,0.92013 -1.16013,0.68388 z m 6.68234,20.64082 q 0,-7.56001 1.25294,-14.33666 1.25294,-6.82639 3.06274,-10.46962 1.85621,-3.68053 3.5732,-3.22047 0.74248,0.19895 0.74248,0.99474 -2.08823,4.06599 -3.666,11.35245 -2.92353,13.29219 -2.92353,19.55904 0,0.64658 -0.64967,0.4725 -1.39216,-0.37303 -1.39216,-4.35198 z"
         style="font-style:normal;font-variant:normal;font-weight:normal;font-stretch:normal;font-size:medium;line-height:100%;font-family:'Euphoria Script';-inkscape-font-specification:'Euphoria Script';letter-spacing:0px;word-spacing:0px;fill:#4d4d4d;fill-opacity:1;stroke:none;stroke-width:0.31277451px;stroke-linecap:butt;stroke-linejoin:miter;stroke-opacity:1"
         id="path6041"
         inkscape:connector-curvature="0" />
      <path
         d="m 298.74777,584.19035 q -1.7634,-0.4725 -1.7634,-4.60067 0,-2.33762 0.8353,-4.15303 -3.15555,2.08896 -7.05359,9.05212 -3.89803,6.91343 -3.89803,9.35054 0,0.59685 -0.74249,0.3979 -1.34574,-0.36059 -1.34574,-4.28981 0,-7.4108 1.39215,-13.05594 1.39216,-5.64514 3.38758,-5.11046 0.88169,0.23625 0.88169,1.33045 -2.13463,6.68962 -3.06274,14.05068 l 0.32484,0.087 q 3.75882,-8.29363 8.30652,-12.29745 2.59869,-2.2879 4.73333,-1.71592 0.46405,0.12434 0.74249,0.49737 0.32483,0.38546 0.32483,0.83309 -0.32483,0.26112 -0.78889,0.83309 -0.46405,0.57198 -1.25294,2.99665 -0.78889,2.37494 -0.78889,5.45862 0,0.3979 -0.23202,0.33573 z"
         style="font-style:normal;font-variant:normal;font-weight:normal;font-stretch:normal;font-size:medium;line-height:100%;font-family:'Euphoria Script';-inkscape-font-specification:'Euphoria Script';letter-spacing:0px;word-spacing:0px;fill:#4d4d4d;fill-opacity:1;stroke:none;stroke-width:0.31277451px;stroke-linecap:butt;stroke-linejoin:miter;stroke-opacity:1"
         id="path6043"
         inkscape:connector-curvature="0" />
      <path
         d="m 305.6761,600.32129 q -3.80523,-1.01961 -3.80523,-7.43567 0,-3.82975 1.7634,-7.93304 2.45948,-5.75704 6.45032,-7.02534 1.71699,-0.53467 3.20196,-0.13677 1.48496,0.39789 2.32025,1.31802 0.8817,0.93257 1.11372,1.69106 l 0.27844,0.72118 q -0.13922,0.80823 -0.78889,0.63415 -0.74248,-0.19895 -0.8817,-0.58441 -0.0928,-0.42276 -0.23203,-0.70875 -0.13921,-0.33573 -0.64966,-0.92013 -0.51047,-0.63415 -1.16013,-0.80823 -3.01634,-0.80822 -5.47582,4.35198 -2.78431,5.96843 -2.78431,11.88712 0,2.98421 1.11373,3.28264 0.8817,0.23625 2.45947,-1.42994 1.62418,-1.70349 3.38758,-4.41415 3.06274,-4.6504 4.96535,-8.16929 1.57778,-3.15829 3.24836,-2.71066 0.8817,0.23625 0.8817,1.3802 -0.41765,0.83309 -1.06732,2.39981 -0.64967,1.56671 -1.71699,6.45336 -1.06732,4.88665 -1.06732,10.00955 0,5.12291 1.43856,5.50837 0.55687,0.14921 1.02092,-0.27356 0.46405,-0.37303 0.83529,-1.31803 0.13921,-0.5098 0.64967,-0.37302 0.18562,0.0497 0.27843,0.22381 0.0928,0.17408 0,0.49737 -0.0928,0.32329 -0.32484,0.85796 -0.23202,0.58441 -1.0209,1.41751 -0.74249,0.84552 -1.57778,0.6217 -1.94902,-0.52223 -3.01634,-3.54375 -1.02091,-3.00908 -1.02091,-6.73935 0,-3.73027 0.51046,-7.02533 l -0.46405,-0.12435 q -5.89346,9.21377 -8.86339,8.41798 z"
         style="font-style:normal;font-variant:normal;font-weight:normal;font-stretch:normal;font-size:medium;line-height:100%;font-family:'Euphoria Script';-inkscape-font-specification:'Euphoria Script';letter-spacing:0px;word-spacing:0px;fill:#4d4d4d;fill-opacity:1;stroke:none;stroke-width:0.31277451px;stroke-linecap:butt;stroke-linejoin:miter;stroke-opacity:1"
         id="path6045"
         inkscape:connector-curvature="0" />
      <path
         d="m 349.13526,589.43531 q 1.34575,1.45481 2.55228,1.7781 1.25294,0.33572 1.7634,0.12434 0,0.64658 -0.55686,1.09421 -0.51046,0.41033 -1.53137,0.13678 -0.97451,-0.26112 -2.13464,-1.06934 -0.0928,4.65039 -1.43856,9.21376 -1.34575,4.51362 -3.48039,7.27402 -2.13463,2.71066 -4.22287,2.15112 -2.08823,-0.55954 -3.20195,-2.59876 -1.16013,-2.25059 -1.16013,-5.83165 0,-2.03921 0.23202,-4.31467 -5.75424,9.49975 -8.86339,8.66665 -3.06274,-0.82065 -3.06274,-6.39119 0,-5.76948 2.6451,-11.626 2.22745,-4.62554 4.08365,-4.37685 0.8817,0.23625 0.8817,1.28073 -0.55686,1.29315 -1.39215,3.35724 -0.8353,2.01434 -2.22745,6.61501 -1.34575,4.61309 -1.34575,7.00046 0,2.33764 0.97451,2.59876 1.20653,0.32329 3.75882,-3.17073 2.59868,-3.48158 4.5477,-7.13725 l 1.99542,-3.59349 q 1.29935,-2.43711 2.32026,-2.16355 1.02092,0.27355 1.02092,1.31803 -2.83072,9.63652 -2.83072,15.50548 0,2.73553 1.48496,3.13342 1.67059,0.44764 3.48039,-2.00191 1.85621,-2.48685 3.06275,-6.88856 1.25294,-4.43902 1.25294,-9.06455 v -0.29842 q -1.34576,-1.40507 -2.18105,-3.07126 -0.83529,-1.66619 -0.83529,-2.3625 0,-0.74605 0.60327,-1.18125 0.60326,-0.4352 1.29934,-0.24869 0.8817,0.23625 1.57778,2.11382 0.69607,1.82783 0.9281,4.02869 z"
         style="font-style:normal;font-variant:normal;font-weight:normal;font-stretch:normal;font-size:medium;line-height:100%;font-family:'Euphoria Script';-inkscape-font-specification:'Euphoria Script';letter-spacing:0px;word-spacing:0px;fill:#4d4d4d;fill-opacity:1;stroke:none;stroke-width:0.31277451px;stroke-linecap:butt;stroke-linejoin:miter;stroke-opacity:1"
         id="path6047"
         inkscape:connector-curvature="0" />
      <path
         d="m 373.72981,593.09093 q 0,3.68053 1.94902,4.45145 -0.13922,0.65901 -1.06732,0.41033 -1.90261,-0.5098 -2.6915,-3.20803 -0.37124,-1.24342 -0.37124,-2.88475 0,-1.69105 1.20653,-3.70539 2.73791,-4.68771 9.93071,-4.30224 2.45947,0.16164 5.24378,0.90769 2.83072,0.75849 4.82614,0.69632 1.99542,-0.0622 2.73791,-0.60928 1.94901,-1.4175 2.87711,-1.16881 0.92811,0.24868 0.92811,0.84552 0,0.14922 0,0.29843 -0.32483,1.30559 -2.78431,1.89 -1.48496,0.29842 -3.34117,0.19895 -1.53138,0.28598 -2.55229,3.14586 -1.02091,2.81013 -2.13463,8.38066 2.41306,0.3979 3.99084,0.82066 0.41765,0.11191 0.37124,0.64658 -0.18562,0.54711 -0.97451,0.38546 -0.78889,-0.21138 -3.666,-0.48493 -2.18105,10.95455 -3.80523,15.2941 -4.08365,10.99185 -11.6477,8.96507 -5.4294,-1.4548 -6.77515,-7.13724 -0.51046,-1.97705 -0.51046,-3.81731 0,-3.48159 1.71699,-6.5031 2.5987,-4.62553 6.82156,-3.49402 0.60327,0.16165 0.97452,0.55954 0.41764,0.41033 0.55685,1.04447 -3.99084,-1.06934 -6.58953,2.66093 -2.04183,2.88474 -2.04183,6.56527 0,5.37159 3.52679,7.51028 0.8353,0.4725 2.18105,0.83309 1.34575,0.36059 2.83072,-0.087 1.53137,-0.38546 2.7379,-2.2506 1.25294,-1.80296 2.04183,-3.03395 0.78889,-1.28072 1.8098,-4.78717 1.20653,-4.30224 2.04182,-8.00765 0.8353,-3.75513 1.02092,-4.50118 -2.59869,-0.24869 -3.94444,-0.60928 -1.29934,-0.34816 -1.48497,-1.64132 -0.0464,-1.00717 0.51046,-1.00717 0.23202,0.36059 1.43856,0.68388 1.25294,0.33572 3.89803,0.79579 1.16013,-4.56336 2.22745,-7.31132 1.06732,-2.79771 2.50588,-4.00383 -0.74248,-0.14921 -2.32026,-0.57197 -8.90979,-2.38738 -12.48298,2.27547 -1.717,2.17598 -1.717,4.86178 z m 20.41828,15.66712 q 0,0.24869 -0.41765,0.13678 -0.41765,-0.11191 -0.83529,-0.42277 -0.37124,-0.29842 -0.37124,-0.64657 0,-5.07317 1.06731,-7.87087 1.06732,-2.84744 2.83072,-2.37494 0.46405,0.12435 0.78888,0.55954 0.32484,0.4352 0.32484,1.03204 -2.08823,1.67862 -3.01633,5.85652 -0.37124,1.7408 -0.37124,3.73027 z"
         style="font-style:normal;font-variant:normal;font-weight:normal;font-stretch:normal;font-size:medium;line-height:100%;font-family:'Euphoria Script';-inkscape-font-specification:'Euphoria Script';letter-spacing:0px;word-spacing:0px;fill:#4d4d4d;fill-opacity:1;stroke:none;stroke-width:0.31277451px;stroke-linecap:butt;stroke-linejoin:miter;stroke-opacity:1"
         id="path6049"
         inkscape:connector-curvature="0" />
      <path
         d="m 411.92834,614.517 q -1.7634,-0.47251 -1.7634,-4.60067 0,-2.33763 0.83529,-4.15303 -3.15555,2.08895 -7.05358,9.05211 -3.89804,6.91343 -3.89804,9.35054 0,0.59685 -0.74248,0.3979 -1.34575,-0.36059 -1.34575,-4.28981 0,-7.4108 1.39215,-13.05594 1.39216,-5.64513 3.38758,-5.11046 0.8817,0.23625 0.8817,1.33045 -2.13463,6.68962 -3.06274,14.05068 l 0.32483,0.087 q 3.75883,-8.29363 8.30653,-12.29745 2.59869,-2.2879 4.73333,-1.71592 0.46405,0.12434 0.74248,0.49737 0.32484,0.38546 0.32484,0.83309 -0.32484,0.26112 -0.78889,0.83309 -0.46405,0.57198 -1.25294,2.99665 -0.78889,2.37494 -0.78889,5.45863 0,0.3979 -0.23202,0.33573 z"
         style="font-style:normal;font-variant:normal;font-weight:normal;font-stretch:normal;font-size:medium;line-height:100%;font-family:'Euphoria Script';-inkscape-font-specification:'Euphoria Script';letter-spacing:0px;word-spacing:0px;fill:#4d4d4d;fill-opacity:1;stroke:none;stroke-width:0.31277451px;stroke-linecap:butt;stroke-linejoin:miter;stroke-opacity:1"
         id="path6051"
         inkscape:connector-curvature="0" />
      <path
         d="m 427.11678,608.73882 q 3.5268,0.945 3.5268,5.37158 0,2.53658 -1.57778,4.89909 -2.6915,3.90435 -7.14639,2.71066 -0.69608,-0.18651 -1.16013,-0.55954 -0.46405,-0.37303 -0.69608,-0.93257 3.29477,0.88283 6.03267,-2.46197 2.22745,-2.68579 2.22745,-5.42132 0,-2.03922 -1.53137,-2.44955 -3.06274,-0.82066 -5.70784,3.59349 -2.83071,4.81205 -2.83071,10.68101 0,4.97369 2.6451,6.67717 0.51045,0.33572 1.29934,0.54711 0.78889,0.21138 1.67058,0.0497 0.8817,-0.21138 1.48497,-0.64657 1.20654,-0.8704 1.99542,-2.10139 0.18562,-0.34816 0.69608,-0.21138 0.83529,0.22381 0.78889,0.5098 -0.13922,0.50981 -1.06732,1.55428 -0.8817,1.05691 -1.67059,1.64132 -0.74248,0.5471 -1.99542,0.80822 -1.20653,0.32329 -2.45947,-0.0124 -4.91895,-1.31803 -6.2647,-6.65231 -0.41765,-1.80296 -0.41765,-3.5935 0,-3.33237 1.43856,-6.87612 2.27385,-5.35915 6.2647,-6.92586 2.18104,-0.80823 4.45489,-0.19895 z"
         style="font-style:normal;font-variant:normal;font-weight:normal;font-stretch:normal;font-size:medium;line-height:100%;font-family:'Euphoria Script';-inkscape-font-specification:'Euphoria Script';letter-spacing:0px;word-spacing:0px;fill:#4d4d4d;fill-opacity:1;stroke:none;stroke-width:0.31277451px;stroke-linecap:butt;stroke-linejoin:miter;stroke-opacity:1"
         id="path6053"
         inkscape:connector-curvature="0" />
      <path
         d="m 445.13051,613.56558 q 3.52679,0.945 3.52679,5.37159 0,2.53658 -1.57777,4.89908 -2.6915,3.90435 -7.1464,2.71066 -0.69608,-0.18651 -1.16013,-0.55954 -0.46405,-0.37302 -0.69608,-0.93256 3.29477,0.88283 6.03268,-2.46198 2.22745,-2.68579 2.22745,-5.42132 0,-2.03922 -1.53137,-2.44955 -3.06275,-0.82066 -5.70784,3.5935 -2.83071,4.81204 -2.83071,10.681 0,4.97369 2.64509,6.67718 0.51045,0.33572 1.29934,0.5471 0.78889,0.21138 1.67059,0.0497 0.8817,-0.21139 1.48496,-0.64658 1.20654,-0.8704 1.99542,-2.10139 0.18563,-0.34816 0.69608,-0.21138 0.8353,0.22382 0.78889,0.50981 -0.13921,0.5098 -1.06732,1.55427 -0.8817,1.05691 -1.67058,1.64132 -0.74249,0.54711 -1.99543,0.80823 -1.20653,0.32328 -2.45947,-0.0124 -4.91894,-1.31803 -6.2647,-6.65231 -0.41765,-1.80296 -0.41765,-3.59349 0,-3.33238 1.43857,-6.87613 2.27385,-5.35915 6.2647,-6.92586 2.18104,-0.80823 4.45489,-0.19895 z"
         style="font-style:normal;font-variant:normal;font-weight:normal;font-stretch:normal;font-size:medium;line-height:100%;font-family:'Euphoria Script';-inkscape-font-specification:'Euphoria Script';letter-spacing:0px;word-spacing:0px;fill:#4d4d4d;fill-opacity:1;stroke:none;stroke-width:0.31277451px;stroke-linecap:butt;stroke-linejoin:miter;stroke-opacity:1"
         id="path6055"
         inkscape:connector-curvature="0" />
      <path
         d="m 457.80764,648.3464 q -2.6915,-0.72119 -3.99084,-4.1033 -1.25294,-3.36968 -1.25294,-9.43758 0,-6.0679 1.67058,-13.92633 1.67059,-7.85843 3.89804,-12.73265 2.27385,-4.86178 3.94444,-4.41415 0.78889,0.21139 0.78889,1.20612 -0.97452,2.12625 -2.45948,6.55284 -1.48496,4.37685 -2.50588,8.18172 -0.9745,3.81731 -1.8098,9.06455 -0.78889,5.25968 -0.78889,9.18889 0,3.87948 0.69608,6.15495 0.74248,2.33763 1.99542,2.67336 1.06732,0.28598 2.04183,-0.54711 0.97451,-0.78335 1.39215,-1.71593 0.23203,-0.48493 0.8353,-0.0746 0.23202,0.16165 0.0928,0.42276 -0.0928,0.3233 -0.37124,0.74606 -0.23202,0.4352 -0.88169,1.30559 -1.39215,1.96461 -3.29477,1.45481 z"
         style="font-style:normal;font-variant:normal;font-weight:normal;font-stretch:normal;font-size:medium;line-height:100%;font-family:'Euphoria Script';-inkscape-font-specification:'Euphoria Script';letter-spacing:0px;word-spacing:0px;fill:#4d4d4d;fill-opacity:1;stroke:none;stroke-width:0.31277451px;stroke-linecap:butt;stroke-linejoin:miter;stroke-opacity:1"
         id="path6057"
         inkscape:connector-curvature="0" />
      <path
         d="m 464.52115,658.45134 q 4.17647,1.11908 6.54313,-2.47441 2.04183,-3.18316 3.15555,-8.45528 -8.39933,-2.05164 -12.90064,3.40698 -0.27842,0.37303 -0.88169,-0.087 -0.32484,-0.28598 -0.18562,-0.54711 1.99542,-2.69822 5.56862,-4.02868 3.5732,-1.28073 8.67776,-0.11191 0.51046,-2.35007 0.97451,-5.5581 0.46405,-3.20803 1.06732,-6.17981 l -0.41765,-0.11191 q -6.03267,9.87278 -9.18822,9.02725 -3.52679,-0.945 -3.52679,-6.76422 0,-5.81922 2.32025,-11.06646 2.32026,-5.29698 4.22288,-5.23481 l 0.27843,0.0249 q 0.78889,0.21138 0.78889,1.3056 -0.51046,1.20612 -1.29935,3.18316 -0.78889,1.92731 -2.08823,6.55284 -1.29934,4.57579 -1.29934,7.36106 0,2.73553 1.11372,3.03395 1.29934,0.34816 4.17646,-3.7054 4.22287,-5.93113 7.33202,-12.35962 1.34575,-2.67336 2.87712,-2.26303 0.97451,0.26112 0.97451,1.40507 -0.8817,1.50454 -2.13464,5.94356 -1.25294,4.43901 -2.04183,9.10186 -0.78888,4.61309 -1.34575,7.19941 3.52679,1.59158 4.08366,4.37685 0.0928,0.4725 0.0928,1.21855 0,0.79579 -0.55687,1.19368 -0.55686,0.44764 -0.9745,0.33573 0.0928,-0.32329 0.0464,-1.23099 -0.0464,-0.85796 -0.32484,-1.5294 -0.23202,-0.65902 -0.9281,-1.49211 -0.69608,-0.8331 -1.8098,-1.42994 -3.5732,13.46627 -12.39018,11.10376 -3.80522,-1.0196 -5.05816,-4.24007 -0.0464,-0.16164 -0.0464,-0.26111 0,-0.29843 0.51045,-0.26112 0.46405,0.0746 0.69608,0.53466 0.83529,2.26304 3.89803,3.0837 z"
         style="font-style:normal;font-variant:normal;font-weight:normal;font-stretch:normal;font-size:medium;line-height:100%;font-family:'Euphoria Script';-inkscape-font-specification:'Euphoria Script';letter-spacing:0px;word-spacing:0px;fill:#4d4d4d;fill-opacity:1;stroke:none;stroke-width:0.31277451px;stroke-linecap:butt;stroke-linejoin:miter;stroke-opacity:1"
         id="path6059"
         inkscape:connector-curvature="0" />
      <path
         d="m 488.36725,649.62139 q -0.97451,-0.26112 -0.97451,-2.20086 0,-1.19369 0.60327,-2.37494 0.60326,-1.18125 1.71698,-0.88283 0.92811,0.24868 0.92811,1.39264 0,1.14394 -1.71699,3.36967 z"
         style="font-style:normal;font-variant:normal;font-weight:normal;font-stretch:normal;font-size:medium;line-height:100%;font-family:'Euphoria Script';-inkscape-font-specification:'Euphoria Script';letter-spacing:0px;word-spacing:0px;fill:#4d4d4d;fill-opacity:1;stroke:none;stroke-width:0.31277451px;stroke-linecap:butt;stroke-linejoin:miter;stroke-opacity:1"
         id="path6061"
         inkscape:connector-curvature="0" />
    </g>
    <g
       id="g6729"
       style="fill:#333333;fill-opacity:1"
       transform="matrix(0.79502144,0,0,0.79502144,74.183125,115.09862)">
      <path
         d="m 213.92607,498.12506 c -0.14669,-6.48531 -0.22003,-10.12101 -0.22003,-16.64562 0,-6.52461 0,-10.37648 0.22003,-16.92074 0.14669,-6.48531 1.1735,-6.446 6.30757,-5.46338 0.44007,-0.35375 0.44007,-1.21845 0,-1.80803 -2.71372,-0.56991 -7.26104,-1.55254 -9.46136,-2.14211 -2.20031,-0.58957 -7.1877,-2.16177 -9.5347,-2.94787 -0.44006,0.35375 -0.44006,1.21846 0,1.80803 5.13407,1.84733 6.30757,2.31899 6.45426,8.8829 0.14669,6.56391 0.22003,10.43544 0.22003,16.96005 0,6.52461 -0.0733,10.121 -0.22003,16.60631 -0.14669,6.4853 -1.32019,6.56391 -6.45426,5.42407 -0.44006,0.35374 -0.44006,1.21845 0,1.80802 2.86041,0.60923 7.33439,1.5722 9.5347,2.16177 2.20032,0.58957 6.45427,1.88663 9.46136,2.92821 0.44007,-0.35374 0.44007,-1.21845 0,-1.80802 -5.13407,-1.6115 -6.16088,-2.27969 -6.30757,-8.84359 z"
         style="font-style:normal;font-variant:normal;font-weight:normal;font-stretch:normal;font-size:121.07348633px;line-height:100%;font-family:'Linux Libertine Display O';-inkscape-font-specification:'Linux Libertine Display O';letter-spacing:0px;word-spacing:0px;fill:#333333;fill-opacity:1;stroke:none;stroke-width:0.56948382px;stroke-linecap:butt;stroke-linejoin:miter;stroke-opacity:1"
         id="path6065"
         inkscape:connector-curvature="0" />
      <path
         d="m 264.39927,478.94766 0.0733,27.29722 c 0,1.49359 -0.36672,2.26003 -0.88013,2.12247 -0.58675,-0.15722 -1.39353,-1.78837 -3.5205,-5.26685 l -25.15695,-41.48629 -9.46136,-2.69239 c -0.44007,0.35375 -0.44007,1.21845 0,1.80803 3.5205,1.17914 5.3541,4.18596 6.16088,7.46792 l -0.0734,33.78254 c 0,6.99626 -1.24684,7.13383 -6.38091,6.30843 -0.44006,0.35374 -0.44006,1.21845 0,1.80802 3.59385,0.88436 4.84069,0.90402 7.92114,1.72942 3.08044,0.8254 4.1806,1.43462 7.84779,2.49585 0.44007,-0.35374 0.44007,-1.21845 0,-1.80802 -5.13407,-1.92594 -6.38091,-2.57447 -6.38091,-9.72795 l -0.0733,-25.09617 c 0,-2.67272 0.36672,-3.75361 0.95347,-3.59639 0.44007,0.11791 1.24685,1.1988 2.4937,3.26231 l 25.59701,41.52559 c 0.80678,1.39532 1.76025,2.35829 2.93375,2.67273 1.02682,0.27513 0.88013,-0.70748 0.88013,-2.20107 l 0.0734,-39.59965 c 0,-6.99628 1.24684,-7.13384 6.38091,-6.30844 0.44006,-0.35374 0.44006,-1.21845 0,-1.80802 -3.59385,-0.88436 -4.8407,-0.90401 -7.92113,-1.72941 -3.08045,-0.82541 -4.18061,-1.43464 -7.8478,-2.49587 -0.44007,0.35375 -0.44007,1.21846 0,1.80803 5.13407,1.92593 6.38092,2.57447 6.38092,9.72796 z"
         style="font-style:normal;font-variant:normal;font-weight:normal;font-stretch:normal;font-size:121.07348633px;line-height:100%;font-family:'Linux Libertine Display O';-inkscape-font-specification:'Linux Libertine Display O';letter-spacing:0px;word-spacing:0px;fill:#333333;fill-opacity:1;stroke:none;stroke-width:0.56948382px;stroke-linecap:butt;stroke-linejoin:miter;stroke-opacity:1"
         id="path6067"
         inkscape:connector-curvature="0" />
      <path
         d="m 290.70795,518.6987 c -0.14669,-6.32809 -0.22003,-9.96379 -0.22003,-16.17396 2.56703,0.76644 5.13407,2.71204 6.67429,5.16859 l 11.51499,18.65016 c 1.46688,2.4369 2.49369,5.07033 2.64038,6.36739 0,0.23583 0.0733,0.49131 0.36672,0.56992 1.46688,0.31444 1.32019,-0.0393 3.5205,0.55027 2.86042,0.76645 4.69402,1.57219 8.14118,2.57447 0.44006,-0.35375 0.44006,-1.21846 0,-1.80803 -1.32019,-0.58957 -4.69401,-2.27968 -7.1877,-6.24947 l -16.06231,-24.74242 c -0.58675,-0.8647 -0.95348,-1.59184 -0.95348,-2.22072 0,-0.55027 0.0734,-1.08088 2.56704,-3.16404 l 10.78155,-8.98116 c 3.37382,-2.94787 7.04101,-3.14439 9.97477,-2.75135 0.44006,-0.35374 0.44006,-1.21845 0,-1.80802 -3.44716,-0.84506 -4.76735,-0.88436 -7.70111,-1.67045 -2.93376,-0.7861 -5.20741,-1.70977 -8.65458,-2.71204 -0.44006,0.35374 -0.44006,1.21845 0,1.80802 2.64039,0.94332 5.79417,3.12474 2.78707,5.85643 l -11.73502,10.69092 c -1.54022,1.39532 -3.96057,2.16177 -6.67429,1.67046 0,-5.50268 0.0733,-9.2563 0.22003,-15.19133 0.14669,-6.4853 1.24685,-6.58357 6.38091,-5.44373 0.44007,-0.35374 0.44007,-1.21845 0,-1.80802 -3.59385,-0.88436 -5.86751,-1.17915 -9.60804,-2.18142 -3.6672,-0.98262 -5.72083,-1.84733 -9.38802,-2.90856 -0.44006,0.35374 -0.44006,1.21845 0,1.80802 5.13407,1.6115 6.16089,2.27969 6.30757,8.8436 0.14669,6.56391 0.29338,10.45509 0.29338,16.9797 0,6.52461 -0.14669,10.10135 -0.29338,16.58666 -0.14668,6.48529 -1.1735,6.60321 -6.30757,5.46337 -0.44006,0.35374 -0.44006,1.21845 0,1.80802 3.59385,0.88437 5.79417,1.1595 9.5347,2.16178 3.6672,0.98262 5.79417,1.86698 9.46136,2.9282 0.44007,-0.35374 0.44007,-1.21845 0,-1.80802 -5.13406,-1.6115 -6.23422,-2.29934 -6.38091,-8.86324 z"
         style="font-style:normal;font-variant:normal;font-weight:normal;font-stretch:normal;font-size:121.07348633px;line-height:100%;font-family:'Linux Libertine Display O';-inkscape-font-specification:'Linux Libertine Display O';letter-spacing:0px;word-spacing:0px;fill:#333333;fill-opacity:1;stroke:none;stroke-width:0.56948382px;stroke-linecap:butt;stroke-linejoin:miter;stroke-opacity:1"
         id="path6069"
         inkscape:connector-curvature="0" />
      <path
         d="m 352.93908,494.3392 c -4.25394,-1.76872 -4.03391,-3.20335 -11.22161,-5.12929 -7.40773,-1.9849 -13.93534,1.53289 -13.93534,9.86552 0,7.38931 4.8407,12.22382 10.56152,16.35082 4.62066,3.43918 12.24843,7.21245 12.24843,16.17396 0,6.36739 -3.52051,9.51178 -9.31467,7.95924 -6.89433,-1.84733 -12.0284,-7.31071 -13.64197,-15.60404 -0.88012,-0.55026 -0.95347,-0.4127 -1.61357,-0.19652 0.29338,6.13156 0.58676,8.25402 1.46688,12.34173 4.62067,1.2381 6.60096,3.57674 13.12856,5.32581 3.37382,0.90401 6.52761,0.88435 9.09464,-0.0786 4.1806,-1.70977 6.89433,-5.85643 6.89433,-10.88745 0,-7.46793 -4.76736,-12.28277 -10.12146,-16.1543 -3.52051,-2.51551 -13.64196,-8.29333 -13.64196,-15.99708 0,-4.40215 3.88722,-8.54881 8.14117,-7.40897 7.1877,1.92594 10.1948,8.39159 11.66168,13.97288 0.80678,0.21618 0.95347,0.33409 1.61356,-0.0393 -0.22003,-3.83223 -0.51341,-6.11191 -1.32019,-10.4944 z"
         style="font-style:normal;font-variant:normal;font-weight:normal;font-stretch:normal;font-size:121.07348633px;line-height:100%;font-family:'Linux Libertine Display O';-inkscape-font-specification:'Linux Libertine Display O';letter-spacing:0px;word-spacing:0px;fill:#333333;fill-opacity:1;stroke:none;stroke-width:0.56948382px;stroke-linecap:butt;stroke-linejoin:miter;stroke-opacity:1"
         id="path6071"
         inkscape:connector-curvature="0" />
      <path
         d="m 385.31124,553.40213 c 7.11436,1.90629 14.3754,0.23583 19.36279,-5.42407 -0.36672,-0.80575 -0.88013,-1.41498 -1.68691,-1.63115 -5.20742,4.73623 -10.19481,5.83677 -17.01578,4.00909 -11.36831,-3.04612 -17.08913,-16.92074 -17.08913,-28.39777 0,-12.81338 7.62776,-21.30323 16.86909,-18.82702 10.12146,2.71203 14.44875,11.10362 16.35569,18.37502 0.6601,0.25548 1.10016,0.29479 1.68691,0.059 -0.36672,-4.18597 -0.88013,-8.09681 -1.61357,-12.61687 -3.74054,-1.39532 -7.04101,-5.42407 -16.0623,-7.84132 -14.52209,-3.89118 -23.83677,5.79747 -23.83677,20.5761 0,13.91392 7.26105,27.49376 23.02998,31.71903 z"
         style="font-style:normal;font-variant:normal;font-weight:normal;font-stretch:normal;font-size:121.07348633px;line-height:100%;font-family:'Linux Libertine Display O';-inkscape-font-specification:'Linux Libertine Display O';letter-spacing:0px;word-spacing:0px;fill:#333333;fill-opacity:1;stroke:none;stroke-width:0.56948382px;stroke-linecap:butt;stroke-linejoin:miter;stroke-opacity:1"
         id="path6073"
         inkscape:connector-curvature="0" />
      <path
         d="m 426.33912,541.75591 c -1.61357,-0.43235 -2.12697,-1.1988 -1.8336,-1.90629 l 7.70111,-18.29641 0.22003,0.059 7.04101,23.66153 z m -8.28786,14.20871 4.40063,-11.00537 c 0.36672,-0.92366 0.80678,-1.51323 2.56704,-1.04157 l 15.32887,4.10736 4.62066,15.70229 c 1.02682,3.49813 -1.90694,2.71204 -5.42745,2.00455 -0.44006,0.35374 -0.44006,1.21845 0,1.80802 2.71373,0.64854 6.74765,1.41498 9.60805,2.18143 3.0071,0.80575 6.16089,1.96524 8.87461,2.77099 0.44007,-0.35375 0.44007,-1.21846 0,-1.80803 -2.8604,-1.00227 -5.28076,-1.96524 -6.60094,-6.32808 l -15.32888,-49.85823 c -1.10015,0.4127 -2.86041,0.80575 -3.81388,0.55027 l -17.01578,38.36155 c -1.90694,4.28424 -4.10725,4.48076 -7.33439,3.85188 -0.44006,0.35374 -0.44006,1.21845 0,1.80802 2.71373,0.64854 4.40064,0.78611 7.26105,1.55255 3.0071,0.80575 5.20741,1.70976 7.92114,2.51551 0.44006,-0.35375 0.44006,-1.21845 0,-1.80803 -2.78707,-0.904 -6.23423,-2.37794 -5.06073,-5.36511 z"
         style="font-style:normal;font-variant:normal;font-weight:normal;font-stretch:normal;font-size:121.07348633px;line-height:100%;font-family:'Linux Libertine Display O';-inkscape-font-specification:'Linux Libertine Display O';letter-spacing:0px;word-spacing:0px;fill:#333333;fill-opacity:1;stroke:none;stroke-width:0.56948382px;stroke-linecap:butt;stroke-linejoin:miter;stroke-opacity:1"
         id="path6075"
         inkscape:connector-curvature="0" />
      <path
         d="m 472.26844,552.64766 c 1.61356,0.98262 3.74053,1.70976 6.23423,2.37794 13.34858,3.57674 17.16246,-4.36284 17.16246,-11.04467 0,-4.63797 -2.71372,-14.01218 -16.28234,-17.64788 -1.90694,-0.51096 -7.04101,-1.10053 -9.97476,-1.88663 -3.6672,-0.98262 -5.72083,-1.84733 -9.38802,-2.90856 -0.44006,0.35374 -0.44006,1.21845 0,1.80802 5.13407,1.6115 6.23423,2.29934 6.30757,8.8436 0.0733,6.54426 0.14669,10.41579 0.14669,16.9404 0,6.52461 0,10.14065 -0.14669,16.62596 -0.14669,6.56391 -1.1735,6.60321 -6.30757,5.46337 -0.44006,0.35374 -0.44006,1.21845 0,1.80802 3.59385,0.88436 5.79417,1.1595 9.5347,2.16177 4.10726,1.10054 6.74764,2.12246 10.41484,3.18369 0.44006,-0.35374 0.44006,-1.21845 0,-1.80802 -5.06073,-1.67045 -7.48108,-2.71203 -7.55442,-7.29105 -0.0733,-5.91538 -0.14669,-10.96606 -0.14669,-16.62596 z m 0.14669,-22.52169 c 0.0733,-2.26003 1.24684,-3.43917 6.5276,-2.0242 5.06073,1.35602 10.26815,5.58129 10.26815,15.56473 0,8.48985 -4.03392,11.26084 -11.14827,9.35456 -1.76026,-0.47166 -4.8407,-1.45429 -5.79417,-1.9456 v -0.39304 c 0,-6.52461 0.0733,-14.05149 0.14669,-20.55645 z"
         style="font-style:normal;font-variant:normal;font-weight:normal;font-stretch:normal;font-size:121.07348633px;line-height:100%;font-family:'Linux Libertine Display O';-inkscape-font-specification:'Linux Libertine Display O';letter-spacing:0px;word-spacing:0px;fill:#333333;fill-opacity:1;stroke:none;stroke-width:0.56948382px;stroke-linecap:butt;stroke-linejoin:miter;stroke-opacity:1"
         id="path6077"
         inkscape:connector-curvature="0" />
      <path
         d="m 521.8191,561.12953 -8.58123,-2.22073 c 0,0 -0.0733,-10.71057 0.14669,-17.09762 0.0733,-1.86698 0.95346,-3.20334 2.71372,-2.73168 l 11.44165,3.06577 c 5.50079,1.47394 6.60095,5.93504 8.21451,11.79147 0.88013,0.39304 1.02681,0.27513 1.76026,0.0786 -0.36672,-3.32126 -1.46688,-11.39842 -1.61357,-12.0666 0,-0.15722 -0.0733,-0.25548 -0.29337,-0.31444 -1.24685,-0.0983 -1.90694,0.0393 -3.6672,-0.43235 l -21.41642,-5.73851 c -2.20031,-0.58957 -5.86751,-1.88664 -9.5347,-2.94787 -0.44006,0.35375 -0.44006,1.21845 0,1.80803 5.13407,1.6115 6.08754,2.26003 6.30758,8.84359 0.14668,6.4853 0.14668,10.41579 0.14668,16.9404 0,6.52461 0,10.21927 -0.14668,16.62596 -0.22004,6.46565 -1.17351,6.60322 -6.30758,5.46338 -0.44006,0.35374 -0.44006,1.21845 0,1.80802 3.59385,0.88436 7.48108,1.6115 9.68139,2.20108 l 16.28234,4.36284 c 3.52051,0.94331 9.38802,2.90855 9.38802,2.90855 1.02682,-3.65535 2.05363,-8.80429 2.64038,-12.65616 -0.73344,-0.66819 -0.80678,-0.84506 -1.76025,-0.86471 -1.46688,5.26685 -4.10726,10.21926 -9.68139,8.72568 l -11.44165,-3.06578 c -1.61357,-0.43236 -2.64038,-1.96524 -2.71372,-4.10736 -0.22003,-6.66217 -0.14669,-20.39923 -0.14669,-20.39923 l 8.58123,2.37795 c 6.23424,1.74907 6.52761,3.47848 6.74764,7.07488 0.44006,0.58957 1.1735,0.78609 1.61357,0.43235 -0.0734,-2.77099 -0.29338,-3.77327 -0.29338,-6.21017 0,-2.59412 0.22003,-4.34319 0.29338,-6.68183 -0.44007,-0.58957 -1.17351,-0.78609 -1.61357,-0.43235 -0.22003,4.26458 -0.5134,5.12928 -6.74764,3.45883 z"
         style="font-style:normal;font-variant:normal;font-weight:normal;font-stretch:normal;font-size:121.07348633px;line-height:100%;font-family:'Linux Libertine Display O';-inkscape-font-specification:'Linux Libertine Display O';letter-spacing:0px;word-spacing:0px;fill:#333333;fill-opacity:1;stroke:none;stroke-width:0.56948382px;stroke-linecap:butt;stroke-linejoin:miter;stroke-opacity:1"
         id="path6079"
         inkscape:connector-curvature="0" />
    </g>
    <path
       style="color:#000000;font-style:normal;font-variant:normal;font-weight:normal;font-stretch:normal;font-size:medium;line-height:normal;font-family:sans-serif;font-variant-ligatures:normal;font-variant-position:normal;font-variant-caps:normal;font-variant-numeric:normal;font-variant-alternates:normal;font-feature-settings:normal;text-indent:0;text-align:start;text-decoration:none;text-decoration-line:none;text-decoration-style:solid;text-decoration-color:#000000;letter-spacing:normal;word-spacing:normal;text-transform:none;writing-mode:lr-tb;direction:ltr;text-orientation:mixed;dominant-baseline:auto;baseline-shift:baseline;text-anchor:start;white-space:normal;shape-padding:0;clip-rule:nonzero;display:inline;overflow:visible;visibility:visible;opacity:1;isolation:auto;mix-blend-mode:normal;color-interpolation:sRGB;color-interpolation-filters:linearRGB;solid-color:#000000;solid-opacity:1;vector-effect:none;fill:#dc1c4b;fill-opacity:1;fill-rule:nonzero;stroke:none;stroke-width:18.95832443;stroke-linecap:butt;stroke-linejoin:miter;stroke-miterlimit:4;stroke-dasharray:none;stroke-dashoffset:0;stroke-opacity:1;color-rendering:auto;image-rendering:auto;shape-rendering:auto;text-rendering:auto;enable-background:accumulate"
       d="m 581.48828,239.85156 v 326.63477 c -0.054,1.53386 -0.0539,2.8668 -0.0215,4.0957 4.09993,3.94742 14.95688,7.13739 19.63672,4.3418 0.003,-0.096 0.0117,-0.18156 0.0117,-0.28321 V 244.75781 Z"
       transform="translate(0,131.63548)"
       id="path6747"
       inkscape:connector-curvature="0" />
    <path
       style="opacity:1;fill:#ffffff;fill-opacity:1;stroke:none;stroke-width:9.51254654;stroke-linecap:butt;stroke-linejoin:round;stroke-miterlimit:4;stroke-dasharray:19.02509365, 38.0501873;stroke-dashoffset:0;paint-order:fill markers stroke"
       d="M 693.79993,252.88882 A 93.263303,121.82441 33.815362 0 1 590.84045,390.82837 93.263303,121.82441 33.815362 0 1 487.88097,308.06464 93.263303,121.82441 33.815362 0 1 590.84045,170.12509 93.263303,121.82441 33.815362 0 1 693.79993,252.88882 Z"
       id="circle6384"
       inkscape:connector-curvature="0" />
    <path
       inkscape:connector-curvature="0"
       id="path6749"
       d="m 581.48828,371.48723 v 21.90322 l 19.62779,19.62779 v -36.62406 z m 0,58.52727 v 36.62407 l 19.62779,19.62779 v -36.62407 z m 0,73.24813 v 38.22255 l 19.62779,18.02929 v -36.62405 z m 0,73.24812 v 37.12565 l 19.62779,19.12619 v -36.62405 z m 0,73.24811 v 36.62406 l 19.62779,19.62779 v -36.62406 z"
       style="color:#000000;font-style:normal;font-variant:normal;font-weight:normal;font-stretch:normal;font-size:medium;line-height:normal;font-family:sans-serif;font-variant-ligatures:normal;font-variant-position:normal;font-variant-caps:normal;font-variant-numeric:normal;font-variant-alternates:normal;font-feature-settings:normal;text-indent:0;text-align:start;text-decoration:none;text-decoration-line:none;text-decoration-style:solid;text-decoration-color:#000000;letter-spacing:normal;word-spacing:normal;text-transform:none;writing-mode:lr-tb;direction:ltr;text-orientation:mixed;dominant-baseline:auto;baseline-shift:baseline;text-anchor:start;white-space:normal;shape-padding:0;clip-rule:nonzero;display:inline;overflow:visible;visibility:visible;opacity:1;isolation:auto;mix-blend-mode:normal;color-interpolation:sRGB;color-interpolation-filters:linearRGB;solid-color:#000000;solid-opacity:1;vector-effect:none;fill:#ffffff;fill-opacity:1;fill-rule:nonzero;stroke:none;stroke-width:18.95800018;stroke-linecap:butt;stroke-linejoin:miter;stroke-miterlimit:4;stroke-dasharray:37.91600037, 37.91600037;stroke-dashoffset:0;stroke-opacity:1;color-rendering:auto;image-rendering:auto;shape-rendering:auto;text-rendering:auto;enable-background:accumulate"
       sodipodi:nodetypes="ccccccccccccccccccccccccc" />
    <path
       inkscape:connector-curvature="0"
       id="path6386"
       d="m 590.96731,179.31715 a 85.696309,111.94009 33.81537 0 0 -94.60566,126.74755 85.696309,111.94009 33.81537 0 0 94.60566,76.04855 85.696309,111.94009 33.81537 0 0 94.60568,-126.74758 85.696309,111.94009 33.81537 0 0 -94.60568,-76.04852 z m -1.22889,25.31244 c 4.46777,-1.18899 8.98063,-0.6379 12.36147,1.9351 l 55.28743,45.7562 c 21.97652,17.66584 -24.3398,35.53658 -37.74015,47.5148 -4.66528,6.35249 14.34201,4.66382 12.38457,11.47372 -3.96252,13.78151 -14.74562,8.59142 -26.32747,24.38903 -4.65738,6.35032 8.91074,2.2306 4.25336,8.5852 -8.79061,9.24937 -26.76483,18.86602 -28.20214,10.83366 -2.01699,-11.23885 -12.78776,-3.51602 -17.44514,-7.37046 -4.65736,-3.85447 9.53016,-13.0697 4.87281,-16.92409 -4.66531,-3.85236 -28.1705,-2.28272 -32.82784,-6.1372 -4.65739,-3.85869 17.85241,-13.65761 13.19505,-17.51205 -12.98341,-3.41083 -43.27214,7.48804 -25.25011,-21.26128 l 53.34023,-72.79365 c 3.20615,-4.3763 7.63017,-7.30141 12.09793,-8.48898 z m 0.48099,5.43978 c -3.18974,0.83483 -6.39285,2.93729 -8.72748,6.12043 -4.64546,6.33436 -13.19235,17.40759 -20.64091,28.02085 -4.26429,5.71304 -3.71463,11.94907 0.97847,10.69155 l 11.51478,-3.08537 7.53157,-15.98392 4.64212,18.7709 14.02203,-13.25255 8.75388,2.60866 2.05913,-13.85369 10.48025,6.17513 c 1.11967,-1.5213 1.1478,-5.77511 -0.85332,-7.43047 l -21.10547,-17.31873 c -2.28898,-1.87191 -5.46525,-2.29944 -8.65505,-1.46279 z m -25.34239,96.16484 c -6.94831,1.8618 20.59046,6.47101 26.26822,3.33256 2.51729,-2.03625 3.8098,-4.40056 1.98336,-4.32397 -5.26882,0.4756 -26.82617,1.55845 -28.25158,0.99141 z m 84.63941,-6.60154 c 4.06262,-0.97843 8.011,0.0269 9.34357,3.80308 0,5.48962 -19.94904,8.93264 -19.94904,6.03038 1.25297,-5.06749 6.00118,-8.7245 10.60547,-9.83346 z m -92.28626,37.29902 c 2.44677,-0.63016 4.7285,-0.45929 6.01605,1.02934 -2.18774,6.69716 -9.48825,14.12139 -14.21308,11.00847 -5.39367,-3.56178 1.9442,-10.42455 8.19703,-12.03781 z m 79.18017,-20.83489 c 6.6504,-0.32659 8.02289,4.41066 6.68482,6.2246 -6.00335,5.39176 -12.77552,1.26304 -6.68482,-6.2246 z"
       style="opacity:1;fill:#dc1c4b;fill-opacity:1;stroke:none;stroke-width:8.31212711;stroke-linecap:round;stroke-linejoin:round;stroke-miterlimit:4;stroke-dasharray:none" />
    <path
       style="fill:#9a827e;fill-opacity:1;stroke:none;stroke-width:142.85713196;stroke-linecap:round;stroke-linejoin:round;stroke-miterlimit:4;stroke-dasharray:none;stroke-dashoffset:0;stroke-opacity:1;paint-order:normal"
       id="path935"
       cy="532.41669"
       r="159.99998"
       d=""
       inkscape:connector-curvature="0" />
    <g
       id="g6772"
       transform="translate(-3.9831546,2.0864143)"
       style="fill:url(#linearGradient6934);fill-opacity:1">
      <g
         aria-label="jaigansa"
         style="font-style:normal;font-weight:normal;font-size:24.82064629px;line-height:1.25;font-family:sans-serif;letter-spacing:0px;word-spacing:0px;fill:url(#linearGradient6934);fill-opacity:1;stroke:none;stroke-width:0.62051606"
         id="text1035">
        <path
           d="m 69.27574,729.61856 q -0.819081,0 -1.514059,-0.22338 -0.719799,-0.22339 -1.16657,-0.64534 l 0.496412,-0.91836 q 0.794261,0.7198 2.109755,0.7198 1.14175,0 1.737446,-0.67016 0.595695,-0.67016 0.595695,-1.93601 V 711.7477 h 1.241032 v 14.24705 q 0,1.66298 -0.918363,2.63099 -0.918364,0.99282 -2.581348,0.99282 z m 2.879195,-21.02308 q -0.421951,0 -0.719798,-0.27303 -0.297848,-0.29785 -0.297848,-0.7198 0,-0.42195 0.297848,-0.7198 0.297847,-0.29785 0.719798,-0.29785 0.421951,0 0.719799,0.29785 0.297848,0.27303 0.297848,0.69498 0,0.42195 -0.297848,0.7198 -0.297848,0.29785 -0.719799,0.29785 z"
           style="font-style:normal;font-variant:normal;font-weight:300;font-stretch:normal;font-size:24.82064629px;line-height:349.72290039px;font-family:Montserrat;-inkscape-font-specification:'Montserrat Light';font-variant-ligatures:normal;font-variant-caps:normal;font-variant-numeric:normal;font-feature-settings:normal;text-align:start;writing-mode:lr-tb;text-anchor:start;fill:url(#linearGradient6934);fill-opacity:1;stroke-width:0.62051606"
           id="path6794"
           inkscape:connector-curvature="0" />
        <path
           d="m 82.371734,711.64842 q 2.407603,0 3.698276,1.24103 1.290674,1.21621 1.290674,3.59899 v 8.21564 h -1.191391 v -2.30833 q -0.620516,1.14175 -1.811907,1.78709 -1.191391,0.62052 -2.854375,0.62052 -2.159396,0 -3.425249,-1.01765 -1.241032,-1.01765 -1.241032,-2.68063 0,-1.61334 1.141749,-2.60617 1.166571,-1.01764 3.698277,-1.01764 h 4.442895 v -1.04247 q 0,-1.81191 -0.992825,-2.75509 -0.968006,-0.94319 -2.854375,-0.94319 -1.290673,0 -2.482064,0.44678 -1.166571,0.44677 -1.985652,1.19139 l -0.620516,-0.89355 q 0.968005,-0.86872 2.333141,-1.34031 1.365135,-0.49641 2.854374,-0.49641 z m -0.694978,12.13729 q 1.613342,0 2.730271,-0.74462 1.14175,-0.74462 1.712624,-2.15939 v -2.43243 h -4.418075 q -1.911189,0 -2.779912,0.69498 -0.843902,0.69498 -0.843902,1.91119 0,1.26585 0.943185,2.01047 0.943184,0.7198 2.655809,0.7198 z"
           style="font-style:normal;font-variant:normal;font-weight:300;font-stretch:normal;font-size:24.82064629px;line-height:349.72290039px;font-family:Montserrat;-inkscape-font-specification:'Montserrat Light';font-variant-ligatures:normal;font-variant-caps:normal;font-variant-numeric:normal;font-feature-settings:normal;text-align:start;writing-mode:lr-tb;text-anchor:start;fill:url(#linearGradient6934);fill-opacity:1;stroke-width:0.62051606"
           id="path6796"
           inkscape:connector-curvature="0" />
        <path
           d="m 92.498168,711.7477 h 1.241033 v 12.95638 h -1.241033 z m 0.620517,-3.15222 q -0.421951,0 -0.719799,-0.27303 -0.297848,-0.29785 -0.297848,-0.7198 0,-0.42195 0.297848,-0.7198 0.297848,-0.29785 0.719799,-0.29785 0.421951,0 0.719798,0.29785 0.297848,0.27303 0.297848,0.69498 0,0.42195 -0.297848,0.7198 -0.297847,0.29785 -0.719798,0.29785 z"
           style="font-style:normal;font-variant:normal;font-weight:300;font-stretch:normal;font-size:24.82064629px;line-height:349.72290039px;font-family:Montserrat;-inkscape-font-specification:'Montserrat Light';font-variant-ligatures:normal;font-variant-caps:normal;font-variant-numeric:normal;font-feature-settings:normal;text-align:start;writing-mode:lr-tb;text-anchor:start;fill:url(#linearGradient6934);fill-opacity:1;stroke-width:0.62051606"
           id="path6798"
           inkscape:connector-curvature="0" />
        <path
           d="m 110.6599,711.7477 v 11.56642 q 0,3.22668 -1.5637,4.76556 -1.5637,1.53888 -4.71592,1.53888 -1.78709,0 -3.37561,-0.54605 -1.588522,-0.54606 -2.556527,-1.51406 l 0.670158,-0.94319 q 0.968009,0.89355 2.333139,1.38996 1.36514,0.49641 2.90402,0.49641 2.58134,0 3.82238,-1.24103 1.24103,-1.21621 1.24103,-3.79756 v -2.18421 q -0.79426,1.41477 -2.20904,2.18421 -1.41478,0.76944 -3.17704,0.76944 -1.81191,0 -3.30115,-0.79426 -1.464416,-0.81908 -2.308318,-2.25868 -0.843902,-1.43959 -0.843902,-3.2515 0,-1.81191 0.843902,-3.25151 0.843902,-1.43959 2.308318,-2.23385 1.48924,-0.79426 3.30115,-0.79426 1.78709,0 3.22668,0.79426 1.4396,0.79426 2.20904,2.23385 v -2.92883 z m -6.52783,11.36785 q 1.51406,0 2.73027,-0.64533 1.21621,-0.67016 1.88637,-1.83673 0.69498,-1.19139 0.69498,-2.70545 0,-1.51406 -0.69498,-2.68063 -0.67016,-1.16657 -1.88637,-1.81191 -1.21621,-0.67016 -2.73027,-0.67016 -1.51406,0 -2.73027,0.67016 -1.19139,0.64534 -1.886369,1.81191 -0.670158,1.16657 -0.670158,2.68063 0,1.51406 0.670158,2.70545 0.694979,1.16657 1.886369,1.83673 1.21621,0.64533 2.73027,0.64533 z"
           style="font-style:normal;font-variant:normal;font-weight:300;font-stretch:normal;font-size:24.82064629px;line-height:349.72290039px;font-family:Montserrat;-inkscape-font-specification:'Montserrat Light';font-variant-ligatures:normal;font-variant-caps:normal;font-variant-numeric:normal;font-feature-settings:normal;text-align:start;writing-mode:lr-tb;text-anchor:start;fill:url(#linearGradient6938);fill-opacity:1;stroke-width:0.62051606"
           id="path6800"
           inkscape:connector-curvature="0" />
        <path
           d="m 120.28139,711.64842 q 2.40761,0 3.69828,1.24103 1.29067,1.21621 1.29067,3.59899 v 8.21564 h -1.19139 v -2.30833 q -0.62051,1.14175 -1.81191,1.78709 -1.19139,0.62052 -2.85437,0.62052 -2.1594,0 -3.42525,-1.01765 -1.24103,-1.01765 -1.24103,-2.68063 0,-1.61334 1.14175,-2.60617 1.16657,-1.01764 3.69828,-1.01764 h 4.44289 v -1.04247 q 0,-1.81191 -0.99283,-2.75509 -0.968,-0.94319 -2.85437,-0.94319 -1.29067,0 -2.48206,0.44678 -1.16657,0.44677 -1.98566,1.19139 l -0.62051,-0.89355 q 0.968,-0.86872 2.33314,-1.34031 1.36513,-0.49641 2.85437,-0.49641 z m -0.69497,12.13729 q 1.61334,0 2.73027,-0.74462 1.14175,-0.74462 1.71262,-2.15939 v -2.43243 h -4.41807 q -1.91119,0 -2.77992,0.69498 -0.8439,0.69498 -0.8439,1.91119 0,1.26585 0.94319,2.01047 0.94318,0.7198 2.65581,0.7198 z"
           style="font-style:normal;font-variant:normal;font-weight:300;font-stretch:normal;font-size:24.82064629px;line-height:349.72290039px;font-family:Montserrat;-inkscape-font-specification:'Montserrat Light';font-variant-ligatures:normal;font-variant-caps:normal;font-variant-numeric:normal;font-feature-settings:normal;text-align:start;writing-mode:lr-tb;text-anchor:start;fill:url(#linearGradient6934);fill-opacity:1;stroke-width:0.62051606"
           id="path6802"
           inkscape:connector-curvature="0" />
        <path
           d="m 136.73709,711.64842 q 2.43243,0 3.8472,1.41477 1.41478,1.41478 1.41478,4.07059 v 7.5703 h -1.24103 v -7.47102 q 0,-2.18422 -1.11693,-3.32597 -1.09211,-1.14175 -3.07776,-1.14175 -2.2835,0 -3.59899,1.36514 -1.3155,1.36514 -1.3155,3.67346 v 6.90014 h -1.24103 V 711.7477 h 1.19139 v 2.80473 q 0.67016,-1.36513 1.98565,-2.13457 1.34032,-0.76944 3.15222,-0.76944 z"
           style="font-style:normal;font-variant:normal;font-weight:300;font-stretch:normal;font-size:24.82064629px;line-height:349.72290039px;font-family:Montserrat;-inkscape-font-specification:'Montserrat Light';font-variant-ligatures:normal;font-variant-caps:normal;font-variant-numeric:normal;font-feature-settings:normal;text-align:start;writing-mode:lr-tb;text-anchor:start;fill:url(#linearGradient6934);fill-opacity:1;stroke-width:0.62051606"
           id="path6804"
           inkscape:connector-curvature="0" />
        <path
           d="m 150.409,724.80336 q -1.5637,0 -2.97848,-0.47159 -1.41477,-0.4716 -2.20904,-1.1914 l 0.57088,-0.99282 q 0.79426,0.67016 2.03529,1.11693 1.26586,0.44677 2.63099,0.44677 1.96083,0 2.8792,-0.64534 0.94318,-0.64533 0.94318,-1.78708 0,-0.81909 -0.52123,-1.29068 -0.49642,-0.47159 -1.24104,-0.69498 -0.74461,-0.22338 -2.06011,-0.47159 -1.53888,-0.27303 -2.48206,-0.59569 -0.94319,-0.32267 -1.61335,-1.04247 -0.67015,-0.7198 -0.67015,-1.98565 0,-1.53888 1.26585,-2.53171 1.29067,-1.01764 3.64864,-1.01764 1.24103,0 2.45724,0.34748 1.21621,0.34749 1.98565,0.91837 l -0.57087,0.99282 q -0.79426,-0.57087 -1.81191,-0.86872 -1.01765,-0.29785 -2.08494,-0.29785 -1.8119,0 -2.73027,0.67016 -0.91836,0.67016 -0.91836,1.76227 0,0.86872 0.52123,1.36513 0.52124,0.47159 1.26586,0.7198 0.76944,0.22339 2.13457,0.49641 1.51406,0.27303 2.43242,0.5957 0.94319,0.29785 1.58853,0.99283 0.64533,0.69497 0.64533,1.91119 0,1.61334 -1.34031,2.58134 -1.34032,0.96801 -3.77274,0.96801 z"
           style="font-style:normal;font-variant:normal;font-weight:300;font-stretch:normal;font-size:24.82064629px;line-height:349.72290039px;font-family:Montserrat;-inkscape-font-specification:'Montserrat Light';font-variant-ligatures:normal;font-variant-caps:normal;font-variant-numeric:normal;font-feature-settings:normal;text-align:start;writing-mode:lr-tb;text-anchor:start;fill:url(#linearGradient6934);fill-opacity:1;stroke-width:0.62051606"
           id="path6806"
           inkscape:connector-curvature="0" />
        <path
           d="m 163.37818,711.64842 q 2.4076,0 3.69827,1.24103 1.29068,1.21621 1.29068,3.59899 v 8.21564 h -1.1914 v -2.30833 q -0.62051,1.14175 -1.8119,1.78709 -1.19139,0.62052 -2.85438,0.62052 -2.15939,0 -3.42525,-1.01765 -1.24103,-1.01765 -1.24103,-2.68063 0,-1.61334 1.14175,-2.60617 1.16657,-1.01764 3.69828,-1.01764 h 4.44289 v -1.04247 q 0,-1.81191 -0.99282,-2.75509 -0.96801,-0.94319 -2.85438,-0.94319 -1.29067,0 -2.48206,0.44678 -1.16657,0.44677 -1.98565,1.19139 l -0.62052,-0.89355 q 0.96801,-0.86872 2.33314,-1.34031 1.36514,-0.49641 2.85438,-0.49641 z m -0.69498,12.13729 q 1.61334,0 2.73027,-0.74462 1.14175,-0.74462 1.71262,-2.15939 v -2.43243 h -4.41807 q -1.91119,0 -2.77991,0.69498 -0.84391,0.69498 -0.84391,1.91119 0,1.26585 0.94319,2.01047 0.94318,0.7198 2.65581,0.7198 z"
           style="font-style:normal;font-variant:normal;font-weight:300;font-stretch:normal;font-size:24.82064629px;line-height:349.72290039px;font-family:Montserrat;-inkscape-font-specification:'Montserrat Light';font-variant-ligatures:normal;font-variant-caps:normal;font-variant-numeric:normal;font-feature-settings:normal;text-align:start;writing-mode:lr-tb;text-anchor:start;fill:url(#linearGradient6934);fill-opacity:1;stroke-width:0.62051606"
           id="path6808"
           inkscape:connector-curvature="0" />
      </g>
      <path
         sodipodi:nodetypes="sssccscccccccscccccscccsccccccccccsscssccs"
         inkscape:connector-curvature="0"
         id="path1425"
         d="m 37.07991,699.61856 c -4.143052,0 -7.501659,3.35789 -7.501659,7.49998 v 7.49999 c 0,4.14215 3.358607,7.49998 7.501659,7.49998 2.020982,-4.7e-4 3.956339,-0.81587 5.367794,-2.26199 -0.699083,-0.474 -2.21216,-1.6413 -2.929266,-3.282 -0.949852,-2.17325 -1.762683,-5.57914 0.520625,-7.75234 -0.383591,-0.018 -0.721547,0.45654 -0.721547,0.45654 0,0 0.185904,-0.54198 0.862415,-0.63006 0.0077,-0.34434 -1.055746,-0.17832 -1.127026,-0.92862 0.141713,0.55266 1.078677,0.38664 1.351473,0.6456 -0.219198,-0.48395 1.92173,-3.31769 6.881602,-2.85282 -0.630832,-0.17825 -0.74917,-0.55205 -0.74917,-0.55205 0,0 0.361656,0.49392 1.259344,0.49392 0.897682,0 3.988204,0.546 4.727996,1.80605 0.1644,-0.0276 -0.344657,-0.63114 -0.182171,-0.87822 -0.01242,0.68827 2.697306,2.8719 0.775954,3.99444 -0.17985,0.048 -0.404345,-0.44964 -0.404579,-0.62628 -0.02982,0.22992 0.281142,0.7182 0.281214,0.70596 0,0 0.187235,0.88572 0.516034,1.28291 0.328788,0.3972 0.347076,1.04551 0.24204,1.35594 -0.10503,0.3105 -0.123353,0.7488 0.356135,1.31034 0.479495,0.5616 0.817409,1.2738 0.954413,1.5021 0.136997,0.22824 0.419842,0.73464 0.0092,1.03638 -0.406709,0.29891 -0.623812,0.31529 -0.726142,0.34697 -0.05478,0.006 -0.20772,0.0708 -0.173472,0.17124 0.03426,0.10044 0.02832,0.5304 0.246246,0.6861 0.09061,0.36588 -0.231894,0.57186 -0.32937,0.65538 0.232494,0.1065 0.37776,0.57474 0.300263,0.72966 -0.07749,0.15498 -0.632818,0.5004 -0.710314,0.91038 -0.0775,0.40998 -0.400475,1.19124 -0.678179,1.39782 -0.176225,0.13116 -0.49054,0.27599 -0.918171,0.27611 v 6.1e-4 c -4.143052,0 -7.50166,3.35783 -7.50166,7.49998 h 7.50166 c 4.143057,0 7.501664,-3.35789 7.501664,-7.49998 v -7.49999 -7.49998 c 0,-4.14216 -3.358607,-7.49999 -7.501664,-7.49999 h -7.50166 -7.492768 z"
         style="fill:url(#linearGradient6936);fill-opacity:1;stroke:none;stroke-width:5.00054693;stroke-linecap:round;stroke-linejoin:round;stroke-miterlimit:4;stroke-dasharray:none;stroke-dashoffset:0;stroke-opacity:1;paint-order:normal"
         class="jaigansa" />
    </g>
    <path
       style="fill:#e5e5e5;fill-opacity:1;stroke:none;stroke-width:1px;stroke-linecap:butt;stroke-linejoin:miter;stroke-opacity:1"
       d="m 22.900391,430.17578 v 40.20899 L 73.4375,483.92578 V 443.7168 Z m 84.570309,22.66016 v 40.20898 l 50.53516,13.54102 v -40.20899 z m 84.57227,22.66015 v 40.21094 l 50.53515,13.54102 v -40.21094 z m 84.56836,22.66016 v 40.21094 l 50.53711,13.54101 v -40.21093 z m 84.57422,22.66211 v 40.21094 l 50.53515,13.53906 v -40.20898 z m 84.56836,22.66016 v 40.20898 l 50.53515,13.54102 v -40.20899 z m 84.57226,22.66015 v 40.21094 l 51.16211,13.70898 v -40.21093 z m 84.56836,22.66016 V 625 h 50.53516 v -22.66016 z m 84.57227,22.66015 V 625 H 750 Z"
       id="path6811"
       inkscape:connector-curvature="0"
       transform="translate(0,131.63548)" />
    <g
       aria-label="1.0"
       transform="matrix(0.96592582,-0.25881905,0,1.0352762,0,0)"
       style="font-style:normal;font-weight:normal;font-size:96.45809937px;line-height:1.25;font-family:sans-serif;letter-spacing:0px;word-spacing:0px;fill:#ffffff;fill-opacity:1;stroke:none;stroke-width:0.72343576"
       id="text6240">
      <path
         d="m 154.86451,274.3405 q 1.23466,0 1.23466,1.23466 -4.16699,4.70715 -7.87098,22.37828 -3.62682,17.59396 -3.62682,25.92794 0,1.00316 -1.08033,1.00316 -2.315,0 -2.315,-6.17332 0,-13.65847 2.62366,-25.5421 2.62366,-11.96081 6.71349,-16.51363 -6.48199,2.31499 -12.26947,9.18281 -5.71032,6.86782 -5.71032,13.1183 0,3.47249 2.00633,3.47249 -0.38584,1.77483 -2.23783,1.77483 -1.77483,0 -3.0095,-1.62049 -1.23466,-1.6205 -1.23466,-4.32133 0,-5.09298 4.70716,-10.8033 4.78432,-5.78749 11.0348,-9.41431 6.32765,-3.70399 11.03481,-3.70399 z"
         style="font-style:normal;font-variant:normal;font-weight:normal;font-stretch:normal;font-family:'Euphoria Script';-inkscape-font-specification:'Euphoria Script';fill:#ffffff;stroke-width:0.72343576"
         id="path6487"
         inkscape:connector-curvature="0" />
      <path
         d="m 164.5495,325.34754 q -1.62049,0 -1.62049,-3.00949 0,-1.852 1.00316,-3.93549 1.00317,-2.0835 2.85516,-2.0835 1.54333,0 1.54333,1.77483 0,1.77483 -2.85516,5.94182 z"
         style="font-style:normal;font-variant:normal;font-weight:normal;font-stretch:normal;font-family:'Euphoria Script';-inkscape-font-specification:'Euphoria Script';fill:#ffffff;stroke-width:0.72343576"
         id="path6489"
         inkscape:connector-curvature="0" />
      <path
         d="m 182.09523,309.21974 q 0,13.42697 6.79065,13.42697 6.79065,0 11.42064,-10.34031 4.70716,-10.3403 4.70716,-20.37195 0,-11.57497 -5.55599,-11.57497 0.2315,-1.08033 1.1575,-1.85199 1.00316,-0.77167 2.39216,-0.77167 6.09615,0 6.09615,12.1923 0,7.25365 -2.85516,15.97347 -4.16699,12.50097 -11.11197,16.97662 -3.00949,2.00633 -6.25049,2.00633 -8.48831,0 -11.18914,-8.95131 -1.08033,-3.62683 -1.08033,-8.56548 0,-5.01582 2.0835,-11.88364 3.54966,-11.65214 10.49464,-17.43962 4.39849,-3.70399 9.25998,-3.70399 0.6945,0 1.08033,0.54016 0.463,0.463 0.61733,1.46616 -7.79382,0 -13.1183,11.57498 -4.93866,10.64897 -4.93866,21.29794 z"
         style="font-style:normal;font-variant:normal;font-weight:normal;font-stretch:normal;font-family:'Euphoria Script';-inkscape-font-specification:'Euphoria Script';fill:#ffffff;stroke-width:0.72343576"
         id="path6491"
         inkscape:connector-curvature="0" />
    </g>
  </g>
  <style
     id="style26"
     type="text/css">
	.specularity {opacity:0.5;}
	.low-specularity {opacity:0.25;}
	.full-specularity {opacity:1;}
	.black {fill:#000000;}
	.white {fill:#ffffff;}
	.outline-big {stroke-width:16;stroke:none;opacity:0.1;fill:none;}
	.outline-small {stroke-width:8;stroke:none;opacity:0.2;fill:none;}
	.stroke-highlight {fill:none;stroke:none;opacity:0.2;}
       	.base-shadow 	{fill:black;opacity:75;}
	</style>
  <style
     id="style2">@keyframes beat{0%,60%,90%,to{transform:scale(1)}25%{transform:scale(.8)}80%{transform:scale(.9)}}.jaigansa{animation:beat 1.5s infinite}</style>
</svg>
