<?xml version="1.0" encoding="UTF-8" standalone="no"?>
<svg
   xmlns:dc="http://purl.org/dc/elements/1.1/"
   xmlns:cc="http://creativecommons.org/ns#"
   xmlns:rdf="http://www.w3.org/1999/02/22-rdf-syntax-ns#"
   xmlns:svg="http://www.w3.org/2000/svg"
   xmlns="http://www.w3.org/2000/svg"
   xmlns:sodipodi="http://sodipodi.sourceforge.net/DTD/sodipodi-0.dtd"
   xmlns:inkscape="http://www.inkscape.org/namespaces/inkscape"
   width="190"
   height="190"
   viewBox="0 0 50.270835 50.270835"
   version="1.1"
   id="svg3660"
   inkscape:version="1.0alpha (c15df26511, 2019-01-24, custom)"
   sodipodi:docname="sponsors.svg"
   inkscape:export-filename="/home/doctormo/Projects/inkscape/media/teams/sponsors.png"
   inkscape:export-xdpi="151.58"
   inkscape:export-ydpi="151.58">
  <title
     id="title5372">Developers Team</title>
  <defs
     id="defs3654">
    <inkscape:path-effect
       effect="powerstroke"
       id="path-effect8345"
       is_visible="true"
       offset_points="0.168713,0.131467 | 0.56136,0.150878 | 0.937824,0.0526129"
       sort_points="true"
       interpolator_type="CubicBezierJohan"
       interpolator_beta="0.2"
       start_linecap_type="zerowidth"
       linejoin_type="extrp_arc"
       miter_limit="4"
       end_linecap_type="zerowidth" />
    <inkscape:path-effect
       end_linecap_type="zerowidth"
       miter_limit="4"
       linejoin_type="extrp_arc"
       start_linecap_type="zerowidth"
       interpolator_beta="0.2"
       interpolator_type="CubicBezierJohan"
       sort_points="true"
       offset_points="0.168713,0.101953 | 0.56136,0.117006 | 0.937824,0.0408013"
       is_visible="true"
       id="path-effect8357"
       effect="powerstroke" />
    <inkscape:path-effect
       end_linecap_type="zerowidth"
       miter_limit="4"
       linejoin_type="extrp_arc"
       start_linecap_type="zerowidth"
       interpolator_beta="0.2"
       interpolator_type="CubicBezierJohan"
       sort_points="true"
       offset_points="0.212047,0.101021 | 0.710329,0.049774 | 1.6139,0.0524168"
       is_visible="true"
       id="path-effect8361"
       effect="powerstroke" />
    <inkscape:path-effect
       end_linecap_type="zerowidth"
       miter_limit="4"
       linejoin_type="extrp_arc"
       start_linecap_type="zerowidth"
       interpolator_beta="0.2"
       interpolator_type="CubicBezierJohan"
       sort_points="true"
       offset_points="0.168713,0.101953 | 0.52312,0.116917 | 0.937824,0.0408013"
       is_visible="true"
       id="path-effect8265"
       effect="powerstroke" />
    <inkscape:path-effect
       effect="powerstroke"
       id="path-effect8269"
       is_visible="true"
       offset_points="0.177604,0.118328 | 0.522204,0.109153 | 0.959284,0.0458174"
       sort_points="true"
       interpolator_type="CubicBezierJohan"
       interpolator_beta="0.2"
       start_linecap_type="zerowidth"
       linejoin_type="extrp_arc"
       miter_limit="4"
       end_linecap_type="zerowidth" />
    <inkscape:path-effect
       effect="powerstroke"
       id="path-effect8285"
       is_visible="true"
       offset_points="0.168713,0.101953 | 0.56136,0.117006 | 0.937824,0.0408013"
       sort_points="true"
       interpolator_type="CubicBezierJohan"
       interpolator_beta="0.2"
       start_linecap_type="zerowidth"
       linejoin_type="extrp_arc"
       miter_limit="4"
       end_linecap_type="zerowidth" />
    <inkscape:path-effect
       end_linecap_type="zerowidth"
       miter_limit="4"
       linejoin_type="extrp_arc"
       start_linecap_type="zerowidth"
       interpolator_beta="0.2"
       interpolator_type="CubicBezierJohan"
       sort_points="true"
       offset_points="0.349173,0.105056 | 0.522204,0.109153 | 0.959284,0.0458174"
       is_visible="true"
       id="path-effect8281"
       effect="powerstroke" />
    <inkscape:path-effect
       end_linecap_type="zerowidth"
       miter_limit="4"
       linejoin_type="extrp_arc"
       start_linecap_type="zerowidth"
       interpolator_beta="0.2"
       interpolator_type="CubicBezierJohan"
       sort_points="true"
       offset_points="0.168713,0.101953 | 0.56136,0.117006 | 0.937824,0.0408013"
       is_visible="true"
       id="path-effect8289"
       effect="powerstroke" />
    <inkscape:path-effect
       end_linecap_type="zerowidth"
       miter_limit="4"
       linejoin_type="extrp_arc"
       start_linecap_type="zerowidth"
       interpolator_beta="0.2"
       interpolator_type="CubicBezierJohan"
       sort_points="true"
       offset_points="0.168713,0.101953 | 0.56136,0.117006 | 0.937824,0.0408013"
       is_visible="true"
       id="path-effect8293"
       effect="powerstroke" />
    <inkscape:path-effect
       end_linecap_type="zerowidth"
       miter_limit="4"
       linejoin_type="extrp_arc"
       start_linecap_type="zerowidth"
       interpolator_beta="0.2"
       interpolator_type="CubicBezierJohan"
       sort_points="true"
       offset_points="0.138944,0.082564 | 0.466068,0.0906879 | 0.959284,0.0458174"
       is_visible="true"
       id="path-effect8349"
       effect="powerstroke" />
    <inkscape:path-effect
       effect="powerstroke"
       id="path-effect8353"
       is_visible="true"
       offset_points="0.168713,0.0786486 | 0.56136,0.0902608 | 0.937824,0.0314749"
       sort_points="true"
       interpolator_type="CubicBezierJohan"
       interpolator_beta="0.2"
       start_linecap_type="zerowidth"
       linejoin_type="extrp_arc"
       miter_limit="4"
       end_linecap_type="zerowidth" />
    <inkscape:path-effect
       end_linecap_type="zerowidth"
       miter_limit="4"
       linejoin_type="extrp_arc"
       start_linecap_type="zerowidth"
       interpolator_beta="0.2"
       interpolator_type="CubicBezierJohan"
       sort_points="true"
       offset_points="0,0.0661455"
       is_visible="true"
       id="path-effect8747"
       effect="powerstroke" />
    <clipPath
       id="clipPath6531-7"
       clipPathUnits="userSpaceOnUse">
      <ellipse
         ry="6.3947301"
         rx="6.5398402"
         cy="166.117"
         cx="-43.827499"
         id="ellipse6533-2"
         style="opacity:1;vector-effect:none;fill:#654a15;fill-opacity:1;fill-rule:nonzero;stroke:none;stroke-width:0.77043998;stroke-linecap:square;stroke-linejoin:miter;stroke-miterlimit:4;stroke-dasharray:none;stroke-dashoffset:0;stroke-opacity:0.98823499;paint-order:markers fill stroke" />
    </clipPath>
  </defs>
  <sodipodi:namedview
     id="base"
     pagecolor="#ffffff"
     bordercolor="#666666"
     borderopacity="1.0"
     inkscape:pageopacity="0.0"
     inkscape:pageshadow="2"
     inkscape:zoom="2.4510143"
     inkscape:cx="124.62506"
     inkscape:cy="116.45704"
     inkscape:document-units="mm"
     inkscape:current-layer="svg3660"
     inkscape:document-rotation="0"
     showgrid="false"
     units="px"
     inkscape:window-width="1855"
     inkscape:window-height="1056"
     inkscape:window-x="65"
     inkscape:window-y="24"
     inkscape:window-maximized="1"
     inkscape:snap-global="false" />
  <metadata
     id="metadata3657">
    <rdf:RDF>
      <cc:Work
         rdf:about="">
        <dc:format>image/svg+xml</dc:format>
        <dc:type
           rdf:resource="http://purl.org/dc/dcmitype/StillImage" />
        <dc:title>Developers Team</dc:title>
        <cc:license
           rdf:resource="http://creativecommons.org/licenses/by-sa/4.0/" />
        <dc:creator>
          <cc:Agent>
            <dc:title>Tim Jones</dc:title>
          </cc:Agent>
        </dc:creator>
        <dc:date>2017-07-21</dc:date>
        <dc:rights>
          <cc:Agent>
            <dc:title />
          </cc:Agent>
        </dc:rights>
      </cc:Work>
      <cc:License
         rdf:about="http://creativecommons.org/licenses/by-sa/4.0/">
        <cc:permits
           rdf:resource="http://creativecommons.org/ns#Reproduction" />
        <cc:permits
           rdf:resource="http://creativecommons.org/ns#Distribution" />
        <cc:requires
           rdf:resource="http://creativecommons.org/ns#Notice" />
        <cc:requires
           rdf:resource="http://creativecommons.org/ns#Attribution" />
        <cc:permits
           rdf:resource="http://creativecommons.org/ns#DerivativeWorks" />
        <cc:requires
           rdf:resource="http://creativecommons.org/ns#ShareAlike" />
      </cc:License>
    </rdf:RDF>
  </metadata>
  <path
     sodipodi:nodetypes="ccccccccccccccccccccccccccccccccc"
     inkscape:connector-curvature="0"
     id="path901"
     d="M 3.9923317,14.535588 13.869949,16.855493 21.491986,12.044285 23.779235,13.243473 25.676755,11.90005 28.60743,11.812624 36.688977,16.398598 45.025312,14.314234 C 47.99477,17.991248 48.472243,23.830166 48.285878,30.244991 L 39.808827,32.669805 38.616921,33.965385 36.661558,34.731557 34.996403,37.435173 34.073809,37.787513 32.482107,37.618296 30.82449,39.9187 29.660342,40.276494 28.119914,39.997324 26.259188,43.489816 24.552828,43.607098 21.443271,41.976611 21.243521,41.356277 20.093343,41.496527 17.417902,39.61508 17.169545,39.020935 16.304261,39.149993 13.71034,37.750371 13.439441,37.044934 12.175849,36.655496 9.6824537,34.694124 9.8876534,32.874825 1.1955994,30.034055 C 0.68773092,24.026623 2.2698406,16.567654 3.9923317,14.535588 Z"
     style="fill:#2e3436;stroke:#000000;stroke-width:0.264583px;stroke-linecap:butt;stroke-linejoin:miter;stroke-opacity:1;fill-opacity:1" />
  <g
     inkscape:label="Layer 1"
     inkscape:groupmode="layer"
     id="layer1"
     transform="translate(-66.102023,-29.959901)">
    <path
       id="imagebot_5"
       d="M 96.084396,69.332679 C 96.656587,69.061163 97.493326,67.706478 97.493326,67.051623 97.493326,66.587959 97.072895,66.107882 96.320653,65.712592 95.342076,65.198366 95.114039,64.941421 95.521466,64.812112 95.773931,64.731977 96.507737,65.066658 97.86898,65.882794 99.892706,67.096104 100.11244,67.150274 100.73364,66.589063 101.18249,66.183557 101.74271,65.101986 101.80913,64.512696 101.85498,64.105916 101.8439,64.087263 101.32675,63.700305 101.03564,63.482476 100.06776,62.885558 99.175904,62.373825 98.284052,61.862082 97.509908,61.372926 97.455586,61.286815 97.309931,61.055898 97.552547,60.817807 97.933498,60.817807 98.246099,60.817807 98.379608,60.889999 100.73188,62.330996 101.98256,63.097159 102.96052,63.579465 103.26335,63.579465 103.86877,63.579465 104.98926,61.926489 104.98926,61.033353 104.98926,60.300877 104.46328,59.897138 101.39342,58.273245 100.58201,57.844028 99.874446,57.423585 99.821047,57.338929 99.670083,57.0996 99.92457,56.87258 100.34382,56.87258 100.80292,56.87258 101.85969,57.376955 102.98522,58.133268 104.85248,59.387997 105.35626,59.554317 106.02941,59.138285 106.61912,58.773827 107.32634,57.409325 107.20704,56.866179 107.14204,56.570208 106.65929,56.081014 106.22214,55.868125 106.0594,55.78887 104.63912,54.966654 103.06596,54.040978 99.156415,51.740528 95.867742,49.869143 94.663133,49.259439 L 93.657607,48.750499 93.251603,49.03186 C 92.622186,49.468045 92.400466,49.789724 92.3233,50.378669 92.200867,51.313094 91.770958,53.404174 91.519713,54.287323 91.24116,55.266464 90.968368,55.584824 90.23104,55.791263 89.102864,56.107133 86.334868,55.405757 85.445267,54.578608 84.686112,53.872746 84.634244,52.968888 85.209013,50.461586 85.757631,48.068361 86.309455,46.122562 86.521527,45.833501 86.624074,45.693728 87.267919,45.201047 87.952295,44.738655 88.636672,44.276262 89.225939,43.868617 89.261779,43.832778 89.418169,43.676388 88.006826,43.108608 87.569552,43.151999 87.509039,43.158006 86.554787,43.754059 85.448993,44.476565 82.883358,46.152906 81.229418,47.164365 80.474611,47.518625 L 79.877902,47.798683 78.501997,47.459429 C 77.357088,47.177132 72.555369,45.82286 70.835585,45.297202 L 70.364286,45.153149 70.13267,45.612835 C 69.208536,47.446952 68.24867,51.058206 68.004971,53.617768 67.861467,55.124983 67.823977,59.49309 67.95344,59.62186 68.033244,59.701234 71.285066,60.644164 75.815285,61.901555 L 76.477091,62.085245 76.824021,61.602349 C 77.014831,61.336756 77.34872,61.001801 77.565995,60.858016 77.907777,60.631834 78.03774,60.602481 78.529875,60.640261 79.191427,60.691044 79.926162,61.016341 80.772,61.632933 L 81.360356,62.061826 81.932342,61.450379 C 82.73338,60.594065 83.03454,60.467018 83.917678,60.612865 84.656407,60.734862 85.381944,61.012217 85.689195,61.290066 85.791881,61.382931 85.965398,61.636436 86.074788,61.853423 86.184177,62.070411 86.287529,62.263559 86.30446,62.282632 86.32139,62.301717 86.654776,62.157469 87.045317,61.962091 87.628632,61.67027 87.863073,61.606862 88.358584,61.606926 89.456225,61.606926 90.720446,62.402673 91.211022,63.402035 91.35213,63.689479 91.487928,63.995734 91.512797,64.082582 91.544467,64.193174 91.72169,64.257371 92.104367,64.296865 93.178415,64.407721 94.416231,65.294177 94.890047,66.291804 95.244523,67.038177 95.174975,67.726383 94.669858,68.470716 94.372759,68.90851 94.420406,69.061185 94.936315,69.324547 95.359059,69.540345 95.642536,69.542355 96.084396,69.332648 Z"
       fill-opacity="0.79608"
       fill="#050500"
       inkscape:connector-curvature="0"
       style="opacity:1;stroke-width:0.264584;stop-opacity:1;fill:#fdc470;fill-opacity:1" />
    <path
       id="imagebot_4"
       d="M 91.420844,72.39952 C 92.138789,71.681573 94.041253,67.850415 94.041253,67.122573 94.041253,66.708509 93.819464,66.321294 93.354172,65.923022 92.77116,65.423985 91.846244,65.202971 91.381569,65.451658 91.282047,65.50492 90.530441,66.696512 89.711332,68.099643 88.424959,70.303184 88.222043,70.707912 88.222043,71.070094 88.222043,71.636587 88.5747,71.95515 89.572515,72.28999 90.459387,72.587607 91.189486,72.630878 91.420844,72.39952 Z M 87.383682,69.768811 C 88.345032,68.49505 90.63683,64.729662 90.626781,64.440456 90.614799,64.095684 90.069042,63.287165 89.658336,63.005745 89.101557,62.624234 87.696925,62.484244 87.279276,62.76864 87.221853,62.807742 86.522809,64.055265 85.725842,65.540912 84.039495,68.684484 84.017485,68.765871 84.695996,69.349081 85.128921,69.721205 86.617469,70.504464 86.791898,70.451935 86.846145,70.435596 87.112448,70.128195 87.383682,69.768811 Z M 83.372912,67.910093 C 83.76829,67.772263 84.328945,66.93824 85.314342,65.022042 85.77894,64.11859 86.052168,63.470597 86.052168,63.272204 86.052168,62.618933 84.690179,61.705483 83.716127,61.705483 H 83.194168 L 81.801189,63.791494 C 80.472492,65.78124 80.410659,65.895775 80.461306,66.27338 80.490511,66.49111 80.598792,66.784055 80.701934,66.924369 80.940198,67.248505 81.812941,67.725573 82.452149,67.881088 83.089693,68.036199 83.017671,68.033931 83.372912,67.910093 Z M 79.755597,65.42879 C 80.214729,64.959488 80.901324,63.948234 80.983719,63.61995 81.053238,63.342962 80.73692,62.730808 80.315575,62.326923 79.873803,61.903459 79.363873,61.705483 78.714919,61.705483 78.056586,61.705483 77.776006,61.91251 77.068005,62.920667 76.520398,63.700431 76.454714,64.08733 76.780455,64.614391 77.140662,65.197217 78.258457,65.837783 78.926212,65.84404 79.291802,65.84746 79.398024,65.794285 79.755597,65.42879 Z M 107.95945,61.420754 C 110.93922,60.643939 113.39024,59.952263 113.47859,59.863259 113.77383,59.565815 113.92135,53.839709 113.67723,52.15312 113.45376,50.609196 112.78197,48.629072 111.73715,46.434649 111.22137,45.351369 111.08026,45.129807 110.93519,45.175473 110.83837,45.205953 108.9297,45.696484 106.69371,46.265542 L 102.62827,47.300191 99.789565,45.587376 C 98.228276,44.645328 96.399189,43.559099 95.724925,43.173532 L 94.498994,42.472502 H 93.504682 92.510371 L 91.870325,42.904267 C 91.5183,43.141738 90.34434,44.006836 89.261524,44.826707 87.002207,46.537387 87.254447,46.152234 86.701585,48.735549 86.257797,50.809206 86.11551,51.937268 86.169059,52.957489 86.222756,53.980559 86.348836,54.197542 87.104398,54.567204 87.598948,54.809165 87.783903,54.844161 88.56285,54.843166 89.169928,54.842429 89.570926,54.790772 89.818017,54.681598 90.150179,54.534836 90.201711,54.455393 90.423007,53.748919 90.556053,53.324182 90.853581,52.10475 91.08418,51.039071 L 91.503451,49.101476 92.572207,48.351386 C 93.160023,47.938838 93.668518,47.601297 93.702197,47.601297 93.874638,47.601297 106.96584,55.191748 107.27666,55.471949 108.14861,56.258007 108.28135,57.359262 107.65328,58.596652 107.22747,59.435576 106.522,60.200571 106.09551,60.285869 L 105.7783,60.34931 V 61.185895 C 105.7783,61.852003 105.80572,62.011957 105.91286,61.970846 105.98686,61.942447 106.90783,61.694905 107.95945,61.420754 Z"
       fill="#050500"
       inkscape:connector-curvature="0"
       style="opacity:1;stroke-width:0.264584;stop-opacity:1;fill:#8f5902" />
    <path
       style="fill:#000000;fill-opacity:0.131738;stroke:none;stroke-width:0.999999px;stroke-linecap:butt;stroke-linejoin:miter;stroke-opacity:1"
       d="M 104.14648,71.019531 102.61328,72.082031 C 100.23438,73.730604 99.395167,74.947894 99.103516,77.173828 98.640777,80.705513 97.015994,88.607427 96.066406,91.945312 95.885106,92.582601 95.702758,93.12329 95.513672,93.623047 L 104.02734,79.798828 106.33008,78.09375 C 122.02126,83.841325 137.125,90.25056 151.14757,97.877568 136.43027,88.804283 141.44474,90.409421 107.94727,72.943359 Z M 7.5957031,97.054688 6.7871094,98.941406 C 6.6544049,105.23135 6.6911657,111.80218 6.9980469,112.10742 7.2996683,112.40742 19.58885,115.97227 36.710938,120.72461 L 39.212891,121.41797 40.523438,119.59375 C 41.244609,118.58993 42.506928,117.32469 43.328125,116.78125 44.619899,115.92639 45.110665,115.81424 46.970703,115.95703 49.471057,116.14897 52.248444,117.37856 55.445312,119.70898 L 57.669922,121.33008 59.832031,119.01953 C 62.859576,115.78307 63.99614,115.30228 67.333984,115.85352 70.126031,116.31461 72.868033,117.36392 74.029297,118.41406 74.417401,118.76505 75.074839,119.72286 75.488281,120.54297 75.90172,121.36308 76.291478,122.09198 76.355469,122.16406 76.419456,122.23619 77.68019,121.69156 79.15625,120.95312 81.360905,119.85018 82.246343,119.61109 84.119141,119.61133 88.267705,119.61133 93.046245,122.61742 94.900391,126.39453 95.433712,127.48093 95.947023,128.63855 96.041016,128.9668 96.160713,129.38478 96.831005,129.62808 98.277344,129.77734 100.77946,130.0356 103.51277,131.41101 105.66406,133.30859 L 98.953125,125.08008 78.898438,117.82248 59.041016,113.01953 41.060547,109.89453 Z M 108.57422,136.87695 C 108.65306,137.02328 108.73451,137.17059 108.80469,137.31836 110.14444,140.1393 109.88176,142.73951 107.97266,145.55273 106.84976,147.20739 107.03058,147.78391 108.98047,148.7793 109.92246,149.26015 110.68167,149.4523 111.48828,149.37305 L 113.39844,142.79492 Z"
       transform="matrix(0.26458333,0,0,0.26458333,66.102023,29.959901)"
       id="path1445"
       inkscape:connector-curvature="0"
       sodipodi:nodetypes="ccsccccccccccccccccccccccsccccccccccccccccc" />
    <path
       style="fill:#000000;stroke:none;stroke-width:0.999999px;stroke-linecap:butt;stroke-linejoin:miter;stroke-opacity:1;fill-opacity:0.22653478"
       d="M 104.20508 58.462891 L 90.820312 68.423828 L 86.115234 87.148438 L 78.876953 92.740234 C 79.043532 92.827446 79.192674 92.912791 79.378906 93.003906 C 81.248072 93.918405 81.946573 94.050636 84.890625 94.046875 C 87.185093 94.044089 88.700878 93.848173 89.634766 93.435547 C 90.890181 92.880856 91.085481 92.582247 91.921875 89.912109 C 92.424726 88.306804 93.548367 83.697685 94.419922 79.669922 L 96.005859 72.345703 L 100.04492 69.511719 C 102.26659 67.952482 104.18912 66.675781 104.31641 66.675781 C 104.96815 66.675781 154.44634 95.364801 155.62109 96.423828 C 158.91665 99.394756 159.41873 103.55567 157.04492 108.23242 C 155.43556 111.40316 152.76818 114.2948 151.15625 114.61719 L 149.95703 114.85742 L 149.95703 118.01953 C 149.95703 120.5371 150.06186 121.14171 150.4668 120.98633 C 150.74648 120.87899 154.22655 119.94241 158.20117 118.90625 C 159.06585 118.68083 159.80851 118.47855 160.64648 118.25781 L 162.57812 110.28906 L 167.83594 97.65625 L 146.7832 82.921875 L 104.20508 58.462891 z M 47.669922 119.98242 C 45.763362 119.98242 44.690913 120.45772 43.091797 122.38672 L 54.955078 129.64258 C 55.594961 128.63488 56.12334 127.70784 56.246094 127.21875 C 56.508843 126.17187 55.313188 123.85853 53.720703 122.33203 C 52.051014 120.73154 50.122661 119.98242 47.669922 119.98242 z M 64.599609 119.98242 L 59.335938 127.86719 C 58.548974 129.04568 58.062726 129.78694 57.494141 130.64844 L 74.044922 129.58594 C 74.895885 127.74768 75.402344 126.41204 75.402344 125.9043 C 75.402344 123.43524 70.253722 119.98242 66.572266 119.98242 L 64.599609 119.98242 z M 83.023438 123.43164 C 81.748042 123.42005 80.631006 123.59887 80.039062 124.00195 C 79.889899 124.10353 78.433184 126.6941 76.660156 129.91992 L 90.734375 134.24805 C 91.898208 132.19656 92.702686 130.64494 92.691406 130.32031 C 92.64612 129.01724 90.583525 125.96207 89.03125 124.89844 C 87.716024 123.99723 85.149097 123.45096 83.023438 123.43164 z M 97.140625 133.75781 C 96.531496 133.78221 95.983985 133.9076 95.544922 134.14258 C 95.398309 134.22104 94.801745 135.08927 94.037109 136.26758 L 102.65039 148.36914 C 104.31405 144.83128 105.59766 141.60835 105.59766 140.45703 C 105.59766 138.89206 104.75858 137.42911 103 135.92383 C 101.34737 134.50924 98.968012 133.68463 97.140625 133.75781 z "
       transform="matrix(0.26458333,0,0,0.26458333,66.102023,29.959901)"
       id="path2290" />
  </g>
  <path
     sodipodi:nodetypes="ccccc"
     inkscape:connector-curvature="0"
     id="path903"
     d="M 34.315201,27.614271 C 33.987217,28.738205 33.701375,29.842071 32.650303,31.310326 L 34.239083,32.306254 C 35.38979,30.709653 35.632169,29.569554 35.821075,28.456329 Z"
     style="fill:#d3d7cf;stroke:#000000;stroke-width:0.4;stroke-linecap:butt;stroke-linejoin:miter;stroke-opacity:1;stroke-miterlimit:4;stroke-dasharray:none" />
  <path
     style="opacity:1;fill:#2e3436;fill-opacity:1;stroke:#ffffff;stroke-width:0.499999;stroke-miterlimit:4;stroke-dasharray:none;stroke-opacity:1;paint-order:stroke fill markers;stop-opacity:1"
     inkscape:connector-curvature="0"
     id="path9304"
     d="M 43.243837,39.696925 C 43.026741,39.717922 42.813427,39.801998 42.662003,39.9759 L 40.144002,42.923158 C 39.299016,44.120737 40.770475,43.924111 41.412528,44.232302 41.646386,44.471263 40.555225,44.698988 40.788932,44.937002 41.023083,45.175949 42.174362,45.358141 42.408657,45.596026 42.642508,45.83403 41.958783,46.125747 42.192785,46.363746 42.426643,46.60271 42.94481,46.34817 43.059031,46.913704 43.141576,47.319756 44.009759,47.050168 44.428467,46.698 44.648305,46.440259 43.988097,46.49108 44.208103,46.234286 44.754698,45.595183 45.291142,45.965004 45.466756,45.340513 45.553335,45.030921 44.622752,44.904324 44.843018,44.647522 45.484151,44.212617 47.732766,43.855301 46.630069,42.7562 L 43.853276,39.92716 C 43.683721,39.764766 43.461609,39.688732 43.243837,39.696925 Z M 43.275901,39.966625 C 43.431758,39.958433 43.587784,40.015413 43.702717,40.132366 L 44.762331,41.204778 C 44.862539,41.307451 44.867869,41.513189 44.813896,41.574979 L 44.291181,41.159857 44.209108,41.810299 43.775863,41.58738 43.105955,42.076041 42.852333,41.113866 42.504706,41.807029 41.943651,41.826941 C 41.71554,41.848527 41.679309,41.527368 41.881082,41.296653 42.232114,40.864062 42.636319,40.420241 42.855734,40.163573 42.965127,40.034641 43.120133,39.968398 43.275571,39.962811 Z M 42.164311,44.354875 C 42.234922,44.401013 43.291902,44.583177 43.549736,44.618319 43.639285,44.631823 43.57815,44.734738 43.458222,44.805656 43.184097,44.898676 41.825873,44.369124 42.164311,44.354973 Z M 46.270091,44.967539 C 46.058988,44.988225 45.853747,45.107251 45.802556,45.326499 45.817866,45.466709 46.7811,45.519598 46.773584,45.253389 46.697798,45.041587 46.481054,44.950793 46.270075,44.967735 Z M 41.791388,45.764228 C 41.496998,45.789293 41.187636,46.033524 41.445614,46.255209 41.681797,46.458005 42.029874,46.180392 42.127914,45.877004 42.055599,45.779382 41.924938,45.751069 41.791388,45.764228 Z M 45.688922,45.620644 C 45.400179,45.916613 45.738491,46.192069 46.025486,45.996277 46.089665,45.919087 46.022704,45.676905 45.688922,45.620644 Z" />
</svg>
