<?xml version="1.0" encoding="UTF-8" standalone="no"?>
<svg
   xmlns:dc="http://purl.org/dc/elements/1.1/"
   xmlns:cc="http://creativecommons.org/ns#"
   xmlns:rdf="http://www.w3.org/1999/02/22-rdf-syntax-ns#"
   xmlns:svg="http://www.w3.org/2000/svg"
   xmlns="http://www.w3.org/2000/svg"
   xmlns:xlink="http://www.w3.org/1999/xlink"
   xmlns:sodipodi="http://sodipodi.sourceforge.net/DTD/sodipodi-0.dtd"
   xmlns:inkscape="http://www.inkscape.org/namespaces/inkscape"
   inkscape:version="1.0 (4035a4fb49, 2020-05-01)"
   sodipodi:docname="1.1_About_Screen_template_WH9Qv9S.svg"
   id="svg40"
   version="1.1"
   viewBox="0 0 749.99999 625.00003"
   height="625"
   width="750">
  <defs
     id="defs34">
    <rect
       id="rect907"
       height="54.750105"
       width="174.88294"
       y="436.12667"
       x="289.40277" />
    <linearGradient
       inkscape:collect="always"
       id="linearGradient1413">
      <stop
         style="stop-color:#ffffff;stop-opacity:0.08467742"
         offset="0"
         id="stop1409" />
      <stop
         style="stop-color:#ffffff;stop-opacity:0.02419355"
         offset="1"
         id="stop1411" />
    </linearGradient>
    <linearGradient
       id="linearGradient1626"
       inkscape:collect="always">
      <stop
         id="stop1622"
         offset="0"
         style="stop-color:#ffffff;stop-opacity:1" />
      <stop
         id="stop1624"
         offset="1"
         style="stop-color:#ffffff;stop-opacity:1" />
    </linearGradient>
    <linearGradient
       id="linearGradient1590"
       inkscape:collect="always">
      <stop
         id="stop1586"
         offset="0"
         style="stop-color:#090023;stop-opacity:1" />
      <stop
         id="stop1588"
         offset="1"
         style="stop-color:#730000;stop-opacity:1" />
    </linearGradient>
    <linearGradient
       gradientUnits="userSpaceOnUse"
       id="WhiteTransparent">
      <stop
         id="stop7"
         offset="0"
         style="stop-color:white;stop-opacity:1" />
      <stop
         id="stop9"
         offset="1"
         style="stop-color:white;stop-opacity:0" />
    </linearGradient>
    <linearGradient
       gradientUnits="userSpaceOnUse"
       y2="50"
       x2="90"
       y1="20"
       x1="60"
       xlink:href="#WhiteTransparent"
       id="IcecapTip" />
    <linearGradient
       id="linearGradient5785"
       gradientUnits="userSpaceOnUse">
      <stop
         style="stop-color:#c0cdf9;stop-opacity:1"
         offset="0"
         id="stop5787" />
      <stop
         style="stop-color:#07092d;stop-opacity:0.28804347"
         offset="1"
         id="stop5789" />
    </linearGradient>
    <linearGradient
       gradientTransform="matrix(1.009184,0,0,1.009184,-0.3890738,-0.3831933)"
       id="shinySpecular-4"
       xlink:href="#WhiteTransparent"
       x1="33"
       y1="35"
       x2="58"
       y2="60"
       gradientUnits="userSpaceOnUse" />
    <linearGradient
       gradientUnits="userSpaceOnUse"
       y2="472.17224"
       x2="625.09729"
       y1="2.3053601"
       x1="0"
       id="linearGradient1592"
       xlink:href="#linearGradient1590"
       inkscape:collect="always" />
    <linearGradient
       gradientUnits="userSpaceOnUse"
       y2="625"
       x2="750"
       y1="-1391.8118"
       x1="-429.15173"
       id="linearGradient1628"
       xlink:href="#linearGradient1626"
       inkscape:collect="always"
       gradientTransform="translate(0,2.3053493)" />
    <filter
       inkscape:collect="always"
       style="color-interpolation-filters:sRGB"
       id="filter1261"
       x="-0.12962758"
       width="1.2592552"
       y="-0.12591037"
       height="1.2518207">
      <feGaussianBlur
         inkscape:collect="always"
         stdDeviation="21.408231"
         id="feGaussianBlur1263" />
    </filter>
    <filter
       inkscape:collect="always"
       style="color-interpolation-filters:sRGB"
       id="filter1296"
       x="-0.043209193"
       width="1.0864184"
       y="-0.041970122"
       height="1.0839402">
      <feGaussianBlur
         inkscape:collect="always"
         stdDeviation="7.1360769"
         id="feGaussianBlur1298" />
    </filter>
    <linearGradient
       inkscape:collect="always"
       xlink:href="#linearGradient1413"
       id="linearGradient1415"
       x1="0"
       y1="625"
       x2="750"
       y2="1.08e-05"
       gradientUnits="userSpaceOnUse" />
  </defs>
  <sodipodi:namedview
     inkscape:snap-global="true"
     inkscape:window-maximized="1"
     inkscape:window-y="-8"
     inkscape:window-x="54"
     inkscape:window-height="745"
     inkscape:window-width="1304"
     inkscape:guide-bbox="true"
     showguides="true"
     inkscape:pagecheckerboard="true"
     units="px"
     showgrid="false"
     inkscape:document-rotation="0"
     inkscape:current-layer="layer2"
     inkscape:document-units="px"
     inkscape:cy="351.55157"
     inkscape:cx="-70.785983"
     inkscape:zoom="0.35"
     inkscape:pageshadow="2"
     inkscape:pageopacity="1"
     borderopacity="1.0"
     bordercolor="#666666"
     pagecolor="#000000"
     id="base"
     inkscape:showpageshadow="false" />
  <metadata
     id="metadata37">
    <rdf:RDF>
      <cc:Work
         rdf:about="">
        <dc:format>image/svg+xml</dc:format>
        <dc:type
           rdf:resource="http://purl.org/dc/dcmitype/StillImage" />
        <dc:title />
        <cc:license
           rdf:resource="http://creativecommons.org/licenses/by-sa/4.0/" />
      </cc:Work>
      <cc:License
         rdf:about="http://creativecommons.org/licenses/by-sa/4.0/">
        <cc:permits
           rdf:resource="http://creativecommons.org/ns#Reproduction" />
        <cc:permits
           rdf:resource="http://creativecommons.org/ns#Distribution" />
        <cc:requires
           rdf:resource="http://creativecommons.org/ns#Notice" />
        <cc:requires
           rdf:resource="http://creativecommons.org/ns#Attribution" />
        <cc:permits
           rdf:resource="http://creativecommons.org/ns#DerivativeWorks" />
        <cc:requires
           rdf:resource="http://creativecommons.org/ns#ShareAlike" />
      </cc:License>
    </rdf:RDF>
  </metadata>
  <g
     transform="translate(0,-2.3053493)"
     inkscape:label="Layer 1"
     id="layer2"
     inkscape:groupmode="layer">
    <path
       inkscape:export-ydpi="96"
       inkscape:export-xdpi="96"
       d="M 0,2.3053601 H 750 V 627.30536 H 0 Z"
       inkscape:label="background"
       style="display:inline;mix-blend-mode:normal;fill:url(#linearGradient1592);fill-opacity:1;stroke-width:14.999;stroke-linecap:round;stroke-linejoin:round;paint-order:markers fill stroke;stop-color:#000000"
       id="rect983" />
    <path
       style="display:inline;opacity:0.222581;fill:#d40000;fill-opacity:1;stroke-width:3.24114;filter:url(#filter1261)"
       inkscape:connector-curvature="0"
       id="path2313-9"
       d="m 233.93908,48.772377 c -12.25578,-0.02672 -24.38782,4.620163 -33.1828,14.011424 L 54.433555,218.98507 c -49.4370572,63.86967 33.644305,56.43915 69.259875,74.83534 12.77585,13.62385 -48.964553,23.67903 -36.188701,37.31425 12.775881,13.62391 77.249551,26.24441 90.047161,39.86829 12.77584,13.6238 -26.15057,28.08061 -13.37477,41.70445 12.77589,13.62391 42.32612,0.71554 47.85904,32.16749 3.94282,22.47541 53.25251,9.6593 77.36661,-8.74822 12.7758,-13.63523 -24.44009,-12.35583 -11.66424,-25.97972 31.77086,-33.89489 61.35262,-12.31279 72.22241,-46.27584 5.36956,-16.7827 -46.77372,-25.87585 -33.97609,-39.49969 36.75918,-22.39588 163.81233,-36.97206 103.52726,-99.86459 L 267.84694,62.783801 C 258.57274,53.494806 246.1948,48.797929 233.93908,48.772377 Z m 1.31391,14.864902 c 8.75005,0.04836 17.47074,3.463797 23.74979,10.099628 l 57.88698,61.334763 c 5.48937,5.85174 5.41414,17.19028 2.34277,20.45139 l -28.7452,-23.9882 -5.65237,35.52321 -24.01629,-13.22909 -38.45699,25.35251 -12.73021,-53.44002 -20.66334,37.29485 h -31.58369 c -12.87394,0 -14.38742,-17.04785 -2.68985,-29.25137 20.43265,-23.00945 43.8795,-46.458275 56.62265,-60.048043 6.40427,-6.828986 15.1857,-10.147899 23.93575,-10.099628 z M 165.73898,302.27127 c 3.91011,2.53385 63.04974,15.06782 77.50293,17.56761 5.01011,1.10217 1.45741,6.48942 -5.44785,10.12545 -15.57501,4.31786 -91.11541,-27.69306 -72.05508,-27.69306 z m 229.949,42.93951 c -11.89911,0.42736 -23.63245,6.76928 -26.86724,18.66033 0,7.74933 54.73232,12.828 54.73232,-1.82979 -3.89917,-11.77177 -15.96602,-17.25812 -27.86508,-16.83054 z m -253.17814,33.60928 c -16.58541,0.91923 -34.38178,13.43739 -20.22951,26.22542 12.96099,11.69217 32.97641,-2.90608 38.97767,-19.22289 -3.92437,-5.43993 -11.2094,-7.42034 -18.74816,-7.00253 z m 219.44997,0.96989 c -16.70772,15.63507 1.87106,31.49684 18.33915,21.39541 3.67046,-3.88602 -0.0958,-17.50938 -18.33915,-21.39541 z" />
    <path
       d="m 233.93908,48.772377 c -12.25578,-0.02672 -24.38782,4.620163 -33.1828,14.011424 L 54.433555,218.98507 c -49.4370572,63.86967 33.644305,56.43915 69.259875,74.83534 12.77585,13.62385 -48.964553,23.67903 -36.188701,37.31425 12.775881,13.62391 77.249551,26.24441 90.047161,39.86829 12.77584,13.6238 -26.15057,28.08061 -13.37477,41.70445 12.77589,13.62391 42.32612,0.71554 47.85904,32.16749 3.94282,22.47541 53.25251,9.6593 77.36661,-8.74822 12.7758,-13.63523 -24.44009,-12.35583 -11.66424,-25.97972 31.77086,-33.89489 61.35262,-12.31279 72.22241,-46.27584 5.36956,-16.7827 -46.77372,-25.87585 -33.97609,-39.49969 36.75918,-22.39588 163.81233,-36.97206 103.52726,-99.86459 L 267.84694,62.783801 C 258.57274,53.494806 246.1948,48.797929 233.93908,48.772377 Z m 1.31391,14.864902 c 8.75005,0.04836 17.47074,3.463797 23.74979,10.099628 l 57.88698,61.334763 c 5.48937,5.85174 5.41414,17.19028 2.34277,20.45139 l -28.7452,-23.9882 -5.65237,35.52321 -24.01629,-13.22909 -38.45699,25.35251 -12.73021,-53.44002 -20.66334,37.29485 h -31.58369 c -12.87394,0 -14.38742,-17.04785 -2.68985,-29.25137 20.43265,-23.00945 43.8795,-46.458275 56.62265,-60.048043 6.40427,-6.828986 15.1857,-10.147899 23.93575,-10.099628 z M 165.73898,302.27127 c 3.91011,2.53385 63.04974,15.06782 77.50293,17.56761 5.01011,1.10217 1.45741,6.48942 -5.44785,10.12545 -15.57501,4.31786 -91.11541,-27.69306 -72.05508,-27.69306 z m 229.949,42.93951 c -11.89911,0.42736 -23.63245,6.76928 -26.86724,18.66033 0,7.74933 54.73232,12.828 54.73232,-1.82979 -3.89917,-11.77177 -15.96602,-17.25812 -27.86508,-16.83054 z m -253.17814,33.60928 c -16.58541,0.91923 -34.38178,13.43739 -20.22951,26.22542 12.96099,11.69217 32.97641,-2.90608 38.97767,-19.22289 -3.92437,-5.43993 -11.2094,-7.42034 -18.74816,-7.00253 z m 219.44997,0.96989 c -16.70772,15.63507 1.87106,31.49684 18.33915,21.39541 3.67046,-3.88602 -0.0958,-17.50938 -18.33915,-21.39541 z"
       id="path1290"
       inkscape:connector-curvature="0"
       style="display:inline;opacity:0.222581;fill:#d40000;fill-opacity:1;stroke-width:3.24114;filter:url(#filter1296)" />
    <path
       id="path1505"
       style="display:inline;opacity:1;fill:url(#linearGradient1628);fill-opacity:1;stroke:none;stroke-width:1px;stroke-linecap:butt;stroke-linejoin:miter;stroke-opacity:1"
       d="M 749.99999,2.3053601 C 549.56171,341.46488 431.01622,323.42344 231.80302,345.44513 32.349763,367.49336 208.49831,587.45171 0,627.30535 v 0 H 750 V 2.3053493 Z"
       sodipodi:nodetypes="csccccc"
       inkscape:export-xdpi="96"
       inkscape:export-ydpi="96" />
    <path
       id="rect1166"
       style="opacity:0.083871;fill:#000000;stroke-width:14.999;stroke-linecap:round;stroke-linejoin:round;paint-order:markers fill stroke;stop-color:#000000"
       d="m 129.04297,418.34766 c -15.76959,54.29785 -3.70086,125.03551 -49.285158,169.70507 H 750 V 418.34766 Z"
       transform="translate(0,2.3053493)" />
    <path
       style="display:inline;fill:#000000;fill-opacity:1;stroke-width:1.11292"
       inkscape:connector-curvature="0"
       id="path2313"
       d="m 640.86952,433.75901 c -4.29836,-0.009 -8.5533,1.55321 -11.63788,4.71036 l -51.31837,52.51172 c -17.33856,21.4717 11.79975,18.97371 24.29086,25.15815 4.48075,4.58007 -17.17286,7.9604 -12.69212,12.54429 4.48076,4.58008 27.09299,8.82284 31.58138,13.40292 4.48075,4.58004 -9.17154,9.44015 -4.69079,14.0202 4.48073,4.58008 14.84461,0.24055 16.78514,10.81406 1.38281,7.55578 18.67674,3.24726 27.13402,-2.94099 4.48077,-4.58387 -8.57161,-4.15377 -4.09085,-8.73385 11.14267,-11.39478 21.51758,-4.13929 25.32987,-15.55701 1.88321,-5.64199 -16.40449,-8.69893 -11.91611,-13.27898 12.89219,-7.52905 57.45232,-12.4293 36.30912,-33.57248 l -53.19208,-54.36803 c -3.25265,-3.12278 -7.59384,-4.70177 -11.89219,-4.71036 z m 0.46082,4.99729 c 3.06881,0.0163 6.12736,1.16446 8.32952,3.39529 l 20.30218,20.6195 c 1.92522,1.96724 1.89885,5.77903 0.82164,6.87534 l -10.08153,-8.06434 -1.98239,11.94219 -8.42299,-4.44736 -13.48768,8.52299 -4.46474,-17.96544 -7.24704,12.53777 h -11.07706 c -4.51515,0 -5.04596,-5.73113 -0.94339,-9.8337 7.16615,-7.73532 15.38946,-15.61834 19.85874,-20.18695 2.24609,-2.29578 5.32592,-3.41152 8.39474,-3.39529 z m -24.37998,80.22394 c 1.37134,0.85183 22.11283,5.06551 27.18186,5.90587 1.75715,0.37053 0.51114,2.18162 -1.91066,3.40399 -5.46249,1.45157 -31.95605,-9.30986 -25.2712,-9.30986 z m 80.64782,14.4354 c -4.17326,0.14366 -8.28839,2.27569 -9.42289,6.27322 0,2.60518 19.19574,4.31252 19.19574,-0.61513 -1.36753,-3.95744 -5.5996,-5.80182 -9.77285,-5.65809 z m -88.79476,11.29878 c -5.81683,0.30901 -12.05837,4.51736 -7.09488,8.81644 4.54566,3.93067 11.56548,-0.97696 13.67026,-6.46235 -1.37637,-1.82879 -3.93138,-2.49457 -6.57538,-2.35409 z m 76.9656,0.32604 c -5.85975,5.25619 0.65621,10.5886 6.4319,7.19269 1.28732,-1.30639 -0.0336,-5.88628 -6.4319,-7.19269 z" />
    <g
       aria-label="Sagar Dattatrey"
       id="text1319"
       style="font-style:normal;font-variant:normal;font-weight:normal;font-stretch:normal;font-size:23.1225px;line-height:1.25;font-family:'Linux Libertine O';-inkscape-font-specification:'Linux Libertine O';fill:#000000;stroke-width:1.23871">
      <path
         d="m 582.61307,604.84385 c -1.3411,-0.18498 -1.27174,-0.62431 -3.53774,-0.62431 -2.33537,0 -4.39327,1.54921 -4.39327,4.00019 0,2.45099 1.98853,3.56087 4.02331,4.32391 1.41047,0.55494 3.12154,1.20237 3.12154,3.44525 0,1.87292 -1.06364,2.84407 -2.89032,2.84407 -2.17351,0 -3.56086,-0.97115 -4.06955,-3.2834 -0.27747,-0.0925 -0.53182,-0.0462 -0.73992,0.0694 0.0925,1.78043 0.18498,2.38162 0.46245,3.51462 1.45671,0 2.08102,0.53182 4.13892,0.53182 1.06364,0 2.0579,-0.25435 2.86719,-0.73992 1.31798,-0.83241 2.17352,-2.26601 2.17352,-3.74585 0,-2.45098 -1.87293,-3.53774 -3.76897,-4.23141 -1.36423,-0.53182 -3.67648,-1.38735 -3.67648,-3.35277 0,-1.29486 1.17925,-2.58972 2.52035,-2.58972 2.26601,0 2.98281,1.4336 3.44526,2.95968 0.23122,0.0462 0.53181,0.0231 0.73992,-0.13873 -0.0694,-1.10988 -0.16186,-1.75731 -0.41621,-2.9828 z"
         style="fill:#000000;stroke-width:1.23871"
         id="path1340" />
      <path
         d="m 591.47766,614.0466 v 3.05217 c 0,0.30059 -0.13873,0.46245 -0.32371,0.60119 -0.60119,0.48557 -1.38735,1.01739 -2.03478,1.01739 -1.15613,0 -1.66482,-0.9249 -1.66482,-1.6417 0,-1.04051 0.48557,-2.10415 2.19663,-2.54348 z m 0,4.27766 c 0.13874,0.7168 0.36996,1.34111 1.54921,1.34111 0.87865,0 1.71106,-0.39308 2.19664,-0.85553 -0.0462,-0.27747 -0.13874,-0.46245 -0.39309,-0.62431 -0.18498,0.16186 -0.57806,0.36996 -0.85553,0.36996 -0.67055,0 -0.69367,-0.90178 -0.69367,-1.96541 v -3.39901 c 0,-3.2834 -1.80356,-3.9077 -3.4915,-3.9077 -1.89605,0 -3.81521,1.24861 -3.81521,2.56659 0,0.55494 0.27747,0.83241 0.80928,0.83241 0.67056,0 1.08676,-0.48557 1.08676,-0.78616 0,-0.16186 -0.0231,-0.32372 -0.0694,-0.41621 -0.0231,-0.0694 -0.0462,-0.2081 -0.0462,-0.46245 0,-0.71679 0.97114,-0.97114 1.8498,-0.97114 0.78616,0 1.87292,0.39308 1.87292,3.00592 0,0.16186 -0.0694,0.25435 -0.13873,0.27747 l -1.98854,0.48558 c -2.21976,0.55494 -3.81521,1.78043 -3.81521,3.35276 0,1.89604 1.29486,2.49723 2.91343,2.49723 0.78617,0 1.50297,-0.18498 2.52036,-0.97115 l 0.46245,-0.36996 z"
         style="fill:#000000;stroke-width:1.23871"
         id="path1342" />
      <path
         d="m 602.64655,612.98297 c 0,2.15039 -1.08676,2.58972 -1.94229,2.58972 -1.94229,0 -2.15039,-1.6417 -2.15039,-3.12154 0,-1.61858 0.57806,-2.45099 1.8498,-2.45099 1.45672,0 2.24288,1.06364 2.24288,2.98281 z m -4.32391,6.6824 c 0.25435,0.0694 0.62431,0.11561 0.9249,0.11561 0.7168,0 1.36423,-0.0694 1.68795,-0.0694 1.15612,0 2.12727,0.0231 2.79782,0.39309 0.90178,0.50869 1.17925,0.83241 1.17925,1.43359 0,1.66482 -2.45099,2.54348 -4.53201,2.54348 -0.83241,0 -2.7747,-0.67056 -2.7747,-2.24289 0,-0.78616 0.0462,-1.36422 0.71679,-2.17351 z m 7.21422,-9.17963 c 0.43933,0 0.85554,-0.41621 0.85554,-0.87866 0,-0.48557 -0.43933,-0.85553 -1.06364,-0.85553 -0.60118,0 -1.71106,0.39308 -2.31225,1.17925 -0.27747,-0.18498 -1.04051,-0.64743 -2.40474,-0.64743 -2.0579,0 -3.95395,1.38735 -3.95395,3.51462 0,1.24861 0.55494,1.96541 1.20237,2.58972 -0.64743,0.55494 -1.01739,1.5492 -1.01739,2.33537 0,0.83241 0.46245,1.47984 1.06364,1.78043 -1.24862,0.73992 -1.89605,1.80356 -1.89605,2.79782 0,2.01166 1.89605,2.63597 3.67648,2.63597 3.12154,0 6.49742,-1.50296 6.49742,-4.00019 0,-0.73992 -0.34683,-1.31799 -1.01739,-1.87293 -0.90177,-0.73992 -2.52035,-0.76304 -3.37588,-0.76304 -0.41621,0 -0.99427,0.0462 -1.54921,0.11561 -0.34684,0.0231 -0.57806,0.0462 -0.69367,0.0462 -0.67056,0 -1.47984,-0.32372 -1.47984,-1.31798 0,-0.46245 0.13873,-0.94803 0.4162,-1.34111 0.55494,0.32372 1.20237,0.48557 2.10415,0.48557 2.03478,0 3.9077,-1.27173 3.9077,-3.53774 0,-1.08676 -0.32371,-1.71106 -0.99427,-2.40474 0.16186,-0.23122 0.62431,-0.55494 0.9249,-0.55494 0.16186,0 0.32372,0.0694 0.46245,0.27747 0.0925,0.18498 0.39309,0.41621 0.64743,0.41621 z"
         style="fill:#000000;stroke-width:1.23871"
         id="path1344" />
      <path
         d="m 613.60661,614.0466 v 3.05217 c 0,0.30059 -0.13873,0.46245 -0.32371,0.60119 -0.60119,0.48557 -1.38735,1.01739 -2.03478,1.01739 -1.15613,0 -1.66482,-0.9249 -1.66482,-1.6417 0,-1.04051 0.48557,-2.10415 2.19664,-2.54348 z m 0,4.27766 c 0.13874,0.7168 0.36996,1.34111 1.54921,1.34111 0.87866,0 1.71107,-0.39308 2.19664,-0.85553 -0.0462,-0.27747 -0.13874,-0.46245 -0.39308,-0.62431 -0.18498,0.16186 -0.57807,0.36996 -0.85554,0.36996 -0.67055,0 -0.69367,-0.90178 -0.69367,-1.96541 v -3.39901 c 0,-3.2834 -1.80356,-3.9077 -3.4915,-3.9077 -1.89604,0 -3.81521,1.24861 -3.81521,2.56659 0,0.55494 0.27747,0.83241 0.80929,0.83241 0.67055,0 1.08675,-0.48557 1.08675,-0.78616 0,-0.16186 -0.0231,-0.32372 -0.0694,-0.41621 -0.0231,-0.0694 -0.0463,-0.2081 -0.0463,-0.46245 0,-0.71679 0.97115,-0.97114 1.8498,-0.97114 0.78617,0 1.87292,0.39308 1.87292,3.00592 0,0.16186 -0.0694,0.25435 -0.13873,0.27747 l -1.98854,0.48558 c -2.21976,0.55494 -3.81521,1.78043 -3.81521,3.35276 0,1.89604 1.29486,2.49723 2.91344,2.49723 0.78616,0 1.50296,-0.18498 2.52035,-0.97115 l 0.46245,-0.36996 z"
         style="fill:#000000;stroke-width:1.23871"
         id="path1346" />
      <path
         d="m 621.46899,611.15629 c -0.0462,-0.9249 -0.0925,-1.50296 -0.18498,-1.75731 -0.0694,-0.0925 -0.0925,-0.18498 -0.27747,-0.18498 -0.64743,0.25435 -1.24862,0.46245 -2.84407,0.67055 -0.0462,0.13874 0,0.5087 0.0462,0.64743 1.24861,0.11561 1.50296,0.23123 1.50296,1.57233 v 4.50889 c 0,1.91917 -0.27747,2.01166 -1.71107,2.10415 -0.13873,0.13873 -0.13873,0.6243 0,0.76304 0.80929,-0.0231 1.71107,-0.0463 2.63597,-0.0463 0.9249,0 1.98853,0.0231 2.79782,0.0463 0.13874,-0.13874 0.13874,-0.62431 0,-0.76304 -1.61857,-0.11562 -1.89604,-0.18498 -1.89604,-2.10415 v -3.21403 c 0,-0.60118 0.27747,-1.133 0.55494,-1.54921 0.25434,-0.36996 0.78616,-1.133 1.06363,-1.133 0.2081,0 0.41621,0.0694 0.57806,0.30059 0.18498,0.23123 0.43933,0.53182 0.85554,0.53182 0.55494,0 1.08675,-0.57806 1.08675,-1.15612 0,-0.43933 -0.4162,-1.10988 -1.38735,-1.10988 -1.08675,0 -2.03478,1.01739 -2.56659,1.91916 -0.13874,0.25435 -0.25435,0.0694 -0.25435,-0.0462 z"
         style="fill:#000000;stroke-width:1.23871"
         id="path1348" />
      <path
         d="m 636.17707,617.49185 v -11.0988 c 0,-0.80928 0.80928,-1.133 1.94229,-1.133 4.99446,0 6.63615,4.04644 6.63615,7.6073 0,4.67075 -2.79782,5.82687 -6.05809,5.82687 -2.26601,0 -2.52035,-0.46245 -2.52035,-1.20237 z m -0.99427,-12.97172 c -0.83241,0 -2.0579,-0.0231 -2.9828,-0.0462 -0.13874,0.13873 -0.13874,0.6243 0,0.76304 1.61857,0.0694 2.01165,0.18498 2.01165,2.10415 v 9.27212 c 0,1.91917 -0.39308,2.03478 -2.01165,2.10415 -0.13874,0.13873 -0.13874,0.6243 0,0.76304 0.90177,-0.0231 2.12727,-0.0463 3.00592,-0.0463 0.85553,0 1.82668,0.0463 4.2083,0.0463 3.26027,0 7.56105,-1.47984 7.56105,-7.16798 0,-4.30078 -3.53774,-7.83852 -7.97726,-7.83852 -1.6417,0 -2.91343,0.0462 -3.81521,0.0462 z"
         style="fill:#000000;stroke-width:1.23871"
         id="path1350" />
      <path
         d="m 654.74841,614.0466 v 3.05217 c 0,0.30059 -0.13873,0.46245 -0.32371,0.60119 -0.60119,0.48557 -1.38735,1.01739 -2.03478,1.01739 -1.15613,0 -1.66482,-0.9249 -1.66482,-1.6417 0,-1.04051 0.48557,-2.10415 2.19663,-2.54348 z m 0,4.27766 c 0.13874,0.7168 0.36996,1.34111 1.54921,1.34111 0.87865,0 1.71106,-0.39308 2.19664,-0.85553 -0.0463,-0.27747 -0.13874,-0.46245 -0.39309,-0.62431 -0.18498,0.16186 -0.57806,0.36996 -0.85553,0.36996 -0.67055,0 -0.69367,-0.90178 -0.69367,-1.96541 v -3.39901 c 0,-3.2834 -1.80356,-3.9077 -3.4915,-3.9077 -1.89605,0 -3.81521,1.24861 -3.81521,2.56659 0,0.55494 0.27747,0.83241 0.80928,0.83241 0.67056,0 1.08676,-0.48557 1.08676,-0.78616 0,-0.16186 -0.0231,-0.32372 -0.0694,-0.41621 -0.0231,-0.0694 -0.0462,-0.2081 -0.0462,-0.46245 0,-0.71679 0.97114,-0.97114 1.8498,-0.97114 0.78616,0 1.87292,0.39308 1.87292,3.00592 0,0.16186 -0.0694,0.25435 -0.13873,0.27747 l -1.98854,0.48558 c -2.21976,0.55494 -3.81521,1.78043 -3.81521,3.35276 0,1.89604 1.29486,2.49723 2.91343,2.49723 0.78617,0 1.50297,-0.18498 2.52036,-0.97115 l 0.46245,-0.36996 z"
         style="fill:#000000;stroke-width:1.23871"
         id="path1352" />
      <path
         d="m 660.62225,610.41637 v 6.95987 c 0,1.6417 0.69367,2.28913 1.78043,2.28913 1.15612,0 2.21976,-0.67055 2.82094,-1.57233 -0.0694,-0.2081 -0.16185,-0.32372 -0.36996,-0.34684 -0.34683,0.30059 -0.99426,0.64743 -1.64169,0.64743 -0.62431,0 -0.76305,-0.69367 -0.76305,-2.12727 v -5.84999 h 4.87885 v 6.95987 c 0,1.6417 0.7168,2.28913 1.78043,2.28913 1.06364,0 2.21976,-0.5087 3.12154,-1.52609 -0.0462,-0.23122 -0.18498,-0.36996 -0.4162,-0.39308 -0.60119,0.46245 -1.29486,0.64743 -1.89605,0.64743 -0.62431,0 -0.76304,-0.69367 -0.76304,-2.12727 v -5.84999 h 2.40474 c 0.23122,0 0.55494,-0.0925 0.55494,-0.30059 v -0.46245 c 0,-0.0925 -0.0694,-0.13874 -0.18498,-0.13874 h -2.7747 v -0.90178 c 0,-1.50296 0.0925,-2.42786 0.0925,-2.42786 0,-0.16186 -0.0925,-0.23122 -0.30059,-0.23122 l -1.34111,0.6243 c -0.13873,0.0694 -0.34684,0.11562 -0.32371,0.27747 0.0462,0.53182 0.0462,0.73992 0.0462,2.65909 -0.99427,0.0231 -2.45098,0 -4.87885,0 v -0.67055 c 0,-1.50296 0.0925,-2.42786 0.0925,-2.42786 0,-0.16186 -0.0925,-0.23123 -0.30059,-0.23123 l -1.3411,0.62431 c -0.13874,0.0694 -0.34684,0.11561 -0.32372,0.27747 0.0462,0.53182 0.0462,0.50869 0.0462,2.42786 h -1.06364 c -0.32371,0 -0.4162,0.27747 -0.4162,0.46245 v 0.30059 c 0,0.11562 0.0231,0.13874 0.11561,0.13874 z"
         style="fill:#000000;stroke-width:1.23871"
         id="path1354" />
      <path
         d="m 679.49671,614.0466 v 3.05217 c 0,0.30059 -0.13874,0.46245 -0.32372,0.60119 -0.60118,0.48557 -1.38735,1.01739 -2.03478,1.01739 -1.15612,0 -1.66482,-0.9249 -1.66482,-1.6417 0,-1.04051 0.48558,-2.10415 2.19664,-2.54348 z m 0,4.27766 c 0.13873,0.7168 0.36996,1.34111 1.54921,1.34111 0.87865,0 1.71106,-0.39308 2.19663,-0.85553 -0.0462,-0.27747 -0.13873,-0.46245 -0.39308,-0.62431 -0.18498,0.16186 -0.57806,0.36996 -0.85553,0.36996 -0.67055,0 -0.69368,-0.90178 -0.69368,-1.96541 v -3.39901 c 0,-3.2834 -1.80355,-3.9077 -3.49149,-3.9077 -1.89605,0 -3.81522,1.24861 -3.81522,2.56659 0,0.55494 0.27747,0.83241 0.80929,0.83241 0.67055,0 1.08676,-0.48557 1.08676,-0.78616 0,-0.16186 -0.0231,-0.32372 -0.0694,-0.41621 -0.0231,-0.0694 -0.0462,-0.2081 -0.0462,-0.46245 0,-0.71679 0.97114,-0.97114 1.8498,-0.97114 0.78616,0 1.87292,0.39308 1.87292,3.00592 0,0.16186 -0.0694,0.25435 -0.13874,0.27747 l -1.98853,0.48558 c -2.21976,0.55494 -3.81521,1.78043 -3.81521,3.35276 0,1.89604 1.29486,2.49723 2.91343,2.49723 0.78617,0 1.50296,-0.18498 2.52035,-0.97115 l 0.46245,-0.36996 z"
         style="fill:#000000;stroke-width:1.23871"
         id="path1356" />
      <path
         d="m 684.28379,609.51459 c -0.32372,0 -0.41621,0.27747 -0.41621,0.46245 v 0.30059 c 0,0.11562 0.0231,0.13874 0.11562,0.13874 h 1.36422 v 6.95987 c 0,1.6417 0.7168,2.28913 1.78044,2.28913 1.06363,0 2.21976,-0.5087 3.12153,-1.52609 -0.0462,-0.23122 -0.18498,-0.36996 -0.4162,-0.39308 -0.60119,0.46245 -1.29486,0.64743 -1.89605,0.64743 -0.6243,0 -0.76304,-0.69367 -0.76304,-2.12727 v -5.84999 h 2.40474 c 0.23123,0 0.55494,-0.0925 0.55494,-0.30059 v -0.46245 c 0,-0.0925 -0.0694,-0.13874 -0.18498,-0.13874 h -2.7747 v -0.90178 c 0,-1.50296 0.0925,-2.42786 0.0925,-2.42786 0,-0.13873 -0.0694,-0.18498 -0.18498,-0.18498 -0.11561,0 -0.30059,0.0925 -0.50869,0.2081 -0.27747,0.13874 -0.5087,0.23123 -0.78617,0.32372 -0.27747,0.0694 -0.50869,0.16186 -0.50869,0.30059 0,0.27747 0.0694,0.11561 0.0694,2.68221 z"
         style="fill:#000000;stroke-width:1.23871"
         id="path1358" />
      <path
         d="m 694.67518,611.15629 c -0.0462,-0.9249 -0.0925,-1.50296 -0.18498,-1.75731 -0.0694,-0.0925 -0.0925,-0.18498 -0.27747,-0.18498 -0.64743,0.25435 -1.24861,0.46245 -2.84407,0.67055 -0.0462,0.13874 0,0.5087 0.0462,0.64743 1.24861,0.11561 1.50296,0.23123 1.50296,1.57233 v 4.50889 c 0,1.91917 -0.27747,2.01166 -1.71106,2.10415 -0.13874,0.13873 -0.13874,0.6243 0,0.76304 0.80928,-0.0231 1.71106,-0.0463 2.63596,-0.0463 0.9249,0 1.98854,0.0231 2.79782,0.0463 0.13874,-0.13874 0.13874,-0.62431 0,-0.76304 -1.61857,-0.11562 -1.89604,-0.18498 -1.89604,-2.10415 v -3.21403 c 0,-0.60118 0.27747,-1.133 0.55494,-1.54921 0.25435,-0.36996 0.78616,-1.133 1.06363,-1.133 0.20811,0 0.41621,0.0694 0.57807,0.30059 0.18498,0.23123 0.43932,0.53182 0.85553,0.53182 0.55494,0 1.08676,-0.57806 1.08676,-1.15612 0,-0.43933 -0.41621,-1.10988 -1.38735,-1.10988 -1.08676,0 -2.03478,1.01739 -2.5666,1.91916 -0.13874,0.25435 -0.25435,0.0694 -0.25435,-0.0462 z"
         style="fill:#000000;stroke-width:1.23871"
         id="path1360" />
      <path
         d="m 701.87278,612.9136 c 0.43933,-2.61284 2.0579,-2.82095 2.61284,-2.82095 0.87866,0 1.91917,0.48558 1.91917,2.42787 0,0.2081 -0.0925,0.32371 -0.34684,0.32371 z m 6.0581,4.37015 c -0.85554,0.87866 -1.52609,1.24862 -2.86719,1.24862 -0.83241,0 -1.80356,-0.48558 -2.52036,-1.66482 -0.46245,-0.76305 -0.73992,-1.82668 -0.73992,-3.16779 l 6.15059,0.0462 c 0.27747,0 0.43933,-0.13874 0.43933,-0.39308 0,-1.94229 -0.69368,-4.02332 -3.90771,-4.02332 -2.01165,0 -4.6245,1.91917 -4.6245,5.43379 0,1.29486 0.32372,2.54347 1.08676,3.42213 0.78617,0.9249 1.87292,1.47984 3.53774,1.47984 1.75731,0 3.00593,-0.80929 3.93083,-2.01166 -0.0694,-0.23122 -0.2081,-0.34684 -0.48557,-0.36996 z"
         style="fill:#000000;stroke-width:1.23871"
         id="path1362" />
      <path
         d="m 713.88384,623.13374 c 0.34684,-0.6243 0.64743,-1.29486 0.94803,-1.98853 1.8498,-4.46264 2.86719,-6.82114 4.09268,-9.43398 0.43933,-0.97115 0.78616,-1.34111 1.87292,-1.47984 0.13874,-0.13874 0.13874,-0.62431 0,-0.76304 -0.46245,0.0231 -0.99427,0.0462 -1.6417,0.0462 -0.69367,0 -1.41047,-0.0231 -2.10414,-0.0462 -0.13874,0.13873 -0.13874,0.6243 0,0.76304 0.71679,0.0694 1.47984,0.2081 1.10988,1.04051 l -2.31225,5.29505 c -0.16186,0.39309 -0.34684,0.43933 -0.55494,-0.0231 l -2.03478,-4.80948 c -0.41621,-0.97114 -0.53182,-1.38735 0.76304,-1.50296 0.13873,-0.13874 0.13873,-0.62431 0,-0.76304 -0.85553,0.0231 -1.78043,0.0462 -2.61284,0.0462 -0.78617,0 -1.41048,-0.0231 -1.87293,-0.0462 -0.13873,0.13873 -0.13873,0.6243 0,0.76304 0.90178,0.11561 1.20237,0.32371 1.80356,1.73419 l 2.63596,6.08121 c 0.18498,0.48558 0.55494,1.52609 0.32372,2.17352 -0.27747,0.78616 -0.55494,1.41047 -0.90178,2.12727 -0.25435,0.46245 -0.57806,0.67055 -1.15612,0.67055 -0.32372,0 -0.41621,-0.0694 -0.67056,-0.0694 -0.67055,0 -1.01739,0.69368 -1.01739,0.99427 0,0.48557 0.46245,0.85553 1.08676,0.85553 0.48557,0 1.41047,-0.18498 2.24288,-1.66482 z"
         style="fill:#000000;stroke-width:1.23871"
         id="path1364" />
    </g>
    <path
       transform="translate(0,2.3053493)"
       id="rect1396"
       style="opacity:0.0806452;fill:#000000;fill-opacity:1;stroke:none;stroke-width:14.999;stroke-linecap:round;stroke-linejoin:round;paint-order:markers fill stroke;stop-color:#000000"
       d="M 0,0 V 625 C 208.49831,585.14636 32.349477,365.18885 231.80273,343.14062 431.01593,321.11893 549.56172,339.15952 750,0 Z" />
    <path
       id="path1406"
       style="opacity:1;fill:url(#linearGradient1415);fill-opacity:1;stroke:none;stroke-width:14.999;stroke-linecap:round;stroke-linejoin:round;paint-order:markers fill stroke;stop-color:#000000"
       d="M 705.71484,0 C 505.27656,339.15952 431.01593,296.83378 231.80273,318.85547 32.349481,340.9037 208.49831,538.00378 0,577.85742 V 625 C 208.49831,585.14636 32.349481,365.18885 231.80273,343.14062 431.01593,321.11893 549.56172,339.15952 750,0 Z"
       transform="translate(0,2.3053493)" />
    <g
       id="g1024">
      <g
         id="g994">
        <g
           style="font-style:normal;font-variant:normal;font-weight:normal;font-stretch:normal;font-size:18.6667px;line-height:1.25;font-family:'Linux Libertine O';-inkscape-font-specification:'Linux Libertine O';white-space:pre;shape-inside:url(#rect907)"
           id="text905"
           transform="matrix(3.2040361,0,0,3.2040361,-745.99875,-953.85806)"
           aria-label="INKSCAPE ">
          <path
             id="path924"
             style="font-style:normal;font-variant:normal;font-weight:normal;font-stretch:normal;font-family:'Linux Libertine O';-inkscape-font-specification:'Linux Libertine O'"
             d="m 292.96768,450.82158 v -7.48535 c 0,-1.54934 0.31734,-1.64267 1.62401,-1.69867 0.112,-0.112 0.112,-0.504 0,-0.616 -0.82134,0.0187 -1.71734,0.0373 -2.42667,0.0373 -0.63467,0 -1.53067,-0.0187 -2.40801,-0.0373 -0.112,0.112 -0.112,0.504 0,0.616 1.30667,0.056 1.624,0.14933 1.624,1.69867 v 7.48535 c 0,1.54933 -0.31733,1.64267 -1.624,1.69867 -0.112,0.112 -0.112,0.504 0,0.616 0.84,-0.0187 1.736,-0.0373 2.42667,-0.0373 0.65334,0 1.568,0.0187 2.40801,0.0373 0.112,-0.112 0.112,-0.504 0,-0.616 -1.30667,-0.056 -1.62401,-0.14934 -1.62401,-1.69867 z" />
          <path
             id="path926"
             style="font-style:normal;font-variant:normal;font-weight:normal;font-stretch:normal;font-family:'Linux Libertine O';-inkscape-font-specification:'Linux Libertine O'"
             d="m 305.32271,443.54156 v 6.10401 c 0,0.35467 0,0.56001 -0.13067,0.56001 -0.0747,0 -0.35467,-0.33601 -0.896,-1.02667 l -6.40268,-8.12002 -2.52001,-0.0373 c -0.112,0.112 -0.112,0.504 0,0.616 0.80267,0.056 1.36267,0.70933 1.47467,1.19467 v 7.78401 c 0,1.66134 -0.31733,1.77334 -1.624,1.90401 -0.112,0.112 -0.112,0.504 0,0.616 0.80267,-0.0187 1.64267,-0.0373 2.09067,-0.0373 0.42934,0 1.288,0.0187 2.072,0.0373 0.11201,-0.112 0.11201,-0.504 0,-0.616 -1.30666,-0.13067 -1.624,-0.20534 -1.624,-1.90401 v -5.71201 c 0,-0.63467 0,-0.91467 0.14934,-0.91467 0.112,0 0.31733,0.20534 0.63466,0.616 l 6.51468,8.23202 c 0.20534,0.28 0.448,0.448 0.74667,0.448 0.26133,0 0.42933,-0.224 0.42933,-0.57867 v -9.16535 c 0,-1.66133 0.31734,-1.77333 1.62401,-1.904 0.112,-0.112 0.112,-0.504 0,-0.616 -0.76534,0.0187 -1.66134,0.0373 -2.09067,0.0373 -0.41067,0 -1.25067,-0.0187 -2.07201,-0.0373 -0.112,0.112 -0.112,0.504 0,0.616 1.30667,0.13067 1.62401,0.20533 1.62401,1.904 z" />
          <path
             id="path928"
             style="font-style:normal;font-variant:normal;font-weight:normal;font-stretch:normal;font-family:'Linux Libertine O';-inkscape-font-specification:'Linux Libertine O'"
             d="m 311.56147,450.82158 v -3.47201 c 0.616,0.0187 1.15733,0.224 1.54933,0.69067 l 2.93068,3.696 c 0.37333,0.48534 0.63466,0.98934 0.672,1.28801 0,0.056 0.0187,0.112 0.0933,0.112 0.37333,-0.0187 0.59734,-0.0373 1.008,-0.0373 0.63467,0 1.26934,0.0187 1.88534,0.0373 0.112,-0.112 0.112,-0.504 0,-0.616 -0.54134,-0.0373 -1.08267,-0.0933 -1.64267,-0.78401 l -4.08801,-4.85334 c -0.14933,-0.168 -0.24266,-0.31733 -0.24266,-0.46667 0,-0.13066 0.0187,-0.26133 0.65333,-0.91466 l 2.744,-2.81868 c 0.85867,-0.91466 1.60534,-0.98933 2.35201,-1.04533 0.112,-0.112 0.112,-0.504 0,-0.616 -0.57867,0.0187 -1.176,0.0373 -1.77334,0.0373 -0.69067,0 -1.41867,-0.0187 -2.10933,-0.0373 -0.11201,0.112 -0.11201,0.504 0,0.616 0.672,0.0747 1.30666,0.14933 0.52266,0.97067 l -3.08,3.28534 c -0.41067,0.42933 -0.82134,0.672 -1.47467,0.728 v -3.28534 c 0,-1.54934 0.31733,-1.64267 1.624,-1.69867 0.112,-0.112 0.112,-0.504 0,-0.616 -0.85867,0.0187 -1.75467,0.0373 -2.42667,0.0373 -0.728,0 -1.568,-0.0187 -2.408,-0.0373 -0.112,0.112 -0.112,0.504 0,0.616 1.30666,0.056 1.624,0.14933 1.624,1.69867 v 7.48535 c 0,1.54933 -0.31734,1.64267 -1.624,1.69867 -0.112,0.112 -0.112,0.504 0,0.616 0.84,-0.0187 1.69867,-0.0373 2.42667,-0.0373 0.70933,0 1.568,0.0187 2.408,0.0373 0.112,-0.112 0.112,-0.504 0,-0.616 -1.30667,-0.056 -1.624,-0.14934 -1.624,-1.69867 z" />
          <path
             id="path930"
             style="font-style:normal;font-variant:normal;font-weight:normal;font-stretch:normal;font-family:'Linux Libertine O';-inkscape-font-specification:'Linux Libertine O'"
             d="m 327.23625,441.32023 c -1.08267,-0.14934 -1.02667,-0.50401 -2.85601,-0.50401 -1.88534,0 -3.54667,1.25067 -3.54667,3.22934 0,1.97867 1.60533,2.87468 3.248,3.49068 1.13867,0.448 2.52001,0.97067 2.52001,2.78134 0,1.512 -0.85867,2.296 -2.33334,2.296 -1.75467,0 -2.87467,-0.784 -3.28534,-2.65067 -0.224,-0.0747 -0.42933,-0.0373 -0.59733,0.056 0.0747,1.43733 0.14933,1.92267 0.37333,2.83734 1.176,0 1.68,0.42933 3.34134,0.42933 0.85867,0 1.66134,-0.20533 2.31467,-0.59733 1.064,-0.67201 1.75467,-1.82934 1.75467,-3.02401 0,-1.97867 -1.512,-2.856 -3.04267,-3.41601 -1.10134,-0.42933 -2.96801,-1.12 -2.96801,-2.70667 0,-1.04533 0.952,-2.09067 2.03467,-2.09067 1.82934,0 2.40801,1.15734 2.78134,2.38934 0.18667,0.0373 0.42934,0.0187 0.59734,-0.112 -0.056,-0.896 -0.13067,-1.41867 -0.336,-2.408 z" />
          <path
             id="path932"
             style="font-style:normal;font-variant:normal;font-weight:normal;font-stretch:normal;font-family:'Linux Libertine O';-inkscape-font-specification:'Linux Libertine O'"
             d="m 335.58726,453.28558 c 1.81067,0 3.47201,-0.85867 4.74134,-2.52 -0.0933,-0.168 -0.224,-0.28 -0.42933,-0.28 -1.32534,1.456 -2.59467,2.03467 -4.33068,2.03467 -2.52,0 -4.256,-2.83734 -4.256,-5.56268 0,-1.60534 0.41066,-2.94934 1.10133,-3.78934 0.93334,-1.13867 2.016,-1.66134 2.98667,-1.66134 2.57601,0 3.60268,1.53067 4.08801,3.13601 0.224,0.0747 0.392,0.0187 0.616,-0.0933 -0.0933,-0.97066 -0.224,-1.86667 -0.41067,-2.89333 -0.952,-0.0933 -1.792,-0.84001 -4.088,-0.84001 -1.58667,0 -2.91201,0.57867 -4.01334,1.58667 -1.25067,1.13867 -1.97867,2.96801 -1.97867,4.90935 0,3.248 1.96,5.97334 5.97334,5.97334 z" />
          <path
             id="path934"
             style="font-style:normal;font-variant:normal;font-weight:normal;font-stretch:normal;font-family:'Linux Libertine O';-inkscape-font-specification:'Linux Libertine O'"
             d="m 345.90032,447.81624 c -0.41067,0 -0.54133,-0.056 -0.48533,-0.24267 l 1.92267,-4.83468 h 0.112 l 1.75467,5.07735 z m -2.016,3.808 1.02667,-2.70667 c 0.0933,-0.24266 0.20533,-0.31733 0.65333,-0.31733 h 3.93867 l 1.08267,3.15467 c 0.20534,0.65334 -0.504,0.70934 -1.38133,0.76534 -0.112,0.112 -0.112,0.504 0,0.616 0.69066,-0.0187 1.71733,-0.0373 2.44533,-0.0373 0.76534,0 1.47467,0.0187 2.12801,0.0373 0.112,-0.112 0.112,-0.504 0,-0.616 -0.728,-0.056 -1.36267,-0.112 -1.68001,-1.02667 l -3.84534,-10.67736 c -0.28,0.16801 -0.784,0.37334 -1.02666,0.37334 l -4.23734,10.00535 c -0.48534,1.15734 -1.06401,1.26934 -1.86667,1.32534 -0.11201,0.112 -0.11201,0.504 0,0.616 0.48533,-0.0187 1.08266,-0.0373 1.66133,-0.0373 0.76534,0 1.69867,0.0187 2.38934,0.0373 0.112,-0.112 0.112,-0.504 0,-0.616 -0.70934,-0.0373 -1.58667,-0.112 -1.288,-0.89601 z" />
          <path
             id="path936"
             style="font-style:normal;font-variant:normal;font-weight:normal;font-stretch:normal;font-family:'Linux Libertine O';-inkscape-font-specification:'Linux Libertine O'"
             d="m 357.49818,442.75756 c 0,-0.54133 0.28,-1.19467 1.624,-1.19467 1.288,0 2.576,0.42934 2.576,2.80001 0,2.016 -0.97067,2.83734 -2.78134,2.83734 -0.46666,0 -1.21333,-0.0373 -1.41866,-0.0933 z m -1.58667,0.57867 v 7.48535 c 0,1.54933 -0.31734,1.64267 -1.62401,1.69867 -0.112,0.112 -0.112,0.504 0,0.616 0.84,-0.0187 1.75467,-0.0373 2.42667,-0.0373 0.65334,0 1.75467,0.0187 2.68801,0.0373 0.112,-0.112 0.112,-0.504 0,-0.616 -1.456,-0.0747 -1.904,-0.14934 -1.904,-1.69867 v -3.17334 c 0.41066,0.13066 0.85866,0.18666 1.512,0.18666 3.39734,0 4.42401,-2.22133 4.42401,-3.808 0,-1.10134 -0.72801,-3.09868 -4.18134,-3.09868 -0.72801,0 -1.81067,0.13067 -2.55734,0.13067 -0.69067,0 -1.66134,-0.0187 -2.40801,-0.0373 -0.112,0.112 -0.112,0.504 0,0.616 1.30667,0.056 1.62401,0.14933 1.62401,1.69867 z" />
          <path
             id="path938"
             style="font-style:normal;font-variant:normal;font-weight:normal;font-stretch:normal;font-family:'Linux Libertine O';-inkscape-font-specification:'Linux Libertine O'"
             d="m 369.31449,446.36023 h -1.69867 v -3.36 c 0,-0.82134 0.224,-1.19467 1.232,-1.19467 h 1.4 c 1.40001,0 1.69867,0.74667 2.10934,2.03467 0.224,0.0373 0.42933,0 0.616,-0.0933 -0.0933,-0.76534 -0.37333,-2.55734 -0.41067,-2.70667 0,-0.0373 -0.0187,-0.056 -0.0747,-0.056 -0.31734,0.056 -0.46667,0.0747 -0.91467,0.0747 h -4.76001 c -0.57867,0 -1.66134,-0.0187 -2.408,-0.0373 -0.112,0.112 -0.112,0.504 0,0.616 1.30666,0.056 1.624,0.14933 1.624,1.69867 v 7.48535 c 0,1.54933 -0.31734,1.64267 -1.624,1.69867 -0.112,0.112 -0.112,0.504 0,0.616 0.69066,-0.0187 1.81067,-0.0373 2.42667,-0.0373 h 4.01334 c 0.896,0 2.38934,0.0373 2.38934,0.0373 0.26133,-0.93334 0.54133,-2.16534 0.69066,-3.11734 -0.20533,-0.0933 -0.41066,-0.14934 -0.65333,-0.0933 -0.37334,1.34401 -1.02667,2.44534 -2.44534,2.44534 h -2.16534 c -0.784,0 -1.04533,-0.29866 -1.04533,-1.176 v -4.12534 h 1.69867 c 1.58667,0 1.64267,0.42933 1.69867,1.26933 0.112,0.11201 0.504,0.11201 0.616,0 -0.0187,-0.48533 -0.0373,-0.98933 -0.0373,-1.64266 0,-0.52267 0.0187,-1.15734 0.0373,-1.60534 -0.112,-0.112 -0.504,-0.112 -0.616,0 -0.056,1.02667 -0.112,1.26933 -1.69867,1.26933 z" />
        </g>
        <g
           id="g977">
          <path
             id="rect911"
             style="opacity:1;fill:#000000;fill-opacity:1;stroke-width:7.27581;stroke-linecap:round;stroke-linejoin:round;paint-order:markers fill stroke;stop-color:#000000"
             d="m 493.8903,465.55984 h 34.5883 c 4.42198,0 7.98191,3.55994 7.98191,7.98192 v 16.49596 c 0,4.42198 -3.55993,7.98191 -7.98191,7.98191 h -34.5883 c -4.42198,0 -7.98191,-3.55993 -7.98191,-7.98191 v -16.49596 c 0,-4.42198 3.55993,-7.98192 7.98191,-7.98192 z" />
          <g
             aria-label="1.1"
             id="text917"
             style="font-style:normal;font-variant:normal;font-weight:normal;font-stretch:normal;font-size:34.7237px;line-height:1.25;font-family:'Linux Libertine O';-inkscape-font-specification:'Linux Libertine O';fill:#eaeaea;fill-opacity:1;stroke-width:1.86019">
            <path
               d="m 501.27038,488.87089 v -12.04913 c 0,-2.08342 0.0347,-4.20157 0.10418,-4.65297 0,-0.1389 -0.10418,-0.17362 -0.20835,-0.17362 -1.94452,1.21533 -3.75016,2.0487 -6.80584,3.47237 0.0347,0.41668 0.20834,0.7292 0.52085,0.93754 1.56257,-0.65975 2.36122,-0.8681 3.02097,-0.8681 0.55557,0 0.69447,0.83337 0.69447,2.01398 v 11.31993 c 0,2.88206 -0.93754,3.05568 -3.3682,3.15985 -0.20834,0.20835 -0.20834,0.93754 0,1.14589 1.70146,-0.0347 2.91679,-0.0694 4.82659,-0.0694 1.63202,0 2.50011,0.0347 4.2363,0.0694 0.20834,-0.20835 0.20834,-0.93754 0,-1.14589 -2.43066,-0.10417 -3.02097,-0.27779 -3.02097,-3.15985 z"
               style="fill:#eaeaea;fill-opacity:1;stroke-width:1.86019"
               id="path942" />
            <path
               d="m 509.39031,491.61406 c 0,1.00699 0.83336,1.84035 1.84035,1.84035 1.00699,0 1.84036,-0.83336 1.84036,-1.84035 0,-1.00699 -0.83337,-1.84036 -1.84036,-1.84036 -1.00699,0 -1.84035,0.83337 -1.84035,1.84036 z"
               style="fill:#eaeaea;fill-opacity:1;stroke-width:1.86019"
               id="path944" />
            <path
               d="m 525.07511,488.87089 v -12.04913 c 0,-2.08342 0.0347,-4.20157 0.10417,-4.65297 0,-0.1389 -0.10417,-0.17362 -0.20834,-0.17362 -1.94453,1.21533 -3.75016,2.0487 -6.80585,3.47237 0.0347,0.41668 0.20835,0.7292 0.52086,0.93754 1.56257,-0.65975 2.36121,-0.8681 3.02096,-0.8681 0.55558,0 0.69448,0.83337 0.69448,2.01398 v 11.31993 c 0,2.88206 -0.93754,3.05568 -3.3682,3.15985 -0.20835,0.20835 -0.20835,0.93754 0,1.14589 1.70146,-0.0347 2.91679,-0.0694 4.82659,-0.0694 1.63201,0 2.50011,0.0347 4.23629,0.0694 0.20834,-0.20835 0.20834,-0.93754 0,-1.14589 -2.43066,-0.10417 -3.02096,-0.27779 -3.02096,-3.15985 z"
               style="fill:#eaeaea;fill-opacity:1;stroke-width:1.86019"
               id="path946" />
          </g>
        </g>
      </g>
      <g
         aria-label="Draw Freely."
         id="text921"
         style="font-style:normal;font-variant:normal;font-weight:normal;font-stretch:normal;font-size:47.8806px;line-height:1.25;font-family:'Euphoria Script';-inkscape-font-specification:'Euphoria Script';stroke-width:2.56502">
        <path
           d="m 217.23609,541.9581 c 0.45965,0 0.80439,-0.22983 0.95761,-0.76609 -0.22983,0 -0.34474,-0.26813 -0.34474,-0.8044 0,-1.30235 0.53626,-2.75792 1.6854,-4.2901 2.22166,-2.98775 5.55415,-4.48162 9.99746,-4.48162 3.52402,0 6.12872,1.30235 7.81412,3.86875 1.22574,1.91522 1.87692,4.2901 1.87692,7.04802 0,1.26405 -0.15322,2.60471 -0.38305,3.98367 -0.76609,4.36671 -2.41318,8.12055 -4.94127,11.33813 -2.83454,3.60062 -6.01381,5.36262 -9.49952,5.36262 -3.10266,0 -5.05619,-0.84269 -5.86058,-2.6047 -0.26813,-0.53626 -0.38305,-1.14913 -0.38305,-1.83862 0,-0.65117 0.19153,-1.37896 0.61288,-2.18335 0.61287,-1.11083 1.37896,-1.6854 2.25996,-1.6854 0.11491,0 0.19152,-0.0766 0.26813,-0.22982 0.0766,-0.15322 0.0766,-0.26814 0.0383,-0.42135 -0.0383,-0.15322 -0.11492,-0.22983 -0.22983,-0.22983 -1.45557,0 -2.60471,0.8427 -3.4474,2.45149 -0.45966,0.9193 -0.65118,1.762 -0.65118,2.5664 0,0.80439 0.15322,1.57048 0.49796,2.25996 1.07252,2.29827 3.67723,3.4091 7.7375,3.4091 4.06028,0 7.6609,-1.7237 10.72526,-5.24771 2.75792,-3.14097 4.51993,-7.00972 5.28602,-11.56796 0.19152,-1.34065 0.30643,-2.64301 0.30643,-3.86875 0,-2.94945 -0.65117,-5.55415 -1.87692,-7.85242 -2.10674,-3.67723 -5.47754,-5.55415 -10.11238,-5.55415 l -2.10675,0.11492 c -4.09858,0.45965 -7.27785,2.03013 -9.57612,4.78806 -1.37896,1.64709 -2.06844,3.14096 -2.06844,4.44331 0,1.34066 0.45965,1.99184 1.41727,1.99184 z m 5.51584,14.5174 c 0,2.06844 0.38305,3.06435 1.14914,3.06435 0.34474,0 0.53626,-0.15321 0.53626,-0.49795 0,-3.21758 0.80439,-8.42699 2.41318,-15.66654 0.8427,-3.94536 1.87692,-7.12463 3.02606,-9.49951 0,-0.38304 -0.22983,-0.61287 -0.61288,-0.61287 -0.95761,0 -1.95352,1.07253 -2.94944,3.21758 -0.99592,2.14505 -1.83862,5.01788 -2.5281,8.69511 -0.68948,3.67723 -1.03422,7.43107 -1.03422,11.29983 z"
           style="stroke-width:2.56502"
           id="path949" />
        <path
           d="m 256.44117,549.27425 c 0.11491,0 0.19152,-0.0766 0.19152,-0.30643 0,-1.57049 0.19152,-3.02606 0.65118,-4.36671 0.42135,-1.34066 0.76609,-2.18336 1.03422,-2.5664 0.22983,-0.34474 0.45965,-0.61287 0.65118,-0.8044 0,-0.22982 -0.11492,-0.42135 -0.26814,-0.57456 -0.15321,-0.15322 -0.38304,-0.22983 -0.61287,-0.22983 -1.18744,0 -2.48979,0.76609 -3.90705,2.29827 -2.5281,2.68131 -4.78806,6.43515 -6.85651,11.18491 h -0.26813 c 0.49796,-3.90706 1.34066,-7.6992 2.5281,-11.45304 0,-0.53627 -0.26813,-0.8427 -0.72779,-0.8427 -1.11083,0 -2.03013,1.57048 -2.79622,4.63484 -0.76609,3.10266 -1.14914,6.55007 -1.14914,10.34221 0,2.03014 0.34474,3.02605 1.11083,3.02605 0.38305,0 0.61287,-0.15321 0.61287,-0.45965 0,-1.22574 1.07253,-3.90706 3.21758,-8.00564 2.14505,-4.09858 4.06027,-6.8948 5.82228,-8.42698 -0.45965,1.07252 -0.68948,2.18335 -0.68948,3.37079 0,2.14505 0.45965,3.17927 1.45557,3.17927 z"
           style="stroke-width:2.56502"
           id="path951" />
        <path
           d="m 262.16006,560.26764 c 1.60879,0 4.06027,-2.75792 7.31615,-8.31207 h 0.38305 c -0.30644,1.762 -0.42135,3.60062 -0.42135,5.51584 0,1.91523 0.26813,3.60062 0.8427,4.97958 0.57457,1.41727 1.41726,2.10675 2.48979,2.10675 0.45965,0 0.881,-0.26813 1.30235,-0.80439 0.42135,-0.53627 0.68948,-0.95762 0.8427,-1.26405 0.11491,-0.30644 0.19152,-0.57457 0.26813,-0.76609 0.0383,-0.15322 0.0383,-0.30644 0,-0.38305 -0.0766,-0.0766 -0.15322,-0.11491 -0.22983,-0.11491 -0.30643,0 -0.45965,0.15322 -0.53626,0.42135 -0.22982,0.53626 -0.45965,0.95761 -0.68948,1.22574 -0.26813,0.26814 -0.53626,0.38305 -0.8427,0.38305 -0.80439,0 -1.18744,-1.30235 -1.18744,-3.94536 0,-2.60471 0.26814,-5.24772 0.88101,-7.92903 0.57456,-2.64301 1.03422,-4.40502 1.41726,-5.32432 0.34474,-0.88101 0.65118,-1.57049 0.88101,-2.06844 0,-0.57457 -0.26814,-0.88101 -0.72779,-0.88101 -0.91931,0 -1.83861,0.91931 -2.68131,2.75792 -1.07253,2.06845 -2.41319,4.51993 -4.09858,7.31616 -0.99592,1.64709 -1.91523,3.02605 -2.79623,4.09858 -0.881,1.07253 -1.57048,1.60879 -2.03014,1.60879 -0.61287,0 -0.9193,-0.76609 -0.9193,-2.29827 0,-3.02605 0.76609,-6.28194 2.29826,-9.72934 1.34066,-2.98775 2.83454,-4.48162 4.51993,-4.48162 0.34474,0 0.65118,0.15321 0.95762,0.38304 0.26813,0.22983 0.45965,0.42135 0.53626,0.57457 0.0766,0.15322 0.11491,0.30643 0.19152,0.49796 0.0766,0.19152 0.30644,0.26813 0.72779,0.26813 0.34474,0 0.57456,-0.19152 0.65117,-0.65118 l -0.22983,-0.49796 c -0.15321,-0.34474 -0.45965,-0.68948 -0.9193,-1.07252 -0.45966,-0.34474 -1.11083,-0.53626 -1.91523,-0.53626 -0.8427,0 -1.7237,0.26813 -2.64301,0.76609 -2.22166,1.22574 -3.98366,3.4474 -5.32432,6.74158 -0.99592,2.37488 -1.45557,4.51993 -1.45557,6.47346 0,3.29419 1.03422,4.94128 3.14097,4.94128 z"
           style="stroke-width:2.56502"
           id="path953" />
        <path
           d="m 298.0328,542.91571 c -0.15322,-1.07253 -0.38304,-2.06844 -0.76609,-2.91114 -0.38304,-0.8427 -0.8427,-1.30235 -1.30235,-1.30235 -0.38304,0 -0.76609,0.15321 -1.07252,0.45965 -0.34475,0.30644 -0.49796,0.65118 -0.49796,1.03422 0,0.38305 0.22982,0.91931 0.68948,1.64709 0.45965,0.76609 1.03422,1.37897 1.80031,1.91523 v 0.22983 c 0,2.37487 -0.34474,4.78806 -1.03422,7.23954 -0.68948,2.45149 -1.53218,4.40502 -2.5281,5.9372 -0.99592,1.53218 -1.95353,2.25996 -2.87283,2.25996 -0.8427,0 -1.22575,-0.68948 -1.22575,-2.10675 0,-2.98775 0.76609,-7.16293 2.33658,-12.52556 0,-0.53626 -0.30644,-0.80439 -0.8427,-0.80439 -0.57457,0 -1.22575,0.72778 -1.91523,2.14505 l -1.64709,3.17927 c -1.07253,2.14505 -2.33657,4.2901 -3.75384,6.43515 -1.41726,2.14505 -2.45149,3.21758 -3.10266,3.21758 -0.53626,0 -0.8044,-0.57457 -0.8044,-1.80031 0,-1.22575 0.34474,-3.10267 1.11083,-5.66907 0.76609,-2.52809 1.37897,-4.40501 1.83862,-5.55415 0.45965,-1.14913 0.8427,-2.10674 1.14913,-2.87283 0,-0.53627 -0.26813,-0.8044 -0.72778,-0.8044 -1.03422,0.15322 -2.14505,1.53218 -3.3708,4.2135 -1.45557,3.37079 -2.18335,6.55006 -2.18335,9.49951 0,2.87283 0.8427,4.2901 2.52809,4.2901 1.6854,0 4.13689,-2.83453 7.31616,-8.5036 -0.15322,1.22575 -0.19152,2.33658 -0.19152,3.3708 0,1.83861 0.30643,3.25588 0.95761,4.2518 0.61287,0.9193 1.49387,1.34065 2.64301,1.34065 1.14913,0 2.29827,-0.8427 3.48571,-2.52809 1.14913,-1.6854 2.10674,-3.79215 2.87283,-6.32024 0.72779,-2.5281 1.11083,-4.97958 1.18744,-7.39277 0.61287,0.26813 1.22574,0.38305 1.76201,0.38305 0.53626,0 0.95761,-0.11492 1.26405,-0.42135 0.30643,-0.30644 0.45965,-0.61287 0.45965,-0.95761 -0.30644,0.19152 -0.76609,0.26813 -1.45557,0.26813 -0.68948,0 -1.37896,-0.26813 -2.10675,-0.8427 z"
           style="stroke-width:2.56502"
           id="path955" />
        <path
           d="m 318.29572,540.65575 c 0,-1.37897 0.45966,-2.71962 1.41727,-4.09858 1.95353,-2.87284 5.40093,-4.32841 10.3039,-4.32841 0.8427,0 1.49388,0 1.91523,-0.0383 -0.8044,0.84269 -1.49388,2.03013 -2.06845,3.60062 -0.61287,1.57048 -1.22574,3.60062 -1.83861,6.09041 -1.45557,0.15322 -2.5281,0.19152 -3.21758,0.19152 -0.68948,0 -1.07252,-0.0766 -1.18744,-0.22983 -0.30643,0.0766 -0.45965,0.38305 -0.42134,0.88101 0.0766,0.65117 0.49795,0.95761 1.22574,0.95761 0.72778,0 1.80031,-0.11491 3.25588,-0.34474 -0.11491,0.42135 -0.38305,1.64709 -0.8427,3.67723 -0.45965,2.03014 -1.03422,4.21349 -1.6854,6.58837 -0.57456,1.95353 -1.07252,3.29418 -1.49387,4.06027 -0.45965,0.76609 -0.99592,1.6854 -1.6854,2.79623 -0.68948,1.11083 -1.41726,1.87692 -2.25996,2.29827 -0.8427,0.42135 -1.60879,0.61287 -2.33658,0.61287 -0.76609,0 -1.34065,-0.0383 -1.80031,-0.19152 -1.95352,-0.61287 -2.91114,-2.29827 -2.91114,-5.05619 0,-1.87692 0.53627,-3.71554 1.6854,-5.47754 1.41727,-2.25997 3.21758,-3.4091 5.43924,-3.4091 -0.0766,-0.30644 -0.22983,-0.53626 -0.45966,-0.68948 -0.22982,-0.15322 -0.49796,-0.22983 -0.80439,-0.22983 -2.33657,0 -4.21349,1.37896 -5.63076,4.09858 -0.95761,1.80031 -1.41727,3.60062 -1.41727,5.36263 0,0.95761 0.11492,1.91522 0.42135,2.83453 0.72779,2.75792 2.60471,4.09858 5.59246,4.09858 4.13688,0 7.35446,-3.10266 9.61442,-9.30799 0.88101,-2.45149 1.91523,-6.62667 3.14097,-12.56387 1.57048,-0.22983 2.5664,-0.38304 3.02605,-0.38304 0.42135,0 0.68948,-0.19153 0.8044,-0.49796 0,-0.26813 -0.0766,-0.42135 -0.30644,-0.42135 -0.881,0 -1.99183,0.0766 -3.29418,0.19152 0.61287,-2.98775 1.18744,-5.28602 1.762,-6.89481 0.53627,-1.60878 1.26405,-2.5664 2.10675,-2.94944 0.99592,-0.19152 1.91522,-0.45965 2.75792,-0.8427 1.34066,-0.61287 2.10675,-1.30235 2.29827,-2.03014 v -0.22982 c 0,-0.30644 -0.26813,-0.45966 -0.76609,-0.45966 -0.53626,0 -1.30235,0.49796 -2.37488,1.49388 -0.42135,0.38304 -1.18744,0.72778 -2.25996,1.03422 -1.11083,0.30643 -2.45149,0.45965 -3.98367,0.45965 -1.53218,0 -2.98775,0.15322 -4.3284,0.38305 -3.98367,0.80439 -6.70329,2.6047 -8.19716,5.36262 -0.68948,1.22575 -0.99592,2.25997 -0.99592,3.10267 0,0.8427 0.0766,1.57048 0.30644,2.14505 0.42135,1.30235 1.14913,1.91522 2.22166,1.91522 0.49796,0 0.80439,-0.15322 0.881,-0.53626 -1.07253,-0.11491 -1.60879,-1.11083 -1.60879,-3.02605 z m 16.85397,7.85241 c 0,-0.99591 0.0766,-1.99183 0.30644,-2.94944 0.49796,-2.25997 1.34066,-3.98367 2.48979,-5.1328 0,-0.30644 -0.11491,-0.53626 -0.26813,-0.72779 -0.19152,-0.15321 -0.42135,-0.26813 -0.65118,-0.26813 -0.99591,0 -1.762,0.8044 -2.33657,2.41318 -0.61287,1.60879 -0.881,3.67723 -0.881,6.28194 0,0.19152 0.0766,0.34474 0.30643,0.42135 0.22983,0.11491 0.45966,0.15322 0.68948,0.15322 0.22983,0 0.34474,-0.0383 0.34474,-0.19153 z"
           style="stroke-width:2.56502"
           id="path957" />
        <path
           d="m 349.86445,549.27425 c 0.11491,0 0.19152,-0.0766 0.19152,-0.30643 0,-1.57049 0.19152,-3.02606 0.65118,-4.36671 0.42135,-1.34066 0.76609,-2.18336 1.03422,-2.5664 0.22983,-0.34474 0.45965,-0.61287 0.65117,-0.8044 0,-0.22982 -0.11491,-0.42135 -0.26813,-0.57456 -0.15321,-0.15322 -0.38304,-0.22983 -0.61287,-0.22983 -1.18744,0 -2.48979,0.76609 -3.90706,2.29827 -2.52809,2.68131 -4.78806,6.43515 -6.8565,11.18491 h -0.26813 c 0.49796,-3.90706 1.34066,-7.6992 2.5281,-11.45304 0,-0.53627 -0.26813,-0.8427 -0.72779,-0.8427 -1.11083,0 -2.03014,1.57048 -2.79623,4.63484 -0.76608,3.10266 -1.14913,6.55007 -1.14913,10.34221 0,2.03014 0.34474,3.02605 1.11083,3.02605 0.38305,0 0.61287,-0.15321 0.61287,-0.45965 0,-1.22574 1.07253,-3.90706 3.21758,-8.00564 2.14505,-4.09858 4.06027,-6.8948 5.82228,-8.42698 -0.45965,1.07252 -0.68948,2.18335 -0.68948,3.37079 0,2.14505 0.45965,3.17927 1.45557,3.17927 z"
           style="stroke-width:2.56502"
           id="path959" />
        <path
           d="m 362.36324,541.68997 c -1.26405,0 -2.48979,0.38304 -3.67723,1.07252 -2.22166,1.37896 -3.94536,3.56232 -5.17111,6.62668 -0.80439,2.03013 -1.18744,3.90705 -1.18744,5.59245 0,0.91931 0.11492,1.83862 0.34474,2.68131 0.72779,2.5664 2.45149,3.83045 5.17111,3.83045 0.68948,0 1.34066,-0.15322 2.03014,-0.45965 0.68948,-0.30644 1.22574,-0.68948 1.64709,-1.07253 0.42135,-0.38304 0.881,-0.9193 1.37896,-1.60878 0.49796,-0.65118 0.80439,-1.11083 0.881,-1.41727 0,-0.15322 -0.19152,-0.22983 -0.65117,-0.22983 -0.30644,0 -0.49796,0.11492 -0.57457,0.30644 -0.45965,0.76609 -0.99592,1.41726 -1.64709,2.03014 -0.34474,0.30643 -0.76609,0.57456 -1.22575,0.80439 -0.49795,0.22983 -0.95761,0.30644 -1.37896,0.30644 -0.45965,0 -0.80439,-0.0383 -1.07252,-0.15322 -1.45557,-0.49796 -2.18336,-2.03014 -2.18336,-4.59654 0,-2.98775 0.76609,-5.93719 2.33658,-8.81003 1.45557,-2.6047 3.02605,-3.94536 4.71145,-3.94536 0.84269,0 1.26404,0.53626 1.26404,1.57048 0,1.41727 -0.61287,2.94945 -1.83861,4.63484 -1.53218,2.10675 -3.17927,3.14097 -4.97958,3.14097 0.11491,0.26813 0.30643,0.45966 0.57456,0.57457 0.22983,0.15322 0.57457,0.19152 0.95762,0.19152 2.45148,0 4.40501,-1.18744 5.89889,-3.56232 0.84269,-1.41726 1.30235,-2.79622 1.30235,-4.09857 0,-2.25997 -0.99592,-3.4091 -2.91114,-3.4091 z"
           style="stroke-width:2.56502"
           id="path961" />
        <path
           d="m 377.23241,541.68997 c -1.26405,0 -2.48979,0.38304 -3.67723,1.07252 -2.22166,1.37896 -3.94536,3.56232 -5.17111,6.62668 -0.80439,2.03013 -1.18743,3.90705 -1.18743,5.59245 0,0.91931 0.11491,1.83862 0.34474,2.68131 0.72778,2.5664 2.45148,3.83045 5.1711,3.83045 0.68948,0 1.34066,-0.15322 2.03014,-0.45965 0.68948,-0.30644 1.22574,-0.68948 1.64709,-1.07253 0.42135,-0.38304 0.881,-0.9193 1.37896,-1.60878 0.49796,-0.65118 0.8044,-1.11083 0.881,-1.41727 0,-0.15322 -0.19152,-0.22983 -0.65117,-0.22983 -0.30644,0 -0.49796,0.11492 -0.57457,0.30644 -0.45965,0.76609 -0.99592,1.41726 -1.64709,2.03014 -0.34474,0.30643 -0.76609,0.57456 -1.22574,0.80439 -0.49796,0.22983 -0.95762,0.30644 -1.37897,0.30644 -0.45965,0 -0.80439,-0.0383 -1.07252,-0.15322 -1.45557,-0.49796 -2.18336,-2.03014 -2.18336,-4.59654 0,-2.98775 0.76609,-5.93719 2.33658,-8.81003 1.45557,-2.6047 3.02605,-3.94536 4.71145,-3.94536 0.8427,0 1.26405,0.53626 1.26405,1.57048 0,1.41727 -0.61288,2.94945 -1.83862,4.63484 -1.53218,2.10675 -3.17927,3.14097 -4.97958,3.14097 0.11491,0.26813 0.30643,0.45966 0.57457,0.57457 0.22982,0.15322 0.57456,0.19152 0.95761,0.19152 2.45148,0 4.40501,-1.18744 5.89889,-3.56232 0.8427,-1.41726 1.30235,-2.79622 1.30235,-4.09857 0,-2.25997 -0.99592,-3.4091 -2.91114,-3.4091 z"
           style="stroke-width:2.56502"
           id="path963" />
        <path
           d="m 387.73487,565.86009 c 1.03422,0 1.95353,-0.57456 2.71962,-1.80031 0.34474,-0.53626 0.57456,-0.9193 0.72778,-1.18744 0.15322,-0.22982 0.22983,-0.45965 0.30644,-0.61287 0.0766,-0.15322 0.0383,-0.26813 -0.0766,-0.34474 -0.34474,-0.11491 -0.57457,-0.0383 -0.68948,0.22983 -0.22983,0.53626 -0.61287,1.11083 -1.14914,1.64709 -0.53626,0.53626 -1.11083,0.8044 -1.68539,0.8044 -0.68948,0 -1.26405,-0.53627 -1.6471,-1.60879 -0.38304,-1.07253 -0.57456,-2.64301 -0.57456,-4.63484 0,-1.99184 0.19152,-4.40502 0.65117,-7.23955 0.45966,-2.79623 0.95762,-5.24772 1.49388,-7.35446 0.53626,-2.06844 1.22574,-4.36671 2.06844,-6.8182 0.80439,-2.45149 1.49387,-4.32841 2.03014,-5.55415 0,-0.49796 -0.22983,-0.76609 -0.65118,-0.76609 -0.91931,0 -2.03014,1.41727 -3.25588,4.21349 -1.22574,2.83454 -2.29827,6.35855 -3.21758,10.61035 -0.9193,4.2901 -1.37896,7.96733 -1.37896,11.06999 0,3.14097 0.34474,5.47754 1.03422,7.00972 0.68948,1.57048 1.80031,2.33657 3.29419,2.33657 z"
           style="stroke-width:2.56502"
           id="path965" />
        <path
           d="m 393.23814,572.25694 c -1.6854,0 -2.75792,-0.49796 -3.21758,-1.57048 -0.15321,-0.19152 -0.34474,-0.26813 -0.61287,-0.22983 -0.26813,0.0383 -0.38304,0.11491 -0.38304,0.26813 0,0.0766 0,0.11492 0.0383,0.19152 0.68948,1.49388 2.06844,2.22166 4.17519,2.22166 4.82636,0 8.23546,-3.67723 10.2273,-11.10829 0.61287,0.15321 1.11083,0.42134 1.49387,0.72778 0.38305,0.34474 0.61287,0.65118 0.76609,0.95761 0.15322,0.30644 0.22983,0.68948 0.26813,1.14914 0,0.45965 0,0.76609 -0.0383,0.9193 0.22982,0 0.49796,-0.11491 0.80439,-0.42135 0.30644,-0.30643 0.45965,-0.65117 0.45965,-1.03422 0,-0.38304 -0.0383,-0.72778 -0.0766,-0.95761 -0.30644,-1.34065 -1.45557,-2.18335 -3.3708,-2.52809 0.30644,-1.37896 0.65118,-3.33249 1.11083,-5.82228 0.42135,-2.4898 0.99592,-4.97959 1.6854,-7.43107 0.68948,-2.45149 1.26405,-4.09858 1.762,-5.01789 0,-0.57457 -0.26813,-0.881 -0.80439,-0.881 -0.8427,0 -1.64709,0.80439 -2.37488,2.33657 -1.7237,3.75384 -3.75384,7.43107 -6.05211,11.03169 -1.60878,2.48979 -2.75792,3.71553 -3.4474,3.71553 -0.61287,0 -0.91931,-0.68948 -0.91931,-2.10674 0,-1.41727 0.34474,-3.4091 1.07253,-5.9372 0.68948,-2.52809 1.26405,-4.36671 1.7237,-5.47754 0.42135,-1.11083 0.76609,-2.03013 1.07253,-2.71962 0,-0.53626 -0.22983,-0.84269 -0.65118,-0.84269 l -0.22983,0.0383 c -1.07252,0.22983 -2.22166,1.87692 -3.4857,4.90297 -1.30236,3.02606 -1.91523,6.01381 -1.91523,9.00156 0,2.98775 0.95761,4.48162 2.91114,4.48162 1.7237,0 4.2518,-2.94944 7.58429,-8.84833 h 0.34474 c -0.34474,1.60878 -0.65118,3.29418 -0.881,4.97958 -0.26813,1.7237 -0.53627,3.21758 -0.8044,4.48162 -2.83453,0.11492 -5.20941,0.76609 -7.16294,1.91523 -1.99183,1.14913 -3.52401,2.5664 -4.59653,4.21349 -0.0766,0.15322 -0.0383,0.30644 0.15322,0.38304 0.30643,0.15322 0.57456,0.11492 0.72778,-0.11491 2.45149,-3.4091 6.0138,-5.1711 10.64865,-5.28602 -0.61288,2.87284 -1.49388,5.24772 -2.60471,7.16294 -1.30235,2.18336 -3.10266,3.25588 -5.40093,3.25588 z"
           style="stroke-width:2.56502"
           id="path967" />
        <path
           d="m 412.95986,560.53577 0.45965,-0.65118 c 0.91931,-1.37896 1.41727,-2.33657 1.41727,-2.94944 0,-0.57457 -0.26814,-0.881 -0.76609,-0.881 -0.61288,0 -1.11083,0.34474 -1.41727,1.03422 -0.34474,0.68948 -0.49796,1.34065 -0.49796,1.95353 0,0.99591 0.26813,1.49387 0.8044,1.49387 z"
           style="stroke-width:2.56502"
           id="path969" />
      </g>
    </g>
  </g>
  <style
     id="style26"
     type="text/css">
	.specularity {opacity:0.5;}
	.low-specularity {opacity:0.25;}
	.full-specularity {opacity:1;}
	.black {fill:#000000;}
	.white {fill:#ffffff;}
	.outline-big {stroke-width:16;stroke:none;opacity:0.1;fill:none;}
	.outline-small {stroke-width:8;stroke:none;opacity:0.2;fill:none;}
	.stroke-highlight {fill:none;stroke:none;opacity:0.2;}
       	.base-shadow 	{fill:black;opacity:75;}
	</style>
  <style
     id="style26-5"
     type="text/css">
	.specularity {opacity:0.5;}
	.low-specularity {opacity:0.25;}
	.full-specularity {opacity:1;}
	.black {fill:#000000;}
	.white {fill:#ffffff;}
	.outline-big {stroke-width:16;stroke:none;opacity:0.1;fill:none;}
	.outline-small {stroke-width:8;stroke:none;opacity:0.2;fill:none;}
	.stroke-highlight {fill:none;stroke:none;opacity:0.2;}
       	.base-shadow 	{fill:black;opacity:75;}
	</style>
  <style
     id="style26-6"
     type="text/css">
	.specularity {opacity:0.5;}
	.low-specularity {opacity:0.25;}
	.full-specularity {opacity:1;}
	.black {fill:#000000;}
	.white {fill:#ffffff;}
	.outline-big {stroke-width:16;stroke:none;opacity:0.1;fill:none;}
	.outline-small {stroke-width:8;stroke:none;opacity:0.2;fill:none;}
	.stroke-highlight {fill:none;stroke:none;opacity:0.2;}
       	.base-shadow 	{fill:black;opacity:75;}
	</style>
</svg>
