<?xml version="1.0" encoding="UTF-8" standalone="no"?>
<svg
   width="297.35983"
   height="297.35983"
   viewBox="0 0 78.676455 78.676454"
   version="1.1"
   id="svg1771"
   inkscape:version="1.1 (1:1.1+202105261517+ce6663b3b7)"
   sodipodi:docname="stop_clock.svg"
   inkscape:export-filename="/home/doctormo/Desktop/clock.png"
   inkscape:export-xdpi="300"
   inkscape:export-ydpi="300"
   xmlns:inkscape="http://www.inkscape.org/namespaces/inkscape"
   xmlns:sodipodi="http://sodipodi.sourceforge.net/DTD/sodipodi-0.dtd"
   xmlns="http://www.w3.org/2000/svg"
   xmlns:svg="http://www.w3.org/2000/svg"
   xmlns:rdf="http://www.w3.org/1999/02/22-rdf-syntax-ns#"
   xmlns:cc="http://creativecommons.org/ns#"
   xmlns:dc="http://purl.org/dc/elements/1.1/">
  <defs
     id="defs1765">
    <rect
       x="69.971161"
       y="206.92007"
       width="175.86336"
       height="51.262295"
       id="rect3286" />
    <rect
       x="20.108334"
       y="192.88126"
       width="154.25208"
       height="29.633333"
       id="rect2805" />
    <rect
       x="-292.62918"
       y="118.00417"
       width="191.55833"
       height="79.375"
       id="rect2778" />
    <rect
       x="-5.8208332"
       y="190.5"
       width="303.74167"
       height="52.387501"
       id="rect2772" />
    <rect
       x="-484.47522"
       y="145.66785"
       width="232.90311"
       height="119.33198"
       id="rect973" />
    <rect
       x="123.16434"
       y="180.87903"
       width="117.01604"
       height="33.914818"
       id="rect3021" />
    <rect
       x="21.316797"
       y="229.99702"
       width="246.26511"
       height="89.754936"
       id="rect3015" />
    <rect
       x="214.79385"
       y="137.24593"
       width="46.013084"
       height="12.494933"
       id="rect3009" />
    <rect
       x="-90.59639"
       y="73.206375"
       width="49.645702"
       height="28.048418"
       id="rect1042" />
    <rect
       x="-165.37347"
       y="208.63342"
       width="205.34785"
       height="79.401169"
       id="rect5863" />
    <inkscape:path-effect
       effect="powerstroke"
       id="path-effect5534"
       is_visible="true"
       lpeversion="1"
       offset_points="0,2.16151"
       sort_points="true"
       interpolator_type="CubicBezierJohan"
       interpolator_beta="0.2"
       start_linecap_type="zerowidth"
       linejoin_type="extrp_arc"
       miter_limit="4"
       scale_width="1"
       end_linecap_type="zerowidth"
       not_jump="false" />
    <inkscape:path-effect
       effect="powerstroke"
       id="path-effect5529"
       is_visible="true"
       lpeversion="1"
       offset_points="0,0.1322915"
       sort_points="true"
       interpolator_type="CubicBezierJohan"
       interpolator_beta="0.2"
       start_linecap_type="zerowidth"
       linejoin_type="extrp_arc"
       miter_limit="4"
       scale_width="1"
       end_linecap_type="zerowidth"
       not_jump="false" />
    <inkscape:path-effect
       effect="powerstroke"
       id="path-effect5505"
       is_visible="true"
       lpeversion="1"
       offset_points="0,2.161508"
       sort_points="true"
       interpolator_type="CubicBezierJohan"
       interpolator_beta="0.2"
       start_linecap_type="zerowidth"
       linejoin_type="extrp_arc"
       miter_limit="4"
       scale_width="1"
       end_linecap_type="zerowidth"
       not_jump="false" />
    <inkscape:path-effect
       effect="powerstroke"
       id="path-effect5481"
       is_visible="true"
       lpeversion="1"
       offset_points="0,2.161508"
       sort_points="true"
       interpolator_type="CubicBezierJohan"
       interpolator_beta="0.2"
       start_linecap_type="zerowidth"
       linejoin_type="extrp_arc"
       miter_limit="4"
       scale_width="1"
       end_linecap_type="zerowidth"
       not_jump="false" />
    <inkscape:path-effect
       effect="powerstroke"
       id="path-effect5457"
       is_visible="true"
       lpeversion="1"
       offset_points="0,0.1322915"
       sort_points="true"
       interpolator_type="CubicBezierJohan"
       interpolator_beta="0.2"
       start_linecap_type="zerowidth"
       linejoin_type="extrp_arc"
       miter_limit="4"
       scale_width="1"
       end_linecap_type="zerowidth"
       not_jump="false" />
    <inkscape:path-effect
       effect="powerstroke"
       id="path-effect5370"
       is_visible="true"
       lpeversion="1"
       offset_points="0,0.417374"
       sort_points="true"
       interpolator_type="CubicBezierJohan"
       interpolator_beta="0.2"
       start_linecap_type="zerowidth"
       linejoin_type="extrp_arc"
       miter_limit="4"
       scale_width="1"
       end_linecap_type="zerowidth"
       not_jump="false" />
    <inkscape:path-effect
       effect="powerstroke"
       id="path-effect5366"
       is_visible="true"
       lpeversion="1"
       offset_points="0,0.417374"
       sort_points="true"
       interpolator_type="CubicBezierJohan"
       interpolator_beta="0.2"
       start_linecap_type="zerowidth"
       linejoin_type="extrp_arc"
       miter_limit="4"
       scale_width="1"
       end_linecap_type="zerowidth"
       not_jump="false" />
    <inkscape:path-effect
       effect="powerstroke"
       id="path-effect5361"
       is_visible="true"
       lpeversion="1"
       offset_points="0,0.1322915"
       sort_points="true"
       interpolator_type="CubicBezierJohan"
       interpolator_beta="0.2"
       start_linecap_type="zerowidth"
       linejoin_type="extrp_arc"
       miter_limit="4"
       scale_width="1"
       end_linecap_type="zerowidth"
       not_jump="false" />
    <inkscape:path-effect
       effect="powerstroke"
       id="path-effect4669"
       is_visible="true"
       lpeversion="1"
       offset_points="0,0.417374"
       sort_points="true"
       interpolator_type="CubicBezierJohan"
       interpolator_beta="0.2"
       start_linecap_type="zerowidth"
       linejoin_type="extrp_arc"
       miter_limit="4"
       scale_width="1"
       end_linecap_type="zerowidth"
       not_jump="false" />
    <inkscape:path-effect
       effect="powerstroke"
       id="path-effect4624"
       is_visible="true"
       lpeversion="1"
       offset_points="0,0.1322915"
       sort_points="true"
       interpolator_type="CubicBezierJohan"
       interpolator_beta="0.2"
       start_linecap_type="zerowidth"
       linejoin_type="extrp_arc"
       miter_limit="4"
       scale_width="1"
       end_linecap_type="zerowidth"
       not_jump="false" />
    <inkscape:path-effect
       effect="powerstroke"
       id="path-effect4514"
       is_visible="true"
       lpeversion="1"
       offset_points="0,0.1322915"
       sort_points="true"
       interpolator_type="CubicBezierJohan"
       interpolator_beta="0.2"
       start_linecap_type="zerowidth"
       linejoin_type="extrp_arc"
       miter_limit="4"
       scale_width="1"
       end_linecap_type="zerowidth"
       not_jump="false" />
    <linearGradient
       id="linearGradient4487"
       inkscape:swatch="gradient">
      <stop
         style="stop-color:#000000;stop-opacity:1"
         offset="0"
         id="stop4483" />
      <stop
         style="stop-color:#000000;stop-opacity:0"
         offset="1"
         id="stop4485" />
    </linearGradient>
    <inkscape:path-effect
       effect="powerstroke"
       id="path-effect4481"
       is_visible="true"
       lpeversion="1"
       offset_points="0,0.1322915"
       sort_points="true"
       interpolator_type="CubicBezierJohan"
       interpolator_beta="0.2"
       start_linecap_type="zerowidth"
       linejoin_type="extrp_arc"
       miter_limit="4"
       scale_width="1"
       end_linecap_type="zerowidth"
       not_jump="false" />
    <inkscape:path-effect
       effect="powerstroke"
       id="path-effect4476"
       is_visible="true"
       lpeversion="1"
       offset_points="0,-0.41737433"
       sort_points="true"
       interpolator_type="CubicBezierJohan"
       interpolator_beta="0.2"
       start_linecap_type="zerowidth"
       linejoin_type="extrp_arc"
       miter_limit="4"
       scale_width="1"
       end_linecap_type="zerowidth"
       not_jump="false" />
    <inkscape:path-effect
       effect="powerstroke"
       id="path-effect4449"
       is_visible="true"
       lpeversion="1"
       offset_points="0,0.1322915"
       sort_points="true"
       interpolator_type="CubicBezierJohan"
       interpolator_beta="0.2"
       start_linecap_type="zerowidth"
       linejoin_type="extrp_arc"
       miter_limit="4"
       scale_width="1"
       end_linecap_type="zerowidth"
       not_jump="false" />
    <inkscape:path-effect
       effect="powerstroke"
       id="path-effect4441"
       is_visible="true"
       lpeversion="1"
       offset_points="0,0.1322915"
       sort_points="true"
       interpolator_type="CubicBezierJohan"
       interpolator_beta="0.2"
       start_linecap_type="zerowidth"
       linejoin_type="extrp_arc"
       miter_limit="4"
       scale_width="1"
       end_linecap_type="zerowidth"
       not_jump="false" />
    <inkscape:path-effect
       effect="powerstroke"
       id="path-effect4437"
       is_visible="true"
       lpeversion="1"
       offset_points="0,0.1322915"
       sort_points="true"
       interpolator_type="CubicBezierJohan"
       interpolator_beta="0.2"
       start_linecap_type="zerowidth"
       linejoin_type="extrp_arc"
       miter_limit="4"
       scale_width="1"
       end_linecap_type="zerowidth"
       not_jump="false" />
    <inkscape:path-effect
       effect="powerstroke"
       id="path-effect4432"
       is_visible="true"
       lpeversion="1"
       offset_points="0,0.1322915"
       sort_points="true"
       interpolator_type="CubicBezierJohan"
       interpolator_beta="0.2"
       start_linecap_type="zerowidth"
       linejoin_type="extrp_arc"
       miter_limit="4"
       scale_width="1"
       end_linecap_type="zerowidth"
       not_jump="false" />
    <inkscape:path-effect
       effect="powerstroke"
       id="path-effect4409"
       is_visible="true"
       lpeversion="1"
       offset_points="0,0.1322915"
       sort_points="true"
       interpolator_type="CubicBezierJohan"
       interpolator_beta="0.2"
       start_linecap_type="zerowidth"
       linejoin_type="extrp_arc"
       miter_limit="4"
       scale_width="1"
       end_linecap_type="zerowidth"
       not_jump="false" />
    <inkscape:path-effect
       effect="powerstroke"
       id="path-effect4404"
       is_visible="true"
       lpeversion="1"
       offset_points="0,0.1322915"
       sort_points="true"
       interpolator_type="CubicBezierJohan"
       interpolator_beta="0.2"
       start_linecap_type="zerowidth"
       linejoin_type="extrp_arc"
       miter_limit="4"
       scale_width="1"
       end_linecap_type="zerowidth"
       not_jump="false" />
    <inkscape:path-effect
       effect="powerstroke"
       id="path-effect3762"
       is_visible="true"
       lpeversion="1"
       offset_points="0,0.1322915"
       sort_points="true"
       interpolator_type="CubicBezierJohan"
       interpolator_beta="0.2"
       start_linecap_type="zerowidth"
       linejoin_type="extrp_arc"
       miter_limit="4"
       scale_width="1"
       end_linecap_type="zerowidth"
       not_jump="false" />
    <inkscape:path-effect
       effect="powerstroke"
       id="path-effect3758"
       is_visible="true"
       lpeversion="1"
       offset_points="0,0.1322915"
       sort_points="true"
       interpolator_type="CubicBezierJohan"
       interpolator_beta="0.2"
       start_linecap_type="zerowidth"
       linejoin_type="extrp_arc"
       miter_limit="4"
       scale_width="1"
       end_linecap_type="zerowidth"
       not_jump="false" />
    <linearGradient
       id="linearGradient3752"
       inkscape:swatch="solid">
      <stop
         style="stop-color:#000000;stop-opacity:1"
         offset="0"
         id="stop3750" />
    </linearGradient>
    <inkscape:path-effect
       effect="powerstroke"
       id="path-effect3740"
       is_visible="true"
       lpeversion="1"
       offset_points="0,0.1322915"
       sort_points="true"
       interpolator_type="CubicBezierJohan"
       interpolator_beta="0.2"
       start_linecap_type="zerowidth"
       linejoin_type="extrp_arc"
       miter_limit="4"
       scale_width="1"
       end_linecap_type="zerowidth"
       not_jump="false" />
    <inkscape:path-effect
       effect="powerstroke"
       id="path-effect3736"
       is_visible="true"
       lpeversion="1"
       offset_points="0,0.1322915"
       sort_points="true"
       interpolator_type="CubicBezierJohan"
       interpolator_beta="0.2"
       start_linecap_type="zerowidth"
       linejoin_type="extrp_arc"
       miter_limit="4"
       scale_width="1"
       end_linecap_type="zerowidth"
       not_jump="false" />
    <inkscape:path-effect
       effect="powerstroke"
       id="path-effect3708"
       is_visible="true"
       lpeversion="1"
       offset_points="0,0.1322915"
       sort_points="true"
       interpolator_type="CubicBezierJohan"
       interpolator_beta="0.2"
       start_linecap_type="zerowidth"
       linejoin_type="extrp_arc"
       miter_limit="4"
       scale_width="1"
       end_linecap_type="zerowidth"
       not_jump="false" />
    <inkscape:path-effect
       effect="powerstroke"
       id="path-effect3704"
       is_visible="true"
       lpeversion="1"
       offset_points="0,0.1322915"
       sort_points="true"
       interpolator_type="CubicBezierJohan"
       interpolator_beta="0.2"
       start_linecap_type="zerowidth"
       linejoin_type="extrp_arc"
       miter_limit="4"
       scale_width="1"
       end_linecap_type="zerowidth"
       not_jump="false" />
    <inkscape:path-effect
       effect="powerstroke"
       id="path-effect3700"
       is_visible="true"
       lpeversion="1"
       offset_points="0,0.1322915"
       sort_points="true"
       interpolator_type="CubicBezierJohan"
       interpolator_beta="0.2"
       start_linecap_type="zerowidth"
       linejoin_type="extrp_arc"
       miter_limit="4"
       scale_width="1"
       end_linecap_type="zerowidth"
       not_jump="false" />
    <inkscape:path-effect
       effect="powerstroke"
       id="path-effect3696"
       is_visible="true"
       lpeversion="1"
       offset_points="0,0.1322915"
       sort_points="true"
       interpolator_type="CubicBezierJohan"
       interpolator_beta="0.2"
       start_linecap_type="zerowidth"
       linejoin_type="extrp_arc"
       miter_limit="4"
       scale_width="1"
       end_linecap_type="zerowidth"
       not_jump="false" />
    <inkscape:path-effect
       effect="powerstroke"
       id="path-effect3692"
       is_visible="true"
       lpeversion="1"
       offset_points="0,0.072282983"
       sort_points="true"
       interpolator_type="CubicBezierJohan"
       interpolator_beta="0.2"
       start_linecap_type="zerowidth"
       linejoin_type="extrp_arc"
       miter_limit="4"
       scale_width="1"
       end_linecap_type="zerowidth"
       not_jump="false" />
    <inkscape:path-effect
       effect="powerstroke"
       id="path-effect3688"
       is_visible="true"
       lpeversion="1"
       offset_points="0,0.23231374"
       sort_points="true"
       interpolator_type="CubicBezierJohan"
       interpolator_beta="0.2"
       start_linecap_type="zerowidth"
       linejoin_type="extrp_arc"
       miter_limit="4"
       scale_width="1"
       end_linecap_type="zerowidth"
       not_jump="false" />
    <inkscape:path-effect
       effect="powerstroke"
       id="path-effect3684"
       is_visible="true"
       lpeversion="1"
       offset_points="0,0.1322915"
       sort_points="true"
       interpolator_type="CubicBezierJohan"
       interpolator_beta="0.2"
       start_linecap_type="zerowidth"
       linejoin_type="extrp_arc"
       miter_limit="4"
       scale_width="1"
       end_linecap_type="zerowidth"
       not_jump="false" />
    <inkscape:path-effect
       effect="powerstroke"
       id="path-effect3680"
       is_visible="true"
       lpeversion="1"
       offset_points="0,0.1322915"
       sort_points="true"
       interpolator_type="CubicBezierJohan"
       interpolator_beta="0.2"
       start_linecap_type="zerowidth"
       linejoin_type="extrp_arc"
       miter_limit="4"
       scale_width="1"
       end_linecap_type="zerowidth"
       not_jump="false" />
    <inkscape:path-effect
       effect="powerstroke"
       id="path-effect3676"
       is_visible="true"
       lpeversion="1"
       offset_points="0,0.1322915"
       sort_points="true"
       interpolator_type="CubicBezierJohan"
       interpolator_beta="0.2"
       start_linecap_type="zerowidth"
       linejoin_type="extrp_arc"
       miter_limit="4"
       scale_width="1"
       end_linecap_type="zerowidth"
       not_jump="false" />
    <inkscape:path-effect
       effect="powerstroke"
       id="path-effect3672"
       is_visible="true"
       lpeversion="1"
       offset_points="0,0.1322915"
       sort_points="true"
       interpolator_type="CubicBezierJohan"
       interpolator_beta="0.2"
       start_linecap_type="zerowidth"
       linejoin_type="extrp_arc"
       miter_limit="4"
       scale_width="1"
       end_linecap_type="zerowidth"
       not_jump="false" />
    <inkscape:path-effect
       effect="powerstroke"
       id="path-effect3668"
       is_visible="true"
       lpeversion="1"
       offset_points="0,0.1322915"
       sort_points="true"
       interpolator_type="CubicBezierJohan"
       interpolator_beta="0.2"
       start_linecap_type="zerowidth"
       linejoin_type="extrp_arc"
       miter_limit="4"
       scale_width="1"
       end_linecap_type="zerowidth"
       not_jump="false" />
    <inkscape:path-effect
       effect="powerstroke"
       id="path-effect3664"
       is_visible="true"
       lpeversion="1"
       offset_points="0,0.1322915"
       sort_points="true"
       interpolator_type="CubicBezierJohan"
       interpolator_beta="0.2"
       start_linecap_type="zerowidth"
       linejoin_type="extrp_arc"
       miter_limit="4"
       scale_width="1"
       end_linecap_type="zerowidth"
       not_jump="false" />
    <inkscape:path-effect
       effect="powerstroke"
       id="path-effect3646"
       is_visible="true"
       lpeversion="1"
       offset_points="0,0.1322915"
       sort_points="true"
       interpolator_type="CubicBezierJohan"
       interpolator_beta="0.2"
       start_linecap_type="zerowidth"
       linejoin_type="extrp_arc"
       miter_limit="4"
       scale_width="1"
       end_linecap_type="zerowidth"
       not_jump="false" />
    <inkscape:path-effect
       effect="powerstroke"
       id="path-effect3642"
       is_visible="true"
       lpeversion="1"
       offset_points="0,0.1322915"
       sort_points="true"
       interpolator_type="CubicBezierJohan"
       interpolator_beta="0.2"
       start_linecap_type="zerowidth"
       linejoin_type="extrp_arc"
       miter_limit="4"
       scale_width="1"
       end_linecap_type="zerowidth"
       not_jump="false" />
    <inkscape:path-effect
       effect="powerstroke"
       id="path-effect3638"
       is_visible="true"
       lpeversion="1"
       offset_points="0,0.1322915"
       sort_points="true"
       interpolator_type="CubicBezierJohan"
       interpolator_beta="0.2"
       start_linecap_type="zerowidth"
       linejoin_type="extrp_arc"
       miter_limit="4"
       scale_width="1"
       end_linecap_type="zerowidth"
       not_jump="false" />
    <inkscape:path-effect
       effect="powerstroke"
       id="path-effect3634"
       is_visible="true"
       lpeversion="1"
       offset_points="0,0.1322915"
       sort_points="true"
       interpolator_type="CubicBezierJohan"
       interpolator_beta="0.2"
       start_linecap_type="zerowidth"
       linejoin_type="extrp_arc"
       miter_limit="4"
       scale_width="1"
       end_linecap_type="zerowidth"
       not_jump="false" />
    <inkscape:path-effect
       effect="powerstroke"
       id="path-effect3630"
       is_visible="true"
       lpeversion="1"
       offset_points="0,0.1322915"
       sort_points="true"
       interpolator_type="CubicBezierJohan"
       interpolator_beta="0.2"
       start_linecap_type="zerowidth"
       linejoin_type="extrp_arc"
       miter_limit="4"
       scale_width="1"
       end_linecap_type="zerowidth"
       not_jump="false" />
    <inkscape:path-effect
       effect="powerstroke"
       id="path-effect3626"
       is_visible="true"
       lpeversion="1"
       offset_points="0,0.1322915"
       sort_points="true"
       interpolator_type="CubicBezierJohan"
       interpolator_beta="0.2"
       start_linecap_type="zerowidth"
       linejoin_type="extrp_arc"
       miter_limit="4"
       scale_width="1"
       end_linecap_type="zerowidth"
       not_jump="false" />
    <inkscape:path-effect
       effect="powerstroke"
       id="path-effect3622"
       is_visible="true"
       lpeversion="1"
       offset_points="0,0.1322915"
       sort_points="true"
       interpolator_type="CubicBezierJohan"
       interpolator_beta="0.2"
       start_linecap_type="zerowidth"
       linejoin_type="extrp_arc"
       miter_limit="4"
       scale_width="1"
       end_linecap_type="zerowidth"
       not_jump="false" />
    <inkscape:path-effect
       effect="powerstroke"
       id="path-effect3618"
       is_visible="true"
       lpeversion="1"
       offset_points="0,0.1322915"
       sort_points="true"
       interpolator_type="CubicBezierJohan"
       interpolator_beta="0.2"
       start_linecap_type="zerowidth"
       linejoin_type="extrp_arc"
       miter_limit="4"
       scale_width="1"
       end_linecap_type="zerowidth"
       not_jump="false" />
    <inkscape:path-effect
       effect="powerstroke"
       id="path-effect2415"
       is_visible="true"
       lpeversion="1"
       offset_points="0,0.1322915"
       sort_points="true"
       interpolator_type="CubicBezierJohan"
       interpolator_beta="0.2"
       start_linecap_type="zerowidth"
       linejoin_type="extrp_arc"
       miter_limit="4"
       scale_width="1"
       end_linecap_type="zerowidth"
       not_jump="false" />
    <inkscape:path-effect
       effect="powerstroke"
       id="path-effect2392"
       is_visible="true"
       lpeversion="1"
       offset_points="0,0.1322915"
       sort_points="true"
       interpolator_type="CubicBezierJohan"
       interpolator_beta="0.2"
       start_linecap_type="zerowidth"
       linejoin_type="extrp_arc"
       miter_limit="4"
       scale_width="1"
       end_linecap_type="zerowidth"
       not_jump="false" />
    <inkscape:path-effect
       effect="powerstroke"
       id="path-effect2378"
       is_visible="true"
       lpeversion="1"
       offset_points="0,0.098477779"
       sort_points="true"
       interpolator_type="CubicBezierJohan"
       interpolator_beta="0.2"
       start_linecap_type="zerowidth"
       linejoin_type="extrp_arc"
       miter_limit="4"
       scale_width="1"
       end_linecap_type="zerowidth"
       not_jump="false" />
    <inkscape:path-effect
       effect="powerstroke"
       id="path-effect4358"
       is_visible="true"
       lpeversion="1"
       offset_points="0,0.1322915"
       sort_points="true"
       interpolator_type="CubicBezierJohan"
       interpolator_beta="0.2"
       start_linecap_type="zerowidth"
       linejoin_type="extrp_arc"
       miter_limit="4"
       scale_width="1"
       end_linecap_type="zerowidth"
       not_jump="false" />
    <inkscape:path-effect
       effect="powerstroke"
       id="path-effect4578"
       is_visible="true"
       lpeversion="1"
       offset_points="0,0.1322915"
       sort_points="true"
       interpolator_type="CubicBezierJohan"
       interpolator_beta="0.2"
       start_linecap_type="zerowidth"
       linejoin_type="extrp_arc"
       miter_limit="4"
       scale_width="1"
       end_linecap_type="zerowidth"
       not_jump="false" />
    <inkscape:path-effect
       effect="powerstroke"
       id="path-effect5397"
       is_visible="true"
       lpeversion="1"
       offset_points="0,0.417374"
       sort_points="true"
       interpolator_type="CubicBezierJohan"
       interpolator_beta="0.2"
       start_linecap_type="zerowidth"
       linejoin_type="extrp_arc"
       miter_limit="4"
       scale_width="1"
       end_linecap_type="zerowidth"
       not_jump="false" />
  </defs>
  <sodipodi:namedview
     id="base"
     pagecolor="#ffffff"
     bordercolor="#666666"
     borderopacity="1.0"
     inkscape:pageopacity="0.0"
     inkscape:pageshadow="2"
     inkscape:zoom="0.7532793"
     inkscape:cx="234.97261"
     inkscape:cy="92.927019"
     inkscape:document-units="mm"
     inkscape:current-layer="layer1"
     inkscape:document-rotation="0"
     showgrid="false"
     inkscape:window-width="1534"
     inkscape:window-height="843"
     inkscape:window-x="66"
     inkscape:window-y="20"
     inkscape:window-maximized="1"
     showguides="true"
     inkscape:guide-bbox="true"
     inkscape:snap-global="false"
     inkscape:lockguides="false"
     borderlayer="true"
     inkscape:pagecheckerboard="true"
     fit-margin-top="0"
     fit-margin-left="0"
     fit-margin-right="0"
     fit-margin-bottom="0" />
  <metadata
     id="metadata1768">
    <rdf:RDF>
      <cc:Work
         rdf:about="">
        <dc:format>image/svg+xml</dc:format>
        <dc:type
           rdf:resource="http://purl.org/dc/dcmitype/StillImage" />
        <cc:license
           rdf:resource="http://creativecommons.org/licenses/by-sa/4.0/" />
      </cc:Work>
      <cc:License
         rdf:about="http://creativecommons.org/licenses/by-sa/4.0/">
        <cc:permits
           rdf:resource="http://creativecommons.org/ns#Reproduction" />
        <cc:permits
           rdf:resource="http://creativecommons.org/ns#Distribution" />
        <cc:requires
           rdf:resource="http://creativecommons.org/ns#Notice" />
        <cc:requires
           rdf:resource="http://creativecommons.org/ns#Attribution" />
        <cc:permits
           rdf:resource="http://creativecommons.org/ns#DerivativeWorks" />
        <cc:requires
           rdf:resource="http://creativecommons.org/ns#ShareAlike" />
      </cc:License>
    </rdf:RDF>
  </metadata>
  <g
     inkscape:groupmode="layer"
     id="layer5"
     inkscape:label="BG"
     transform="translate(-67.370351,-50.557144)" />
  <g
     inkscape:groupmode="layer"
     id="layer1"
     inkscape:label="Graphics"
     transform="translate(-67.370351,-50.557144)">
    <g
       id="g1711-5"
       transform="matrix(1.1704437,0,0,1.1704437,-6.5216081,-8.1732432)">
      <g
         transform="matrix(0.86111578,0,0,0.86111578,52.167575,32.177641)"
         id="g2836-9">
        <circle
           style="fill:#ffffff;stroke:#000000;stroke-width:2.548;stroke-linecap:round;stroke-linejoin:round"
           id="circle1646"
           cx="50.756901"
           cy="63.723625"
           r="30.45027" />
        <rect
           style="fill:#000000;stroke:#000000;stroke-width:1.1471;stroke-linecap:round;stroke-linejoin:round"
           id="rect2768-5"
           width="12.528028"
           height="2.2673905"
           x="44.492897"
           y="94.2276" />
        <path
           id="circle1384"
           style="fill:#ef2929;stroke-width:9.7062;stroke-linecap:round;stroke-linejoin:round"
           d="m 375.27148,238.22266 0.83594,43.10156 a 72.893433,72.893433 0 0 1 69.4043,52.78906 l 41.1289,-12.98242 C 476.26853,296.397 463.5168,276.90256 447.1582,263.04492 a 115.99539,115.99539 0 0 0 -53.03906,-23.30469 c -5.97887,-0.88606 -12.25303,-1.39793 -18.84766,-1.51757 z"
           transform="matrix(0.26251275,0,0,0.26251275,-47.810492,-29.2581)" />
        <circle
           style="fill:none;stroke:#000000;stroke-width:2.548;stroke-linecap:round;stroke-linejoin:round"
           id="circle2770-3"
           cx="50.756901"
           cy="63.723625"
           r="30.45027" />
        <circle
           style="fill:#e6e6e6;stroke:#000000;stroke-width:1.64959;stroke-linecap:round;stroke-linejoin:round"
           id="circle2772-9"
           cx="50.756912"
           cy="63.723625"
           r="19.135456" />
        <circle
           r="13.538689"
           cy="63.723625"
           cx="50.756912"
           id="circle2774-3"
           style="fill:#ffffff;stroke:#000000;stroke-width:2.32837;stroke-linecap:round;stroke-linejoin:round" />
        <g
           id="g2794-8"
           transform="matrix(0.46030519,0,0,0.46030519,4.0603771,-13.105717)">
          <rect
             y="107.51637"
             x="99.577057"
             height="11.894729"
             width="3.7397163"
             id="rect2790-5"
             style="fill:#a40000;stroke-width:0.515869;stroke-linecap:round;stroke-linejoin:round" />
          <rect
             style="fill:#000000;stroke:#000000;stroke-width:0.515869;stroke-linecap:round;stroke-linejoin:round"
             id="rect2792-0"
             width="3.7397163"
             height="11.894729"
             x="99.577057"
             y="214.40804" />
        </g>
        <g
           id="g2800-4"
           transform="matrix(0,0.46030519,-0.46030519,0,127.58625,17.02708)">
          <rect
             style="fill:#000000;stroke:#000000;stroke-width:0.515869;stroke-linecap:round;stroke-linejoin:round"
             id="rect2796-0"
             width="3.7397163"
             height="11.894729"
             x="99.577057"
             y="107.51637" />
          <rect
             y="214.40804"
             x="99.577057"
             height="11.894729"
             width="3.7397163"
             id="rect2798-8"
             style="fill:#000000;stroke:#000000;stroke-width:0.515869;stroke-linecap:round;stroke-linejoin:round" />
        </g>
        <g
           transform="matrix(0.39863599,0.23015259,-0.23015259,0.39863599,48.731196,-26.160809)"
           id="g2806-3">
          <rect
             y="107.51637"
             x="99.577057"
             height="11.894729"
             width="3.7397163"
             id="rect2802-5"
             style="fill:#a40000;stroke-width:0.515869;stroke-linecap:round;stroke-linejoin:round" />
          <rect
             style="fill:#000000;stroke:#000000;stroke-width:0.515869;stroke-linecap:round;stroke-linejoin:round"
             id="rect2804-4"
             width="3.7397163"
             height="11.894729"
             x="99.577057"
             y="214.40804" />
        </g>
        <g
           id="g2812-5"
           transform="matrix(0.2301526,0.39863599,-0.39863599,0.2301526,93.944799,-15.131439)">
          <rect
             style="fill:#a40000;stroke-width:0.515869;stroke-linecap:round;stroke-linejoin:round"
             id="rect2808-9"
             width="3.7397163"
             height="11.894729"
             x="99.577057"
             y="107.51637" />
          <rect
             y="214.40804"
             x="99.577057"
             height="11.894729"
             width="3.7397163"
             id="rect2810-4"
             style="fill:#000000;stroke:#000000;stroke-width:0.515869;stroke-linecap:round;stroke-linejoin:round" />
        </g>
        <g
           id="g2818-3"
           transform="matrix(0.39863599,-0.2301526,-0.2301526,-0.39863599,48.731188,153.60806)">
          <rect
             style="fill:#000000;stroke:#000000;stroke-width:0.515869;stroke-linecap:round;stroke-linejoin:round"
             id="rect2814-6"
             width="3.7397163"
             height="11.894729"
             x="99.577057"
             y="107.51637" />
          <rect
             y="214.40804"
             x="99.577057"
             height="11.894729"
             width="3.7397163"
             id="rect2816-3"
             style="fill:#000000;stroke:#000000;stroke-width:0.515869;stroke-linecap:round;stroke-linejoin:round" />
        </g>
        <g
           transform="matrix(0.2301526,-0.39863599,-0.39863599,-0.2301526,93.944799,142.57869)"
           id="g2824-4">
          <rect
             y="107.51637"
             x="99.577057"
             height="11.894729"
             width="3.7397163"
             id="rect2820-2"
             style="fill:#000000;stroke:#000000;stroke-width:0.515869;stroke-linecap:round;stroke-linejoin:round" />
          <rect
             style="fill:#000000;stroke:#000000;stroke-width:0.515869;stroke-linecap:round;stroke-linejoin:round"
             id="rect2822-0"
             width="3.7397163"
             height="11.894729"
             x="99.577057"
             y="214.40804" />
        </g>
        <g
           id="g2834-8"
           transform="matrix(0.80943613,0,0,0.80943613,-34.138382,-61.751711)">
          <g
             transform="translate(-1.3225403e-5)"
             id="g2830-8">
            <path
               style="fill:#000000;stroke:#000000;stroke-width:1.33505;stroke-linecap:round;stroke-linejoin:round"
               d="m 117.4686,110.40156 c 0,4.20819 -5.6352,3.04784 -12.58657,3.04784 -6.951375,0 -12.586575,1.16035 -12.586575,-3.04784 0,-4.2082 5.6352,-7.61961 12.586575,-7.61961 6.95137,0 12.58657,3.41141 12.58657,7.61961 z"
               id="path2826-0"
               inkscape:connector-curvature="0"
               sodipodi:nodetypes="sssss" />
            <path
               sodipodi:nodetypes="sssss"
               inkscape:connector-curvature="0"
               id="path2828-7"
               d="m 111.72856,109.47542 c 0,2.28907 -3.0653,1.65789 -6.84653,1.65789 -3.78124,0 -6.84654,0.63118 -6.84654,-1.65789 0,-2.28907 3.0653,-4.14473 6.84654,-4.14473 3.78123,0 6.84653,1.85566 6.84653,4.14473 z"
               style="fill:#ffffff;stroke:#000000;stroke-width:0.726209;stroke-linecap:round;stroke-linejoin:round" />
          </g>
          <rect
             y="109.90763"
             x="102.43897"
             height="6.0363479"
             width="4.8860836"
             id="rect2832-1"
             style="fill:#000000;stroke:#000000;stroke-width:1.27976;stroke-linecap:round;stroke-linejoin:round" />
        </g>
      </g>
      <g
         id="g3116-9"
         transform="matrix(0.69094709,0,0,0.69094709,-19.036391,38.070701)">
        <path
           d="m 163.86343,58.244791 -9.79232,10.020467 c -3.30857,4.097261 2.25164,3.620548 4.63521,4.800671 0.85502,0.873975 -3.27723,1.519069 -2.42221,2.393773 0.85503,0.873977 5.17024,1.683805 6.02672,2.557781 0.85502,0.873975 -1.75014,1.801164 -0.89512,2.675139 0.85503,0.873976 2.83259,0.04592 3.20288,2.063574 0.26387,1.441806 3.56369,0.619581 5.17752,-0.561269 0.85503,-0.874706 -1.63569,-0.792335 -0.78067,-1.666312 2.12626,-2.174371 4.10601,-0.790149 4.83347,-2.968892 0.35936,-1.076615 -3.12999,-1.659753 -2.2735,-2.533729 2.4601,-1.436701 10.96296,-2.371905 6.92839,-6.406481 L 168.35358,58.244791 c -1.24135,-1.191785 -3.31295,-1.204906 -4.49015,0 z m 11.24797,19.314932 c 0,0.497122 3.66282,0.822949 3.66282,-0.117357 -0.5219,-1.510323 -3.22984,-1.408274 -3.66282,0.117357 z m -16.49984,2.641606 c 0.86742,0.750061 2.20717,-0.186602 2.60881,-1.233333 -0.84045,-1.116706 -3.98647,0.04009 -2.60881,1.233333 z m 16.04063,-1.62039 c -1.11817,1.002995 0.12536,2.020568 1.22749,1.372557 0.24565,-0.249289 -0.006,-1.123266 -1.22749,-1.372557 z"
           id="path2313-8-9"
           inkscape:connector-curvature="0"
           style="fill:#000000;stroke-width:0.0728922" />
        <path
           d="m 161.51995,73.608245 c 0.26168,0.162548 4.21972,0.966547 5.187,1.126912 0.3353,0.07071 0.0977,0.416212 -0.36446,0.649467 -1.04235,0.276991 -6.09815,-1.776379 -4.82254,-1.776379 z"
           id="path2315-8-2"
           style="fill:#ffffff;stroke-width:0.0728922"
           inkscape:connector-curvature="0" />
        <path
           d="m 167.76169,58.94747 3.87422,3.934712 c 0.36737,0.375394 0.36227,1.102857 0.15671,1.312056 l -1.92361,-1.53875 -0.37831,2.278604 -1.60728,-0.848463 -2.57381,1.626221 -0.85211,-3.428111 -1.38276,2.392316 h -2.11387 c -0.86159,0 -0.9629,-1.09338 -0.18005,-1.876241 1.36746,-1.476064 2.93683,-2.980555 3.78967,-3.852344 0.8572,-0.876162 2.35076,-0.851379 3.1912,0 z"
           id="path2317-1-9"
           style="fill:#ffffff;stroke-width:0.0728922"
           inkscape:connector-curvature="0" />
      </g>
      <rect
         style="fill:#000000;fill-rule:evenodd;stroke:#000000;stroke-width:0.917754;stroke-linecap:square;stroke-linejoin:round;paint-order:fill markers stroke;stop-color:#000000"
         id="rect1676-9"
         width="6.1791983"
         height="1.7749915"
         x="92.785545"
         y="115.16336" />
    </g>
    <g
       id="g1504" />
  </g>
</svg>
