<?xml version="1.0" encoding="UTF-8" standalone="no"?>
<!-- Created with Inkscape (http://www.inkscape.org/) -->

<svg
   xmlns:dc="http://purl.org/dc/elements/1.1/"
   xmlns:cc="http://creativecommons.org/ns#"
   xmlns:rdf="http://www.w3.org/1999/02/22-rdf-syntax-ns#"
   xmlns:svg="http://www.w3.org/2000/svg"
   xmlns="http://www.w3.org/2000/svg"
   xmlns:sodipodi="http://sodipodi.sourceforge.net/DTD/sodipodi-0.dtd"
   xmlns:inkscape="http://www.inkscape.org/namespaces/inkscape"
   width="64"
   height="63.999996"
   viewBox="0 0 60 60"
   id="svg4197"
   version="1.1"
   inkscape:version="0.91 r13725"
   sodipodi:docname="inkscape_idea.svg"
   inkscape:export-filename="/home/doctormo/Desktop/inkscape_idea.png"
   inkscape:export-xdpi="450"
   inkscape:export-ydpi="450">
  <defs
     id="defs4199" />
  <sodipodi:namedview
     id="base"
     pagecolor="#ffffff"
     bordercolor="#666666"
     borderopacity="1.0"
     inkscape:pageopacity="0.0"
     inkscape:pageshadow="2"
     inkscape:zoom="1"
     inkscape:cx="31.878904"
     inkscape:cy="33.946232"
     inkscape:document-units="px"
     inkscape:current-layer="layer1"
     showgrid="false"
     showguides="false"
     inkscape:window-width="1855"
     inkscape:window-height="1056"
     inkscape:window-x="65"
     inkscape:window-y="24"
     inkscape:window-maximized="1"
     inkscape:guide-bbox="true"
     inkscape:snap-global="false"
     fit-margin-top="0"
     fit-margin-left="0"
     fit-margin-right="0"
     fit-margin-bottom="0"
     inkscape:pagecheckerboard="true"
     borderlayer="true"
     units="px">
    <sodipodi:guide
       position="229.19241,-282.22197"
       orientation="0,1"
       id="guide4855"
       inkscape:locked="false" />
    <sodipodi:guide
       position="176.90436,-137.45752"
       orientation="0,1"
       id="guide4857"
       inkscape:locked="false" />
    <sodipodi:guide
       position="138.87668,-237.71231"
       orientation="0,1"
       id="guide4859"
       inkscape:locked="false" />
    <sodipodi:guide
       position="214.4999,-38.067001"
       orientation="0,1"
       id="guide4861"
       inkscape:locked="false" />
  </sodipodi:namedview>
  <metadata
     id="metadata4202">
    <rdf:RDF>
      <cc:Work
         rdf:about="">
        <dc:format>image/svg+xml</dc:format>
        <dc:type
           rdf:resource="http://purl.org/dc/dcmitype/StillImage" />
        <dc:title></dc:title>
      </cc:Work>
    </rdf:RDF>
  </metadata>
  <g
     inkscape:label="Layer 1"
     inkscape:groupmode="layer"
     id="layer1"
     transform="translate(-162.31979,-109.90793)">
    <g
       id="g5955"
       transform="matrix(0.57990029,0,0,0.57990029,178.29903,111.28432)"
       style="fill:#292929;fill-opacity:1">
      <g
         id="g3"
         style="fill:#292929;fill-opacity:1">
        <path
           id="path5"
           d="m 38.024,81.513 c 0.712,0 1.289,-0.637 1.289,-1.42 l 0,-1.345 c 0,-0.783 -0.577,-1.42 -1.289,-1.42 l -20.073,0 c -0.713,0 -1.291,0.637 -1.291,1.42 l 0,1.345 c 0,0.783 0.578,1.42 1.291,1.42 l 20.073,0 z"
           inkscape:connector-curvature="0"
           style="fill:#292929;fill-opacity:1" />
      </g>
      <g
         id="g7"
         style="fill:#292929;fill-opacity:1">
        <path
           id="path9"
           d="m 38.024,87.632 c 0.712,0 1.289,-0.637 1.289,-1.422 l 0,-1.344 c 0,-0.784 -0.577,-1.421 -1.289,-1.421 l -20.073,0 c -0.713,0 -1.291,0.637 -1.291,1.421 l 0,1.344 c 0,0.785 0.578,1.422 1.291,1.422 l 20.073,0 z"
           inkscape:connector-curvature="0"
           style="fill:#292929;fill-opacity:1" />
      </g>
      <g
         id="g11"
         style="fill:#292929;fill-opacity:1">
        <path
           id="path13"
           d="m 38.024,93.75 c 0.712,0 1.289,-0.637 1.289,-1.421 l 0,-1.344 c 0,-0.785 -0.577,-1.422 -1.289,-1.422 l -20.073,0 c -0.713,0 -1.291,0.637 -1.291,1.422 l 0,1.344 c 0,0.784 0.578,1.421 1.291,1.421 l 20.073,0 z"
           inkscape:connector-curvature="0"
           style="fill:#292929;fill-opacity:1" />
      </g>
      <g
         id="g15"
         style="fill:#292929;fill-opacity:1">
        <path
           id="path17"
           d="m 34.601,95.89 c -1.212,2.416 -3.712,4.11 -6.598,4.11 -2.869,0 -5.41,-1.719 -6.632,-4.109 l 13.23,0 z"
           inkscape:connector-curvature="0"
           style="fill:#292929;fill-opacity:1" />
      </g>
      <path
         id="path19"
         d="M 28,0 C 12.545,0 0,12.544 0,28 c 0,5.089 1.41675,9.81575 3.71875,13.96875 6.873,12.382 8.6915,19.3325 9.8125,26.0625 0.941,5.64 2.27025,6.9375 6.53125,6.9375 l 1.03125,0 -1.03125,-14.53125 0,-0.03125 a 0.41040631,0.41040631 0 0 1 0,-0.03125 0.41040631,0.41040631 0 0 1 0.46875,-0.4375 c 0.806255,0.156379 1.612249,0.282314 2.40625,0.375 L 15.0625,25.90625 A 0.41040631,0.41040631 0 0 1 15.625,25.4375 c 10.563888,4.58756 18.726551,1.754685 26.3125,-0.96875 A 0.41040631,0.41040631 0 0 1 42,24.4375 0.41040631,0.41040631 0 0 1 42.46875,24.96875 L 32.9375,60.0625 c 0.515091,-0.07705 1.050006,-0.157832 1.5625,-0.25 a 0.41040631,0.41040631 0 0 1 0.46875,0.40625 l -0.9375,14.75 1.90625,0 c 4.262,0 5.559,-1.2985 6.5,-6.9375 1.121,-6.729 2.9395,-13.6805 9.8125,-26.0625 C 54.552,37.81575 55.96875,33.089 55.96875,28 55.96875,12.544 43.456,0 28,0 Z m 13.46875,25.5 c -7.240113,2.583331 -15.298133,5.059315 -25.4375,0.9375 l 7.6875,33.6875 c 3.003396,0.602503 5.569391,0.359874 8.375,-0.15625 L 41.46875,25.5 Z M 34.125,60.6875 c -4.258544,0.725434 -8.630152,0.939001 -13.21875,0.125 l 1,14.15625 6.09375,0 4.46875,0 c 0.263849,-0.05903 0.525214,-0.12001 0.78125,-0.1875 L 34.125,60.6875 Z"
         inkscape:connector-curvature="0"
         style="fill:#292929;fill-opacity:1" />
      <g
         style="fill:#292929;fill-opacity:1"
         id="layer1-5"
         inkscape:label="Calque 1"
         transform="matrix(0.48278265,0,0,0.48278265,-36.46276,-185.11175)" />
    </g>
    <g
       id="g5079"
       transform="matrix(0.26672026,0,0,0.26672026,180.79709,70.971281)"
       style="fill:#ffffff;stroke-width:2.62055945">
      <g
         style="fill:#ffffff;stroke-width:5.37040424"
         transform="matrix(0.21304811,0,0,0.21304811,10.404497,170.43035)"
         id="inkscape-logo">
        <path
           style="fill:#ffffff;fill-opacity:1;stroke-width:5.37040424"
           inkscape:connector-curvature="0"
           id="path2313"
           d="M 163.15,27.83 28.81,165.3 C -16.58,221.51 59.7,214.97 92.4,231.16 104.13,243.15 47.44,252 59.17,264 c 11.73,11.99 70.93,23.1 82.68,35.09 11.73,11.99 -24.01,24.71 -12.28,36.7 11.73,11.99 38.86,0.63 43.94,28.31 3.62,19.78 48.89,8.5 71.03,-7.7 11.73,-12 -22.44,-10.87 -10.71,-22.86 29.17,-29.83 56.33,-10.84 66.31,-40.73 4.93,-14.77 -42.94,-22.77 -31.19,-34.76 33.75,-19.71 150.4,-32.54 95.05,-87.89 L 224.75,27.83 c -17.03,-16.35 -45.45,-16.53 -61.6,0 z m 154.31,264.98 c 0,6.82 50.25,11.29 50.25,-1.61 -7.16,-20.72 -44.31,-19.32 -50.25,1.61 z M 91.1,329.05 c 11.9,10.29 30.28,-2.56 35.79,-16.92 -11.53,-15.32 -54.69,0.55 -35.79,16.92 z m 220.06,-22.23 c -15.34,13.76 1.72,27.72 16.84,18.83 3.37,-3.42 -0.09,-15.41 -16.84,-18.83 z" />
        <path
           inkscape:connector-curvature="0"
           style="fill:#292929;fill-opacity:1;stroke-width:5.37040424"
           id="path2315"
           d="m 131,238.6 c 3.59,2.23 57.89,13.26 71.16,15.46 4.6,0.97 1.34,5.71 -5,8.91 -14.3,3.8 -83.66,-24.37 -66.16,-24.37 z" />
        <path
           inkscape:connector-curvature="0"
           style="fill:#292929;fill-opacity:1;stroke-width:5.37040424"
           id="path2317"
           d="m 216.63,37.47 53.15,53.98 c 5.04,5.15 4.97,15.13 2.15,18 l -26.39,-21.11 -5.19,31.26 -22.05,-11.64 -35.31,22.31 -11.69,-47.03 -18.97,32.82 -29,0 c -11.82,0 -13.21,-15 -2.47,-25.74 18.76,-20.25 40.29,-40.89 51.99,-52.85 11.76,-12.02 32.25,-11.68 43.78,0 z" />
      </g>
    </g>
  </g>
</svg>
