<?xml version="1.0" encoding="UTF-8" standalone="no"?>
<!-- Created with Inkscape (http://www.inkscape.org/) -->

<svg
   xmlns:dc="http://purl.org/dc/elements/1.1/"
   xmlns:cc="http://creativecommons.org/ns#"
   xmlns:rdf="http://www.w3.org/1999/02/22-rdf-syntax-ns#"
   xmlns:svg="http://www.w3.org/2000/svg"
   xmlns="http://www.w3.org/2000/svg"
   xmlns:sodipodi="http://sodipodi.sourceforge.net/DTD/sodipodi-0.dtd"
   xmlns:inkscape="http://www.inkscape.org/namespaces/inkscape"
   width="35"
   height="35"
   viewBox="0 0 32.8125 32.812502"
   id="svg4197"
   version="1.1"
   inkscape:version="0.92.4 (unknown)"
   sodipodi:docname="inkscape_emoji.svg"
   inkscape:export-filename="/home/doctormo/Desktop/mountain.png"
   inkscape:export-xdpi="131.66"
   inkscape:export-ydpi="131.66">
  <defs
     id="defs4199" />
  <sodipodi:namedview
     id="base"
     pagecolor="#ffffff"
     bordercolor="#666666"
     borderopacity="1.0"
     inkscape:pageopacity="0.0"
     inkscape:pageshadow="2"
     inkscape:zoom="2.3141041"
     inkscape:cx="-127.67388"
     inkscape:cy="-88.038994"
     inkscape:document-units="px"
     inkscape:current-layer="layer1"
     showgrid="false"
     showguides="false"
     inkscape:window-width="1855"
     inkscape:window-height="1056"
     inkscape:window-x="65"
     inkscape:window-y="24"
     inkscape:window-maximized="1"
     inkscape:guide-bbox="true"
     inkscape:snap-global="false"
     fit-margin-top="0"
     fit-margin-left="0"
     fit-margin-right="0"
     fit-margin-bottom="0"
     inkscape:pagecheckerboard="true"
     borderlayer="true"
     units="px">
    <sodipodi:guide
       position="214.52107,-291.55057"
       orientation="0,1"
       id="guide4855"
       inkscape:locked="false" />
    <sodipodi:guide
       position="162.23302,-146.78612"
       orientation="0,1"
       id="guide4857"
       inkscape:locked="false" />
    <sodipodi:guide
       position="124.20534,-247.04091"
       orientation="0,1"
       id="guide4859"
       inkscape:locked="false" />
    <sodipodi:guide
       position="199.82856,-47.395599"
       orientation="0,1"
       id="guide4861"
       inkscape:locked="false" />
  </sodipodi:namedview>
  <metadata
     id="metadata4202">
    <rdf:RDF>
      <cc:Work
         rdf:about="">
        <dc:format>image/svg+xml</dc:format>
        <dc:type
           rdf:resource="http://purl.org/dc/dcmitype/StillImage" />
        <dc:title></dc:title>
      </cc:Work>
    </rdf:RDF>
  </metadata>
  <g
     inkscape:label="Layer 1"
     inkscape:groupmode="layer"
     id="layer1"
     transform="translate(-176.99113,-127.76683)">
    <g
       id="g5079"
       transform="matrix(0.3815979,0,0,0.3815979,173.43412,63.27847)"
       style="stroke-width:2.62055945">
      <path
         id="path5071"
         transform="matrix(0.93750002,0,0,0.93750002,144.76645,63.145892)"
         d="M -99.322266,116.44727 C -102.25535,116.44327 -105.16428,117.52398 -107.30859,119.71875 L -137.88867,151.00977 -137.93167,151.06447 C -140.63049,154.40664 -141.79117,157.05865 -141.38284,159.46682 -140.97451,161.875 -138.96993,163.35221 -136.77933,164.28127 -132.79035,165.97302 -127.52591,166.66682 -124.1387,167.97268 -124.76568,168.37367 -125.64329,168.84332 -126.72269,169.34377 -127.99988,169.93592 -129.31535,170.51241 -130.3555,171.32033 -130.87558,171.7243 -131.40259,172.19939 -131.64065,173.03127 -131.87872,173.86315 -131.51404,174.89658 -130.93753,175.48635 -129.91103,176.53561 -128.47712,177.15494 -126.73245,177.84377 -124.98778,178.5326 -122.9527,179.19539 -120.93753,179.85158 -118.92236,180.50777 -116.92807,181.15886 -115.31644,181.79494 -113.7048,182.43104 -112.45636,183.14678 -112.14847,183.46096 -111.99933,183.61407 -112.02962,183.62049 -112.03128,183.60549 -112.03328,183.59029 -112.02058,183.63889 -112.10748,183.81447 -112.21317,184.02796 -112.64546,184.47726 -112.98444,184.86135 L -113.2774,184.47072 C -114.27765,183.14168 -115.84253,182.60294 -117.34186,182.4883 -118.84118,182.37366 -120.36853,182.6534 -121.711,183.21096 -123.05346,183.76851 -124.28471,184.57712 -124.89264,185.95314 -125.1966,186.64117 -125.27733,187.49603 -125.03522,188.28322 -124.7931,189.07041 -124.28085,189.75678 -123.59186,190.35354 L -123.58986,190.35554 C -121.71502,191.97673 -119.16411,191.74897 -117.27541,190.71101 -116.73171,190.41221 -116.302,189.94714 -115.82619,189.54109 -115.82919,189.66755 -115.90909,189.75768 -115.89459,189.88874 -115.81649,190.59413 -115.45222,191.27679 -114.93951,191.80085 -113.03683,193.74573 -110.45143,193.66178 -108.65631,194.08991 -107.75875,194.30398 -107.05793,194.5841 -106.54303,195.03523 -106.02813,195.48634 -105.60001,196.13363 -105.35748,197.45515 -105.04761,199.14831 -103.64202,200.33343 -102.13678,200.76765 -100.63153,201.20188 -98.936544,201.14929 -97.148498,200.85745 -93.572403,200.27384 -89.630498,198.67503 -86.855529,196.64456 L -86.755919,196.57226 -86.668029,196.48436 C -86.2117,196.01752 -85.839504,195.49625 -85.712951,194.81248 -85.586397,194.12873 -85.840294,193.38118 -86.185607,192.93553 -86.876234,192.04421 -87.665273,191.79499 -88.302794,191.48631 -88.679139,191.30409 -88.738163,191.25596 -88.925841,191.13865 -85.959193,188.19315 -83.31215,187.69355 -80.666076,187.0781 -79.316143,186.76413 -77.939023,186.43303 -76.662169,185.59568 -75.385315,184.75834 -74.328532,183.39622 -73.681701,181.45896 -73.419809,180.67436 -73.527714,179.78757 -73.851622,179.12889 -74.175531,178.47019 -74.647376,177.98765 -75.154357,177.56443 -76.168321,176.71799 -77.398644,176.08371 -78.517638,175.4785 -79.503825,174.94511 -80.267532,174.46082 -80.714904,174.1035 -78.986648,173.21091 -76.41418,172.2704 -73.349669,171.26951 -69.985316,170.1707 -66.296879,168.98532 -63.154357,167.49021 -60.011835,165.9951 -57.281034,164.22288 -56.18756,161.46092 -55.640824,160.07995 -55.615164,158.47401 -56.18366,156.8906 -56.750708,155.3112 -57.852977,153.73345 -59.52155,152.06248 L -59.53135,152.05078 -91.181741,119.70117 -91.199321,119.68357 C -93.433088,117.539 -96.389279,116.45135 -99.322368,116.44725 Z M -65.615234,175.75195 C -68.574132,175.85382 -71.7165,177.41437 -72.613281,180.57422 L -72.669921,180.77539 V 180.98438 C -72.669921,181.54174 -72.40108,182.00201 -72.15039,182.27734 -71.899699,182.55268 -71.647958,182.71435 -71.396483,182.85156 -70.893533,183.12599 -70.358326,183.29679 -69.748046,183.44922 -68.527484,183.75405 -67.029319,183.93707 -65.503905,183.98047 -63.978492,184.02387 -62.45316,183.93567 -61.138671,183.57617 -60.481426,183.39642 -59.862137,183.15838 -59.302733,182.71094 -58.743331,182.26349 -58.249999,181.47055 -58.249999,180.61719 V 180.36523 L -58.332029,180.12695 C -59.410561,177.00585 -62.656334,175.65005 -65.615232,175.75195 Z M -73.041016,182.54688 -73.603516,183.05078 C -74.671748,184.00899 -75.328464,185.11725 -75.449219,186.2832 -75.569974,187.44916 -75.093088,188.57264 -74.326172,189.31445 -72.792342,190.79806 -70.239897,191.04917 -68.013672,189.74023 L -67.84375,189.64063 -67.705078,189.49806 C -67.116001,188.90023 -66.971431,188.14112 -67.017578,187.45899 -67.063718,186.77688 -67.305202,186.11028 -67.71875,185.48243 -68.545845,184.22672 -70.080759,183.15252 -72.300781,182.69923 Z"
         style="color:#000000;font-style:normal;font-variant:normal;font-weight:normal;font-stretch:normal;font-size:medium;line-height:normal;font-family:sans-serif;text-indent:0;text-align:start;text-decoration:none;text-decoration-line:none;text-decoration-style:solid;text-decoration-color:#000000;letter-spacing:normal;word-spacing:normal;text-transform:none;writing-mode:lr-tb;direction:ltr;baseline-shift:baseline;text-anchor:start;white-space:normal;clip-rule:nonzero;display:inline;overflow:visible;visibility:visible;opacity:1;isolation:auto;mix-blend-mode:normal;color-interpolation:sRGB;color-interpolation-filters:linearRGB;solid-color:#000000;solid-opacity:1;fill:#ffffff;fill-opacity:1;fill-rule:nonzero;stroke:none;stroke-width:7.8616786;stroke-linecap:butt;stroke-linejoin:miter;stroke-miterlimit:4;stroke-dasharray:none;stroke-dashoffset:0;stroke-opacity:1;color-rendering:auto;image-rendering:auto;shape-rendering:auto;text-rendering:auto;enable-background:accumulate"
         inkscape:connector-curvature="0" />
      <g
         style="stroke-width:5.37040424"
         transform="matrix(0.21304811,0,0,0.21304811,10.404497,170.43035)"
         id="inkscape-logo">
        <path
           style="fill:#292929;fill-opacity:1;stroke-width:5.37040424"
           inkscape:connector-curvature="0"
           id="path2313"
           d="M 163.15,27.83 28.81,165.3 C -16.58,221.51 59.7,214.97 92.4,231.16 104.13,243.15 47.44,252 59.17,264 70.9,275.99 130.1,287.1 141.85,299.09 153.58,311.08 117.84,323.8 129.57,335.79 141.3,347.78 168.43,336.42 173.51,364.1 177.13,383.88 222.4,372.6 244.54,356.4 256.27,344.4 222.1,345.53 233.83,333.54 263,303.71 290.16,322.7 300.14,292.81 305.07,278.04 257.2,270.04 268.95,258.05 302.7,238.34 419.35,225.51 364,170.16 L 224.75,27.83 C 207.72,11.48 179.3,11.3 163.15,27.83 Z M 317.46,292.81 C 317.46,299.63 367.71,304.1 367.71,291.2 360.55,270.48 323.4,271.88 317.46,292.81 Z M 91.1,329.05 C 103,339.34 121.38,326.49 126.89,312.13 115.36,296.81 72.2,312.68 91.1,329.05 Z M 311.16,306.82 C 295.82,320.58 312.88,334.54 328,325.65 331.37,322.23 327.91,310.24 311.16,306.82 Z" />
        <path
           inkscape:connector-curvature="0"
           style="fill:#ffffff;stroke-width:5.37040424"
           id="path2315"
           d="M 131,238.6 C 134.59,240.83 188.89,251.86 202.16,254.06 206.76,255.03 203.5,259.77 197.16,262.97 182.86,266.77 113.5,238.6 131,238.6 Z" />
        <path
           inkscape:connector-curvature="0"
           style="fill:#ffffff;stroke-width:5.37040424"
           id="path2317"
           d="M 216.63,37.47 269.78,91.45 C 274.82,96.6 274.75,106.58 271.93,109.45 L 245.54,88.34 240.35,119.6 218.3,107.96 182.99,130.27 171.3,83.24 152.33,116.06 H 123.33 C 111.51,116.06 110.12,101.06 120.86,90.32 139.62,70.07 161.15,49.43 172.85,37.47 184.61,25.45 205.1,25.79 216.63,37.47 Z" />
      </g>
    </g>
  </g>
</svg>
