<?xml version="1.0" encoding="UTF-8" standalone="no"?>
<!-- Created with Inkscape (http://www.inkscape.org/) -->

<svg
   xmlns:dc="http://purl.org/dc/elements/1.1/"
   xmlns:cc="http://creativecommons.org/ns#"
   xmlns:rdf="http://www.w3.org/1999/02/22-rdf-syntax-ns#"
   xmlns:svg="http://www.w3.org/2000/svg"
   xmlns="http://www.w3.org/2000/svg"
   xmlns:xlink="http://www.w3.org/1999/xlink"
   xmlns:sodipodi="http://sodipodi.sourceforge.net/DTD/sodipodi-0.dtd"
   xmlns:inkscape="http://www.inkscape.org/namespaces/inkscape"
   width="64"
   height="63.999996"
   viewBox="0 0 60 60"
   id="svg4197"
   version="1.1"
   inkscape:version="0.92.4 (unknown)"
   sodipodi:docname="contest_0.47.svg"
   inkscape:export-filename="/home/doctormo/Desktop/contest_icon_047.png"
   inkscape:export-xdpi="285"
   inkscape:export-ydpi="285">
  <defs
     id="defs4199">
    <linearGradient
       id="linearGradient1441">
      <stop
         style="stop-color:#8b7304;stop-opacity:1;"
         offset="0"
         id="stop1437" />
      <stop
         style="stop-color:#fce88b;stop-opacity:1"
         offset="1"
         id="stop1439" />
    </linearGradient>
    <clipPath
       clipPathUnits="userSpaceOnUse"
       id="clipPath5856-1-7">
      <path
         style="color:#000000;display:inline;overflow:visible;visibility:visible;fill:#ffffff;fill-opacity:1;fill-rule:evenodd;stroke:#000000;stroke-width:2.7243309;stroke-linecap:square;stroke-linejoin:round;stroke-miterlimit:4;stroke-dashoffset:0;stroke-opacity:1;marker:none;enable-background:accumulate"
         d="m 379.77379,545.55232 c -11.93661,9.13817 -27.51793,21.08095 -40.55847,34.05414 -13.97449,13.9023 -24.38081,28.90465 -24.72331,41.05226 -3e-4,0.0109 2.9e-4,0.0231 0,0.034 0.0645,17.98209 14.55802,32.43657 32.55576,32.43657 8.92889,0 16.95291,-3.56127 22.85032,-9.36489 1.37903,-1.3559 3.69147,-1.63706 5.35524,-0.65113 l 4.53553,0.01 4.53553,0.01 c 1.66064,-0.98024 3.96428,-0.70058 5.34213,0.64852 5.89535,5.7903 13.91848,9.34786 22.83329,9.34786 17.99781,0 32.49129,-14.45447 32.55576,-32.43656 4e-5,-0.0114 -3e-5,-0.0226 0,-0.034 -0.34247,-12.14761 -10.74882,-27.14996 -24.7233,-41.05226 -13.04055,-12.97319 -28.62185,-24.91597 -40.55848,-34.05414 z"
         id="path5858-7-7"
         inkscape:connector-curvature="0"
         sodipodi:nodetypes="csccscccccsccsc" />
    </clipPath>
    <clipPath
       id="clipPath2634-3"
       clipPathUnits="userSpaceOnUse">
      <path
         inkscape:connector-curvature="0"
         style="color:#000000;display:inline;overflow:visible;visibility:visible;fill:url(#radialGradient2638);fill-opacity:1;stroke:#000000;stroke-width:0.5;stroke-linecap:butt;stroke-linejoin:miter;stroke-miterlimit:4;stroke-dasharray:none;stroke-dashoffset:0;stroke-opacity:1;marker:none;enable-background:accumulate"
         d="m 242.21993,473.39513 -50.31606,19.03835 c 30.04092,50.39014 87.75847,81.19602 149.79412,73.93812 53.99683,-6.31739 98.14869,-39.95078 120.29006,-85.46329 l -51.74757,-14.71144 c -15.59755,25.71606 -42.46083,44.23374 -74.64678,47.99935 -37.48312,4.38536 -72.58102,-12.35944 -93.37377,-40.80109 z"
         id="path2636-0"
         inkscape:transform-center-x="-2.624496"
         inkscape:transform-center-y="100.38458" />
    </clipPath>
    <linearGradient
       id="linearGradient2620-5">
      <stop
         id="stop2622-2"
         offset="0"
         style="stop-color:#9c8b4e;stop-opacity:1;" />
      <stop
         id="stop2624-0"
         offset="1"
         style="stop-color:#9c8b4e;stop-opacity:0;" />
    </linearGradient>
    <linearGradient
       id="linearGradient1775-1-7">
      <stop
         id="stop1777-8-8"
         offset="0"
         style="stop-color:#8b7304;stop-opacity:1;" />
      <stop
         id="stop1779-4-04"
         offset="1"
         style="stop-color:#a98c05;stop-opacity:0;" />
    </linearGradient>
    <radialGradient
       inkscape:collect="always"
       xlink:href="#linearGradient6104"
       id="radialGradient8343"
       gradientUnits="userSpaceOnUse"
       gradientTransform="matrix(3.0374656,0.02448502,-0.02278618,2.8267168,-410.38781,-407.02918)"
       cx="314.07788"
       cy="285.21307"
       fx="314.07788"
       fy="285.21307"
       r="181.95744" />
    <linearGradient
       id="linearGradient6104">
      <stop
         style="stop-color:#000000;stop-opacity:1;"
         offset="0"
         id="stop6106" />
      <stop
         id="stop6112"
         offset="0.89907664"
         style="stop-color:#000000;stop-opacity:1;" />
      <stop
         style="stop-color:#ffffff;stop-opacity:1;"
         offset="0.94650239"
         id="stop6114" />
      <stop
         style="stop-color:#000000;stop-opacity:1;"
         offset="1"
         id="stop6108" />
    </linearGradient>
    <radialGradient
       inkscape:collect="always"
       xlink:href="#linearGradient3330"
       id="radialGradient8345"
       gradientUnits="userSpaceOnUse"
       gradientTransform="matrix(0.9239672,-1.1410507e-6,1.1410511e-6,0.9239676,29.837119,10.142549)"
       cx="392.42615"
       cy="133.39169"
       fx="392.42615"
       fy="133.39169"
       r="10.705333" />
    <linearGradient
       id="linearGradient3330">
      <stop
         style="stop-color:#ffffff;stop-opacity:1;"
         offset="0"
         id="stop3332" />
      <stop
         id="stop3338"
         offset="0.97785771"
         style="stop-color:#ffffff;stop-opacity:1;" />
      <stop
         style="stop-color:#ff6600;stop-opacity:1;"
         offset="1"
         id="stop3334" />
    </linearGradient>
    <marker
       inkscape:stockid="Arrow1Lend"
       orient="auto"
       refY="0"
       refX="0"
       id="Arrow1Lend"
       style="overflow:visible">
      <path
         inkscape:connector-curvature="0"
         id="path3376"
         d="m 0,0 5,-5 -17.5,5 17.5,5 z"
         style="fill-rule:evenodd;stroke:#000000;stroke-width:1.00000003pt;marker-start:none"
         transform="matrix(-0.8,0,0,-0.8,-10,0)" />
    </marker>
    <marker
       inkscape:stockid="Arrow1Lstart"
       orient="auto"
       refY="0"
       refX="0"
       id="Arrow1Lstart"
       style="overflow:visible">
      <path
         inkscape:connector-curvature="0"
         id="path5364"
         d="m 0,0 5,-5 -17.5,5 17.5,5 z"
         style="fill-rule:evenodd;stroke:#000000;stroke-width:1.00000003pt;marker-start:none"
         transform="matrix(0.8,0,0,0.8,10,0)" />
    </marker>
    <marker
       inkscape:stockid="Arrow1Lend"
       orient="auto"
       refY="0"
       refX="0"
       id="marker1400"
       style="overflow:visible">
      <path
         inkscape:connector-curvature="0"
         id="path1398"
         d="m 0,0 5,-5 -17.5,5 17.5,5 z"
         style="fill-rule:evenodd;stroke:#000000;stroke-width:1.00000003pt;marker-start:none"
         transform="matrix(-0.8,0,0,-0.8,-10,0)" />
    </marker>
    <marker
       inkscape:stockid="Arrow1Lstart"
       orient="auto"
       refY="0"
       refX="0"
       id="marker1404"
       style="overflow:visible">
      <path
         inkscape:connector-curvature="0"
         id="path1402"
         d="m 0,0 5,-5 -17.5,5 17.5,5 z"
         style="fill-rule:evenodd;stroke:#000000;stroke-width:1.00000003pt;marker-start:none"
         transform="matrix(0.8,0,0,0.8,10,0)" />
    </marker>
    <marker
       inkscape:stockid="Arrow1Lstart"
       orient="auto"
       refY="0"
       refX="0"
       id="marker1408"
       style="overflow:visible">
      <path
         inkscape:connector-curvature="0"
         id="path1406"
         d="m 0,0 5,-5 -17.5,5 17.5,5 z"
         style="fill-rule:evenodd;stroke:#000000;stroke-width:1.00000003pt;marker-start:none"
         transform="matrix(0.8,0,0,0.8,10,0)" />
    </marker>
    <marker
       inkscape:stockid="Arrow1Lend"
       orient="auto"
       refY="0"
       refX="0"
       id="marker1412"
       style="overflow:visible">
      <path
         inkscape:connector-curvature="0"
         id="path1410"
         d="m 0,0 5,-5 -17.5,5 17.5,5 z"
         style="fill-rule:evenodd;stroke:#000000;stroke-width:1.00000003pt;marker-start:none"
         transform="matrix(-0.8,0,0,-0.8,-10,0)" />
    </marker>
  </defs>
  <sodipodi:namedview
     id="base"
     pagecolor="#ffffff"
     bordercolor="#666666"
     borderopacity="1.0"
     inkscape:pageopacity="0.0"
     inkscape:pageshadow="2"
     inkscape:zoom="11.083332"
     inkscape:cx="24.706475"
     inkscape:cy="29.883959"
     inkscape:document-units="px"
     inkscape:current-layer="layer1"
     showgrid="false"
     showguides="true"
     inkscape:window-width="1855"
     inkscape:window-height="1056"
     inkscape:window-x="65"
     inkscape:window-y="24"
     inkscape:window-maximized="1"
     inkscape:guide-bbox="true"
     inkscape:snap-global="false"
     fit-margin-top="0"
     fit-margin-left="0"
     fit-margin-right="0"
     fit-margin-bottom="0"
     inkscape:pagecheckerboard="true"
     borderlayer="true"
     units="px">
    <sodipodi:guide
       position="229.19241,-282.22197"
       orientation="0,1"
       id="guide4855"
       inkscape:locked="false" />
    <sodipodi:guide
       position="176.90436,-137.45752"
       orientation="0,1"
       id="guide4857"
       inkscape:locked="false" />
    <sodipodi:guide
       position="138.87668,-237.71231"
       orientation="0,1"
       id="guide4859"
       inkscape:locked="false" />
    <sodipodi:guide
       position="214.4999,-38.067001"
       orientation="0,1"
       id="guide4861"
       inkscape:locked="false" />
  </sodipodi:namedview>
  <metadata
     id="metadata4202">
    <rdf:RDF>
      <cc:Work
         rdf:about="">
        <dc:format>image/svg+xml</dc:format>
        <dc:type
           rdf:resource="http://purl.org/dc/dcmitype/StillImage" />
        <dc:title></dc:title>
      </cc:Work>
    </rdf:RDF>
  </metadata>
  <g
     inkscape:label="Layer 1"
     inkscape:groupmode="layer"
     id="layer1"
     transform="translate(-162.31979,-109.90793)">
    <g
       id="g8318"
       transform="matrix(0.17511497,0,0,0.17511497,89.253363,113.9624)">
      <g
         id="g9080">
        <g
           id="g6091"
           transform="matrix(0.2184636,0,0,0.2184636,466.97472,145.80299)">
          <path
             inkscape:connector-curvature="0"
             id="path6077"
             d="m 163.15,27.83 -134.34,137.47 c -45.39,56.21 30.89,49.67 63.59,65.86 11.73,11.99 -44.96,20.84 -33.23,32.84 11.73,11.99 70.93,23.1 82.68,35.09 11.73,11.99 -24.01,24.71 -12.28,36.7 11.73,11.99 38.86,0.63 43.94,28.31 3.62,19.78 48.89,8.5 71.03,-7.7 11.73,-12 -22.44,-10.87 -10.71,-22.86 29.17,-29.83 56.33,-10.84 66.31,-40.73 4.93,-14.77 -42.94,-22.77 -31.19,-34.76 33.75,-19.71 150.4,-32.54 95.05,-87.89 l -139.25,-142.33 c -17.03,-16.35 -45.45,-16.53 -61.6,0 z m 154.31,264.98 c 0,6.82 50.25,11.29 50.25,-1.61 -7.16,-20.72 -44.31,-19.32 -50.25,1.61 z m -226.36,36.24 c 11.9,10.29 30.28,-2.56 35.79,-16.92 -11.53,-15.32 -54.69,0.55 -35.79,16.92 z m 220.06,-22.23 c -15.34,13.76 1.72,27.72 16.84,18.83 3.37,-3.42 -0.09,-15.41 -16.84,-18.83 z"
             style="fill:url(#radialGradient8343);fill-opacity:1" />
          <path
             inkscape:connector-curvature="0"
             id="path6079"
             d="m 131,238.6 c 3.59,2.23 57.89,13.26 71.16,15.46 4.6,0.97 1.34,5.71 -5,8.91 -14.3,3.8 -83.66,-24.37 -66.16,-24.37 z"
             style="fill:#ffffff" />
          <path
             inkscape:connector-curvature="0"
             id="path6081"
             d="m 216.63,37.47 53.15,53.98 c 5.04,5.15 4.97,15.13 2.15,18 l -26.39,-21.11 -5.19,31.26 -22.05,-11.64 -35.31,22.31 -11.69,-47.03 -18.97,32.82 h -29 c -11.82,0 -13.21,-15 -2.47,-25.74 18.76,-20.25 40.29,-40.89 51.99,-52.85 11.76,-12.02 32.25,-11.68 43.78,0 z"
             style="fill:#ffffff" />
        </g>
        <circle
           r="10.642833"
           cy="133.39169"
           cx="392.42615"
           transform="matrix(6.7948295,0,0,6.7948295,-2155.0712,-717.69454)"
           id="path3331"
           style="fill:none;fill-opacity:1;stroke:#000000;stroke-width:0.27088937;stroke-linecap:round;stroke-miterlimit:4;stroke-dasharray:none;stroke-opacity:1" />
        <circle
           r="10.642833"
           cy="133.39169"
           cx="392.42615"
           transform="matrix(8.8967233,0,0,8.8967233,-2841.7305,-1046.114)"
           id="path3343"
           style="display:inline;fill:#cccccc;fill-opacity:1;stroke:none;stroke-width:0.11240093;stroke-linecap:round;stroke-miterlimit:4;stroke-dasharray:none;stroke-opacity:1" />
        <circle
           r="10.642833"
           cy="133.39169"
           cx="392.42615"
           style="display:inline;fill:url(#radialGradient8345);fill-opacity:1;stroke:#000000;stroke-width:0.11240093;stroke-linecap:round;stroke-miterlimit:4;stroke-dasharray:none;stroke-opacity:1"
           id="path3344"
           transform="matrix(8.8967233,0,0,8.8967233,-2862.5366,-1059.6096)" />
        <path
           inkscape:connector-curvature="0"
           style="display:inline;fill:#000000;fill-opacity:1;stroke:none;stroke-width:2;stroke-linecap:round;stroke-miterlimit:4;stroke-opacity:1"
           d="m 613.73864,46.363841 c 31.64065,33.12299 63.9244,65.519729 96.3971,98.405269 l 1.92358,3.02329 -96.87745,-98.565384 z"
           id="rect3352"
           sodipodi:nodetypes="ccccc" />
        <path
           inkscape:connector-curvature="0"
           sodipodi:nodetypes="ccccc"
           id="path3356"
           d="m 642.04047,42.850344 c -32.0714,32.731675 -61.4077,66.212856 -95.70252,97.683116 l -2.48454,2.51643 c 35.65965,-30.99276 65.29172,-64.87169 96.18289,-97.176252 z"
           style="display:inline;fill:#000000;fill-opacity:1;stroke:none;stroke-width:2;stroke-linecap:round;stroke-miterlimit:4;stroke-opacity:1" />
        <path
           inkscape:connector-curvature="0"
           sodipodi:nodetypes="ccccc"
           id="path3358"
           d="m 651.82882,143.72544 52.08275,-20.46567 3.41075,-0.43894 -52.24287,20.30555 z"
           style="display:inline;fill:#000000;fill-opacity:1;stroke:none;stroke-width:2;stroke-linecap:round;stroke-miterlimit:4;stroke-opacity:1" />
        <path
           inkscape:connector-curvature="0"
           style="display:inline;fill:#000000;fill-opacity:1;stroke:none;stroke-width:2;stroke-linecap:round;stroke-miterlimit:4;stroke-opacity:1"
           d="m 594.62918,135.49762 -44.36309,-12.61701 -3.41075,-0.27882 44.36309,12.61701 z"
           id="path3360"
           sodipodi:nodetypes="ccccc" />
        <path
           inkscape:connector-curvature="0"
           sodipodi:nodetypes="ccccc"
           id="path3362"
           d="m 664.23278,76.823394 c -26.87244,-14.984868 -51.34648,-10.65073 -73.48897,-0.554313 l -3.22642,1.18343 c 29.899,-17.942426 58.4939,-12.431288 80.57039,0.687925 z"
           style="display:inline;fill:#000000;fill-opacity:1;stroke:none;stroke-width:2;stroke-linecap:round;stroke-miterlimit:4;stroke-opacity:1" />
        <path
           inkscape:connector-curvature="0"
           style="display:inline;fill:#000000;fill-opacity:1;stroke:none;stroke-width:2;stroke-linecap:round;stroke-miterlimit:4;stroke-opacity:1"
           d="m 579.68508,96.414691 c -15.06795,19.441009 -10.80956,37.187199 -0.7817,53.256619 l 1.17346,2.34087 c -17.37011,-22.27375 -12.4064,-42.49529 0.93719,-58.388279 z"
           id="path3364"
           sodipodi:nodetypes="ccccc" />
        <path
           inkscape:connector-curvature="0"
           sodipodi:nodetypes="ccccc"
           id="path3366"
           d="m 674.44268,153.8736 c 16.39044,-20.2419 13.36175,-39.41932 4.45514,-57.024619 l -1.01049,-2.55342 c 16.34158,24.497249 9.20548,46.018599 -4.96449,62.516219 z"
           style="display:inline;fill:#000000;fill-opacity:1;stroke:none;stroke-width:2;stroke-linecap:round;stroke-miterlimit:4;stroke-opacity:1" />
        <path
           inkscape:connector-curvature="0"
           style="display:inline;fill:none;fill-rule:evenodd;stroke:#000000;stroke-width:1;stroke-linecap:butt;stroke-linejoin:miter;stroke-miterlimit:4;stroke-dasharray:8, 8;stroke-dashoffset:4.19999981;stroke-opacity:1;marker-start:url(#Arrow1Lend);marker-end:url(#Arrow1Lstart)"
           d="m 627.01138,14.184107 0.37791,229.738933"
           id="path3368"
           sodipodi:nodetypes="cc" />
        <path
           inkscape:connector-curvature="0"
           sodipodi:nodetypes="cc"
           id="path4760"
           d="m 514.63682,125.78761 222.33675,-0.37791"
           style="display:inline;fill:none;fill-rule:evenodd;stroke:#000000;stroke-width:1;stroke-linecap:butt;stroke-linejoin:miter;stroke-miterlimit:4;stroke-dasharray:8, 8;stroke-dashoffset:0;stroke-opacity:1;marker-start:url(#Arrow1Lend);marker-end:url(#Arrow1Lstart)" />
        <path
           transform="matrix(8.8967233,0,0,8.8967233,-2862.5366,-1059.6096)"
           d="m 379.83069,133.20745 a 12.596805,12.596805 0 0 1 12.28039,-12.40862"
           sodipodi:ry="12.596805"
           sodipodi:rx="12.596805"
           sodipodi:cy="133.39169"
           sodipodi:cx="392.42615"
           id="path4762"
           style="display:inline;fill:none;fill-opacity:1;stroke:#000000;stroke-width:0.11240093;stroke-linecap:round;stroke-miterlimit:4;stroke-dasharray:none;stroke-opacity:1;marker-start:url(#Arrow1Lstart);marker-mid:none;marker-end:url(#Arrow1Lend)"
           sodipodi:type="arc"
           sodipodi:start="3.1562196"
           sodipodi:end="4.6873744"
           sodipodi:open="true" />
        <g
           style="display:inline"
           id="g4259"
           transform="matrix(0.323659,0,0,0.323659,563.96941,60.989618)">
          <path
             inkscape:connector-curvature="0"
             d="m 163.15,27.83 -134.34,137.47 c -45.39,56.21 30.89,49.67 63.59,65.86 11.73,11.99 -44.96,20.84 -33.23,32.84 11.73,11.99 70.93,23.1 82.68,35.09 11.73,11.99 -24.01,24.71 -12.28,36.7 11.73,11.99 38.86,0.63 43.94,28.31 3.62,19.78 48.89,8.5 71.03,-7.7 11.73,-12 -22.44,-10.87 -10.71,-22.86 29.17,-29.83 56.33,-10.84 66.31,-40.73 4.93,-14.77 -42.94,-22.77 -31.19,-34.76 33.75,-19.71 150.4,-32.54 95.05,-87.89 l -139.25,-142.33 c -17.03,-16.35 -45.45,-16.53 -61.6,0 z m 154.31,264.98 c 0,6.82 50.25,11.29 50.25,-1.61 -7.16,-20.72 -44.31,-19.32 -50.25,1.61 z m -226.36,36.24 c 11.9,10.29 30.28,-2.56 35.79,-16.92 -11.53,-15.32 -54.69,0.55 -35.79,16.92 z m 220.06,-22.23 c -15.34,13.76 1.72,27.72 16.84,18.83 3.37,-3.42 -0.09,-15.41 -16.84,-18.83 z"
             id="path2313"
             style="fill:#000000;fill-opacity:1;stroke:#000000;stroke-width:3.08967161;stroke-miterlimit:4;stroke-dasharray:none;stroke-opacity:1" />
          <path
             inkscape:connector-curvature="0"
             style="fill:#ffffff;fill-opacity:1;stroke:none;stroke-width:3.08967161;stroke-miterlimit:4;stroke-dasharray:none;stroke-opacity:1"
             d="m 191.28125,17.59375 c -4.36153,-0.45596 -7.51084,1.514693 -8.99331,5.786559 -41.33556,65.21698 -82.671126,130.433961 -124.00669,195.650941 5.094327,0.28803 12.326699,5.89464 14.305231,-1.47094 42.252419,-66.54094 84.504849,-133.081874 126.757269,-199.62281 -2.66966,-0.341025 -5.36985,-0.533855 -8.0625,-0.34375 z m -113.28125,206.3125 c 3.751113,1.09521 7.455847,2.28162 11.0625,3.75 42.89025,-67.60579 85.82516,-135.198604 128.6875,-202.8125 -3.10567,-2.103779 -6.60561,-3.80072 -10.21875,-5.03125 -43.17708,68.03125 -86.35417,136.0625 -129.53125,204.09375 z m 94.3125,-200.6875 c -11.59607,7.754169 -19.89851,19.542877 -30.15625,28.96875 -34.21875,53.96875 -68.4375,107.9375 -102.65625,161.90625 3.647898,0.35212 9.182964,4.55481 11.602169,1.18588 40.69511,-64.18696 81.390221,-128.373921 122.085331,-192.56088 l -0.86824,0.496139 z m -76.8125,209.28125 c 2.131623,5.47936 -4.154576,8.85876 -7.410755,11.78187 -5.300581,8.35396 -10.601163,16.70792 -15.901745,25.06188 3.916267,0.78652 9.694004,6.5084 11.361557,0.18487 49.139893,-77.45746 98.279793,-154.91491 147.419693,-232.37237 -4.64001,-6.78976 -8.71689,-8.143177 -11.76103,0.473261 -41.23591,64.956829 -82.47181,129.913659 -123.70772,194.870489 z m -6.28125,43.1875 c 4.954343,0.8826 11.95038,7.02681 13.9582,-0.47302 47.26394,-74.56108 94.52787,-149.12215 141.7918,-223.68323 -4.36781,-4.39444 -9.10585,-12.349367 -11.99846,-2.55698 -47.91718,75.57108 -95.83436,151.14215 -143.75154,226.71323 z m 19.03125,6.28125 c 4.081,0.65183 9.12112,4.52205 12.50448,3.31186 46.26934,-72.92687 92.53868,-145.85374 138.80802,-218.78061 -4.2307,-3.330712 -9.19233,-13.616084 -12.05866,-3.965249 -46.41795,73.144669 -92.83589,146.289329 -139.25384,219.433999 z m 19.71875,7.09375 c 3.42087,1.38303 6.69709,2.89007 9.90625,4.71875 45.10417,-71.125 90.20833,-142.25 135.3125,-213.375 -4.26481,-4.444947 -8.82918,-11.700891 -11.5926,-2.057228 -44.54205,70.237828 -89.0841,140.475648 -133.62615,210.713478 z m -45,-176.34375 c -19.8125,31.28125 -39.625,62.5625 -59.4375,93.84375 2.566971,1.96832 5.348121,3.41285 8.28125,4.6875 27.822917,-43.86458 55.645833,-87.72917 83.46875,-131.59375 -10.77083,11.020833 -21.541667,22.04167 -32.3125,33.0625 z m 61.21875,186.0625 c 5.46629,6.98191 -1.76407,14.87638 -6.6661,19.62298 -3.28824,4.0122 -10.9207,9.18389 -7.30265,15.12702 2.7166,4.86589 4.37961,-2.67613 6.37831,-4.66217 49.76973,-78.4772 99.53946,-156.95439 149.30919,-235.43158 -4.66505,-6.766095 -8.75471,-8.104903 -11.78948,0.506285 -43.30976,68.279155 -86.61951,136.558305 -129.92927,204.837465 z m -4.5625,40.21875 c 3.751,0.5787 8.84335,3.02605 11.97319,1.53059 49.31102,-77.72895 98.62204,-155.45789 147.93306,-233.18684 -4.26479,-4.44493 -8.82868,-11.700572 -11.59439,-2.05836 -49.43729,77.90487 -98.87457,155.80974 -148.31186,233.71461 z m 19.59375,4.5625 c 3.41645,1.23763 6.66924,3.08157 9.25,5.71875 48.22917,-76.01042 96.45833,-152.02083 144.6875,-228.03125 -4.2648,-4.44494 -8.82888,-11.7007 -11.59367,-2.05791 -47.44795,74.79014 -94.89589,149.58027 -142.34383,224.37041 z m 14.0625,13.25 c 1.96532,3.38071 1.50391,7.81849 3.875,10.875 49.44792,-77.9375 98.89583,-155.875 148.34375,-233.8125 -4.58991,-6.9458 -8.47873,-7.34453 -11.44389,0.88245 -46.92495,74.01835 -93.84991,148.0367 -140.77486,222.05505 z m 10.78125,14.96875 c 4.72933,0.74112 11.61396,2.94532 13.24157,-3.44043 22.54965,-35.87501 45.80238,-71.49415 67.91468,-107.52832 1.31711,-4.51378 5.90513,-6.96848 7.53964,-11.53395 21.73678,-34.21785 43.47357,-68.4357 65.21036,-102.65355 -4.61225,-6.89516 -8.5559,-7.53789 -11.54062,0.78681 -47.45521,74.78981 -94.91042,149.57963 -142.36563,224.36944 z m -153.03125,-205.875 c -5.145487,10.2856 -16.680639,19.58375 -13.78125,32.125 1.721811,4.86698 5.33122,-6.92824 7.780023,-8.81889 10.354576,-16.31037 20.709151,-32.62074 31.063727,-48.93111 -8.354167,8.54167 -16.708333,17.08333 -25.0625,25.625 z m 250.84375,84 c 6.05348,-2.60639 13.69867,-2.96764 15.99798,-10.25582 17.18818,-27.11265 34.37635,-54.22529 51.56452,-81.33793 -4.65821,-8.11785 -8.03404,-4.18274 -11.10683,2.60044 -18.81856,29.66444 -37.63711,59.32887 -56.45567,88.99331 z m 24.15625,-8.3125 c 6.0431,-2.68035 14.51304,-2.32475 16.996,-9.59735 12.92842,-20.3738 25.85683,-40.7476 38.78525,-61.1214 -4.58909,-6.94528 -8.47918,-7.34482 -11.44834,0.87963 -14.77764,23.27971 -29.55527,46.55941 -44.33291,69.83912 z m 26.03125,-8.9375 c 6.71352,-3.13221 15.69497,-3.90447 18.43614,-11.91166 7.34613,-11.99813 15.73736,-23.99677 22.43886,-35.99459 -1.70738,-2.10044 -4.03389,-7.95571 -6.0976,-6.99896 -11.59246,18.30174 -23.18493,36.60347 -34.7774,54.90521 z m 29.09375,-13.78125 c 8.11022,-5.19279 16.73208,-13.5187 15.25,-24.0625 -5.08333,8.02083 -10.16667,16.04167 -15.25,24.0625 z m -287.3125,31.78125 c -4.763301,2.9224 -12.23977,4.52371 -14.3125,10.09375 0.881457,2.73239 5.909064,7.1977 6.976405,2.52567 1.889667,-3.53933 7.881949,-11.33376 7.336095,-12.61942 z m 131.0625,120.5 c 5.55135,-1.41325 12.61363,-1.44155 14.62668,-8.03124 3.74873,-6.70583 9.75561,-13.74275 12.15457,-20.25001 -4.63748,-3.55939 -1.40131,-9.85742 2.5,-12.46875 5.15612,-5.80435 13.34968,-8.34202 16.28295,-16.1007 8.63485,-13.62268 17.2697,-27.24537 25.90455,-40.86805 -3.046,-0.57663 -6.82892,-7.03905 -8.32621,-1.7795 -21.04752,33.16608 -42.09503,66.33217 -63.14254,99.49825 z m 54.59375,-56.1875 c 5.78812,-2.58007 13.98408,-1.2588 16.24693,-8.50301 5.15728,-8.124 10.31455,-16.24799 15.47182,-24.37199 -3.0622,-1.24971 -7.7328,-7.16103 -9.48276,-2.1547 -7.412,11.67657 -14.82399,23.35313 -22.23599,35.0297 z m 72.125,-18.59375 c 4.69248,0.17303 11.303,3.12157 12.90708,-3.34079 2.67707,-4.34708 5.81819,-8.83221 8.21792,-13.09671 -4.4581,-1.27152 -10.77725,-3.54785 -12.39506,2.66093 -2.90998,4.59219 -5.81996,9.18438 -8.72994,13.77657 z m 0.21875,-15.8125 c -5.35887,2.07951 -11.36287,6.80032 -12.03125,12.46875 2.77093,2.60083 4.86021,0.50517 6.06658,-2.65122 1.80484,-3.04826 5.21681,-7.66137 5.96467,-9.81753 z m 19.53125,16.625 c 5.08361,-0.56805 12.7759,-0.66299 13.5,-7.15625 -1.36826,-2.2597 -4.97342,-9.10943 -6.60642,-3.71634 -2.29786,3.62419 -4.59572,7.24839 -6.89358,10.87259 z m -67.21875,10.96875 c 7.57199,-2.89378 14.20168,-10.69045 14.09375,-18.90625 -1.94869,-4.37972 -4.64763,6.01276 -6.86166,7.50711 -2.4107,3.79971 -4.82139,7.59943 -7.23209,11.39914 z m -182.625,22.59375 c 10.2389,-0.81926 19.48648,-9.43306 22.75,-18.5 -2.9381,-2.5449 -9.1839,-6.48293 -10.67023,-0.58869 -4.02659,6.36289 -8.05318,12.72579 -12.07977,19.08869 z m 4.21875,-22.25 c -6.629743,1.39365 -16.446467,4.42774 -17.375,12.375 0.163893,3.2076 2.644172,5.72673 5.0625,7.53125 3.976135,-6.60436 9.01096,-13.41007 12.3125,-19.90625 z m 205.59375,0.875 c -2.54375,2.57932 -5.00893,6.39437 -3.96875,10.25 0.38391,-2.22346 10.0011,-11.89003 3.96875,-10.25 z m 1.8125,16.125 c 4.85548,1.87823 12.87322,1.47728 13.65625,-5.09375 -0.93063,-3.01843 -3.07879,-5.67079 -5.71875,-7.4375 -2.64583,4.17708 -5.29167,8.35417 -7.9375,12.53125 z m -84.1875,37.65625 c 5.58451,-3.23413 12.7817,-5.20162 16,-11 -0.0836,-2.80041 -3.90939,-3.70379 -5.90625,-5 -3.36458,5.33333 -6.72917,10.66667 -10.09375,16 z"
             id="path2819" />
          <path
             inkscape:connector-curvature="0"
             d="m 131,238.6 c 3.59,2.23 57.89,13.26 71.16,15.46 4.6,0.97 1.34,5.71 -5,8.91 -14.3,3.8 -83.66,-24.37 -66.16,-24.37 z"
             id="path2315"
             style="fill:#ffffff;stroke:#000000;stroke-width:3.08967161;stroke-miterlimit:4;stroke-dasharray:none;stroke-opacity:1" />
          <path
             inkscape:connector-curvature="0"
             d="m 216.63,37.47 53.15,53.98 c 5.04,5.15 4.97,15.13 2.15,18 l -26.39,-21.11 -5.19,31.26 -22.05,-11.64 -35.31,22.31 -11.69,-47.03 -18.97,32.82 h -29 c -11.82,0 -13.21,-15 -2.47,-25.74 18.76,-20.25 40.29,-40.89 51.99,-52.85 11.76,-12.02 32.25,-11.68 43.78,0 z"
             id="path2317"
             style="fill:#ffffff;stroke:#000000;stroke-width:3.08967161;stroke-miterlimit:4;stroke-dasharray:none;stroke-opacity:1" />
        </g>
        <path
           inkscape:connector-curvature="0"
           style="font-style:normal;font-variant:normal;font-weight:normal;font-stretch:normal;font-size:13px;line-height:125%;font-family:'Domestic Manners';text-align:start;writing-mode:lr-tb;text-anchor:start;display:inline;fill:#000000;fill-opacity:1;stroke:none;stroke-width:1px;stroke-linecap:butt;stroke-linejoin:miter;stroke-opacity:1"
           d="m 533.23126,37.694904 c -0.28777,0.16928 -0.90137,0.336434 -1.84082,0.501465 -0.84213,0.143888 -1.42399,0.366056 -1.7456,0.666504 -0.0846,0.901374 -0.24757,1.931809 -0.48877,3.091309 -0.0254,0.118494 -0.25603,1.138349 -0.6919,3.05957 0.24121,0.152345 0.60514,0.245444 1.0918,0.279297 0.38932,0.0085 0.77864,0.01904 1.16797,0.03174 -0.2793,0.651693 -0.96485,0.977539 -2.05664,0.977539 -0.0889,0 -0.22429,-0.0042 -0.40625,-0.0127 -0.17774,-0.0127 -0.31104,-0.01904 -0.3999,-0.01904 -0.16505,0 -0.40837,0.03385 -0.72999,0.101562 -0.32161,0.06348 -0.56282,0.09522 -0.72363,0.09522 -0.33854,0 -0.56494,-0.198893 -0.6792,-0.596679 0.10156,-0.224284 0.31738,-0.361816 0.64746,-0.412598 0.28353,-0.02962 0.56706,-0.05924 0.85059,-0.08887 0.29622,-0.06771 0.47396,-0.239094 0.5332,-0.51416 0.0169,-0.16927 0.0508,-0.42106 0.10157,-0.755372 0.0889,-0.473955 0.2412,-1.074866 0.45703,-1.802734 0.29622,-0.994461 0.44433,-1.813308 0.44433,-2.456543 0,-0.270826 -0.019,-0.543775 -0.0571,-0.818848 -0.0339,0.0085 -0.16081,0.04233 -0.38086,0.101563 -0.15234,0.04233 -0.2793,0.06348 -0.38086,0.06348 -0.3597,7e-6 -0.52051,-0.262363 -0.48242,-0.78711 1.73079,-0.791332 3.06592,-1.187002 4.00537,-1.187012 0.67285,10e-6 1.26106,0.160817 1.76465,0.482422 m 4.29102,6.227051 c -10e-6,1.3584 -0.38087,2.594075 -1.14258,3.707031 -0.0592,0.02539 -0.11426,0.03809 -0.16504,0.03809 -0.15235,-1e-6 -0.30681,-0.107911 -0.46338,-0.32373 -0.14388,-0.203126 -0.21582,-0.385092 -0.21582,-0.545899 0,-0.355468 0.27295,-0.725748 0.81885,-1.110839 0.14811,-0.482421 0.22216,-1.066405 0.22217,-1.751954 -10e-6,-0.571286 -0.0466,-0.992346 -0.13965,-1.263183 -0.15235,-0.457027 -0.45281,-0.685543 -0.90137,-0.685547 -0.64746,4e-6 -1.21029,0.378747 -1.68848,1.13623 -0.2539,0.406253 -0.56282,1.112958 -0.92675,2.120118 -0.27507,0.757487 -0.49089,1.13623 -0.64746,1.13623 -0.42318,0 -0.63477,-0.429524 -0.63477,-1.288574 0,-0.304686 0.0508,-0.823077 0.15234,-1.555176 0.1058,-0.732093 0.15869,-1.235673 0.1587,-1.510742 -10e-6,-0.08886 -0.004,-0.171382 -0.0127,-0.247559 0.36393,0.09734 0.64958,0.279301 0.85693,0.545899 0,0.03386 -0.004,0.101566 -0.0127,0.203125 -0.004,0.08464 -0.006,0.152347 -0.006,0.203125 0,0.122725 0.0317,0.222171 0.0952,0.29834 0.55859,-0.782874 0.92252,-1.256832 1.09179,-1.421875 0.46549,-0.457026 0.9987,-0.685542 1.59961,-0.685547 0.68978,5e-6 1.20817,0.34701 1.55518,1.041015 0.27082,0.537439 0.40624,1.191247 0.40625,1.961426 m 2.50097,0.06348 c 0.49089,-0.08887 1.10026,-0.442218 1.82813,-1.060059 0.5332,-0.503577 1.06852,-1.007157 1.60596,-1.510742 0.14387,5e-6 0.27082,0.07406 0.38086,0.222168 0.0804,0.131189 0.1608,0.26449 0.24121,0.399902 0.008,0.325851 -0.15024,0.630538 -0.47608,0.914063 -0.33431,0.236982 -0.66862,0.471845 -1.00293,0.70459 -0.40625,0.291994 -0.66651,0.583986 -0.78076,0.875976 0.5332,0.291994 1.46842,0.552247 2.80567,0.780762 -0.27508,0.461263 -0.72153,0.691895 -1.33936,0.691894 -0.18197,10e-7 -0.45492,-0.02539 -0.81885,-0.07617 -0.36393,-0.05078 -0.639,-0.07617 -0.82519,-0.07617 -0.072,0 -0.14177,0.0021 -0.20948,0.0063 -0.26237,-0.131184 -0.39355,-0.442219 -0.39355,-0.933105 -0.26237,0.05501 -0.60726,0.27295 -1.03467,0.653808 -0.0212,0.02116 -0.32585,0.321615 -0.91406,0.901368 -0.0127,-0.0085 -0.12061,-0.06136 -0.32373,-0.158692 -0.14811,-0.06771 -0.22217,-0.14388 -0.22217,-0.228515 0,-0.723632 0.28353,-1.815428 0.85059,-3.275391 0.56705,-1.459956 0.85058,-2.579258 0.85058,-3.35791 0,-0.283522 -0.0212,-0.569166 -0.0635,-0.856934 l 0.23486,-0.234863 c 0.33007,0.304695 0.49511,0.742683 0.49512,1.313965 -10e-6,0.313157 -0.0487,0.683437 -0.146,1.11084 -0.0931,0.359705 -0.18408,0.721521 -0.27295,1.085449 l -0.46973,2.107422 m 9.40088,-6.150879 c 0,0.588224 -0.21794,1.085456 -0.65381,1.491699 -0.43164,0.402025 -0.94157,0.603034 -1.52978,0.603027 -0.49512,7e-6 -0.92464,-0.162916 -1.28857,-0.488769 -0.38087,-0.334303 -0.57129,-0.7469 -0.57129,-1.237793 0,-0.18619 0.0487,-0.359692 0.14599,-0.520508 0.44011,-0.719392 1.11084,-1.079092 2.01221,-1.079102 0.45703,1e-5 0.86328,0.112152 1.21875,0.336426 0.15234,0.09311 0.2941,0.222177 0.42529,0.387207 0.1608,0.194671 0.24121,0.363941 0.24121,0.507813 m -0.84423,-0.126953 c -0.52898,-0.173494 -0.87598,-0.260245 -1.04102,-0.260254 -0.28353,9e-6 -0.53109,0.07195 -0.74268,0.21582 -0.24121,0.165048 -0.36181,0.382984 -0.36181,0.653809 0,0.512051 0.33007,0.768073 0.99023,0.768066 0.32161,7e-6 0.59668,-0.116366 0.8252,-0.349121 0.22851,-0.236971 0.34277,-0.516268 0.34277,-0.837891 0,-0.05924 -0.004,-0.122712 -0.0127,-0.190429"
           id="text5968" />
      </g>
    </g>
    <text
       id="text2881"
       y="166.83646"
       x="189.29372"
       style="font-size:13.19804382px;line-height:0%;font-family:'Rothenburg Decorative';-inkscape-font-specification:'Rothenburg Decorative';letter-spacing:0px;word-spacing:0px;fill:#ffffff;fill-opacity:1;stroke:#000000;stroke-width:1.28865027;stroke-linecap:butt;stroke-linejoin:miter;stroke-miterlimit:4;stroke-dasharray:none;stroke-opacity:1"
       xml:space="preserve"><tspan
         style="font-style:normal;font-variant:normal;font-weight:normal;font-stretch:normal;font-size:12.09759045px;line-height:10;font-family:'Arial Black';-inkscape-font-specification:'Arial Black, ';fill:#ffffff;fill-opacity:1;stroke:#000000;stroke-width:1.28865027;stroke-miterlimit:4;stroke-dasharray:none;stroke-opacity:1"
         y="166.83646"
         x="189.29372"
         id="tspan2879"
         sodipodi:role="line">0.47</tspan></text>
    <text
       xml:space="preserve"
       style="font-size:13.19804382px;line-height:0%;font-family:'Rothenburg Decorative';-inkscape-font-specification:'Rothenburg Decorative';letter-spacing:0px;word-spacing:0px;fill:#ffffff;fill-opacity:1;stroke:#ff6600;stroke-width:0.64520484;stroke-linecap:butt;stroke-linejoin:miter;stroke-miterlimit:4;stroke-dasharray:none;stroke-opacity:1"
       x="189.29372"
       y="166.83646"
       id="text9523"><tspan
         sodipodi:role="line"
         id="tspan9525"
         x="189.29372"
         y="166.83646"
         style="font-style:normal;font-variant:normal;font-weight:normal;font-stretch:normal;font-size:12.09759045px;line-height:10;font-family:'Arial Black';-inkscape-font-specification:'Arial Black, ';fill:#ffffff;fill-opacity:1;stroke:#ff6600;stroke-width:0.64520484;stroke-miterlimit:4;stroke-dasharray:none;stroke-opacity:1">0.47</tspan></text>
  </g>
</svg>
