<?xml version="1.0" encoding="UTF-8" standalone="no"?>
<svg
   width="750"
   height="312.10501"
   viewBox="0 0 749.99999 312.10503"
   version="1.1"
   id="svg40"
   sodipodi:docname="inkscape_contribution_alert.svg"
   inkscape:version="1.1 (1:1.1+202105261517+ce6663b3b7)"
   inkscape:export-filename="/home/njan/Dropbox/New Ub 2021/Existing Pics/Inksplash/Culture Art.png"
   inkscape:export-xdpi="96"
   inkscape:export-ydpi="96"
   xmlns:inkscape="http://www.inkscape.org/namespaces/inkscape"
   xmlns:sodipodi="http://sodipodi.sourceforge.net/DTD/sodipodi-0.dtd"
   xmlns:xlink="http://www.w3.org/1999/xlink"
   xmlns="http://www.w3.org/2000/svg"
   xmlns:svg="http://www.w3.org/2000/svg"
   xmlns:rdf="http://www.w3.org/1999/02/22-rdf-syntax-ns#"
   xmlns:cc="http://creativecommons.org/ns#"
   xmlns:dc="http://purl.org/dc/elements/1.1/">
  <title
     id="title1109">Culture Art</title>
  <defs
     id="defs34">
    <inkscape:path-effect
       effect="spiro"
       id="path-effect3053"
       is_visible="true"
       lpeversion="1" />
    <inkscape:path-effect
       effect="spiro"
       id="path-effect3049"
       is_visible="true"
       lpeversion="1" />
    <inkscape:path-effect
       effect="spiro"
       id="path-effect2320"
       is_visible="true"
       lpeversion="1" />
    <inkscape:path-effect
       effect="spiro"
       id="path-effect2316"
       is_visible="true"
       lpeversion="1" />
    <linearGradient
       id="WhiteTransparent"
       gradientUnits="userSpaceOnUse">
      <stop
         style="stop-color:white;stop-opacity:1"
         offset="0"
         id="stop7" />
      <stop
         style="stop-color:white;stop-opacity:0"
         offset="1"
         id="stop9" />
    </linearGradient>
    <linearGradient
       id="IcecapTip"
       xlink:href="#WhiteTransparent"
       x1="60"
       y1="20"
       x2="90"
       y2="50"
       gradientUnits="userSpaceOnUse" />
    <linearGradient
       gradientUnits="userSpaceOnUse"
       id="linearGradient5785">
      <stop
         id="stop5787"
         offset="0"
         style="stop-color:#c0cdf9;stop-opacity:1" />
      <stop
         id="stop5789"
         offset="1"
         style="stop-color:#07092d;stop-opacity:0.28804347" />
    </linearGradient>
    <linearGradient
       gradientUnits="userSpaceOnUse"
       y2="60"
       x2="58"
       y1="35"
       x1="33"
       xlink:href="#WhiteTransparent"
       id="shinySpecular-4"
       gradientTransform="matrix(1.009184,0,0,1.009184,-0.3890738,-0.3831933)" />
  </defs>
  <sodipodi:namedview
     id="base"
     pagecolor="#d6d6d6"
     bordercolor="#666666"
     borderopacity="1.0"
     inkscape:pageopacity="0"
     inkscape:pageshadow="2"
     inkscape:zoom="0.8128"
     inkscape:cx="602.23917"
     inkscape:cy="268.20866"
     inkscape:document-units="px"
     inkscape:current-layer="layer2"
     inkscape:document-rotation="0"
     showgrid="false"
     units="px"
     inkscape:pagecheckerboard="true"
     showguides="true"
     inkscape:guide-bbox="true"
     inkscape:window-width="1534"
     inkscape:window-height="843"
     inkscape:window-x="66"
     inkscape:window-y="20"
     inkscape:window-maximized="1"
     inkscape:snap-global="false"
     inkscape:snap-bbox="true"
     inkscape:bbox-paths="true"
     inkscape:bbox-nodes="true"
     inkscape:snap-page="true"
     inkscape:snap-nodes="true">
    <sodipodi:guide
       position="0,0"
       orientation="1,0"
       inkscape:label="Page border"
       inkscape:locked="true"
       inkscape:color="#cc0000"
       id="guide2054" />
    <sodipodi:guide
       position="0,625"
       orientation="0,1"
       inkscape:label="Page border"
       inkscape:locked="true"
       inkscape:color="#cc0000"
       id="guide2058" />
    <inkscape:grid
       type="xygrid"
       id="grid2239"
       originx="0"
       originy="-1.0778812e-05" />
  </sodipodi:namedview>
  <metadata
     id="metadata37">
    <rdf:RDF>
      <cc:Work
         rdf:about="">
        <dc:format>image/svg+xml</dc:format>
        <dc:type
           rdf:resource="http://purl.org/dc/dcmitype/StillImage" />
        <dc:title>Culture Art</dc:title>
        <cc:license
           rdf:resource="http://creativecommons.org/licenses/by-sa/4.0/" />
        <dc:date>5 Feb 2021</dc:date>
        <dc:creator>
          <cc:Agent>
            <dc:title>Dilip</dc:title>
          </cc:Agent>
        </dc:creator>
        <dc:subject>
          <rdf:Bag />
        </dc:subject>
        <dc:description>Based on an Ancient Art form from South India</dc:description>
        <dc:contributor>
          <cc:Agent>
            <dc:title>Font :  Gayathri is licensed under the SIL Open Font License, Version 1.1.  

https://smc.org.in/fonts/gayathri</dc:title>
          </cc:Agent>
        </dc:contributor>
        <dc:language>English</dc:language>
      </cc:Work>
      <cc:License
         rdf:about="http://creativecommons.org/licenses/by-sa/4.0/">
        <cc:permits
           rdf:resource="http://creativecommons.org/ns#Reproduction" />
        <cc:permits
           rdf:resource="http://creativecommons.org/ns#Distribution" />
        <cc:requires
           rdf:resource="http://creativecommons.org/ns#Notice" />
        <cc:requires
           rdf:resource="http://creativecommons.org/ns#Attribution" />
        <cc:permits
           rdf:resource="http://creativecommons.org/ns#DerivativeWorks" />
        <cc:requires
           rdf:resource="http://creativecommons.org/ns#ShareAlike" />
      </cc:License>
    </rdf:RDF>
  </metadata>
  <g
     inkscape:groupmode="layer"
     id="layer2"
     inkscape:label="Layer 1"
     transform="translate(0,-2.3053601)">
    <rect
       style="fill:#ffffff;stroke-width:2.11998;stroke-linecap:round;stroke-linejoin:round"
       id="rect214"
       width="750"
       height="312.10501"
       x="0"
       y="2.3053601" />
    <circle
       style="fill:#ffffff;stroke-width:2.38467;stroke-linecap:round;stroke-linejoin:round"
       id="circle3031"
       cx="2061.2861"
       cy="359.21619"
       r="9.374999"
       inkscape:export-xdpi="96"
       inkscape:export-ydpi="96" />
    <g
       id="g3037"
       transform="translate(-452.68691,3.799762)">
      <path
         style="fill:#ff6600;stroke-width:1.08212px"
         d="M 710.15703,82.199968 V 221.84058 l -117.39744,59.846 -117.39746,-59.846 V 82.199968 L 592.75959,22.353989 Z"
         id="path1078"
         sodipodi:nodetypes="ccccccc"
         inkscape:export-xdpi="96"
         inkscape:export-ydpi="96" />
      <g
         id="g2174"
         transform="matrix(0.46892518,0,0,0.47715191,500.30531,56.828712)"
         inkscape:export-xdpi="96"
         inkscape:export-ydpi="96">
        <path
           d="M 163.15,27.83 28.81,165.3 C -16.58,221.51 59.7,214.97 92.4,231.16 104.13,243.15 47.44,252 59.17,264 c 11.73,11.99 70.93,23.1 82.68,35.09 11.73,11.99 -24.01,24.71 -12.28,36.7 11.73,11.99 38.86,0.63 43.94,28.31 3.62,19.78 48.89,8.5 71.03,-7.7 11.73,-12 -22.44,-10.87 -10.71,-22.86 29.17,-29.83 56.33,-10.84 66.31,-40.73 4.93,-14.77 -42.94,-22.77 -31.19,-34.76 33.75,-19.71 150.4,-32.54 95.05,-87.89 L 224.75,27.83 c -17.03,-16.35 -45.45,-16.53 -61.6,0 z m 154.31,264.98 c 0,6.82 50.25,11.29 50.25,-1.61 -7.16,-20.72 -44.31,-19.32 -50.25,1.61 z M 91.1,329.05 c 11.9,10.29 30.28,-2.56 35.79,-16.92 -11.53,-15.32 -54.69,0.55 -35.79,16.92 z m 220.06,-22.23 c -15.34,13.76 1.72,27.72 16.84,18.83 3.37,-3.42 -0.09,-15.41 -16.84,-18.83 z"
           id="path2313-6"
           inkscape:connector-curvature="0"
           style="fill:#000000" />
        <path
           d="m 131,238.6 c 3.59,2.23 57.89,13.26 71.16,15.46 4.6,0.97 1.34,5.71 -5,8.91 -14.3,3.8 -83.66,-24.37 -66.16,-24.37 z"
           id="path2315"
           style="fill:#ffffff"
           inkscape:connector-curvature="0" />
        <path
           d="m 216.63,37.47 53.15,53.98 c 5.04,5.15 4.97,15.13 2.15,18 L 245.54,88.34 240.35,119.6 218.3,107.96 182.99,130.27 171.3,83.24 152.33,116.06 h -29 c -11.82,0 -13.21,-15 -2.47,-25.74 18.76,-20.25 40.29,-40.89 51.99,-52.85 11.76,-12.02 32.25,-11.68 43.78,0 z"
           id="path2317"
           style="fill:#ffffff"
           inkscape:connector-curvature="0" />
      </g>
    </g>
    <rect
       style="fill:#ff6600;stroke-width:10.3164;stroke-linecap:round;stroke-linejoin:round"
       id="rect1385"
       width="463.57706"
       height="79.999992"
       x="289.29852"
       y="37.714558"
       inkscape:export-xdpi="96"
       inkscape:export-ydpi="96" />
    <rect
       style="fill:#ffffff;stroke-width:20.1551;stroke-linecap:round;stroke-linejoin:round"
       id="rect1387"
       width="418.92862"
       height="162.7462"
       x="333.41492"
       y="142.2652"
       inkscape:export-xdpi="96"
       inkscape:export-ydpi="96" />
    <text
       xml:space="preserve"
       style="font-size:42.6428px;line-height:1.25;font-family:xkcd;-inkscape-font-specification:xkcd;letter-spacing:0px;word-spacing:0px;fill:#ffffff;stroke-width:1.99889"
       x="323.88354"
       y="90.034065"
       id="text4403"><tspan
         sodipodi:role="line"
         id="tspan4401"
         x="323.88354"
         y="90.034065"
         style="font-family:'Linux Libertine Display';-inkscape-font-specification:'Linux Libertine Display'">Easy Contribution Alert!</tspan></text>
    <text
       xml:space="preserve"
       style="font-size:29.3333px;line-height:0;font-family:xkcd;-inkscape-font-specification:xkcd;letter-spacing:0px;word-spacing:0px;white-space:pre;shape-inside:url(#rect1387);fill:#2e3436;stroke-width:1.99889"
       x="351.25452"
       y="189.26492"
       id="text4403-2"
       transform="translate(-10)"><tspan
         sodipodi:role="line"
         id="tspan4401-3"
         x="333.41406"
         y="281.53979"
         style="line-height:1.25;font-family:'Linux Libertine Display';-inkscape-font-specification:'Linux Libertine Display'"><tspan
   style="font-style:italic"
   id="tspan29283">Want to help your favorite graphics project but don't know how?</tspan>
<tspan
   style="font-size:22.6667px;line-height:1.05"
   id="tspan32487">A small-easy contribution has been identified in the area of design and is ready for your help! See details below.</tspan></tspan></text>
  </g>
  <g
     inkscape:groupmode="layer"
     id="layer1"
     inkscape:label="fonts as text"
     style="display:none"
     transform="translate(0,-1.0778812e-5)">
    <text
       xml:space="preserve"
       style="font-size:48px;line-height:1.25;font-family:Gayathri;-inkscape-font-specification:'Gayathri, Normal';fill:#1a1a1a"
       x="460.36395"
       y="430.97656"
       id="text1114"
       inkscape:export-xdpi="96"
       inkscape:export-ydpi="96"><tspan
         sodipodi:role="line"
         id="tspan1112"
         x="460.36395"
         y="430.97656"
         style="-inkscape-font-specification:'Gayathri, Normal'">Draw Freely.</tspan></text>
    <text
       xml:space="preserve"
       style="font-size:40px;line-height:1.25;font-family:Gayathri;-inkscape-font-specification:'Gayathri, Normal';fill:#cccccc"
       x="527.61292"
       y="533.1532"
       id="text1118"
       inkscape:export-xdpi="96"
       inkscape:export-ydpi="96"
       transform="translate(0,-2.3053493)"><tspan
         sodipodi:role="line"
         id="tspan1116"
         x="527.61292"
         y="533.1532"
         style="-inkscape-font-specification:'Gayathri, Normal'">Inkscape.org</tspan></text>
    <text
       xml:space="preserve"
       style="font-size:34.3509px;line-height:1.25;font-family:Gayathri;-inkscape-font-specification:'Gayathri, Normal';fill:#ffffff;stroke-width:0.858773"
       x="586.72882"
       y="603.23199"
       id="text1122"
       inkscape:export-xdpi="96"
       inkscape:export-ydpi="96"
       transform="translate(0,-2.3053493)"><tspan
         sodipodi:role="line"
         id="tspan1120"
         x="586.72882"
         y="603.23199"
         style="-inkscape-font-specification:'Gayathri, Normal'">@Dilip</tspan></text>
    <text
       xml:space="preserve"
       style="font-size:64px;line-height:1.25;font-family:Gayathri;-inkscape-font-specification:'Gayathri, Normal';fill:#ffffff"
       x="423.42398"
       y="360.89203"
       id="text1126"
       inkscape:export-xdpi="96"
       inkscape:export-ydpi="96"
       transform="translate(0,-2.3053493)"><tspan
         sodipodi:role="line"
         id="tspan1124"
         x="423.42398"
         y="360.89203"
         style="-inkscape-font-specification:'Gayathri, Normal'">Inkscape 1.1</tspan></text>
  </g>
  <style
     type="text/css"
     id="style26">
	.specularity {opacity:0.5;}
	.low-specularity {opacity:0.25;}
	.full-specularity {opacity:1;}
	.black {fill:#000000;}
	.white {fill:#ffffff;}
	.outline-big {stroke-width:16;stroke:none;opacity:0.1;fill:none;}
	.outline-small {stroke-width:8;stroke:none;opacity:0.2;fill:none;}
	.stroke-highlight {fill:none;stroke:none;opacity:0.2;}
       	.base-shadow 	{fill:black;opacity:75;}
	</style>
  <style
     type="text/css"
     id="style26-5">
	.specularity {opacity:0.5;}
	.low-specularity {opacity:0.25;}
	.full-specularity {opacity:1;}
	.black {fill:#000000;}
	.white {fill:#ffffff;}
	.outline-big {stroke-width:16;stroke:none;opacity:0.1;fill:none;}
	.outline-small {stroke-width:8;stroke:none;opacity:0.2;fill:none;}
	.stroke-highlight {fill:none;stroke:none;opacity:0.2;}
       	.base-shadow 	{fill:black;opacity:75;}
	</style>
  <style
     type="text/css"
     id="style26-6">
	.specularity {opacity:0.5;}
	.low-specularity {opacity:0.25;}
	.full-specularity {opacity:1;}
	.black {fill:#000000;}
	.white {fill:#ffffff;}
	.outline-big {stroke-width:16;stroke:none;opacity:0.1;fill:none;}
	.outline-small {stroke-width:8;stroke:none;opacity:0.2;fill:none;}
	.stroke-highlight {fill:none;stroke:none;opacity:0.2;}
       	.base-shadow 	{fill:black;opacity:75;}
	</style>
</svg>
