<?xml version="1.0" encoding="UTF-8" standalone="no"?>
<!-- Created with Inkscape (http://www.inkscape.org/) -->

<svg
   xmlns:dc="http://purl.org/dc/elements/1.1/"
   xmlns:cc="http://creativecommons.org/ns#"
   xmlns:rdf="http://www.w3.org/1999/02/22-rdf-syntax-ns#"
   xmlns:svg="http://www.w3.org/2000/svg"
   xmlns="http://www.w3.org/2000/svg"
   xmlns:xlink="http://www.w3.org/1999/xlink"
   xmlns:sodipodi="http://sodipodi.sourceforge.net/DTD/sodipodi-0.dtd"
   xmlns:inkscape="http://www.inkscape.org/namespaces/inkscape"
   width="750"
   height="625"
   id="svg2"
   version="1.1"
   inkscape:version="0.91 r13725"
   sodipodi:docname="ink.svg">
  <sodipodi:namedview
     id="base"
     pagecolor="#ffffff"
     bordercolor="#666666"
     borderopacity="1.0"
     inkscape:pageopacity="0"
     inkscape:pageshadow="2"
     inkscape:zoom="0.7"
     inkscape:cx="510.4714"
     inkscape:cy="43.734529"
     inkscape:document-units="px"
     inkscape:current-layer="layer1"
     showgrid="false"
     inkscape:window-width="1418"
     inkscape:window-height="976"
     inkscape:window-x="395"
     inkscape:window-y="44"
     inkscape:window-maximized="0"
     showguides="true"
     inkscape:guide-bbox="true">
    <sodipodi:guide
       position="375,434.36559"
       orientation="1,0"
       id="guide5666"
       inkscape:label=""
       inkscape:color="rgb(0,0,255)" />
  </sodipodi:namedview>
  <title
     id="title4884">Cat</title>
  <defs
     id="defs4">
    <inkscape:perspective
       sodipodi:type="inkscape:persp3d"
       inkscape:vp_x="78.810347 : 397.47004 : 1"
       inkscape:vp_y="-345.0596 : 938.58077 : 0"
       inkscape:vp_z="777.20312 : 654.22698 : 1"
       inkscape:persp3d-origin="488.52801 : 361.22736 : 1"
       id="perspective3814" />
    <filter
       style="color-interpolation-filters:sRGB"
       inkscape:menu-tooltip="Glow of object's own color at the edges"
       inkscape:menu="Shadows and Glows"
       inkscape:label="Glow"
       id="filter4065">
      <feGaussianBlur
         result="result91"
         stdDeviation="5"
         id="feGaussianBlur4067" />
      <feComposite
         operator="over"
         in="SourceGraphic"
         in2="result91"
         id="feComposite4069" />
    </filter>
    <filter
       inkscape:collect="always"
       style="color-interpolation-filters:sRGB"
       id="filter4594"
       x="-0.15962871"
       width="1.3192574"
       y="-0.16693474"
       height="1.3338695">
      <feGaussianBlur
         inkscape:collect="always"
         stdDeviation="2.4942714"
         id="feGaussianBlur4596" />
    </filter>
    <linearGradient
       id="linearGradient5785"
       gradientUnits="userSpaceOnUse">
      <stop
         style="stop-color:#c0cdf9;stop-opacity:1"
         offset="0"
         id="stop5787" />
      <stop
         style="stop-color:#07092d;stop-opacity:0.28804347"
         offset="1"
         id="stop5789" />
    </linearGradient>
    <linearGradient
       gradientTransform="matrix(1.009184,0,0,1.009184,-0.3890738,-0.3831933)"
       id="shinySpecular-4"
       xlink:href="#WhiteTransparent-4"
       x1="33"
       y1="35"
       x2="58"
       y2="60"
       gradientUnits="userSpaceOnUse" />
    <linearGradient
       id="WhiteTransparent-4"
       gradientUnits="userSpaceOnUse">
      <stop
         style="stop-color:white;stop-opacity:1"
         offset="0"
         id="stop7606-4" />
      <stop
         style="stop-color:white;stop-opacity:0"
         offset="1"
         id="stop7608-7" />
    </linearGradient>
    <linearGradient
       id="IcecapTip-6"
       xlink:href="#WhiteTransparent-4"
       x1="60"
       y1="20"
       x2="90"
       y2="50"
       gradientUnits="userSpaceOnUse" />
    <filter
       inkscape:collect="always"
       style="color-interpolation-filters:sRGB"
       id="filter5628"
       x="-0.11515717"
       width="1.2303143"
       y="-0.16136403"
       height="1.3227281">
      <feGaussianBlur
         inkscape:collect="always"
         stdDeviation="7.4489489"
         id="feGaussianBlur5630" />
    </filter>
  </defs>
  <metadata
     id="metadata7">
    <rdf:RDF>
      <cc:Work
         rdf:about="">
        <dc:format>image/svg+xml</dc:format>
        <dc:type
           rdf:resource="http://purl.org/dc/dcmitype/StillImage" />
        <dc:title>Cat</dc:title>
        <dc:coverage />
        <dc:rights>
          <cc:Agent>
            <dc:title />
          </cc:Agent>
        </dc:rights>
        <dc:creator>
          <cc:Agent>
            <dc:title>https://quasi-art.ru/</dc:title>
          </cc:Agent>
        </dc:creator>
        <cc:license
           rdf:resource="http://creativecommons.org/licenses/by-sa/3.0/" />
      </cc:Work>
      <cc:License
         rdf:about="http://creativecommons.org/licenses/by-sa/3.0/">
        <cc:permits
           rdf:resource="http://creativecommons.org/ns#Reproduction" />
        <cc:permits
           rdf:resource="http://creativecommons.org/ns#Distribution" />
        <cc:requires
           rdf:resource="http://creativecommons.org/ns#Notice" />
        <cc:requires
           rdf:resource="http://creativecommons.org/ns#Attribution" />
        <cc:permits
           rdf:resource="http://creativecommons.org/ns#DerivativeWorks" />
        <cc:requires
           rdf:resource="http://creativecommons.org/ns#ShareAlike" />
      </cc:License>
    </rdf:RDF>
  </metadata>
  <g
     transform="translate(0,-427.36218)"
     inkscape:label="Layer 1"
     inkscape:groupmode="layer"
     id="layer1">
    <g
       id="g3846"
       style="fill:#ffffff;fill-opacity:1"
       transform="matrix(0.900018,0,0,0.900018,322.95931,291.30497)" />
    <g
       style="fill:#ffffff;fill-opacity:1"
       id="g3856"
       transform="matrix(0.900018,0,0,0.900018,322.95931,291.30497)" />
    <g
       style="fill:#ffffff;fill-opacity:1"
       id="g3858"
       transform="matrix(0.900018,0,0,0.900018,322.95931,291.30497)" />
    <g
       style="fill:#ffffff;fill-opacity:1"
       id="g3860"
       transform="matrix(0.900018,0,0,0.900018,322.95931,291.30497)" />
    <g
       style="fill:#ffffff;fill-opacity:1"
       id="g3862"
       transform="matrix(0.900018,0,0,0.900018,322.95931,291.30497)" />
    <g
       style="fill:#ffffff;fill-opacity:1"
       id="g3864"
       transform="matrix(0.900018,0,0,0.900018,322.95931,291.30497)" />
    <g
       style="fill:#ffffff;fill-opacity:1"
       id="g3866"
       transform="matrix(0.900018,0,0,0.900018,322.95931,291.30497)" />
    <g
       style="fill:#ffffff;fill-opacity:1"
       id="g3868"
       transform="matrix(0.900018,0,0,0.900018,322.95931,291.30497)" />
    <g
       style="fill:#ffffff;fill-opacity:1"
       id="g3870"
       transform="matrix(0.900018,0,0,0.900018,322.95931,291.30497)" />
    <g
       style="fill:#ffffff;fill-opacity:1"
       id="g3872"
       transform="matrix(0.900018,0,0,0.900018,322.95931,291.30497)" />
    <g
       style="fill:#ffffff;fill-opacity:1"
       id="g3874"
       transform="matrix(0.900018,0,0,0.900018,322.95931,291.30497)" />
    <g
       style="fill:#ffffff;fill-opacity:1"
       id="g3876"
       transform="matrix(0.900018,0,0,0.900018,322.95931,291.30497)" />
    <g
       style="fill:#ffffff;fill-opacity:1"
       id="g3878"
       transform="matrix(0.900018,0,0,0.900018,322.95931,291.30497)" />
    <g
       style="fill:#ffffff;fill-opacity:1"
       id="g3880"
       transform="matrix(0.900018,0,0,0.900018,322.95931,291.30497)" />
    <g
       style="fill:#ffffff;fill-opacity:1"
       id="g3882"
       transform="matrix(0.900018,0,0,0.900018,322.95931,291.30497)" />
    <g
       style="fill:#ffffff;fill-opacity:1"
       id="g3884"
       transform="matrix(0.900018,0,0,0.900018,322.95931,291.30497)" />
    <image
       y="429.13892"
       x="91.063965"
       id="image2993"
       xlink:href="data:image/jpeg;base64,/9j/4AAQSkZJRgABAQEAYABgAAD/2wBDAAgGBgcGBQgHBwcJCQgKDBQNDAsLDBkSEw8UHRofHh0a HBwgJC4nICIsIxwcKDcpLDAxNDQ0Hyc5PTgyPC4zNDL/2wBDAQkJCQwLDBgNDRgyIRwhMjIyMjIy MjIyMjIyMjIyMjIyMjIyMjIyMjIyMjIyMjIyMjIyMjIyMjIyMjIyMjIyMjL/wAARCAG2AZADASIA AhEBAxEB/8QAHwAAAQUBAQEBAQEAAAAAAAAAAAECAwQFBgcICQoL/8QAtRAAAgEDAwIEAwUFBAQA AAF9AQIDAAQRBRIhMUEGE1FhByJxFDKBkaEII0KxwRVS0fAkM2JyggkKFhcYGRolJicoKSo0NTY3 ODk6Q0RFRkdISUpTVFVWV1hZWmNkZWZnaGlqc3R1dnd4eXqDhIWGh4iJipKTlJWWl5iZmqKjpKWm p6ipqrKztLW2t7i5usLDxMXGx8jJytLT1NXW19jZ2uHi4+Tl5ufo6erx8vP09fb3+Pn6/8QAHwEA AwEBAQEBAQEBAQAAAAAAAAECAwQFBgcICQoL/8QAtREAAgECBAQDBAcFBAQAAQJ3AAECAxEEBSEx BhJBUQdhcRMiMoEIFEKRobHBCSMzUvAVYnLRChYkNOEl8RcYGRomJygpKjU2Nzg5OkNERUZHSElK U1RVVldYWVpjZGVmZ2hpanN0dXZ3eHl6goOEhYaHiImKkpOUlZaXmJmaoqOkpaanqKmqsrO0tba3 uLm6wsPExcbHyMnK0tPU1dbX2Nna4uPk5ebn6Onq8vP09fb3+Pn6/9oADAMBAAIRAxEAPwD5/ooo oAKKKKACiiigAooooAKKKKACgUUUAKOaXNIOKXFIQZoOKKMc0AIKXrSgCkoADxSGlNAIoGNopSRS UwDFLg0ZxSk+9ADcUtFFABS0maKQgooopjCiiikAUuaAKCRQISilyKCc0DEpR0pBSkUCDPSg9aSl PNACZxS5pMUUAL0ozR7UYoAM0E0Bc0uKAG0U/AowKLgNFLjNLgUmQKALH9nXH9z9aabG4H8B/Ct/ BPpinAVViOZnOG0nB/1TUn2ab/nm35V0hQHtTQozRYOc5zyJf+ebflSGCUdY2/KumUZ7U8L83IFF g5zljFIOqN+VN2N/dNdZsGOmaaI03HIGPpRYOc5XafQ0mD6V1vlRkYKL+VIbeLPMa4x6UWHznJ4o xXWi2g5PlJn6VE1pATjyU/Kiwc5y9HNdR9gtyMeSnNKNPtQMmBSaLBzo5bJoya6f+zLU4/dLTTpd oM5j/Wiwc6OZ5orpBpNq38B/OkOj2v8Adce+aLD5kc7QK6A6NbHpv/Om/wBjQHPzOPxosHOjBNJW 8ujQsPvOKRtFhxw7+1Fg50YVLW3/AGHGcYkb3pDoaj+NqLBzIxKMVtjRFIH71uvpS/2Eg/5at+VF g5kYYpa3RoMZH+tb8qUaBGf+Wz/kKVg5kYNGa3RoMeeZm49qP7BjBx5zflRYOZGFmjmt7/hH0/57 N+VL/YERHEz5+lFg5kYHNFbo0KIkgSvke1PXQIiDmVx+FOwcyOepc4rohoFuQP3r0g0C37ySZ/Ci wcyOeBpQRXQ/2Fbf35OacugWx/jk/MUrBzI5yjpXRf2DajgvJ+YpRoFsSP3j+/NFhcyOdyMUZFdC 2hW4x8z9e5pV0K1J5L/nRYfMjnc+lJnFdMNBs8dX/wC+qDoNpzxJ7fNRYOZHNbqN1dGdEtB1D/8A fVB0S09H/wC+qOUOZHNlqA1dGuhWpAJL/nTxodpnGH/OiwcyOZzxSV1P9g2eOj/99U4aDZejf99U WDmQoUL3pQOcYzQVBIyKXZjOP0q2jECBj3pqrwT71IFXHJpFjDL3yKEABdtAXBpdmD1NLsJP3jik Mb2NIPve2KeYj2JxTVRt3XmnYB3oBS9aTYwORjOOaFDHPNIBc00/eFO2P2xTGBDDpinYB6rTtv5U wFz0HAp25um2hgOK5pjDC9O9OGQ2CKJD8v3TjNIBAMCnYyKaG/2TSljjGDQFxNoI96Ur8p4pBz2P vTnICEbfpRYBqDPenFMmmhuAe9PyGI4NOwIQjnrSlTQfpQTilYAVcDpzmhlzTVcHn0pxcZ607DBV xxQF55zTDdQrjc4H1NR/b7YZBlH4UWYidRlmpcYqp/aFupbkkeoFA1O29WH4UcrKLgHNLwOlVBqV sf8Alp+lSC8t2PEq5+tFgZIB8xpyrTFljdjhwR7VJ5gPTtRYm4bDSBSOafvUDrTTIccUWAaeCtKF NJuXcCKeHHQUrAMYEEU4A80p2nqDShsigCM84zUm3Ham8FhinE8dDmgdxNpBpSDwKNw44pc556UA NdcL+NKU4GaGORzzzUhYAe9ADNvahUP0NBcZHFO80E9KBg64B96QIx+lKz8Uqvgdc0guZzdacAR1 6U47W9qXA49apkjT0PakTIBx1zUnXgDmo0BBPpmmJjxyTxnFPUZFMXgU8cjjv0pMAAPrTR/rKeCS eRzTOkuPahMY44z0pR7UlOGQKQCHgYqNh0zUmDSSDkfWmgE2kkYp5Hy8Ug45NK3TtihgIBTW5HNS AcetNbOw0IGKB8opQBjGOaFGO9OpArDSuTxQwwucU4DNDDA700MiQAgcVLjj6VGrKEyx2gCqz3wZ ikCNI3qBgCqsItN0qCW7ghGGfJ7Ac1Cttczg+fKVX+6tSfZ7a254z78miwDI5bicExx7Ez95qQ2j Hme4Y88gcCpUeaQYijIXPDMMU82uSDIxYntQHQq+RbK3ERkP51ItuzjIjWMfTmrSxqh4GAPSkeaN Dy3NO4EC2iMW3kn9Kk+xQdfLXNNW6iLMMnH0qRbiM5BOPrSbGhBZ2/H7pajbTbZs5Qgnjg1bUqw4 INOA60AzKbSzG58pzjrgmmETxEfvXQjoH5Fa/IbNKyK4IZQR70XEZkWpMrbLmPB/vLzWhGyyKHUh ge4qldaduJaEgEH7tV4JJImZkHzr9+I/xe4p2vsBrbcuPWnYBzUUUyTCN0PXse1WMcmpYDMAUAA0 4jApVAJ71I7DCoyoxznrUhAz04pr8kccZp+0kUCG4x24o4YmlPSkAw+aBjXHy04DjmmyYC/jTwAT igEIVycdqQJipCoPFVruV4o1CAF2O1c0ICVkwDSqvAqnbXLSq8cu0Sp1Aq2HVIgWYAAdSadgKQHp inZGM96Zhux5oAYckj6UxD8Y5AzTV5Lc96XDkj3oUMGOKYh6jP3ugpQOMnt0phL+lOy5xwKTGPxn mmY/efhTtxwflpm7Dj5e1JCY8jninYzTAxB5XBpRJ/stRYYuDmhwRjjHNCyAjoQaazdM5osBIRgZ pMcCk8wdMUvmLmkAqjBpHXjHak3qp5pHkG3k9aaCw4DilxSIVwOaUso6mhoBRwagublYBj7zHoo6 k0XNykKYHzO33VFV4INpaaYgyMO/QVSQDY7V7kbrhm2dkBxirG9EPlwoCfbpUau1w2xSVjXqfWra qiKAoApgQ+TPIuHcICeg7U9LaJeSu4+p5qUHOaa8ixrlj+ApAEfy57DNRtPlwqJuP1pEUzDLMVXP A9anVETheKAIDC8h+ckewNSC0j5JXJx3qZf1p2fSkwII4kDn5R+VP8sEEFRikX5XY5H51IGHUnFJ gQm3AGY/lNIHZGw4GOx7GpjIp4prbX44xQmABvm454pykE1WJ8mTg5X+VOZxEwkJ+U9adgJwAOaq XlqZAJIuJF5BHerfU49acdvOaSdmBhxzNayrP1RiQ6jsa20KugYHIIyCKzpkjhvFzjypshh2BoSY 6a4jkJMBPyn+7WklcZplegpCNtCTJIoZcFTRuGOf0rKwDXOcfWpM8fSombkexp+9cn0oAcMkU0ij co6HIo3CgY1wAOnBqRRjtTGII/GnBuxxQShxYVQuXLahAgzgAkmrpcdARmsHULp01J/J+8seMjtV RRQ3U7hYdQWSFhvxhxVi3RLpla4laQtyF6LVa4sYhpvmBt8xG4vnrVjTrxVsQ82AEGAfWtbCLhH5 mlYZ57YxS4PrSgYJ5rAQAcCkX755pwGetMTPmNz3poB2BThnjmjvSgY6/hSGhegphP70HvipMA0w n94ooEPHX8KMcmgcClwMDFMBoGCaayjj1zT8Gmv/AAn3ppgKAPSlKgdhmlzzS+9JgRsi46CmsgK9 OlTBcnmkcYXii4EQQEZxTLmWO3i3Nyew9ae7iOIuxwoHNU7fN5N58oIRfuKf51QDrW3Lk3Ew+c8g elEubiXyo+EUfM3r7VPOxG1E+8/6CpEiEakKOgpgNgiUIBjpUpjXPIpsedop7uFTJpARMFTPHWmL bKMs3J9+1SQKxBZ+STkVUuZXuJ/ssW4KD87CmBYgMToQpBwccGpSmDgdKz5rExxmW1JSRTnGetWt PvBeQZI+deGpMCwsY708IoFBIzgUo/lUjIhGGc8VJ5a9NtIhIkY1KOxpAkReQi845o8tMcDtUmM0 AbeTQBC0Sh8EZ4pht12mPGQemaJLyBZGBkG5e1WARIisOh5Bq9RENqoaHaw5U7TU3lrjFMiGyd1/ vYNTEZNSx2Kd1arOhjwOnB96itUjurPy5QCy/Kw96vsMsv61SkH2TUA38EvH41SegWKyRNYThGJM bH5Sf5VpoI3GRn6elLPAlxCVbuOD71Qhd4d4bJli4cDuPWnuBfdFAGF70GNewoDrKiMDlTUhXH1q GIjEK80GNce/apBQByCaQ7EDxgLkGpBEnpT3TIPpRjCk9hTEZ9/cw2aAsMsfurms7Rk+03FxLKMl j1qS/UXeqrFk7UAUfXrSwONNtplIO8ucAjrWqWgy1ewxxxMNyxRkY+tY8drHcTCK2R2jXlmboTVq dHba9wN88v3B2UVpW9utpahVHzHqfU09gHAZbHrRtpokHoc04SDHSsbCHdAaYgw7GnGRRwAaZkbz TAkGaXp3phYCkDjjNFgJQvTPSo34kXinBhimsybwSRRYB2ST04p+DjpxSblJ4NKWwOKAQoHHvTHO F980pfJPPNMYggeuaBjhzkkU8Cmg8cU/IpMQmTnpSSD5TT6rXspht2OfmPA+tEVqBQnZrudYVOI1 POO5rSSJY41AAGBVa0hCKik/MoyfcmrNw22I46nirYEcClpWlPQ/d9hVkDANNiAVAO+KexCoS3AH rSGRxqdvNMmUMVj980xLpSCIwz/7vSmNMVlaSSMhFGDRZiJLqcWsQJBJPAx60llGUi3ty78k1ACL 2+XHMUfP1rSIwOMYp7ARxqPm+tYUUv2HVm4Ijkbaea3UY84PU1S1aANaGVeWjIbpSQF0Dn3qQcDk VHbyCaCKVedyipgfXtSAYBl2x6VKo29etMQ5c0/FKwxCeT6Vn6neCFFjXO58flVyeZIIGkc8AVlW ET31ybyVflH3AacV1C5LPp6TQBVG11XII9ado9wZIXgfiSJsY9qvOwjPTGRge9Ze77PrqAH/AFy4 Ye/ar3Eaj8XMZ4xgipc4qFwzBc43K2c1Y4J4qGUMbgrx1qvqMRltSV+8nzA1ZccrQV3Agng0kK5F ayeZCp4wRmq18vlSpcoCcfK49qLIsjPET9xiuPbtVqWMPE6noRVhcqxv5M6xA5jkOUPp7Vebk+tZ Z3NYB8DzYW7e1acMnmxrIOjKDSkgHBcdaByetKDQBjNRYY1zgfjQDwKHOV/Gs/UpmWJYIx+8k7+i 96pK4ivEsUepSXG7fzwB2PeoL24W4vmZsmKMdqngh+z2Uk8wGAvy57Vz5vSH4GRnJHrWysM6ayga YNdzDDMPkU9hU11cLAq5GTj5QO5rnhrd3g4OF6YA/StPR5kvrh5ZWzKo+VewoaEi4rZp2ARjHNVr BjLaIznJ6Zq10H1rHqJCg56jmm9XbNOFNH+sP0oGO25+lLtA4p3GKTHPvQwGEAUFQCvAqTHOaa/3 1waSZIvlpnNHljuKd0604cCgZF5aHtzTZIlAzjv2qbGaZIMjn1FCYAIwR3pRCvXnFOxgDBpQcnmh gkMMWPWqdzGHu0QkkIN2K0M4qrcxHe0qnHyEGnHcGNtY9y+YSfm5p8qbpEGT1p1qNtugPpStzOvs KfUEhSoUctj61QiUXrSPLKfKViFTPFLqMPnsiKW3E9BTm0m3MYUF1I9DVJDFSFI4/wB1MFH4Gobp 5IrZ9+GVuMip4dLtoxkqzN/tGq08KG+EUedq8uueKoQ7SImELqSQQcitEghSS+B71Rt3W3e6Z2xG rDA9sVHHbz6k3my5SDPyqD1qWgHvqUcTsseZDn+EcVXefULpGUQ7U+lalvZxwtkKNw/SrOAcmldI djF02G+iiGTtUdFNXP8AT8DhKv4AAFHIOe1LmQWMzzr6KRlMIPuvNKNUC/65WjP+6a0FXEhI7ipC isCGAP4U7oSRgXNwNRuUgWQCEcsx4rVgVFiVY2BReMDtR9gtwW/dDBOelQDTjEzNA5U9QM07oB4Y y3LFm+ROB9aqaqAnlToRvRxyPSrMMgkbyJ02v39DS6nCp099q4AGaEAsM5mkXsGHFW1DjoRWLBcO 1vbGGHcUzk1pw3W8hZEMbe/SiSGSv5hdcnmn4k6bhSt1T604ZBqAM1t8WoOB/GAa0ArY6jpVO8by 7yD/AGgRWgAdoz6U29BGcIyt1LEcYf5hU1nv8gAYGCRj8aZdZS8tmxwcg1NYcwZPdjTb0GShX9RS 7X74p5BozgVAyGQtjNYyF7vVpu+xQvXtW3Kf3TVz1ncra3N3O/JOcD1OauOwiTX7ox2S2+VyxGQO wFUNGs4vIe9nwVQ4UE96k1O2drE3MuTK7A/QVFpkkc8P2e4n8uNc4XONxNWNbE9lCl2sr7MQqTgY 71Tvc6fenySBlegPTNXZriDTbA29vMsjsckjtWVNDPLAbuQHazYBPeqCx0GmDNufTcav96oaZ/x6 565JNXs+9YsQ8d6ZgiSnLnqaRv8AW0gJB0o+lJnHWkznrQDHcAdaYRyPrS9eBQQSy/WgB+OBSgZp QB+NIe1SFwIxzSSfdo5xSSZKZFNCHDnPcUuKF6UtDGhKiuQfIfHUjipeAKjn5iYdqEDCFf3K+mKj TBllY9AcCpEO2LJ7DNUixMAUD5pTk1YIFuVi33MpwnRRVQ3uoXq7rePameDTruwmup4UHEKjn61p wRrbxLGv3QKdwZiJqtzZyeXdpkZ6gVbtLmF7ee5P3mPQn8qfqcEUlk+8fNnCfWuaMskBMRJGDyKp ILGxaW8l9ckuTs3ZauiVRGgVegrnYNdgtYFSGBicc5PepV8TIfvQEfQ1Mkx2NxeWb61IPesa31+2 dzuynuavpqVqxAEyfTNQ0wLZHNITxmmCeLIBYAn3oLKejD160rMAU/vPwqYc1ChHmfhU30oYhCKG UdRQaUnHbmkMzNQgkaRJYidy9R7VHcXQubWZR0EeSPetFhlxWPfgQXrseElTB+tbQ1JHaL8yFSOE /rWvJCrqRjIIxiuXhv54xIlohYnBJxnFLHqWpWdwklzvMZPII6iie4zfhd4p0t35U/cJ/lV3GetZ 12wmt4rmE5wQwPtV9HDxqwP3hmoaApXqbru0H+3WhgGqFzg6jarx8oZiKu7sik9hlPUmCJE/o/8A SprIBbRPzqjqxMj20AbBZ+ea0kwqhR2GOKb2ES5pppCRSE1Axs2Nh9K5hBGdXkErARqSeehrpZCD GwrFutMjgvY7hizRM3zg9q0gySK+eS92YG2AZx71FdeHnIWS2ZdpGSrHGKvajNGnlKhBG3jFNv70 BEtEbaSBvf0rQE7HPi0kxIzfcTqe1bRvLS50YxsMORtVB1zVu7t7OHR2jLjaR8pB6msTSrRjcLdN GWhRucUirmtpUOLNWbI3cgZq6UGeKz49VtUjCKSFAwOKSfWYFj/d5Z/ypOLJNQLn1xQUG8YPaobS 6S5iVgy7iOVzU5++p7YqLCF2A0eUOmTUoHOTxS7epqblWIViI7/rQUw3U4qccio5MgA560wsIYzk fMaDG2OGqRR0pQppXAiKPxz+lDo23luKmIpjgle9FxCBWx97k0FG/vU9csOKdt+XHei4EQVyMFs0 2SNvKPIqcL+tBX5WyKEwKVyWWyYgj7uKhhU+ec4PloMZqxdD/QmPbj+dJICCs6gkFcMPWrTAmTcy dBk+lIVYZ6cUltKskQ29uKl65J6CkBiatJIkMSD7xbIA9ay9Rs/s9vG0mfNfkmtjH2zVcHmOHJ+p rL8QTmS9EYPyoMYrRPoUiPSNPF8zlifl6Ctb+wbfbjaxPc5pPD9vJDC7OpG7GPermpah9iChRlmH foKTbBsoDw9CzYy45qRdAgXr5h/Grul3TXULO45zxVyc4gkbphTSu7iRxRhlN2YoSWOSFGalk+3Q rhxIir35xUumNv1RCB0J5rpL8hLKViM4WtG0hnOWmr3iOEGZW7Ajmrf9uXq/ft8Y68Gqekgy6oCO xrrii45AP4VMrAc8viGfjMO4/jUya+zYBt2zW0IU4IRR9BS+WgzlV/KpugMga5EXAaJ1I9RWbfzy 6jLvRWW3Vgv41Z1V0XVAGC4CgGtGa2X+zWVQMhMj8Oa00SuIr6PCqLKyR45wDVu8tjc2UsYXJI4+ tJo7BrM465q48qxgluAKzb1AyrOOaHTEjnUhhkCr9lIfso3A5XIpkm+UpLNhYw2QmOakt8pFLI/y qSWAPpQBVDG41Vjt4jQL+JrQ5HG0iqmkqXjkuCfmlcnPtU9/cfZoCw5duEHqakDOQG51R5dh2RfI PrWoDjohqG1gMFsqkfMTlvrVvGBwKGwGA5/hNByP4ak6CkIzzUDIX+YYK01lV0KtHkHrU7gFc+lJ kAewqkxHO39mLeWJ0DEscKnvVhLSK2spGu1y8n3jjvVcX6HUXnmyzL8saAZNacNtJdSrc3WR/cj9 PrW17IRhHTdQljXkmMfdDHoPpVm3t7nSJlcI80TrhgvY10cgHln+VRu6QQ+ZIQFUZJqea4HLTafE hVF3b27UwaYrSAeZhQPmY9quKxt0Mkjfv5OnsKqXMpMflgkKefrWoDQkKOIoHZpQ3DCukUEiNSec c1m6RYLComdfnPT2rVYYZcdaym9QJSBQSBjmkBoxmsh3HAj8Ka/OPrTiKax4oQDxzSjp7Ug4FKOm KQDeSaHGFNL0NIxO0+lAMEOFHHWnBs01Qcc0o60CHjmmnI5NKDzQeRigoiZQ9u69cqaS1O+3XI5A wakjGFFQxfurl4z91vmX+oqwILqOW3YzW4PP3k7Gm298ZIMyrsboPQ1o9RzVe8RDbOSB8oJFNCKW lKFknZvvbutZGp2jzS3VwFOVfn3Fa+lofLdz3OK0GjV4yGHBFNuzBMxrHW43VIjGQVAAxVm5sodV CsJtpXrj/Csi90aaCUvbgsnUY6iqY+2WrbiJEJ7kVQM6ywtEsUMSsWx3NRapeRwwPFkFmHrXOf2j eEcykn0qW1sLq+lDSq+0n7zDtRyrdgixoVq32vzT0AycVu6ihfTp1Az8hp1pFFAnlQ7cr97nmrBx 0Pfipk7sZyGgTpDqB8w7QwwCfWuj1O7Ntp0ksZG7GAaztZ0kOPOt0CugyQO9Zy6kr2/2WZCYyMNz 39adrgaPh64u53lMzs8fbPrW+T1rBt9Xs7K2SKBWbA78VXn16aSNjHhPbrRyO4rlfUG+060yq3G4 DNdO6COyIxwE5/Kue0nTpZ7pLiYELncM966l1EiFOx605vZAjB0u5MEZkcYjYlT/ALJFWFnN3dFl BdEPyLjqfU07TYlWS7gZQVEhIB960IYo4siNQB7CodhkRiYlXkIPPC9hUepyMLPykzvlIUVckGdv pWdH/pmpySdY4BtQe/c0IRdhVILdVGFVBjmqEBN/fmVs+THwn1oupnuJBaQ9c/OfatG3gS3hWNB0 oeiGPc8CnE0Ovyg07AAqGAzkil+lLtBNOAAFICu+SDShSB7U91yhNOUErTQirHZwJMZViQMepxU4 ABxUjLxmmhcii7YWI5mCoxJAAGcntXPzyy65drbwkrbR/fb1qbVbt72c2FqTgf6xh2rUsLKOzthG i445PcmrWiGcm9zl/NlwzdkHaprTTZ7yQTy/KnUA96nsNIwwkuB06L71uBQvGOO1aSmlsSMjRokA 4pW3ZGR1qQAGhgDj2rG9wGhXobcOlSEY+lGeKVwGr5mOgppLjkgYzUoznrSOPl/GhMLCZfPABFNz IWxxipVXAGOlOC0MdiLdJ/dobzCOVqXbQfumkFhi7gOlLuYdFqQHK0FaYWI8sw6UEkKfl61JyKDy KAIlZgoAWqt35pCyqh3xHPHcVcQZFDqWX3p3GMjmMsauF4YZqlqsxW1CYOXYAVJAxt5jCciNuVz2 9qrXe651aGHGUQZNUlqItWIMdooK8+lWC/8AsmnRjhh704ik3qBEWOPu8U0hXBDJkehFTlSBSgc8 0kwKQijDt+6Xk/3RVhWXoAfyp4QGQnHNVbrU7eycJITuIyBine4WMi9uZdM1b7SvzJIOVNN+3XGq 3UYiQrCjBmqhq1+L64DKpCLwAa17PWLC3t0QBlIXkAd6YzXVwW5B6Vn3Wi2ty7SAMjN6Vctb+3uZ F8txkjoetXRzSvYRzcfh5Ff55WI9hWjFpdnb/djyffmtMJ1oZO4p87AgDqpUBcAe1V9VuXhsi8ZI YEflVzHzLxS3ECz28kTDhlIpJ6gYOm3f+lOWJ/eJk/UVtxOGUFeQea5SBXh8wEfPC2DmustGD2sT YGdvatJoZW1O6+z225chjwtUopmtLFIohm5kGfzqbVpQ7xwRr5kzHgDsPerdlZmImSY7pWHJ9Pap 2QrEVha/ZULScyNyxq+rDb70480AelZt3GNdgR360F8HNOONh+tOIFAEfme1O3inACnAeopAQsQE NOVgBinuBsNAA2g4pgMaVT3/AErH1bUzEotbb5p5Bg4/hFW9U1BbG3yuGkbhVrn7dZxdKOftM5wz kfdB7CtIR6sDUsktNMtCryoZG5dieSauR6nZvhVmT+VImmW8UZJjDseSzc5oGlWjJgwgfQ4obiLU pXGow22VJ3OOwq1bzC4gSUDAYZrEvbRba3WFTvkkPLY5rctohFAka8BVApSSESgcEDvQ/AApQKRx gD61mgF2808KMACkHHWlXA+tA0JswaSTGzFSEZHWmOPl5oAVTxThTcYA9KcKBhimsMKadmkb7p4o EEfTmn45pqD5R604E96BiEYzSEZFOJBFLjigCOMfLUgXjimLnGakU0AV7qESRH1FZWmSma9dpD+8 xgfStHU7kQWrDOGbgVn29i7WizJlZuq1rHYTNaNTlqftwKo2F48zNHJGVlX71aPBrOW4DMelLtzU gANJSGQrxK1MkgjlbLIre5FTbfnP0pwXmncCo1nAwwYUI/3aiOlWZ628f/fNX8Uu0ZqrgzMj0y3i vEkjQqyjjB4rRU4ODQVPmj6U8J6ikwFAoPSlFKVxUgQH/WDFSkcEkcDmkKjcM+tNuHWOCRmOAFNU gOSkIk1idS+Fmzyf0q9Z6hImm7I1+aPhmPQf/XrJniaSRpFUjADY9q1NOjie9jXnyJV3AZ4LCulr QRo6dYtEnnzEtNK25iew9K1QB0ppQKq4Pen7O9c8ncaGkUmMU/aCMUFAeKgZG/3aeRih0AWn7cCg RGOKXJpduRSbMdOtACMfkNV769SwtTK+C3RV9TU7r8jHPNYC2V1qeoGS6RkgQ8AjrWkUuoDtNspL 65+33eTz+7T096s6hY7A13BnzUYPj1xWmkJjUKowB0xTzHkYPek53YFeG4ju7VZUIII5HoamU/Iv 0rPl0po5Ge2uGhz1UDg1GLLVMAper+K0WAzoE+03jTZcohwuPWtJUwOC3NLZ24t4VQAZ6k+pqfAq pMmxGrFTg5xSu+cEqetSAA9qRwOBUALn5elAkx0Wn9qQH2pMYgl/2TTZHBXoakxzTXGV6CkITzBw Np6UGX0Bp6jOM0/ap+tA0Rh/b9KRnGOc/lUuO3akKgg+lAMYkg25IOKduFEYwvNScelNiIw4PFO3 gDoacFGc+9KQPTmkhkKMNuDTnmSJCzHgDJpUwATiub13U3lnFpbZIHDY7n0qlG7GSG4OqaltwfJH 8q3wQqADpVHSLIW9ku9cO3LZrQK1Un0QWKE9sTIbi3O2Yf8Aj1OttSWX93MPKlHBB71cXgsSOc1H cWcV2o3rhhyGHUUX7iJVkU8g0pccc1R8m5tTkHzYweh61YS4iYfN8jZ6MKmwakm5d55pwZc9aFKs x24J9qXaB2oGIJEOcGlDAn1o2D0FPVRjpQBGSPMB7AU/cKRh+9A46UrBEBLHAHc0gHB1PPFBZcVU a6DSFIImkYdwOKDbXNx/rpAiH+FKdgFuL2KOQIn7yT+6tMWAzkPcn6IDwKnjtooNoRBnPXvVjaD/ AAiqTsByrRgamkJcBJAY2+nYVGqPbpJAp/eW7eYnPJHpS6yvlag+3KsCHB96s3h3xW2oqg+YYf3F dF7oVjct7hLq2ilUjB5P1qfeucZFYenOLW5NsTmOX54z9e1bgjX05rnmrMYpIo3AdSKPLBwQPwo2 D0FRoAjspT7woDpz8wpHVdhyBSiNP7tMBPMGeOlLuHrR5a9cU7ywewpaAROw2mlDDA6ZpZIxgkjp SrEpUHFAChx60hI4ORineWPSjyxjGOKQEbHIPIpUYBOopWjAU8DpSBAVHFO4FLGMYpce1NGTThmk xIXGM80kn3fxp2Oaa/3TTQh3UCj60AGgdaQDgOPemuMpSgUjfdIosAKcAetPXk5pqY21IKBoQikz 8pp2M5pSBsPpQMijB21IOtJGBsp2KBIWkJA/CndOTWLqF5LPIbe1bAGRI/8AdFVGN2DK2q6y0Ya2 tuXJILDt7fWl0XS9jefMMsORnnmq+maeHu2Y/MqngnvXUqipGABgYrST5VZAgK9xRjgUpIHU4pnn Rjq6/nWauO4AfMeKUg1CLy38xv3yfnQb61GCZkx9aLMCdQeppHhjcHcgNQi/tcH/AEiP86X7da5/ 16fnTswIvsgWU+Uzx/jTtt2hyGWQY6GnC7gL8SqR9akW4hOP3qf99CmBEtxIv+sgYfTmni7G3/Vy Z+lS+fD/AM9E/Oj7RHyRIv5ikBWeS5lkUJHs92p62O9t9xI0h9OgH4U57qESKDIucetSi7gVQfNX n3o1AkVFUYAxTiMCoPtkB4Mi5pVuYXB2yLn60rMBWzuX61KKiJB2kHjNS4oAx7uzjn1cCXlZIypH 0qrboLSSXTLnmJxmJj05q/doyazZybvlcFce9S6lYreW5A4kXlW9DWqkBgS7ooRC3EsL5Rv9muj0 +5W6tlc/fHDD0NYksf8AaGmrMvFxDlWA71HpF95UyL/C3yMPQ9jVTV0COqPGKaf0pTzilwBzXMMY 4+U4pwUjFI/K04HtQAGgcU4DNJjnigQx+VOKVDxihxhT9KFxgUAOPSkpM56UuaAGtnBoQfIKVs7f woj+5zQBlxSqyA9Kk3rVeBkbAHQjIqwVGOlU1qSLvXnnpTXK7aUKMdqVlGOlJAODqPrTXljQbmIz 6UjssaZPfoKbHb7282Uc9h6U9BkRvlQ8oxX1xVgSxyRblcEe1SGNSOn4VUkiFs5dF+Rvvj096EIs qQAOaerA9xTUVWQHHapPLX0pMaELgHGRQWUg84oMYPQZpfKUD7ooGMQjb1p4dcdRmmoilelUtXuR Z2Z2j5m4HtTSuxEGo37PJ9ktW+Y/ffsorNJ3YtYOBnlu7HuadCqx26x7syyfNIw7D0rS0yyX/XFf 9we1b2UUIt2FulvbhOM9z61Xv9WhjieNGPmk7RgVoBUVTn1rnrjThNqrpvKrkNwM8GoVm7saJFt7 gQh3u8sedhPSmmWaM/6pHHc5q5/YEZGfOfOKY3h9SMC4fPvV80QKi3yKW32cYOO1RNc2Up/eROPp ipZPD0pmISYbPU9acvhmTd81x8v0p80QSIFk00n/AFch+ppwbTs8Rvn3NTf8Iy/a4A+q0Hw1L/z3 X8qfNHuFiMPpqk5hY8d2qQSaSf8Al3OfrUf/AAjdwWx5ydPenL4duQD+8j/Wi8AsPB0rPMbD/gVA XSs4Kyf990w+HrnPDITR/wAI7cf30B+po9zuBJHa6bJMApdVI6l6nOlWJGRckf8AAqqDw9OJFBkT Bq5B4eSN2MspfIxgcVLce4CLp9ug4vMfUirFvp8JmEvnCXjpQNCscj5W/wC+sVLHo9rHwisv/Ajz UOS7jK7rc6dITH+9ty2dueV+mav2OoRXkW4HawOCpPNRNpVuNuVc5PJ3Gq0tjCmp20UKbduZHINL RgT6o5SazPGPNxn0rS71najCPLhb+7IDzV5YgQMk0nsBgzRtY6ozRf6uQ7mU9/Ws3VoBaXgliz5U wyPY10eqW2IFnTl4jkcdR3qHULOO/wBNJj5bG5OehrRS0An0m7+2WEcjH5hw31FXz+lcl4euTDdP byHCN056H0rqvKJ6saznGzAWT7lPXpUTx4H3jn0pwj4HzGpAeDzS5FN8v/aNIYcnqaVgEYEqaVeA BSNEFB5NKsQbB3HNGgDuAKTuKRoe+TSCEDHzGkA5sYP0pUBxTGgUqSGPShYvlB3HP1oA5XSLneir 3WtzqPeuft1CzTSRcbZMYrfQkoD3xWkxIcBilf7hFApspPlMazQDVxI4JP3elWAeR3qKJcKKlFNg OxTJIw6FW5yKeKRuUP0oQMrWJYKYmJyv8qtk1UP7tllyfQ1aHzDNDAUd6cPummgccU7H5UhjEHB+ tc/qcgv9QS3Q/JHy5Fad/di1s5HzyOlYemxs0Tztn94ck+tbQVtWBbtLISSsoBCE5PfA7Ct5ECKF A4FR2UHlQ5YfM3JqzjpUTldgUrzd9kmK9VG4fhWfNOBNa3DD/Wx4rYZdyyKeQQRWLIw/sq2kwD5U u39cVUQN5DuRW9RQT+dR20m6LHpwKkPJqHuCGIP3jZ9KkAzmmDhzUoGOlJgGMUHrTqQjmkBGf9YO ccU4HsDTWGZR9KdgCqBCEGnKMUYo6UrgMK/vUNSEcUxvvLjrUgxxQwG7eM96ToelS49Kbj1HNIBr n7o96p25Vr67nYjapCD6DrUuoS+RZSydNoPSuMg1O7t45UTkO2WyM1tCN0B12ousliHRgQXXBH1q +o4B9a5KDUEa3PXyy4Lr3U5ram1qxSyMguQMg7QOTmlKLQGhMAyYPTNYqBra7ubdM8r5iD+lUoH1 nUUEiuI4s/KzcZ98VeniljvLJnky+NjNjGacdAMCQxx6zuBxFMcn/ZJ/+vXWaZeidXgZsywnDH1H Y1yGqwst7NHjGw5/CnaFeSx6vECeZPkJNaTjdAdw54p+RjmoyTtJ4p3JFczAeD1pd2BTQD0o29s0 hg5yp9KWMjbSOo2nmhAowKBDiaaTTsAdqQgZ6UAISNp57UiH5aCBikXBAoA5LTWSW3l2tlmXcc9j WvYybrZCepFYGjKVEr4yhyMelbOnxqbbhjjce9bTQjQHtTJsFMetKqAetMZQWPXiskBLH90Zp4we 9RIgYA5NSCMDoaAuPGD3oOOaj2ZPeneX65/OgBjIGhK+xpYHLQIT16GlRMjnOD70yKMjcpJwDTBF jpSk8GmbPc1BesILGWTJBC8UJajOavpH1HU/s6fdL7eO3vXSQ2caKkYHyKBxXNaNLBHdyT3EoRhw Mn1610H9pWY/5elrWV7WQGkCMcUoOazP7Vscf8fA/CmNrVioOJ+3YVnyMCzJeRxXHknJZiBgVl3C 7bC/gAO6Nt6/zqG0vonuXmkLM7H5cDNF3eAXMxCSYlixgjGTWqjYk2tOlEsEbj+JAfxq7g8msHQ3 JtlXdjY2MexreCY6k1nJWZQwcyEVJio/Ly55NPEWf4zipAeOKMc0mz3NQXNxFbDM0wXJ4zRYCQ8y ikubiK1TfKfYAdTUUE8UzZimVx3waq6i6QXVtLMT5YOM4ztqktRXL9rcx3Ue+I5xwQe1S9+lZGmb 5Lq8nViIXI2+/HJp7aiY3VnVhEzbVY9zQ4DNJuHSpMZNV3Byvzc5qVUb+9UtASAgZpCR261HsIP3 qf5Z/vUrAZXiCZU0/wAtmwZHA/DPNYIvbC3uHU5dNwZSv05FN8RTeZqTKzlggwBUVh4fmvirj5Iu pdv6CumKsgK8+69vS1hA0at2z1rQ0/QVLCS6k+633B0P1NakPhq2QblnkI9m4qX/AIR+LH+tk/Ok 5IZoGRQgAwFHH0qlqzp9nilDjMcoIwaibw7DjmaXHcbutVNQ0GGGxlkR5CyDKgmpSVxFfUjC99cu rKwZVAOfzrFLGG6SRDgqwI/OpDGpyFLE8YGaguIgsrBckLgZ963a0A9EjcSxZyMkZ4qwo6elZthZ C3tVYE7mUbiTV8eZxhhiuOS1AlJphAz0pQsndhRsfH3hUgI3KHAoUcA96Rlcg/N+lAV8DDcU7AOy QehoHJ6UFHx9/wDSkCSEj58CkArrwTjjFIq5UcUOjFT81RgOFGDQBzWjQ7dPJxy2TVnTlMJaF87v vD0qaKERWgjj42jilcjykmH3l61rJ3JLY4qLGdx7VKuCo9MZqJTuiJ9TUFMkjxsp/emxkbAKdgmk xDsZ5pTyMUKDimTOYoXkxwoyaSBhEDgmnIv3jUdpJ5kCybSu4ZwanHAzTYIcKxvEc6x2SxfxSN09 qtanqUWnQhmBZ2OFQdTWLcyXGo39okiAZG8DuBVQWtxlmy0C2msozMreZ1JBxVtdAslGFQ/i1aEO VUr2zUo7+lNyYGUNBs+MqeD69ajvbGzi8qBYV3yN1x2ra4rnNakeLUYmD/NwoI7U4NtiNFEs7ViD 5aEdM9ap6tJC8UcqOpZG7Hsabbaet7K4upH81eoz2q5LotoLV1VCX2nBJzzV3SYIztJbEgGf9YpH 4g10sbbo1brkVylgdlmsneCf5uOgNdNaPuRhnODSmuoyQH94fpUlMx+84qTjmsWwDOB71j3sPlX3 2uSPzYiu0jGSK2BzQVBB7jvTi7MDDsFWXVDcW8flw7SpHqam1XUoLVkheIzSNyEAzWjtCSLtGB6C seby4vEiyTldrQ/IT2NWndgT2mowzRvE0EkMiqT5eOv0qqlnc314vmRvFZxkMFbqxq9FIl7eRyRc pFnL/wB4+laZHA4ocrAROBlcdqmXqKifII4qQckVADjyaGOAT2FBx171T1SfyNNuJQcFUNKO4HGq IrnVJri4JaJXyVHVznpXSx2lzf485jBb44ijODj3Nc5pljcXKtPDIgYMPvdc+tb+kverqM8NzN5g jUZx2NdMthmzFAkEKxRLhB0FPIGKXtVC91O1skJkfLf3Rya57NgWpTgcdq5/XNZjjgktIgHdxhjn p/8AXpr3Oo6wNtuhtrb++erUr6ZaacVmY+Y6rwrHO9vWtYRsI5+1gvXmYRW7cD5iwwAPU1oWGlPc XC5O8BssR90fjTpV1GVBEHUNI3KIc9fU11Vpbi3tkiGPlABwOpq5zsgJWGIyBxT0wFFRNwpzUmPl zXMwHg0ZxSKOOKXpSGMdsKfelUnYMUjjKGkTIXAoEKJAeD1p4P5VCB0yOc9qmzgUANZiVNNAOwVJ 0U0KMqKAMlQABjpUMIyJYj2OKmWP5Rkmq4jC3bDJ+YZ61otSR8coSzPPI4FTxgiBR7VjJdKZPLG9 trHOBVs3Nwwylq5A98UWA0Yx8oqSsoX0yYMlrKFx1XmrVvdwXTYjlw3XawwaTQF0fWqWosXjWBfv SHH0HerDDapYtgDk1WtYnuJGuXyM8Rg+nrSSAsQAJGqDoOBU2eOajRDgHOKeUOM7qBowtRQXOrjP K28e8g+tS2ci3GpO5ADCNRiqlirXeqXhY5JBFaGjwMsLkt8+7BOPStdkDNJBy3pmpQcVGiH5hu71 Jsb+8KyYIRmwhb0Ga5m5f7dfIin5nlGD6AV0NyrC2kG7HynpXLWcM6TpLEQZlBKqw+9WsFoDNm+m +xTRzhCcfKWH9a1EcSIGXlWGQao20i6lbSAqRkbXU/wmotLaWB5NPlPzRDMZ9VpMSKdpblLrUrTs /wA6irekXJeYxt12cn3FMdHh8RxEkfv4iPxFWLKDyr24Tau5SGU+x7UPYdzUGA/4U/8AGoQrb8Z6 1JtfgVlYZJgCk4pu1znmlw2OooQCEfvF5+lQ3Nhb3e0TxhivSpSDvHOKUq/XIpgNhgSBAkaKijsB U2OKYQ47rQPM9RiiwCSDlfrTlBH0pjbjgnFKDIQcEcUAONY3iWTGnCEHBlcL+Fa4V8ZIFctq9r9o 1+CDc5MnLDdwBV043YGdqAk0i/EllONhA4U9+4Iq5o2rwpPLPdSkSOc7QOKRdOgvdYNvBGfs8J/e Hd1Ppmt1dFsk4FpFn3ya0bS3Ay7rX5bsmGzBRTwXbqKrW8ljbkvOHups/KuM81vto1oRxbIv+6SK db6Zb2sm+OFQ3rRzxSAoSPql0hCxi0iI4zy3/wBakg8Pr5gkuJpJSeeuK23Vip4GKPnAHArNzYEc FrFbptijVfXHU1YXpTPmPYUo3D0qGAsg/dtxSj7o+lNbfsJ4oG8jgCkwHrxmjGTSAP3GMUAv7Uhi uPkNNjHy0MxCngUg37RgCgQ/GBzSjp0qLEmc5WpMt7c0AO4KmhB8oxUZDn0pyh9o6UAZy/cFUr2L dPGdxXIIOKvgYUYqpcpuu7dPUkmrQie1to7eABUGe5x1qZvuGlA446UpGFNJsY1BlBmoLnT4Lhdz Ltcch1OCKtKQE5qtIXun8tcrED8zDvTFYz47mRp1t7pj5O7Cyf3/AGNbagAcCq8trFNbGDaAAOMd jTNPmd4milH72IlT7j1oeoFpAcGnY4psX3akA4qRmLZCKHW74cLuC4qzdTmyOFHyu2en51Tvoo4d Vbz8iG4QDf8A3WFJK1wLc29xG08R+5NHyfatVqJmvbyJKGZGBBNTkZFchaELM6GW4Rs8BR/OtyKW 6njWGMMq/wAUr9fwocRC30xuN1pAcu3BwelVjGltqWn24zuEZyc1oR29vYo0vQ4+ZmNZenu2oa7J dEfJEu1fShaIC1c28ttdG8tB0H72Mfxim3kvnwJqNn/roRyvcjuDWtj56z7y0aEvc2ow38adnpJg Uri6S9m0m8jBVTIVK9xmt5YVExl/iIANYMywyWEFxbowCSqxjA5U55rX/tK2DbSxB75BFEkxlkgi XPtmpc5rPk1ezjJYzDAHPBqv/wAJHZZ+UsfwqeSTGbI460jdCaxX8TW/RUYn3pBr6vn90oHu9P2c gNg/fWn1hNrrEjCRDn+9S/2zI3G6AenJJp+zkBt0ViLqkjH/AFy++1M05dTy23dMxPZUpcjA1pO3 1pyg9CKyG1B1x/ot2w9dvFTJqU5OF0+4we7YFHKwNQDtXG6nJM+uS+Qx8zPlqR1FdHaakbtpB9ne MIPmLHjNN062QxGcpl5XL7jyfanF8oGfHp97pdgwhZZGB3ELwSabZa3cecI761eNWOFcrjmugcAp +NZevtiwWPu8igfnT5ubcDV460wkhj3FPjj2xID2GKCMGsgGuMocUowQOOlDD5D6U9F5Ge9FwGHi lpWGTxQR+dK4DXPyGlGABjpSSDCH1pygFR9KYCg5NNbPpSgUvUdKQyJ+mSKRAWUHPSnv80Z4pI14 H0oEL1pxHSlC4NKV4oACPlPriiMZUUuPlNCH5R9KAMwZxyaoSSBdQSSQ4VR+WauiMlcbiMiq0VuJ 2mZmyrfL+FaIk0FwQCOh70jZCsR1ArP0wyeQ8DucwuUH07VcZWZSM4ApWHcjUtOgA4XuasooQACo LdT5Qwam8th/FSAr3SmCQXUeTjiRfUVEXC6lFMnMc6Y/GrpVtuCQQaxZt1vcx227AWQMhHoaa1E2 bcPzKSeBUgIFQwh9vHSpQG6cVL3GiOe3iuoWilUFWrHfRLy2P+hXrIn91+cVuBW9qUhsdqpSsMwV /taBnYpDMfXpVWDVNUubxrdfKSROoNdHtYlhjvWDqsTWGsWt+qgK7bHx3q1K5JI+nalduPtE67fQ dMVs2dnHZ24ijHHUk9SalTceccelOJY9hUuTHYRR+8+gpxGc0z5xIc4pwL5xgVIGNqWbC4SVCyxS HEmOg96YDZSkudT3Z7MRxW3JH5ilXQMD2IqA6dbHH+jRf981akuoFBLTT2Zf9JViefvCpxa6eGwZ osjtkVIdLtC4zax9PSlOlWeMfZENPmQDlt7HPWI/iDTza2IP3YevtUf9j2fP+jKPbNC6NZqf+PcZ 92NF13Ae0NgGXiDr7U7/AENecwD8RUTaRaZH+jL+dKdKtM5Nqp+tK6CxY862QDEsQ9MMKct1atyJ YzjrhhVY6ZZqATaJ+VV7j+y7XAlhiUkdBQlcZoPcwOF2zRnn+8Kr396kCKkbBp5vlRVOc+9Ysslr cErY6c74OCwGAajgjv7S6+0Lp7MQMDIzj6VooAdHZ2Xk2IhkIJOSxHcmre0KoAAAAwAKwDrmoKRv 0yQf8BNL/aWtXIxDp6xg/wAT8fzrNwYGxcTxwwl3YKM9zWPDP/a+rLIFP2W25B9WoTSp7hjLqcjS NkYjU4X/AOvWpEiwKEjjCqOgFF1HYCznjFLimBz/AHTSh2/uGsmAOMIacg6GmO7FfuEU9XOB8hoA cRzkUbaYXf8AuGl3MeimgBXUbDmkVRgUjb9rfLSbnCgbc/jTAfs5yKcEzTA8naP8zS75Of3ePxpA K64UntSIPk6UhMhQ5Xj60gchcbaAH4/Kkcjjmm7nOAF/WmMX4yuDQBNng/ShRlBg0zc+D8lKrMFH y0AY91MIogB95uAKnhjWKBV6cZJ96ydKMl9ILiZtwjyq+5q5fyNKRaQH944+Yj+EVq1YkTS08w3E 2TtklO3j0q1dyeVCQv324ApvmwafbqjEBVGAO5pkSPcubiRSqj7imkMs267YkX0FS4pkf3BUmKhj Exmsy+gVtRs5O+4gj2xWqBis67O/VLSNeoDM30xTiIuw9DmpRzTIBwcVJnHUdaljQnFB607A5pCK AGqAXas/X7UXGkTDoUG8fhWggHmNVbUpVi06d2IxsI5NOO4DNFuGuNLgkdsttwT9KvkZrN0KIxaR ArdcE/ma0yMiiW4EfWX8KlAqIAiUfSpM5IpCQuO9GKXPpQAaBjSMOufSnDmkcfOKcBg0CF7dKWlx TGIRSzEBR1JoGNfhk54zVW81O2s/vtufP3V5Oaz7rUZ7+UWth2PzSkcAVdstIgtT5jfvZj1dvX2H atbJLUCko1bVDksLS3PTj5j/AIVYttBtYPmkBmkPVnOa1VFOIFTzvoBWMSRooRQoBwABxUjDIokH A+tOI4qW2AgGB1pfpzSqOOacF4pXGRPyh470ADg4p0o+XpxQBg0wHKAetKF69xQB60o4+lIQ2T/V 0gPA+lOk/wBWab6YpoY49KdnFAGRSd6TARslT9KRBx7UrnC0g4QUXEOHemsTnGaUZpGHNAxW4jNI p+UZNBGVNIoyooENJIbinE9DSGMqc5qRQcYNADGkIWmoRsyTUhjDA96EjBjGR2oA4qxmvUg+zW0A U/xSHoDV60027TcZbnDt95gOTWkkBRQBjH0qQI4/iFayl2EivDp8MR3tukf+85zVsn5TTdj560pD kHmouAsYylSCoV3hRjFOy6jORgdaLAOlkWGJnc4VRkms7TUeeaW9lGDJxGPRaY/marN5a/8AHqh+ Zv759BWoEZVAUAADpRsMIiQD6ZqQHn1qFA/PTrTxv6gDNSK5JilxxUW6QdVFKGcdV5PSgbEGPMas W8ZtV1NLFP8Aj2iO6Y+p9M1c1O+aytpGCjzG+VPrTdJtTZ2igpmV/mdiepNWlZXFc0lVY0CoAFAw BTwai3MRytLuYD7tQwFJxKPpTwM4qJSxfO3kVIGYfw0AiQDApRxUe9h/CaUMx6oRQAN99af3qMsd w+U0/ceu00AOOAMk9PesG6ml1i4NrbkrbKf3kmOv0qTV7qSeaPT4CQ8hy5HULWjawRWkCxRLhR+v vWiXKrjEitYraKOKJQqg/n9atA1G7crlT1pwf/ZNS9QHgc0uKj34H3TTw4PY1IDXGQMetPIAXBqJ n5AwcZpzPnPB/KmwHLjFKDTFPHQ0pfH8JpALIMoaMDj1pruSuNppC5zjBpgS0H3pgk/2W/KlDjur flSAR/uNSLyR9KSR8jABx9KcGAUcHp6VQDg2DilIJ6VHvUkHa35U4Sj+635VIAwypz6Uqr8ozTXc FT8p/KmpLgcq3T0p2AlIwabjJpDKD2NIJBnofypAOJKqRihPuAUF12ng/lQrgKPlPT0oAXBJxTgM GmCXnofyp3mA9FJoAceh4pEPyDvTWk46NSK+FGAaAKKfdp2PWqpvrdF/1gJ9BTP7Siz8qSN/wGqs JF3NBIAPNUxdXEuPLtiAT1Y0klvezK2+cID2QdKLDZLJeQ20e6VxnPCjkn8KqgXOpn5laC27g/ef /Cp7TToIgHK75O7tyavAAdRQ3YSGwxRwxLGigKOBipDnrSAdKd1FSMjj7/WnjINMiBBb61JQICKW jmkzQMwr6M3PiG3gY5jVd5H0rcVeKxZv3fiiBs/6yIg1uDoKuWyEAAoxz7U4CjHNQMZj94B7VJio yQJRx2qXsDmgBAuRyKeAMdKQfpTqAImOHFJPOsFu8r9EUmnPwy8Vka7I0ggsUOGuHAb6VUVqFg0S 3aQS6hMP3k5yM/wrWwQM9KIoxHEsajCqAAPanHrRJ3YDHJAX60/BwKZJyV54zUlK4CbTkUuKWjGa QDHHA9c0pOOtJNwB9aXGRQAKeKdnNNVTTivpQA1xlc0mOlK+ShGKXsKYxRgjpSHilUcUzuRSAHbC GkU5A54xTZAdpPtSocKPpTuIkFKTTS2BmlzxSGD52HvSKcqKQscMPak2kKDTuIcRzS0g9+tBpAKe AaRTlAaG5U/SmRtlQO9ADt3NPSmHmnqaAHdjSL92lz1pE+4KAMhYYlAwijHHSpVVR0A49qbhtvOK AHzjjFUJEo56UHgE03DjsKRt+DwKBsfEfkqTPBJqBCxUYFOO8j7opWEiYUhNMBcfw0MzEY2/rSAI +rfWpBUEbtk8ZqTc2R8tDBEvekNNLt/cNBYr/AaBmJrWYLu1vQPlicB+Ogrbt5EmiWRDlWGRULqJ i6PHuVhyDWJm70GdjFG81kxyV6lK0tzKwjpjxRkHpVC11W2vR+5fd6joRVwSjAwDUOLAUjEoPtUg IqEuPMHB6U8SgHofyosFyUUE4zTPNHHB/Kmy3MUSb5G2qO5oSYxs8qwqJJGCqvJNZWmRtqGoSalK MIvywr6e9Vri5bXLoQQ7haKcvJjqfQVvQCKCJY0BCqMAYrRrlQE/T8aKjMqj1/KneYpH/wBas7AM kbkY9akXJqN2UsAc9akVlFFgHc04e1R+YvrTg6464osASqNo+tLgYpryIV680vmqB70WAVR60oFR iQE9af5i+tKwA4whNB6CmSSKVIzSeYoA56e1OwIlxxSMABmlEqEZzSGRccGkMjkb92RjrSIpwPTF DMNhPenIw2j6U7CF246dKNp/KnBhjk0okWkMa65Q0zrGvrT3IIODTMgIMHpTsA0kq2SKU5ZQelBZ WI5p4Cn+LikAw58sjrSIOFPY1JIV2EA8/So0dfLANMBzZDU5ev1pN6cfNQWQnrmkBLt4NJH9wU0y gAj2pEI2jJoEUlGVp2BQp4H0p3WgBO1IQdvPen4yKDwDQBHEMLT6bEcpUmOKdwEpp6U6lAyKQEUY wTxUo681HGfmYH1qTpQJDs80AcUgp3agYwD96fYUpAYEEZB4pu794RipAMU7gY914ftJX8yLdBLn O6M4/SqxXXLEqExdxg9CcGuiIoAqlNgc4dfu4mXz9LlGO4qRfFCMMGwud/YAda2mALipAnSq5o9g MNdV1e8bbbab5Yx9+XjH50JolzduJNUu3l/6ZocKPxre2c0oAHFLn7AV44IrdI44owiDoFFTqOAc Ujrgp7mpOlQ22Au2kwaUHnrSnk0rgRyD7p75p2DSSDgfWlZwiFmIAA71S1AUsqLuYgAdSa5O/wDE 1yZs2caiAHaHYZLH1x6UmteJkmgns7XjcdokBxkd6ihgtbbU7YZieJoTs3HjOK2pw7gT2niz5vKu o1z/AHk4/Suktr+1u1zBMj8cjOD+VcBqESrcsFRA47IcjNBnvCiP9nbgZWRF5x68VpKkmB6MMHNL jmuJ0rXrwuYzcwucceecfrXQpq0kJX7dB5akcSRHcn/1qwlTaA1JBlGpgHyj2oWWOWAvE6upHBBz SnhRUMY8AY6U7AI5FJ2pwbNSAxwAhx0pEAKDinN900RgFQc0XAeAMUu0GmilzmgBHUFTxQoygwO1 DnKmkThRzTuABAM8DNLtHpS859qUnFIBjKpXBAqIIpUYqZmGDxTUGUFO4hAvFLgCl6UZpDFwCKRV /djml4pIwSnWgRQQcUucmiigBQeaCaKKAGR9Kk60UUAKOooJoooAjjAy31qTHeiimAuefrSkcUUU gIxxMfpU2KKKGAuKUDmiigCNh+8X6VIDgUUU2Ad6UcGiikAyUkMv1p+KKKYBinA8dKKKQMSQ8fjW Brly8kFyM4gtwC6jguT0H0oorWmtQMK30KOaO0nkmb9/JgqB0Fb83h9TAIQ0bRqONy8/pRRWrbTG Yd1DPpyywo6bHHI25/WqlpLNFCWineNk4wOhFFFbJ6CKk8guJS7qof1UYzU9pc3UDAQXDr7Hlfyo opsC1FqmJdrxmKRjy8D7c/UVuRa1NbzJBcgTK5G1wMEfWiispJWA6NDuA96fiiiuR7jGPwCKVD8g +lFFCAAeaOaKKTAQ52EiiJvkH0oopgPPJpM0UUgEIxk0IcItFFNAheuaAKKKQC9aIv8AV0UUCP/Z  "
       height="622.13062"
       width="568.15582"
       inkscape:export-filename="E:\Art\GIMP, PS, InkScape\Cats IT\cat-programmer.png"
       inkscape:export-xdpi="143.77499"
       inkscape:export-ydpi="143.77499"
       style="opacity:0;fill:#000000;fill-opacity:1;stroke:none" />
    <g
       id="g5637"
       transform="matrix(1.0788603,0,0,1.0788603,-26.995489,-21.331182)">
      <path
         sodipodi:nodetypes="csssscc"
         inkscape:connector-curvature="0"
         id="path3804"
         d="m 412.91741,494.47933 c 0,0 15.34755,-17.13509 17.7144,-22.65794 2.06414,-4.81648 4.79232,-10.057 6.33304,-11.77735 1.37431,-1.53455 7.25375,-4.43145 12.41329,8.63877 5.15955,13.07025 4.12763,33.70746 2.75176,49.18537 -1.37588,15.47791 -3.09572,26.48441 -3.09572,26.48441 z"
         style="fill:#80a8b1;fill-opacity:1;stroke:#aac5cb;stroke-width:1.20404673px;stroke-linecap:butt;stroke-linejoin:miter;stroke-opacity:1" />
      <path
         id="rect3778"
         d="m 166.75765,709.11541 c 34.50543,95.0835 114.01016,161.65076 206.60577,161.65076 92.59561,0 172.10034,-66.56726 206.60577,-161.65076 l -413.21154,0 z"
         style="fill:#4c737c;fill-opacity:1;stroke:#2c4349;stroke-opacity:1"
         inkscape:connector-curvature="0" />
      <path
         style="fill:#80a8b1;fill-opacity:1;stroke:#aac5cb;stroke-width:1.20404673px;stroke-linecap:butt;stroke-linejoin:miter;stroke-opacity:1"
         d="m 370.31246,494.34144 c -2.0343,-13.09678 -3.75401,-21.82187 -5.21134,-27.65107 -1.6738,-6.69501 -4.54688,-11.94649 -6.21945,-14.06103 -1.05955,-1.33954 -5.68767,-5.9934 -15.16183,4.38433 -9.47419,10.37775 -15.36957,29.78742 -19.59341,44.74132 -4.22386,14.9539 -1.91336,25.12204 -1.91336,25.12204 z"
         id="path3806"
         inkscape:connector-curvature="0"
         sodipodi:nodetypes="csssscc" />
      <path
         style="fill:#203136;fill-opacity:1;fill-rule:nonzero;stroke:none"
         d="m 452.32616,714.12259 -126.44125,0 c -4.80931,0 -7.19262,2.65548 -8.68103,4.88149 l -34.48471,51.57391 c -1.48844,2.22602 3.8717,4.88148 8.68101,4.88148 l 126.44126,0 c 4.80928,0 7.1926,-2.65546 8.68103,-4.88148 0,0 34.01773,-50.87552 34.48471,-51.57391 0.46698,-0.6984 0.38741,-3.3699 -0.0136,-3.68211 -1.15443,-0.89897 -6.26286,-1.19938 -8.66752,-1.19938 z"
         id="path3831"
         inkscape:connector-curvature="0"
         sodipodi:nodetypes="ssssssszss" />
      <path
         style="fill:#2c4349;fill-opacity:1;stroke:#203137;stroke-width:1.20404673px;stroke-linecap:butt;stroke-linejoin:miter;stroke-opacity:1"
         d="m 225.1102,789.59141 c 0,0 14.79068,-1.03187 17.88641,-3.7835 3.09572,-2.75162 4.81555,-20.46522 3.0957,-29.40801 -1.71984,-8.9428 -15.30662,-15.47791 -22.52997,-15.47791 -7.22335,0 -16.33854,6.87906 -18.05838,12.72627 -1.71985,5.84722 -2.57978,26.82837 0.51594,30.2679 3.09573,3.43953 13.58679,5.67525 19.0903,5.67525 z"
         id="path4111"
         inkscape:connector-curvature="0"
         sodipodi:nodetypes="csssssc" />
      <path
         style="fill:none;stroke:#203137;stroke-width:1.20404673px;stroke-linecap:butt;stroke-linejoin:miter;stroke-opacity:1"
         d="m 204.988,779.96069 c 0,0 13.75878,6.19117 19.60624,6.01919 5.84748,-0.17197 18.66034,-2.8376 20.03621,-4.04143"
         id="path4113"
         inkscape:connector-curvature="0"
         sodipodi:nodetypes="csc" />
      <path
         sodipodi:nodetypes="csssscc"
         inkscape:connector-curvature="0"
         id="path4148"
         d="m 367.56073,491.04405 c -1.40249,-9.06926 -2.58808,-15.11123 -3.59279,-19.14785 -1.15396,-4.63616 -3.1347,-8.2727 -4.28782,-9.73699 -0.73047,-0.92761 -3.92117,-4.15032 -10.45285,3.03607 -6.53166,7.18639 -10.59605,20.6272 -13.50805,30.9825 -2.912,10.35528 -1.31911,17.39654 -1.31911,17.39654 z"
         style="fill:#709da7;fill-opacity:1;stroke:none" />
      <path
         style="fill:#709da7;fill-opacity:1;stroke:none"
         d="m 418.42093,492.24504 c 0,0 12.17953,-14.17158 13.77931,-17.93551 1.39518,-3.28256 1.86332,-4.18843 2.90472,-5.36089 0.92892,-1.04584 4.47296,-3.19211 7.96039,5.71553 3.48742,8.90765 2.78992,22.97234 1.85994,33.52086 -0.92995,10.54853 -2.09244,18.04968 -2.09244,18.04968 z"
         id="path4150"
         inkscape:connector-curvature="0"
         sodipodi:nodetypes="csssscc" />
      <path
         style="fill:#80a8b1;fill-opacity:1;stroke:none"
         d="m 268.55361,709.084 c 0,0 -11.11029,19.11174 -16.26983,36.48141 -5.15954,17.36965 -3.18171,25.19458 -8.25526,31.64372 -5.07354,6.44914 -19.09027,8.59885 -24.07785,6.19118 -4.98755,-2.40769 -17.8864,-10.31862 -12.38289,-33.70745 5.5035,-23.38884 19.81786,-64.00277 33.02106,-82.54885 13.20319,-18.54607 38.88579,-35.03796 43.34011,-42.65023 4.45432,-7.61229 19.17882,-53.97627 24.76579,-79.10931 5.58698,-25.13305 25.45373,-47.46559 39.90044,-52.96884 14.44671,-5.50325 42.97885,-5.4234 52.61,-4.04757 9.63113,1.37581 31.87766,5.25646 42.32551,19.18151 10.44786,13.92507 14.07831,40.53049 16.51053,61.91165 2.43223,21.38116 15.13464,52.28094 22.01403,63.28744 6.87941,11.00652 34.11197,52.35721 37.14867,63.28744 3.03672,10.93022 4.16937,27.10973 -4.81557,35.08326 -8.98493,7.97353 -40.58836,25.45255 -54.34713,26.14048 -13.75878,0.6879 -27.51753,-13.75815 -22.01403,-28.2042 5.5035,-14.44606 27.17356,-17.19767 31.3012,-19.9493"
         id="path4136"
         inkscape:connector-curvature="0"
         sodipodi:nodetypes="czzzzzzzzzzzzzzzzc" />
      <path
         transform="matrix(0.99320691,0,0,0.99320691,6.5276234,-1.7062559)"
         style="fill:#ffffff;fill-opacity:1;fill-rule:nonzero;stroke:none;filter:url(#filter5628)"
         d="m 280.54801,665.43645 128.43005,0 c 4.88495,0 8.34224,3.95563 8.81758,8.81718 l 9.10849,93.15537 c 0.47534,4.86154 -3.93264,8.81718 -8.81758,8.81718 l -128.43006,0 c -4.88495,0 -8.34223,-3.95564 -8.81758,-8.81718 l -9.10848,-93.15537 c -0.47536,-4.86155 3.93265,-8.81718 8.81758,-8.81718 z"
         id="path5534"
         inkscape:connector-curvature="0"
         sodipodi:nodetypes="sssssssss" />
      <path
         sodipodi:nodetypes="sssssssss"
         inkscape:connector-curvature="0"
         id="rect3812"
         d="m 280.54801,665.43645 128.43005,0 c 4.88495,0 8.34224,3.95563 8.81758,8.81718 l 9.10849,93.15537 c 0.47534,4.86154 -3.93264,8.81718 -8.81758,8.81718 l -128.43006,0 c -4.88495,0 -8.34223,-3.95564 -8.81758,-8.81718 l -9.10848,-93.15537 c -0.47536,-4.86155 3.93265,-8.81718 8.81758,-8.81718 z"
         style="fill:#2c4349;fill-opacity:1;fill-rule:nonzero;stroke:none" />
      <path
         sodipodi:nodetypes="czzzzzzzzzzzzzzzzzc"
         inkscape:connector-curvature="0"
         id="path3776"
         d="m 270.25615,704.46296 c 0,0 -12.81285,23.73277 -17.97239,41.10243 -5.15953,17.36966 -3.18171,25.19458 -8.25525,31.64372 -5.07354,6.44915 -19.09027,8.59885 -24.07785,6.19117 -4.98755,-2.40768 -17.8864,-10.3186 -12.3829,-33.70745 5.50351,-23.38882 19.81787,-64.00276 33.02106,-82.54883 13.2032,-18.54607 38.88579,-35.03796 43.34011,-42.65023 4.45433,-7.61229 19.17882,-53.97626 24.7658,-79.10931 5.58696,-25.13305 25.45371,-47.46558 39.90042,-52.96883 14.44671,-5.50327 42.97886,-5.42341 52.61001,-4.04758 9.63113,1.37582 31.87766,5.25645 42.32551,19.18152 10.44785,13.92505 14.07831,40.53049 16.51052,61.91163 2.43223,21.38117 15.13465,52.28095 22.01404,63.28745 6.87939,11.00652 34.11196,52.35721 37.14867,63.28744 3.03672,10.93023 4.16937,27.10972 -4.81556,35.08326 -8.98494,7.97353 -40.58838,25.45255 -54.34715,26.14046 -13.75877,0.68792 -27.51753,-13.75812 -22.01403,-28.20418 5.50351,-14.44606 26.82959,-16.50977 30.95724,-19.26139 4.12763,-2.75164 11.69495,-13.75815 17.19845,-16.50977"
         style="fill:none;stroke:#aac5cb;stroke-width:1.20404673px;stroke-linecap:round;stroke-linejoin:round;stroke-opacity:1" />
      <path
         sodipodi:nodetypes="czssccscssscc"
         inkscape:connector-curvature="0"
         id="path3764"
         d="m 379.43424,576.42316 c 5.44519,0.59499 8.85077,-6.99827 9.83531,-6.36003 0.98452,0.63824 -2.54699,7.49493 -7.61034,8.46986 -2.72958,0.52556 -1.7891,4.28813 -0.47295,5.89021 1.31615,1.60208 15.47861,1.89174 16.59652,2.40766 1.2551,1.98991 -0.52423,1.75447 -1.97782,1.63378 -1.71985,-0.12898 -9.83539,-1.49404 -17.2791,-1.6499 -7.4437,-0.15584 -14.21559,0.89753 -15.31199,1.13406 -1.46186,0.25792 -1.68688,-1.08644 -0.0432,-1.4618 2.21995,-0.50687 11.222,-1.28981 12.42589,-2.23568 1.2039,-0.94588 2.96412,-4.66617 1.33289,-5.84722 -3.30247,-2.39109 -6.4142,-8.14794 -5.03055,-9.37273 1.75734,-0.33763 2.74545,6.96347 7.53518,7.39179 z"
         style="fill:#79364b;fill-opacity:1;stroke:none" />
      <path
         style="opacity:0.49416342;fill:#ffffff;fill-opacity:1;stroke:none"
         d="m 324.69449,548.38352 5.10768,-23.59155 44.75302,3.40497 -2.91868,26.02367 -7.5399,13.37664 -20.18751,-0.48642 -19.45783,-6.08028 z"
         id="path4138"
         inkscape:connector-curvature="0" />
      <path
         inkscape:connector-curvature="0"
         id="path4140"
         d="m 441.68473,562.48981 2.67546,-28.21259 -46.69881,-2.91853 -2.43222,28.45579 3.16189,7.78277 17.0256,3.40497 18.48495,-1.21605 z"
         style="opacity:0.49416342;fill:#ffffff;fill-opacity:1;stroke:none"
         sodipodi:nodetypes="cccccccc" />
      <path
         sodipodi:nodetypes="cassscscssccsccccsscsssccccsscssscccccscscssscccccccccscscccccsscsssccccccccssssssccc"
         inkscape:connector-curvature="0"
         id="path3756"
         d="m 300.70662,506.60502 c -2.6001,0.45217 -3.32027,1.00778 -4.84014,1.82105 -0.60506,0.32377 -1.25526,0.79208 -1.67217,1.20087 -0.4169,0.40878 -0.82358,0.90918 -1.27691,1.4471 -0.90666,1.07585 -1.90937,2.3781 -2.85179,3.66034 -1.88484,2.5645 -3.53282,5.02233 -3.53282,5.02233 -0.70836,0.87427 -0.4944,2.33802 0.43456,2.973 0.92897,0.63496 2.37059,0.30279 2.928,-0.67465 0,0 1.62337,-2.41249 3.44769,-4.89464 0.91216,-1.24108 1.87803,-2.49408 2.68153,-3.44752 0.40175,-0.47673 0.75343,-0.88629 1.02154,-1.14918 0.96733,-0.63746 2.91079,-1.63872 4.38409,-1.91529 1.5955,-0.27747 3.29986,-0.17207 5.57589,2.00041 5.19026,4.95412 17.31719,15.63554 18.55791,16.72689 l -3.61794,23.96245 0,0.0851 c -0.0236,0.1249 -0.40346,2.30978 0.12763,4.89465 0.54666,2.66032 2.32631,5.98216 6.34203,7.32067 3.54912,1.18298 10.72403,2.82867 18.08971,3.78803 3.68285,0.47967 7.36986,0.75931 10.68357,0.72355 3.31372,-0.0359 6.21835,-0.33949 8.51281,-1.44711 2.84152,-1.3717 4.26546,-4.46566 5.61845,-8.12935 1.35299,-3.66369 2.42935,-8.05654 3.27743,-12.34301 1.46673,-7.41333 1.94044,-12.65415 2.1282,-14.42854 l 17.45125,1.36199 -1.48974,20.9831 0.0425,0 c -0.0258,0.19166 -0.4062,3.07188 0.7236,6.42687 1.16781,3.46787 4.20419,7.4479 10.30049,8.93804 5.72838,1.4002 11.95862,1.79586 17.28099,1.70248 5.32237,-0.0934 9.63208,-0.6203 11.91793,-1.19174 2.52874,-0.63216 5.10089,-2.3605 7.36358,-4.72438 2.26269,-2.3639 4.15801,-5.42693 4.59691,-8.93804 0.71201,-5.69578 1.70067,-20.18354 1.83026,-22.04716 0.33375,-0.0343 0.65856,-0.15242 0.9364,-0.3405 l 19.835,-13.27936 c 0,0 1.57064,-0.85311 3.23487,-1.06405 0.83211,-0.10542 1.6052,-0.0553 2.21332,0.21281 0.60811,0.26808 1.12082,0.70156 1.61744,1.83017 2.64162,6.00343 3.23486,8.43945 3.23486,9.8744 -0.0153,1.07933 0.96358,2.07207 2.04307,2.07207 1.0795,0 2.05835,-0.99274 2.04308,-2.07207 0,-2.45644 -0.86612,-5.37715 -3.57538,-11.53432 -0.84112,-1.91154 -2.19057,-3.24895 -3.70307,-3.91571 -1.5125,-0.66677 -3.05761,-0.67889 -4.3841,-0.51075 -2.65298,0.33628 -4.76716,1.53224 -4.76716,1.53224 -0.0436,0.0269 -0.0862,0.0552 -0.12763,0.0851 l -19.32406,12.98143 -49.16145,-3.83059 c -1.00658,-0.0766 -2.00534,0.70669 -2.17077,1.70249 l -0.17025,1.06405 -17.40869,-1.40455 0.21282,-1.48967 c 0.14123,-1.09668 -0.77015,-2.21516 -1.87282,-2.29835 0,0 -35.47044,-2.70928 -41.49992,-3.40496 -3.49413,-0.40316 -5.92523,0.89901 -7.06563,2.55371 -2.69798,-2.37828 -12.44999,-10.95684 -17.06816,-15.36491 -3.07489,-2.93496 -6.50861,-3.55919 -9.10871,-3.10703 -2e-5,0 -4e-5,0 -6e-5,0 z m 32.73173,19.96162 c 6.2738,0.72387 36.24726,2.98505 39.54197,3.23472 -0.69597,6.16586 -1.39035,12.27997 -2.42615,17.6207 -0.82408,4.16514 -1.84095,8.43368 -3.06461,11.74713 -1.22364,3.31345 -2.84759,5.54278 -3.53281,5.87357 -1.23227,0.59485 -3.78495,0.98883 -6.81024,1.02149 -3.02529,0.0327 -6.5772,-0.26079 -10.13024,-0.72357 -7.10608,-0.92553 -14.26309,-2.56929 -17.28099,-3.5752 -2.5513,-0.85039 -3.29508,-2.47792 -3.6605,-4.25621 -0.36543,-1.7783 -0.0851,-3.40497 -0.0851,-3.40497 5.9e-4,-0.0283 5.9e-4,-0.0568 0,-0.0851 l 3.66051,-24.38807 c 0.18528,-1.07228 0.31067,-1.68443 0.51077,-2.25573 0.28268,-0.47538 0.62318,-1.11492 3.27743,-0.80867 z m 64.9527,6.00126 44.30915,3.44752 c -0.13403,1.90055 -1.17075,16.55861 -1.83026,21.83434 -0.29075,2.32598 -1.67896,4.74737 -3.49025,6.63968 -1.8113,1.89232 -4.08537,3.23454 -5.4482,3.57522 -1.60571,0.40141 -5.90609,0.97502 -10.98151,1.06405 -5.07542,0.0891 -11.00024,-0.29967 -16.2169,-1.5748 -4.84872,-1.18519 -6.56734,-3.80835 -7.40614,-6.29918 -0.83878,-2.49083 -0.55332,-4.68183 -0.55332,-4.68183 0.002,-0.0425 0.002,-0.0851 0,-0.12761 0.42553,-7.92288 1.27556,-16.01453 1.61743,-23.87739 z"
         style="color:#000000;font-style:normal;font-variant:normal;font-weight:normal;font-stretch:normal;font-size:medium;line-height:normal;font-family:Sans;-inkscape-font-specification:Sans;text-indent:0;text-align:start;text-decoration:none;text-decoration-line:none;letter-spacing:normal;word-spacing:normal;text-transform:none;direction:ltr;block-progression:tb;writing-mode:lr-tb;baseline-shift:baseline;text-anchor:start;display:inline;overflow:visible;visibility:visible;fill:#0f1719;fill-opacity:1;stroke:none;stroke-width:3;marker:none;enable-background:accumulate" />
      <path
         style="fill:none;stroke:#0f1719;stroke-width:2.40809345;stroke-linecap:round;stroke-linejoin:round;stroke-miterlimit:4;stroke-dasharray:none;stroke-opacity:1"
         d="m 223.39036,788.21563 c 0,0 -0.44139,5.95259 0,9.6307 0.51594,4.29941 3.09571,15.13395 18.91832,14.78999 15.82256,-0.34395 45.74788,2.06372 59.85062,18.57349 14.10275,16.50977 6.54482,30.52399 14.10275,50.90511 5.19156,13.9998 50.56348,52.96882 84.27247,2.75164 33.70899,-50.2172 12.38289,-75.66977 18.23036,-90.11581 5.84748,-14.44606 16.51052,-20.29326 39.2125,-19.26141 22.70197,1.03187 20.29419,-3.78349 16.16655,-7.56697 -4.12763,-3.78349 -40.2444,-12.03837 -40.2444,-12.03837"
         id="path4119"
         inkscape:connector-curvature="0"
         sodipodi:nodetypes="cssssssssc" />
      <path
         style="fill:none;stroke:#0f1719;stroke-width:1.20404673px;stroke-linecap:round;stroke-linejoin:round;stroke-opacity:1"
         d="m 250.56393,772.22179 10.66304,-4.47139"
         id="path4179"
         inkscape:connector-curvature="0" />
      <path
         style="fill:none;stroke:#0f1719;stroke-width:1.20404673px;stroke-linecap:round;stroke-linejoin:round;stroke-opacity:1"
         d="m 250.21995,776.52121 12.3829,0.34395"
         id="path4181"
         inkscape:connector-curvature="0" />
      <path
         style="fill:none;stroke:#0f1719;stroke-width:1.20404673px;stroke-linecap:round;stroke-linejoin:round;stroke-opacity:1"
         d="m 250.04798,780.13273 9.97509,6.87907"
         id="path4183"
         inkscape:connector-curvature="0" />
      <path
         inkscape:connector-curvature="0"
         style="fill:#ffffff;fill-opacity:1"
         d="m 345.83521,704.22364 c -0.96131,0.003 -1.84482,0.35241 -2.39753,1.05495 0,0 -9.19603,11.6851 -9.19603,11.6851 -2.94528,4.77445 3.46049,4.19284 6.52106,5.55115 1.20026,1.01053 -3.494,1.78044 -2.29358,2.79182 1.20026,1.01054 6.43989,1.92933 7.64187,2.93986 1.20025,1.01053 -1.6417,2.10013 -0.44144,3.11066 1.20027,1.01053 3.32905,0.039 4.22125,2.38 0.6367,1.67288 4.31609,0.70152 5.93849,-0.67783 0.80298,-1.02003 -2.09622,-0.91165 -1.29309,-1.93083 1.99704,-2.53562 4.63087,-0.93842 4.98813,-3.47205 0.17641,-1.25198 -4.04435,-1.91122 -3.23951,-2.9304 2.55573,-1.68074 12.3049,-2.80999 6.6616,-7.47453 0,0 -14.24844,-11.99565 -14.24844,-11.99565 -0.86254,-0.68879 -1.90149,-1.03449 -2.86278,-1.03225 0,0 0,0 0,0 m 0.31966,1.10686 c 0.68676,6.3e-4 1.42029,0.25211 2.00932,0.74429 0,0 5.43259,4.54933 5.43259,4.54933 0.51568,0.43404 0.67513,1.27917 0.48184,1.52314 0,0 -2.6034,-1.77719 -2.6034,-1.77719 0,0 0.0744,2.64759 0.0744,2.64759 0,0 -2.07572,-0.97684 -2.07572,-0.97684 0,0 -2.64586,1.90106 -2.64586,1.90106 0,0 -1.77689,-3.97602 -1.77689,-3.97602 0,0 -1.07666,2.78465 -1.07666,2.78465 0,0 -2.47635,0.0107 -2.47635,0.0107 -1.00939,0.004 -1.37643,-1.26456 -0.63713,-2.17758 1.2667,-1.72091 2.76322,-3.47604 3.5643,-4.49268 0.4026,-0.51086 1.04275,-0.76107 1.72951,-0.76042 0,0 0,0 0,0 m -1.97229,17.80011 c 0.3435,0.18742 5.16307,1.1011 6.33272,1.28242 0.40889,0.0804 0.20876,0.48242 -0.27967,0.75562 -1.15823,0.32691 -7.54748,-2.0316 -6.05305,-2.03804 0,0 0,0 0,0 m 18.65506,3.12036 c -0.92672,0.0358 -1.75426,0.51224 -1.83458,1.3991 0.11294,0.57727 4.47829,0.93707 4.26466,-0.15481 -0.47728,-0.87557 -1.50335,-1.28017 -2.43008,-1.24429 0,0 0,0 0,0 m -19.14125,2.58538 c -0.0731,-0.002 -0.14634,1.1e-4 -0.21946,0.004 -1.287,0.0741 -2.49989,1.01259 -1.2039,1.9604 1.18663,0.86658 2.54358,-0.22811 2.77632,-1.4456 -0.33861,-0.35341 -0.84083,-0.50848 -1.35296,-0.51912 0,0 0,0 0,0 m 17.00074,0.002 c -1.08211,1.17032 0.60623,2.3456 1.75019,1.58756 0.23116,-0.29072 -0.26316,-1.30426 -1.75019,-1.58756 0,0 0,0 0,0"
         id="path2313" />
      <path
         transform="matrix(0.84768779,0,0,0.84768779,50.812895,49.113862)"
         id="path4352"
         d="m 348.03181,772.81965 c -1.13403,0.003 -2.17629,0.41573 -2.82831,1.24451 0,0 -10.84837,13.78467 -10.84837,13.78467 -3.47449,5.63232 4.08226,4.94621 7.69276,6.54858 1.41592,1.1921 -4.1218,2.10034 -2.70569,3.29345 1.41592,1.19211 7.59701,2.27599 9.01495,3.46809 1.41592,1.19211 -1.93667,2.47748 -0.52075,3.66958 1.41593,1.19211 3.92721,0.046 4.97972,2.80764 0.7511,1.97347 5.0916,0.82757 7.00552,-0.79962 0.94725,-1.20331 -2.47287,-1.07546 -1.52543,-2.27776 2.35586,-2.99122 5.46294,-1.10704 5.88439,-4.09591 0.20811,-1.47693 -4.77104,-2.25463 -3.82158,-3.45693 3.01494,-1.98273 14.51584,-3.31489 7.85855,-8.81755 0,0 -16.8086,-14.15102 -16.8086,-14.15102 -1.01751,-0.81256 -2.24314,-1.22037 -3.37716,-1.21773 0,0 0,0 0,0 m 0.3771,1.30574 c 0.81015,7.5e-4 1.67549,0.29741 2.37035,0.87803 0,0 6.40872,5.36675 6.40872,5.36675 0.60834,0.51202 0.79644,1.50901 0.56842,1.79681 0,0 -3.07118,-2.09651 -3.07118,-2.09651 0,0 0.0878,3.12331 0.0878,3.12331 0,0 -2.44869,-1.15236 -2.44869,-1.15236 0,0 -3.12126,2.24264 -3.12126,2.24264 0,0 -2.09616,-4.69043 -2.09616,-4.69043 0,0 -1.27012,3.28499 -1.27012,3.28499 0,0 -2.9213,0.0126 -2.9213,0.0126 -1.19075,0.005 -1.62374,-1.49177 -0.7516,-2.56884 1.49429,-2.03013 3.25971,-4.10062 4.20473,-5.29993 0.47494,-0.60265 1.23011,-0.89781 2.04026,-0.89705 0,0 0,0 0,0 m -2.32666,20.99843 c 0.40522,0.2211 6.09076,1.29894 7.47057,1.51284 0.48236,0.0949 0.24627,0.56911 -0.32991,0.89139 -1.36635,0.38565 -8.90362,-2.39663 -7.14066,-2.40423 0,0 0,0 0,0 m 22.00699,3.68102 c -1.09324,0.0423 -2.06947,0.60428 -2.16422,1.6505 0.13324,0.68099 5.28295,1.10544 5.03093,-0.18263 -0.56303,-1.03289 -1.77347,-1.51019 -2.86671,-1.46787 0,0 0,0 0,0 m -22.58054,3.04993 c -0.0863,-0.002 -0.17264,1.3e-4 -0.2589,0.005 -1.51824,0.0874 -2.94907,1.19453 -1.42021,2.31264 1.39984,1.02229 3.00061,-0.2691 3.27516,-1.70534 -0.39945,-0.41692 -0.9919,-0.59985 -1.59605,-0.6124 0,0 0,0 0,0 m 20.05542,0.002 c -1.27654,1.3806 0.71516,2.76705 2.06467,1.87281 0.27269,-0.34296 -0.31045,-1.53861 -2.06467,-1.87281 0,0 0,0 0,0"
         style="fill:#ffffff;fill-opacity:0.49145298;filter:url(#filter4594)"
         inkscape:connector-curvature="0" />
      <ellipse
         id="ellipse4603"
         style="fill:#0f1719;fill-opacity:1;fill-rule:nonzero;stroke:none"
         cx="412.53165"
         cy="560.04095"
         rx="11.883909"
         ry="11.883364" />
      <ellipse
         id="ellipse4605"
         style="fill:#ffffff;fill-opacity:1;fill-rule:nonzero;stroke:none"
         cx="345.40308"
         cy="558.45856"
         rx="4.4666409"
         ry="4.4664359" />
      <ellipse
         ry="11.883364"
         rx="11.883909"
         cy="556.18762"
         cx="351.30664"
         style="fill:#0f1719;fill-opacity:1;fill-rule:nonzero;stroke:none"
         id="path3768" />
    </g>
    <g
       inkscape:label="Inkscape Flat Logo 2 Color Variant"
       id="layer1-3"
       transform="matrix(0.87251559,0,0,0.87251559,25.155373,919.83787)">
      <g
         transform="matrix(0.3432319,0,0,0.3432319,-2.915043,-2.66029)"
         id="inkscape-logo">
        <path
           style="fill:#000000;fill-opacity:1"
           inkscape:connector-curvature="0"
           id="path2313-0"
           d="M 163.15,27.83 28.81,165.3 C -16.58,221.51 59.7,214.97 92.4,231.16 104.13,243.15 47.44,252 59.17,264 c 11.73,11.99 70.93,23.1 82.68,35.09 11.73,11.99 -24.01,24.71 -12.28,36.7 11.73,11.99 38.86,0.63 43.94,28.31 3.62,19.78 48.89,8.5 71.03,-7.7 11.73,-12 -22.44,-10.87 -10.71,-22.86 29.17,-29.83 56.33,-10.84 66.31,-40.73 4.93,-14.77 -42.94,-22.77 -31.19,-34.76 33.75,-19.71 150.4,-32.54 95.05,-87.89 L 224.75,27.83 c -17.03,-16.35 -45.45,-16.53 -61.6,0 z m 154.31,264.98 c 0,6.82 50.25,11.29 50.25,-1.61 -7.16,-20.72 -44.31,-19.32 -50.25,1.61 z M 91.1,329.05 c 11.9,10.29 30.28,-2.56 35.79,-16.92 -11.53,-15.32 -54.69,0.55 -35.79,16.92 z m 220.06,-22.23 c -15.34,13.76 1.72,27.72 16.84,18.83 3.37,-3.42 -0.09,-15.41 -16.84,-18.83 z" />
        <path
           inkscape:connector-curvature="0"
           style="fill:#ffffff"
           id="path2315"
           d="m 131,238.6 c 3.59,2.23 57.89,13.26 71.16,15.46 4.6,0.97 1.34,5.71 -5,8.91 -14.3,3.8 -83.66,-24.37 -66.16,-24.37 z" />
        <path
           inkscape:connector-curvature="0"
           style="fill:#ffffff"
           id="path2317"
           d="m 216.63,37.47 53.15,53.98 c 5.04,5.15 4.97,15.13 2.15,18 l -26.39,-21.11 -5.19,31.26 -22.05,-11.64 -35.31,22.31 -11.69,-47.03 -18.97,32.82 -29,0 c -11.82,0 -13.21,-15 -2.47,-25.74 18.76,-20.25 40.29,-40.89 51.99,-52.85 11.76,-12.02 32.25,-11.68 43.78,0 z" />
      </g>
    </g>
    <g
       style="font-style:normal;font-weight:normal;font-size:24.79919243px;line-height:125%;font-family:sans-serif;letter-spacing:0px;word-spacing:0px;fill:#000000;fill-opacity:1;stroke:none;stroke-width:1px;stroke-linecap:butt;stroke-linejoin:miter;stroke-opacity:1"
       id="text5340">
      <path
         d="m 569.53474,1015.036 2.44375,6.205 0.53125,2.04 0.0425,0 0.40375,-2.0825 1.89125,-6.1625 1.615,0 -3.57,10.8588 -0.82875,0 -2.78375,-7.0125 -0.40375,-1.7425 -0.0638,0 -0.425,1.7637 -2.6775,6.9913 -0.82875,0 -3.6975,-10.8588 1.84875,0 2.10375,6.1838 0.36125,2.0612 0.0213,0 0.51,-2.1037 2.27375,-6.1413 1.2325,0 z"
         style="font-style:normal;font-variant:normal;font-weight:normal;font-stretch:normal;font-size:21.25px;font-family:'PT Sans';-inkscape-font-specification:'PT Sans'"
         id="path5669" />
      <path
         d="m 585.14021,1015.036 2.44375,6.205 0.53125,2.04 0.0425,0 0.40375,-2.0825 1.89125,-6.1625 1.615,0 -3.57,10.8588 -0.82875,0 -2.78375,-7.0125 -0.40375,-1.7425 -0.0637,0 -0.425,1.7637 -2.6775,6.9913 -0.82875,0 -3.6975,-10.8588 1.84875,0 2.10375,6.1838 0.36125,2.0612 0.0213,0 0.51,-2.1037 2.27375,-6.1413 1.2325,0 z"
         style="font-style:normal;font-variant:normal;font-weight:normal;font-stretch:normal;font-size:21.25px;font-family:'PT Sans';-inkscape-font-specification:'PT Sans'"
         id="path5671" />
      <path
         d="m 600.74568,1015.036 2.44375,6.205 0.53125,2.04 0.0425,0 0.40375,-2.0825 1.89125,-6.1625 1.615,0 -3.57,10.8588 -0.82875,0 -2.78375,-7.0125 -0.40375,-1.7425 -0.0638,0 -0.425,1.7637 -2.6775,6.9913 -0.82875,0 -3.6975,-10.8588 1.84875,0 2.10375,6.1838 0.36125,2.0612 0.0213,0 0.51,-2.1037 2.27375,-6.1413 1.2325,0 z"
         style="font-style:normal;font-variant:normal;font-weight:normal;font-stretch:normal;font-size:21.25px;font-family:'PT Sans';-inkscape-font-specification:'PT Sans'"
         id="path5673" />
      <path
         d="m 607.54302,1024.6835 q 0,-0.5737 0.31875,-0.8925 0.34,-0.34 0.8925,-0.34 0.57375,0 0.91375,0.34 0.34,0.3188 0.34,0.8925 0,0.5525 -0.34,0.8925 -0.34,0.34 -0.91375,0.34 -0.5525,0 -0.8925,-0.34 -0.31875,-0.34 -0.31875,-0.8925 z"
         style="font-style:normal;font-variant:normal;font-weight:normal;font-stretch:normal;font-size:21.25px;font-family:'PT Sans';-inkscape-font-specification:'PT Sans'"
         id="path5675" />
      <path
         d="m 613.0647,1015.036 1.7,0 0,10.625 -1.7,0 0,-10.625 z m -0.36125,-3.23 q 0,-0.4887 0.31875,-0.8287 0.34,-0.3613 0.85,-0.3613 0.51,0 0.87125,0.3613 0.36125,0.34 0.36125,0.8287 0,0.4888 -0.36125,0.8075 -0.36125,0.3188 -0.87125,0.3188 -0.51,0 -0.85,-0.3188 -0.31875,-0.3187 -0.31875,-0.8075 z"
         style="font-style:normal;font-variant:normal;font-weight:normal;font-stretch:normal;font-size:21.25px;font-family:'PT Sans';-inkscape-font-specification:'PT Sans'"
         id="path5677" />
      <path
         d="m 625.21073,1025.661 0,-6.0562 q 0,-1.6575 -0.48875,-2.4863 -0.4675,-0.85 -1.7425,-0.85 -1.12625,0 -1.87,0.6163 -0.7225,0.595 -1.02,1.5087 l 0,7.2675 -1.7,0 0,-10.625 1.19,0 0.31875,1.2963 0.085,0 q 0.51,-0.68 1.36,-1.105 0.87125,-0.4463 2.06125,-0.4463 0.87125,0 1.53,0.2125 0.65875,0.1913 1.08375,0.7013 0.44625,0.51 0.65875,1.3812 0.23375,0.85 0.23375,2.1675 l 0,6.4175 -1.7,0 z"
         style="font-style:normal;font-variant:normal;font-weight:normal;font-stretch:normal;font-size:21.25px;font-family:'PT Sans';-inkscape-font-specification:'PT Sans'"
         id="path5679" />
      <path
         d="m 632.68808,1020.8798 -0.9775,0 0,4.7812 -1.7,0 0,-14.875 1.7,0 0,9.0525 0.87125,-0.2975 3.29375,-4.505 1.97625,0 -3.25125,4.2713 -0.87125,0.7012 1.0625,0.85 3.54875,4.8025 -2.10375,0 -3.54875,-4.7812 z"
         style="font-style:normal;font-variant:normal;font-weight:normal;font-stretch:normal;font-size:21.25px;font-family:'PT Sans';-inkscape-font-specification:'PT Sans'"
         id="path5681" />
      <path
         d="m 644.85404,1022.771 q 0,-0.6375 -0.3825,-0.9987 -0.3825,-0.3613 -0.95625,-0.595 -0.5525,-0.255 -1.2325,-0.4675 -0.65875,-0.2338 -1.2325,-0.5738 -0.5525,-0.3612 -0.935,-0.9137 -0.3825,-0.5525 -0.3825,-1.4875 0,-1.53 0.87125,-2.2313 0.87125,-0.7225 2.4225,-0.7225 1.1475,0 1.9125,0.2125 0.78625,0.1913 1.36,0.4675 l -0.40375,1.4025 q -0.48875,-0.2337 -1.19,-0.4037 -0.68,-0.1913 -1.46625,-0.1913 -0.935,0 -1.38125,0.3188 -0.425,0.3187 -0.425,1.105 0,0.5525 0.3825,0.8712 0.3825,0.2975 0.935,0.5525 0.57375,0.2338 1.2325,0.4675 0.68,0.2338 1.2325,0.6163 0.57375,0.3825 0.95625,0.9775 0.3825,0.5737 0.3825,1.53 0,0.68 -0.23375,1.275 -0.2125,0.595 -0.68,1.02 -0.4675,0.425 -1.16875,0.6587 -0.68,0.255 -1.615,0.255 -1.21125,0 -2.06125,-0.2337 -0.85,-0.2338 -1.42375,-0.5525 l 0.51,-1.445 q 0.48875,0.2762 1.275,0.51 0.78625,0.2337 1.59375,0.2337 0.91375,0 1.50875,-0.3612 0.595,-0.3613 0.595,-1.2963 z"
         style="font-style:normal;font-variant:normal;font-weight:normal;font-stretch:normal;font-size:21.25px;font-family:'PT Sans';-inkscape-font-specification:'PT Sans'"
         id="path5683" />
      <path
         d="m 656.39013,1024.9598 q -0.6375,0.4675 -1.50875,0.7012 -0.87125,0.255 -1.8275,0.255 -1.2325,0 -2.0825,-0.3825 -0.85,-0.4037 -1.4025,-1.1262 -0.53125,-0.7438 -0.78625,-1.7638 -0.23375,-1.0412 -0.23375,-2.295 0,-2.6987 1.19,-4.1225 1.19,-1.445 3.42125,-1.445 1.02,0 1.72125,0.17 0.7225,0.1488 1.29625,0.4463 l -0.48875,1.4662 q -0.48875,-0.2762 -1.08375,-0.425 -0.595,-0.17 -1.275,-0.17 -3.0175,0 -3.0175,4.08 0,0.8075 0.14875,1.5513 0.17,0.7225 0.53125,1.2962 0.3825,0.5525 0.9775,0.8925 0.61625,0.34 1.50875,0.34 0.765,0 1.36,-0.2337 0.61625,-0.2338 0.99875,-0.5313 l 0.5525,1.2963 z"
         style="font-style:normal;font-variant:normal;font-weight:normal;font-stretch:normal;font-size:21.25px;font-family:'PT Sans';-inkscape-font-specification:'PT Sans'"
         id="path5685" />
      <path
         d="m 658.56128,1015.8223 q 0.8075,-0.4888 1.87,-0.7225 1.08375,-0.2338 2.2525,-0.2338 1.105,0 1.76375,0.2975 0.68,0.2975 1.02,0.7863 0.36125,0.4675 0.4675,1.0412 0.1275,0.5738 0.1275,1.1475 0,1.275 -0.0638,2.4863 -0.0638,1.2112 -0.0638,2.295 0,0.7862 0.0638,1.4875 0.0638,0.7012 0.23375,1.2962 l -1.25375,0 -0.44625,-1.4875 -0.10625,0 q -0.19125,0.2975 -0.48875,0.595 -0.27625,0.2763 -0.68,0.51 -0.40375,0.2125 -0.935,0.3613 -0.53125,0.1487 -1.21125,0.1487 -0.68,0 -1.275,-0.2125 -0.57375,-0.2125 -0.99875,-0.595 -0.425,-0.4037 -0.68,-0.9562 -0.23375,-0.5525 -0.23375,-1.2538 0,-0.935 0.3825,-1.5512 0.3825,-0.6375 1.0625,-0.9988 0.70125,-0.3825 1.6575,-0.5312 0.9775,-0.17 2.14625,-0.17 0.2975,0 0.57375,0 0.2975,0 0.595,0.042 0.0638,-0.6375 0.0638,-1.1475 0,-1.1688 -0.4675,-1.6363 -0.4675,-0.4675 -1.7,-0.4675 -0.36125,0 -0.78625,0.064 -0.40375,0.043 -0.85,0.1487 -0.425,0.085 -0.82875,0.2338 -0.3825,0.1275 -0.68,0.2975 l -0.53125,-1.275 z m 3.0175,8.5212 q 0.595,0 1.0625,-0.1487 0.4675,-0.17 0.8075,-0.4038 0.34,-0.255 0.5525,-0.5525 0.23375,-0.2975 0.34,-0.5737 l 0,-1.7638 q -0.2975,-0.021 -0.61625,-0.021 -0.2975,-0.021 -0.595,-0.021 -0.65875,0 -1.29625,0.085 -0.61625,0.064 -1.105,0.2763 -0.4675,0.1912 -0.765,0.5525 -0.27625,0.34 -0.27625,0.8712 0,0.7438 0.53125,1.2325 0.53125,0.4675 1.36,0.4675 z"
         style="font-style:normal;font-variant:normal;font-weight:normal;font-stretch:normal;font-size:21.25px;font-family:'PT Sans';-inkscape-font-specification:'PT Sans'"
         id="path5687" />
      <path
         d="m 669.27327,1015.036 1.16875,0 0.31875,1.275 0.085,0 q 0.48875,-0.7437 1.25375,-1.1262 0.78625,-0.4038 1.785,-0.4038 2.125,0 3.16625,1.2538 1.04125,1.2537 1.04125,4.1012 0,1.3388 -0.36125,2.4225 -0.34,1.0625 -0.9775,1.8063 -0.6375,0.7437 -1.55125,1.1475 -0.8925,0.4037 -1.9975,0.4037 -0.78625,0 -1.25375,-0.1062 -0.44625,-0.085 -0.9775,-0.3188 l 0,4.42 -1.7,0 0,-14.875 z m 4.2925,1.2325 q -1.08375,0 -1.72125,0.5738 -0.61625,0.5525 -0.87125,1.7 l 0,5.27 q 0.3825,0.2975 0.87125,0.4675 0.48875,0.1487 1.29625,0.1487 1.46625,0 2.31625,-1.0837 0.87125,-1.105 0.87125,-3.23 0,-0.8713 -0.14875,-1.5725 -0.14875,-0.7225 -0.48875,-1.2113 -0.31875,-0.51 -0.85,-0.7862 -0.51,-0.2763 -1.275,-0.2763 z"
         style="font-style:normal;font-variant:normal;font-weight:normal;font-stretch:normal;font-size:21.25px;font-family:'PT Sans';-inkscape-font-specification:'PT Sans'"
         id="path5689" />
      <path
         d="m 688.52611,1024.811 q -0.6375,0.51 -1.615,0.8075 -0.95625,0.2975 -2.04,0.2975 -1.21125,0 -2.10375,-0.3825 -0.8925,-0.4037 -1.46625,-1.1262 -0.57375,-0.7438 -0.85,-1.7638 -0.27625,-1.02 -0.27625,-2.295 0,-2.72 1.21125,-4.1437 1.21125,-1.4238 3.46375,-1.4238 0.7225,0 1.445,0.17 0.7225,0.1488 1.29625,0.595 0.57375,0.4463 0.935,1.275 0.36125,0.8075 0.36125,2.1463 0,0.7012 -0.1275,1.5512 l -6.82125,0 q 0,0.935 0.19125,1.6575 0.19125,0.7225 0.595,1.2325 0.40375,0.4888 1.04125,0.765 0.65875,0.255 1.59375,0.255 0.7225,0 1.445,-0.255 0.7225,-0.255 1.08375,-0.595 l 0.6375,1.2325 z m -3.655,-8.5425 q -1.25375,0 -2.01875,0.6588 -0.74375,0.6587 -0.8925,2.2525 l 5.27,0 q 0,-1.615 -0.61625,-2.2525 -0.61625,-0.6588 -1.7425,-0.6588 z"
         style="font-style:normal;font-variant:normal;font-weight:normal;font-stretch:normal;font-size:21.25px;font-family:'PT Sans';-inkscape-font-specification:'PT Sans'"
         id="path5691" />
      <path
         d="m 690.96587,1024.6835 q 0,-0.5737 0.31875,-0.8925 0.34,-0.34 0.8925,-0.34 0.57375,0 0.91375,0.34 0.34,0.3188 0.34,0.8925 0,0.5525 -0.34,0.8925 -0.34,0.34 -0.91375,0.34 -0.5525,0 -0.8925,-0.34 -0.31875,-0.34 -0.31875,-0.8925 z"
         style="font-style:normal;font-variant:normal;font-weight:normal;font-stretch:normal;font-size:21.25px;font-family:'PT Sans';-inkscape-font-specification:'PT Sans'"
         id="path5693" />
      <path
         d="m 695.5313,1020.3485 q 0,-2.6987 1.19,-4.1225 1.21125,-1.445 3.46375,-1.445 1.19,0 2.06125,0.4038 0.8925,0.3825 1.46625,1.1262 0.57375,0.7225 0.85,1.7638 0.27625,1.02 0.27625,2.2737 0,2.6988 -1.21125,4.1438 -1.19,1.4237 -3.4425,1.4237 -1.19,0 -2.0825,-0.3825 -0.87125,-0.4037 -1.445,-1.1262 -0.57375,-0.7438 -0.85,-1.7638 -0.27625,-1.0412 -0.27625,-2.295 z m 1.76375,0 q 0,0.8075 0.14875,1.5513 0.17,0.7437 0.51,1.2962 0.34,0.5525 0.8925,0.8925 0.5525,0.34 1.33875,0.34 2.89,0.021 2.89,-4.08 0,-0.8287 -0.17,-1.5725 -0.14875,-0.7437 -0.48875,-1.2962 -0.34,-0.5525 -0.8925,-0.8713 -0.5525,-0.34 -1.33875,-0.34 -2.89,-0.021 -2.89,4.08 z"
         style="font-style:normal;font-variant:normal;font-weight:normal;font-stretch:normal;font-size:21.25px;font-family:'PT Sans';-inkscape-font-specification:'PT Sans'"
         id="path5695" />
      <path
         d="m 712.51337,1016.6723 q -0.6375,-0.2125 -1.21125,-0.2125 -0.91375,0 -1.445,0.51 -0.53125,0.4887 -0.65875,1.2537 l 0,7.4375 -1.7,0 0,-10.625 1.19,0 0.31875,1.2963 0.085,0 q 0.40375,-0.7225 0.95625,-1.105 0.57375,-0.4038 1.445,-0.4038 0.61625,0 1.38125,0.2125 l -0.36125,1.6363 z"
         style="font-style:normal;font-variant:normal;font-weight:normal;font-stretch:normal;font-size:21.25px;font-family:'PT Sans';-inkscape-font-specification:'PT Sans'"
         id="path5697" />
      <path
         d="m 722.8588,1026.1498 q 0,2.0612 -1.105,3.0387 -1.08375,0.9775 -3.23,0.9775 -1.275,0 -2.06125,-0.17 -0.765,-0.1487 -1.3175,-0.4037 l 0.44625,-1.445 q 0.48875,0.1912 1.08375,0.3612 0.595,0.17 1.55125,0.17 0.8925,0 1.445,-0.17 0.57375,-0.1487 0.91375,-0.5312 0.34,-0.3613 0.4675,-0.9563 0.1275,-0.5737 0.1275,-1.3812 l 0,-1.02 -0.085,0 q -0.425,0.6162 -1.08375,0.9562 -0.65875,0.3188 -1.72125,0.3188 -2.14625,0 -3.16625,-1.3388 -0.99875,-1.3387 -0.99875,-4.165 0,-2.72 1.29625,-4.1225 1.29625,-1.4237 3.825,-1.4237 1.21125,0 2.06125,0.1912 0.87125,0.1913 1.55125,0.4463 l 0,10.6675 z m -4.27125,-1.7425 q 1.08375,0 1.7,-0.5313 0.61625,-0.5525 0.87125,-1.7 l 0,-5.44 q -0.85,-0.4037 -2.1675,-0.4037 -1.445,0 -2.27375,0.9775 -0.82875,0.9775 -0.82875,3.06 0,0.8925 0.14875,1.6362 0.14875,0.7438 0.4675,1.275 0.31875,0.5313 0.82875,0.8288 0.51,0.2975 1.25375,0.2975 z"
         style="font-style:normal;font-variant:normal;font-weight:normal;font-stretch:normal;font-size:21.25px;font-family:'PT Sans';-inkscape-font-specification:'PT Sans'"
         id="path5699" />
    </g>
    <g
       id="g7508"
       transform="matrix(0.53984029,0,0,0.53984033,48.259461,575.36241)">
      <path
         d="m 200.67967,777.90068 q -2.83434,0 -2.83434,-3.98341 0,-3.98341 4.13661,-8.88606 6.89436,-8.27323 19.151,-9.5755 l 4.21322,-0.22981 q 13.94193,0 20.22346,11.10758 3.7536,6.81775 3.7536,15.70382 0,3.67699 -0.61284,7.737 -2.22151,13.63551 -10.57135,23.13441 -9.19248,10.49475 -21.44912,10.49475 -12.18004,0 -15.47401,-6.81776 -0.99585,-2.14491 -0.99585,-4.51963 0,-2.45133 1.30227,-5.13247 2.52793,-4.90266 6.89436,-4.90266 0.38302,0 0.45962,0.45963 0.15321,0.38302 -0.0766,0.84264 -0.15321,0.45962 -0.53623,0.45962 -2.60454,0 -4.51964,3.37058 -1.22566,2.37472 -1.22566,4.36643 0,1.9917 0.76604,3.67699 2.45133,5.20907 11.72041,5.20907 10.49475,0 18.9978,-10.72456 7.6604,-9.6521 9.88191,-22.67478 0.76604,-4.21322 0.76604,-7.96682 0,-8.34984 -3.75359,-14.09514 -4.97926,-7.737 -15.62722,-7.737 -13.3291,0 -19.99365,8.96267 -3.37057,4.59624 -3.37057,8.57965 0,1.60868 0.68943,1.60868 -0.45962,1.53208 -1.9151,1.53208 z m 11.03098,29.03292 q 0,-11.64381 2.06831,-22.59818 2.06831,-11.03098 5.05586,-17.38911 3.06416,-6.43474 5.89851,-6.43474 1.22566,0 1.22566,1.22567 -3.44718,7.12417 -6.05171,18.99779 -4.82605,21.67893 -4.82605,31.33104 0,0.99585 -1.07246,0.99585 -2.29812,0 -2.29812,-6.12832 z"
         style="font-style:normal;font-variant:normal;font-weight:normal;font-stretch:normal;font-size:medium;line-height:100%;font-family:'Euphoria Script';-inkscape-font-specification:'Euphoria Script';letter-spacing:0px;word-spacing:0px;fill:#000000;fill-opacity:1;stroke:none;stroke-width:0.49872401px;stroke-linecap:butt;stroke-linejoin:miter;stroke-opacity:1"
         id="path7108"
         inkscape:connector-curvature="0" />
      <path
         d="m 279.08477,792.53205 q -2.91095,0 -2.91095,-6.35814 0,-3.60038 1.37887,-6.74115 -5.20907,4.51964 -11.64381,16.85288 -6.43473,12.25664 -6.43473,16.01024 0,0.91925 -1.22567,0.91925 -2.22151,0 -2.22151,-6.05172 0,-11.414 2.29812,-20.68308 2.29812,-9.26908 5.59209,-9.26908 1.45547,0 1.45547,1.68528 -3.52378,11.18419 -5.05586,22.9046 l 0.53623,0 q 6.20492,-14.32495 13.71211,-22.36837 4.28983,-4.59624 7.81361,-4.59624 0.76604,0 1.22567,0.45963 0.53622,0.45962 0.53622,1.14906 -0.53622,0.53622 -1.30226,1.60868 -0.76604,1.07246 -2.06831,5.13247 -1.30227,3.98341 -1.30227,8.73285 0,0.61284 -0.38302,0.61284 z"
         style="font-style:normal;font-variant:normal;font-weight:normal;font-stretch:normal;font-size:medium;line-height:100%;font-family:'Euphoria Script';-inkscape-font-specification:'Euphoria Script';letter-spacing:0px;word-spacing:0px;fill:#000000;fill-opacity:1;stroke:none;stroke-width:0.49872401px;stroke-linecap:butt;stroke-linejoin:miter;stroke-opacity:1"
         id="path7110"
         inkscape:connector-curvature="0" />
      <path
         d="m 290.52181,814.5174 q -6.28153,0 -6.28153,-9.88192 0,-5.89851 2.91095,-12.94608 4.06002,-9.88191 10.64796,-13.4823 2.83435,-1.53208 5.28568,-1.53208 2.45133,0 3.8302,1.07245 1.45547,1.07246 1.83849,2.14492 l 0.45963,0.99585 q -0.22981,1.30227 -1.30227,1.30227 -1.22566,0 -1.45548,-0.53623 -0.1532,-0.61283 -0.38302,-0.99585 -0.22981,-0.45963 -1.07245,-1.14906 -0.84265,-0.76604 -1.9151,-0.76604 -4.97926,0 -9.03928,8.96266 -4.59624,10.34154 -4.59624,19.45742 0,4.59624 1.8385,4.59624 1.45548,0 4.06001,-3.21737 2.68114,-3.29397 5.5921,-8.19663 5.05586,-8.42644 8.19662,-14.63136 2.60454,-5.51549 5.36228,-5.51549 1.45548,0 1.45548,1.76189 -0.68944,1.45548 -1.76189,4.13662 -1.07246,2.68114 -2.83435,10.64796 -1.76189,7.96681 -1.76189,15.85702 0,7.89022 2.37472,7.89022 0.91925,0 1.68529,-0.84265 0.76604,-0.76604 1.37887,-2.37472 0.22981,-0.84264 1.07246,-0.84264 0.30641,0 0.45962,0.22981 0.15321,0.22981 0,0.76604 -0.15321,0.53623 -0.53623,1.45547 -0.38302,0.99586 -1.68528,2.60454 -1.22567,1.60868 -2.60454,1.60868 -3.21737,0 -4.97926,-4.21322 -1.68529,-4.21322 -1.68529,-9.95852 0,-5.7453 0.84265,-11.03097 l -0.76604,0 q -9.72871,16.62307 -14.63137,16.62307 z"
         style="font-style:normal;font-variant:normal;font-weight:normal;font-stretch:normal;font-size:medium;line-height:100%;font-family:'Euphoria Script';-inkscape-font-specification:'Euphoria Script';letter-spacing:0px;word-spacing:0px;fill:#000000;fill-opacity:1;stroke:none;stroke-width:0.49872401px;stroke-linecap:butt;stroke-linejoin:miter;stroke-opacity:1"
         id="path7112"
         inkscape:connector-curvature="0" />
      <path
         d="m 362.26266,779.81578 q 2.22151,1.68529 4.21322,1.68529 2.0683,0 2.91095,-0.53623 0,0.99585 -0.91925,1.9151 -0.84264,0.84265 -2.52793,0.84265 -1.60869,0 -3.52379,-0.76604 -0.1532,7.20077 -2.37472,14.78457 -2.22152,7.50719 -5.7453,12.63966 -3.52378,5.05586 -6.97096,5.05586 -3.44718,0 -5.28568,-2.68114 -1.9151,-2.98755 -1.9151,-8.50304 0,-3.14077 0.38302,-6.74115 -9.4989,17.00609 -14.63137,17.00609 -5.05586,0 -5.05586,-8.57965 0,-8.88607 4.36643,-18.9978 3.67699,-8.04342 6.74115,-8.42644 1.45548,0 1.45548,1.60869 -0.91925,2.22151 -2.29812,5.7453 -1.37888,3.44718 -3.677,11.10758 -2.22151,7.6604 -2.22151,11.33739 0,3.60039 1.60868,3.60039 1.99171,0 6.20493,-6.43474 4.28982,-6.43473 7.50719,-12.86947 l 3.29397,-6.35813 q 2.14491,-4.28983 3.8302,-4.28983 1.68529,0 1.68529,1.60869 -4.67284,16.01023 -4.67284,25.04951 0,4.21322 2.45132,4.21322 2.75775,0 5.7453,-4.51964 3.06416,-4.59624 5.05587,-11.87362 2.06831,-7.35398 2.06831,-14.47816 l 0,-0.45962 q -2.22152,-1.60868 -3.60039,-3.8302 -1.37887,-2.22152 -1.37887,-3.29397 0,-1.14906 0.99585,-2.06831 0.99585,-0.91925 2.14491,-0.91925 1.45548,0 2.60454,2.60454 1.14906,2.52793 1.53208,5.8219 z"
         style="font-style:normal;font-variant:normal;font-weight:normal;font-stretch:normal;font-size:medium;line-height:100%;font-family:'Euphoria Script';-inkscape-font-specification:'Euphoria Script';letter-spacing:0px;word-spacing:0px;fill:#000000;fill-opacity:1;stroke:none;stroke-width:0.49872401px;stroke-linecap:butt;stroke-linejoin:miter;stroke-opacity:1"
         id="path7114"
         inkscape:connector-curvature="0" />
      <path
         d="m 402.86248,775.29615 q 0,5.66869 3.21737,6.05171 -0.22982,1.07246 -1.7619,1.07246 -3.14076,0 -4.44303,-3.8302 -0.61283,-1.76189 -0.61283,-4.28983 0,-2.60453 1.9917,-6.20492 4.51964,-8.34984 16.39326,-10.72456 4.06001,-0.76604 8.65625,-0.76604 4.67285,0 7.96682,-0.91925 3.29397,-0.91925 4.51964,-2.06831 3.21736,-2.98755 4.74944,-2.98755 1.53208,0 1.53208,0.91924 0,0.22982 0,0.45963 -0.53622,2.14491 -4.59624,4.06001 -2.45132,1.07246 -5.51548,1.68529 -2.52794,1.07245 -4.21323,5.89851 -1.68528,4.74944 -3.52378,13.78872 3.98341,-0.38302 6.58794,-0.38302 0.68944,0 0.61284,0.84264 -0.30642,0.91925 -1.60869,0.99585 -1.30227,0 -6.05171,0.76604 -3.60039,17.77213 -6.28153,25.12612 -6.74115,18.61477 -19.22761,18.61477 -8.96267,0 -11.18418,-8.19663 -0.84265,-2.83435 -0.84265,-5.6687 0,-5.36228 2.83435,-10.72456 4.28983,-8.19662 11.26079,-8.19662 0.99585,0 1.60869,0.45962 0.68943,0.45962 0.91924,1.37887 -6.58794,0 -10.87776,6.81776 -3.37058,5.28567 -3.37058,10.95437 0,8.27323 5.8219,10.11173 1.37888,0.38302 3.60039,0.38302 2.22152,0 4.67285,-1.30227 2.52793,-1.22566 4.51963,-4.59624 2.06831,-3.29397 3.37058,-5.51549 1.30227,-2.29812 2.98755,-8.12002 1.99171,-7.12417 3.37058,-13.17589 1.37887,-6.12832 1.68529,-7.35398 -4.28983,0.68943 -6.51134,0.68943 -2.14491,0 -2.45133,-1.9151 -0.0766,-1.53208 0.84264,-1.76189 0.38302,0.45962 2.37473,0.45962 2.06831,0 6.43473,-0.38302 1.9151,-7.50719 3.677,-12.18003 1.76189,-4.74945 4.13661,-7.20078 -1.22566,0.0766 -3.8302,0.0766 -14.70797,0 -20.60647,8.65626 -2.83435,4.06001 -2.83435,8.19663 z m 33.70576,15.70382 q 0,0.38302 -0.68944,0.38302 -0.68943,0 -1.37887,-0.30642 -0.61283,-0.30642 -0.61283,-0.84264 0,-7.81361 1.76189,-12.56306 1.76189,-4.82605 4.67285,-4.82605 0.76604,0 1.30226,0.53622 0.53623,0.53623 0.53623,1.45548 -3.44718,3.44718 -4.97926,10.26494 -0.61283,2.83435 -0.61283,5.89851 z"
         style="font-style:normal;font-variant:normal;font-weight:normal;font-stretch:normal;font-size:medium;line-height:100%;font-family:'Euphoria Script';-inkscape-font-specification:'Euphoria Script';letter-spacing:0px;word-spacing:0px;fill:#000000;fill-opacity:1;stroke:none;stroke-width:0.49872401px;stroke-linecap:butt;stroke-linejoin:miter;stroke-opacity:1"
         id="path7116"
         inkscape:connector-curvature="0" />
      <path
         d="m 465.91925,792.53205 q -2.91096,0 -2.91096,-6.35814 0,-3.60038 1.37888,-6.74115 -5.20908,4.51964 -11.64381,16.85288 -6.43474,12.25664 -6.43474,16.01024 0,0.91925 -1.22566,0.91925 -2.22152,0 -2.22152,-6.05172 0,-11.414 2.29812,-20.68308 2.29812,-9.26908 5.59209,-9.26908 1.45548,0 1.45548,1.68528 -3.52378,11.18419 -5.05586,22.9046 l 0.53622,0 q 6.20493,-14.32495 13.71212,-22.36837 4.28982,-4.59624 7.81361,-4.59624 0.76604,0 1.22566,0.45963 0.53623,0.45962 0.53623,1.14906 -0.53623,0.53622 -1.30227,1.60868 -0.76604,1.07246 -2.06831,5.13247 -1.30226,3.98341 -1.30226,8.73285 0,0.61284 -0.38302,0.61284 z"
         style="font-style:normal;font-variant:normal;font-weight:normal;font-stretch:normal;font-size:medium;line-height:100%;font-family:'Euphoria Script';-inkscape-font-specification:'Euphoria Script';letter-spacing:0px;word-spacing:0px;fill:#000000;fill-opacity:1;stroke:none;stroke-width:0.49872401px;stroke-linecap:butt;stroke-linejoin:miter;stroke-opacity:1"
         id="path7118"
         inkscape:connector-curvature="0" />
      <path
         d="m 490.9918,777.36445 q 5.82191,0 5.82191,6.81776 0,3.9068 -2.60454,8.19663 -4.44303,7.12417 -11.79701,7.12417 -1.14906,0 -1.9151,-0.38302 -0.76604,-0.38302 -1.14907,-1.14906 5.43889,0 9.95853,-6.28153 3.67699,-5.05586 3.67699,-9.26908 0,-3.14077 -2.52793,-3.14077 -5.05587,0 -9.4223,7.89022 -4.67284,8.57964 -4.67284,17.61892 0,7.6604 4.36643,9.19248 0.84264,0.30641 2.14491,0.30641 1.30227,0 2.75774,-0.61283 1.45548,-0.68944 2.45133,-1.60868 1.99171,-1.8385 3.29397,-4.06002 0.30642,-0.61283 1.14906,-0.61283 1.37888,0 1.30227,0.45963 -0.22981,0.84264 -1.76189,2.83434 -1.45548,1.99171 -2.75774,3.21737 -1.22567,1.14906 -3.29398,2.06831 -1.9917,0.99585 -4.06001,0.99585 -8.12002,0 -10.34154,-7.6604 -0.68944,-2.60453 -0.68944,-5.36228 0,-5.13247 2.37473,-11.18418 3.75359,-9.19248 10.34154,-13.25249 3.60039,-2.14492 7.35398,-2.14492 z"
         style="font-style:normal;font-variant:normal;font-weight:normal;font-stretch:normal;font-size:medium;line-height:100%;font-family:'Euphoria Script';-inkscape-font-specification:'Euphoria Script';letter-spacing:0px;word-spacing:0px;fill:#000000;fill-opacity:1;stroke:none;stroke-width:0.49872401px;stroke-linecap:butt;stroke-linejoin:miter;stroke-opacity:1"
         id="path7120"
         inkscape:connector-curvature="0" />
      <path
         d="m 520.72822,777.36445 q 5.82191,0 5.82191,6.81776 0,3.9068 -2.60454,8.19663 -4.44303,7.12417 -11.79702,7.12417 -1.14906,0 -1.9151,-0.38302 -0.76604,-0.38302 -1.14906,-1.14906 5.43889,0 9.95853,-6.28153 3.67699,-5.05586 3.67699,-9.26908 0,-3.14077 -2.52793,-3.14077 -5.05587,0 -9.4223,7.89022 -4.67284,8.57964 -4.67284,17.61892 0,7.6604 4.36643,9.19248 0.84264,0.30641 2.14491,0.30641 1.30227,0 2.75774,-0.61283 1.45548,-0.68944 2.45133,-1.60868 1.99171,-1.8385 3.29397,-4.06002 0.30642,-0.61283 1.14906,-0.61283 1.37888,0 1.30227,0.45963 -0.22981,0.84264 -1.76189,2.83434 -1.45548,1.99171 -2.75774,3.21737 -1.22567,1.14906 -3.29398,2.06831 -1.9917,0.99585 -4.06001,0.99585 -8.12002,0 -10.34154,-7.6604 -0.68944,-2.60453 -0.68944,-5.36228 0,-5.13247 2.37473,-11.18418 3.75359,-9.19248 10.34154,-13.25249 3.60039,-2.14492 7.35398,-2.14492 z"
         style="font-style:normal;font-variant:normal;font-weight:normal;font-stretch:normal;font-size:medium;line-height:100%;font-family:'Euphoria Script';-inkscape-font-specification:'Euphoria Script';letter-spacing:0px;word-spacing:0px;fill:#000000;fill-opacity:1;stroke:none;stroke-width:0.49872401px;stroke-linecap:butt;stroke-linejoin:miter;stroke-opacity:1"
         id="path7122"
         inkscape:connector-curvature="0" />
      <path
         d="m 541.65518,825.70158 q -4.44303,0 -6.58794,-4.67284 -2.06831,-4.67285 -2.06831,-14.01854 0,-9.34569 2.75774,-22.13855 2.75775,-12.79287 6.43474,-21.21931 3.7536,-8.42644 6.51134,-8.42644 1.30227,0 1.30227,1.53208 -1.60869,3.67699 -4.06001,11.10758 -2.45133,7.35398 -4.13662,13.63551 -1.60868,6.28153 -2.98756,14.70797 -1.30226,8.42644 -1.30226,14.47815 0,5.97512 1.14906,9.19249 1.22566,3.29397 3.29397,3.29397 1.76189,0 3.37057,-1.68529 1.60869,-1.60868 2.29812,-3.21737 0.38302,-0.84264 1.37888,-0.45962 0.38302,0.15321 0.1532,0.61283 -0.1532,0.53623 -0.61283,1.30227 -0.38302,0.76604 -1.45547,2.37472 -2.29812,3.60039 -5.43889,3.60039 z"
         style="font-style:normal;font-variant:normal;font-weight:normal;font-stretch:normal;font-size:medium;line-height:100%;font-family:'Euphoria Script';-inkscape-font-specification:'Euphoria Script';letter-spacing:0px;word-spacing:0px;fill:#000000;fill-opacity:1;stroke:none;stroke-width:0.49872401px;stroke-linecap:butt;stroke-linejoin:miter;stroke-opacity:1"
         id="path7124"
         inkscape:connector-curvature="0" />
      <path
         d="m 552.73761,838.49445 q 6.89436,0 10.80116,-6.51134 3.37058,-5.7453 5.20908,-14.32495 -13.86533,0.30642 -21.29592,10.57135 -0.45962,0.68944 -1.45547,0.22981 -0.53623,-0.30641 -0.30642,-0.76604 3.29397,-4.97926 9.19248,-8.50304 5.89851,-3.44718 14.32495,-3.7536 0.84264,-3.8302 1.60868,-8.96267 0.76604,-5.13246 1.7619,-9.95852 l -0.68944,0 q -9.95852,17.69553 -15.16759,17.69553 -5.82191,0 -5.82191,-8.96267 0,-8.96267 3.8302,-18.00194 3.8302,-9.11588 6.97097,-9.80531 l 0.45962,-0.0766 q 1.30227,0 1.30227,1.68529 -0.84264,2.06831 -2.14491,5.43889 -1.30227,3.29397 -3.44718,10.95437 -2.14491,7.58379 -2.14491,11.87362 0,4.21322 1.83849,4.21322 2.14491,0 6.89436,-7.43059 6.97097,-10.87777 12.10343,-22.06195 2.22152,-4.67285 4.74945,-4.67285 1.60869,0 1.60869,1.7619 -1.45548,2.68114 -3.52379,10.03512 -2.06831,7.35398 -3.37057,14.86118 -1.30227,7.43058 -2.22152,11.64381 5.8219,0.99585 6.74115,5.05586 0.15321,0.68944 0.15321,1.8385 0,1.22566 -0.91925,2.0683 -0.91925,0.91925 -1.60868,0.91925 0.15321,-0.53623 0.0766,-1.9151 -0.0766,-1.30227 -0.53623,-2.22151 -0.38302,-0.91925 -1.53208,-1.9151 -1.14906,-0.99586 -2.98755,-1.45548 -5.89851,22.21516 -20.45327,22.21516 -6.28153,0 -8.34984,-4.44303 -0.0766,-0.22981 -0.0766,-0.38302 0,-0.45963 0.84264,-0.61283 0.76604,-0.0766 1.14906,0.53622 1.37887,3.14077 6.43474,3.14077 z"
         style="font-style:normal;font-variant:normal;font-weight:normal;font-stretch:normal;font-size:medium;line-height:100%;font-family:'Euphoria Script';-inkscape-font-specification:'Euphoria Script';letter-spacing:0px;word-spacing:0px;fill:#000000;fill-opacity:1;stroke:none;stroke-width:0.49872401px;stroke-linecap:butt;stroke-linejoin:miter;stroke-opacity:1"
         id="path7126"
         inkscape:connector-curvature="0" />
      <path
         d="m 592.1019,815.05362 q -1.60869,0 -1.60869,-2.98755 0,-1.8385 0.99586,-3.90681 0.99585,-2.06831 2.83434,-2.06831 1.53208,0 1.53208,1.7619 0,1.76189 -2.83434,5.8985 l -0.91925,1.30227 z"
         style="font-style:normal;font-variant:normal;font-weight:normal;font-stretch:normal;font-size:medium;line-height:100%;font-family:'Euphoria Script';-inkscape-font-specification:'Euphoria Script';letter-spacing:0px;word-spacing:0px;fill:#000000;fill-opacity:1;stroke:none;stroke-width:0.49872401px;stroke-linecap:butt;stroke-linejoin:miter;stroke-opacity:1"
         id="path7128"
         inkscape:connector-curvature="0" />
    </g>
    <g
       transform="matrix(0.54094206,0,0,0.54094206,59.434879,679.30699)"
       style="font-style:normal;font-weight:normal;font-size:39.28332138px;line-height:125%;font-family:sans-serif;letter-spacing:0px;word-spacing:0px;fill:#000000;fill-opacity:1;stroke:none;stroke-width:1px;stroke-linecap:butt;stroke-linejoin:miter;stroke-opacity:1"
       id="flowRoot5479">
      <path
         d="m 176.94289,508.98972 3.26051,0 0,27.49833 -3.26051,0 0,-27.49833 z"
         style="font-style:normal;font-variant:normal;font-weight:normal;font-stretch:normal;font-family:'PT Sans';-inkscape-font-specification:'PT Sans'"
         id="path5702" />
      <path
         d="m 199.92424,536.48805 0,-11.19575 q 0,-3.0641 -0.90351,-4.59615 -0.86424,-1.57133 -3.22123,-1.57133 -2.08202,0 -3.45694,1.13921 -1.33563,1.09994 -1.8856,2.78912 l 0,13.4349 -3.14266,0 0,-19.64167 2.19986,0 0.58925,2.39629 0.15714,0 q 0.9428,-1.25707 2.51413,-2.04274 1.61062,-0.82495 3.81048,-0.82495 1.61062,0 2.8284,0.39284 1.21778,0.35355 2.00345,1.29635 0.82495,0.9428 1.21778,2.55341 0.43212,1.57134 0.43212,4.0069 l 0,11.86357 -3.14267,0 z"
         style="font-style:normal;font-variant:normal;font-weight:normal;font-stretch:normal;font-family:'PT Sans';-inkscape-font-specification:'PT Sans'"
         id="path5704" />
      <path
         d="m 213.74706,527.6493 -1.80703,0 0,8.83875 -3.14267,0 0,-27.49833 3.14267,0 0,16.7347 1.61062,-0.54997 6.08891,-8.32807 3.65335,0 -6.01035,7.89595 -1.61061,1.29635 1.96416,1.57133 6.56032,8.87804 -3.88905,0 -6.56032,-8.83875 z"
         style="font-style:normal;font-variant:normal;font-weight:normal;font-stretch:normal;font-family:'PT Sans';-inkscape-font-specification:'PT Sans'"
         id="path5706" />
      <path
         d="m 240.32284,529.49561 q 0,-1.6499 -0.98208,-2.67126 -0.98208,-1.06065 -2.47485,-1.84632 -1.45348,-0.82495 -3.18195,-1.53205 -1.72846,-0.7071 -3.22123,-1.68918 -1.45348,-1.02137 -2.43557,-2.47485 -0.98208,-1.49277 -0.98208,-3.7712 0,-3.22123 2.23915,-5.10683 2.23915,-1.8856 6.3639,-1.8856 2.39628,0 4.36045,0.35355 1.96416,0.35355 3.0641,0.90352 l -0.98209,2.86768 q -0.90351,-0.43212 -2.67126,-0.82495 -1.72847,-0.39283 -3.92833,-0.39283 -2.5927,0 -3.88905,1.1785 -1.29635,1.13921 -1.29635,2.71054 0,1.53205 0.98208,2.55342 0.98208,1.02137 2.43557,1.84632 1.49276,0.78566 3.22123,1.57133 1.72846,0.78567 3.18195,1.84632 1.49276,1.02136 2.47485,2.47485 0.98208,1.45348 0.98208,3.61406 0,1.76775 -0.62853,3.18195 -0.62854,1.4142 -1.84632,2.43557 -1.21778,1.02136 -2.94625,1.57133 -1.72846,0.54996 -3.92833,0.54996 -2.94625,0 -4.87113,-0.47139 -1.92489,-0.43212 -2.98553,-0.98209 l 1.09993,-2.94625 q 0.90351,0.51069 2.67126,1.02137 1.76775,0.4714 3.96762,0.4714 1.29635,0 2.43557,-0.2357 1.13921,-0.27498 1.96416,-0.82495 0.82495,-0.58925 1.29635,-1.45348 0.51068,-0.86424 0.51068,-2.04274 z"
         style="font-style:normal;font-variant:normal;font-weight:normal;font-stretch:normal;font-family:'PT Sans';-inkscape-font-specification:'PT Sans'"
         id="path5708" />
      <path
         d="m 261.85993,535.1917 q -1.1785,0.86423 -2.78912,1.29635 -1.61061,0.47139 -3.37836,0.47139 -2.27844,0 -3.84977,-0.70709 -1.57133,-0.74639 -2.5927,-2.08202 -0.98208,-1.37492 -1.45348,-3.26052 -0.43212,-1.92488 -0.43212,-4.2426 0,-4.98898 2.19987,-7.62096 2.19986,-2.67127 6.32461,-2.67127 1.8856,0 3.18195,0.31427 1.33563,0.27498 2.39628,0.82495 l -0.90351,2.71055 q -0.90352,-0.51068 -2.00345,-0.78567 -1.09993,-0.31426 -2.357,-0.31426 -5.57823,0 -5.57823,7.54239 0,1.49277 0.27498,2.86769 0.31427,1.33563 0.98208,2.39628 0.7071,1.02137 1.80704,1.6499 1.13921,0.62853 2.78911,0.62853 1.4142,0 2.51413,-0.43211 1.13922,-0.43212 1.84632,-0.98209 l 1.02137,2.39629 z"
         style="font-style:normal;font-variant:normal;font-weight:normal;font-stretch:normal;font-family:'PT Sans';-inkscape-font-specification:'PT Sans'"
         id="path5710" />
      <path
         d="m 265.87357,518.29987 q 1.49277,-0.90352 3.45694,-1.33564 2.00345,-0.43211 4.16403,-0.43211 2.04273,0 3.26051,0.54996 1.25707,0.54997 1.8856,1.45349 0.66782,0.86423 0.86424,1.92488 0.2357,1.06065 0.2357,2.1213 0,2.357 -0.11785,4.59615 -0.11785,2.23915 -0.11785,4.2426 0,1.45348 0.11785,2.74983 0.11785,1.29635 0.43211,2.39628 l -2.31771,0 -0.82495,-2.74983 -0.19642,0 q -0.35355,0.54997 -0.90352,1.09993 -0.51068,0.51069 -1.25706,0.9428 -0.74639,0.39284 -1.72847,0.66782 -0.98208,0.27498 -2.23915,0.27498 -1.25706,0 -2.357,-0.39283 -1.06065,-0.39283 -1.84631,-1.09993 -0.78567,-0.74639 -1.25707,-1.76775 -0.43212,-1.02137 -0.43212,-2.31772 0,-1.72847 0.7071,-2.86768 0.7071,-1.1785 1.96417,-1.84632 1.29635,-0.7071 3.0641,-0.98208 1.80703,-0.31427 3.96761,-0.31427 0.54997,0 1.06065,0 0.54997,0 1.09994,0.0786 0.11785,-1.1785 0.11785,-2.1213 0,-2.16058 -0.86424,-3.02482 -0.86423,-0.86423 -3.14266,-0.86423 -0.66782,0 -1.45348,0.11785 -0.74639,0.0786 -1.57134,0.27498 -0.78566,0.15714 -1.53205,0.43212 -0.7071,0.2357 -1.25706,0.54997 l -0.98209,-2.357 z m 5.57824,15.75261 q 1.09993,0 1.96416,-0.27498 0.86423,-0.31427 1.49277,-0.74639 0.62853,-0.4714 1.02136,-1.02136 0.43212,-0.54997 0.62854,-1.06065 l 0,-3.26052 q -0.54997,-0.0393 -1.13922,-0.0393 -0.54997,-0.0393 -1.09993,-0.0393 -1.21778,0 -2.39628,0.15714 -1.13922,0.11785 -2.04274,0.51068 -0.86423,0.35355 -1.4142,1.02137 -0.51068,0.62853 -0.51068,1.61061 0,1.37492 0.98208,2.27844 0.98209,0.86423 2.51414,0.86423 z"
         style="font-style:normal;font-variant:normal;font-weight:normal;font-stretch:normal;font-family:'PT Sans';-inkscape-font-specification:'PT Sans'"
         id="path5712" />
      <path
         d="m 285.67605,516.84638 2.16059,0 0.58925,2.357 0.15713,0 q 0.90352,-1.37491 2.31771,-2.08201 1.45349,-0.74639 3.2998,-0.74639 3.92834,0 5.85322,2.31772 1.92488,2.31772 1.92488,7.58168 0,2.47485 -0.66781,4.4783 -0.62854,1.96417 -1.80704,3.33908 -1.1785,1.37492 -2.86768,2.1213 -1.6499,0.74638 -3.69263,0.74638 -1.45349,0 -2.31772,-0.19641 -0.82495,-0.15713 -1.80703,-0.58925 l 0,8.17093 -3.14267,0 0,-27.49833 z m 7.93523,2.27844 q -2.00345,0 -3.18194,1.06065 -1.13922,1.02136 -1.61062,3.14266 l 0,9.74227 q 0.7071,0.54996 1.61062,0.86423 0.90351,0.27498 2.39628,0.27498 2.71055,0 4.28188,-2.00345 1.61062,-2.04273 1.61062,-5.97106 0,-1.61062 -0.27499,-2.90697 -0.27498,-1.33563 -0.90351,-2.23915 -0.58925,-0.9428 -1.57134,-1.45348 -0.9428,-0.51068 -2.357,-0.51068 z"
         style="font-style:normal;font-variant:normal;font-weight:normal;font-stretch:normal;font-family:'PT Sans';-inkscape-font-specification:'PT Sans'"
         id="path5714" />
      <path
         d="m 321.26736,534.91671 q -1.1785,0.9428 -2.98554,1.49277 -1.76774,0.54996 -3.77119,0.54996 -2.23915,0 -3.88905,-0.70709 -1.6499,-0.74639 -2.71055,-2.08202 -1.06065,-1.37492 -1.57134,-3.26052 -0.51068,-1.8856 -0.51068,-4.2426 0,-5.02826 2.23915,-7.66024 2.23915,-2.63199 6.40318,-2.63199 1.33564,0 2.67127,0.31427 1.33563,0.27498 2.39628,1.09993 1.06065,0.82495 1.72847,2.357 0.66781,1.49277 0.66781,3.96762 0,1.29635 -0.2357,2.86768 l -12.60994,0 q 0,1.72847 0.35355,3.0641 0.35355,1.33563 1.09993,2.27843 0.74638,0.90352 1.92488,1.4142 1.21779,0.4714 2.94625,0.4714 1.33564,0 2.67127,-0.4714 1.33563,-0.4714 2.00345,-1.09993 l 1.1785,2.27843 z m -6.75673,-15.79189 q -2.31772,0 -3.73192,1.21778 -1.37492,1.21778 -1.6499,4.16403 l 9.74226,0 q 0,-2.98553 -1.13921,-4.16403 -1.13922,-1.21778 -3.22123,-1.21778 z"
         style="font-style:normal;font-variant:normal;font-weight:normal;font-stretch:normal;font-family:'PT Sans';-inkscape-font-specification:'PT Sans'"
         id="path5716" />
      <path
         d="m 336.05323,522.73888 q 0,-7.071 2.27843,-10.64578 2.31772,-3.57478 6.71745,-3.57478 4.75328,0 6.87458,3.5355 2.16058,3.49621 2.16058,10.68506 0,7.071 -2.31771,10.64578 -2.27844,3.57478 -6.71745,3.57478 -4.67472,0 -6.8353,-3.73191 -2.16058,-3.73192 -2.16058,-10.48865 z m 3.26051,0 q 0,2.55342 0.31427,4.67472 0.35355,2.08201 1.06065,3.61406 0.7071,1.49277 1.76775,2.357 1.09993,0.82495 2.5927,0.82495 2.98553,0 4.36045,-2.74983 1.4142,-2.78912 1.4142,-8.7209 0,-2.51413 -0.31427,-4.63543 -0.27498,-2.1213 -0.98208,-3.65335 -0.66782,-1.53205 -1.76775,-2.357 -1.09994,-0.82495 -2.71055,-0.82495 -2.94625,0 -4.36045,2.78912 -1.37492,2.78911 -1.37492,8.68161 z"
         style="font-style:normal;font-variant:normal;font-weight:normal;font-stretch:normal;font-family:'PT Sans';-inkscape-font-specification:'PT Sans'"
         id="path5718" />
      <path
         d="m 357.69527,534.68101 q 0,-1.06065 0.58925,-1.6499 0.62853,-0.62853 1.6499,-0.62853 1.06065,0 1.68918,0.62853 0.62853,0.58925 0.62853,1.6499 0,1.02137 -0.62853,1.6499 -0.62853,0.62853 -1.68918,0.62853 -1.02137,0 -1.6499,-0.62853 -0.58925,-0.62853 -0.58925,-1.6499 z"
         style="font-style:normal;font-variant:normal;font-weight:normal;font-stretch:normal;font-family:'PT Sans';-inkscape-font-specification:'PT Sans'"
         id="path5720" />
      <path
         d="m 366.25289,517.31778 q 0,-1.8856 0.54997,-3.49621 0.54997,-1.61062 1.61061,-2.78912 1.06065,-1.1785 2.63199,-1.84631 1.61061,-0.66782 3.73191,-0.66782 4.0069,0 6.24605,2.5927 2.23915,2.5927 2.23915,7.3067 0,4.43901 -1.02137,7.77809 -0.98208,3.2998 -2.74983,5.57824 -1.76775,2.27843 -4.20331,3.57478 -2.39629,1.25707 -5.22469,1.61061 l -0.7071,-2.51413 q 2.27844,-0.35355 4.08547,-1.33563 1.84632,-0.98208 3.14267,-2.47485 1.33563,-1.49277 2.16058,-3.37837 0.82495,-1.92488 1.13921,-4.16403 -1.06065,1.25707 -2.35699,1.76775 -1.25707,0.4714 -3.33909,0.4714 -1.61061,0 -3.0641,-0.51068 -1.4142,-0.54997 -2.51413,-1.57133 -1.09993,-1.02137 -1.72846,-2.51414 -0.62854,-1.49276 -0.62854,-3.41765 z m 3.26052,-0.31426 q 0,2.78911 1.45348,4.20331 1.49277,1.37492 3.88905,1.37492 1.92488,0 3.2998,-0.62853 1.37491,-0.62854 1.96416,-1.6499 0.0786,-0.51069 0.0786,-0.90352 0,-0.39283 0,-0.82495 0,-1.4142 -0.35355,-2.71055 -0.31427,-1.33563 -0.98208,-2.357 -0.66782,-1.06065 -1.76775,-1.6499 -1.06065,-0.58925 -2.51413,-0.58925 -2.39629,0 -3.73192,1.53205 -1.33563,1.49277 -1.33563,4.20332 z"
         style="font-style:normal;font-variant:normal;font-weight:normal;font-stretch:normal;font-family:'PT Sans';-inkscape-font-specification:'PT Sans'"
         id="path5722" />
      <path
         d="m 403.13686,515.23577 q 0,2.08201 -0.78566,4.28188 -0.74639,2.16058 -2.00345,4.36045 -1.21779,2.19986 -2.74984,4.32116 -1.53205,2.08202 -3.0641,3.96762 l -1.92488,1.68918 0,0.15714 2.51413,-0.43212 8.56377,0 0,2.90697 -15.63476,0 0,-1.13922 q 0.86423,-0.90352 2.08201,-2.23915 1.21779,-1.33563 2.51414,-2.94625 1.33563,-1.6499 2.59269,-3.45693 1.29635,-1.84632 2.31772,-3.73192 1.06065,-1.8856 1.68918,-3.73191 0.62854,-1.84632 0.62854,-3.49622 0,-1.92488 -1.09994,-3.18195 -1.09993,-1.29635 -3.33908,-1.29635 -1.49277,0 -2.90696,0.62854 -1.4142,0.58925 -2.43557,1.37491 l -1.29635,-2.23915 q 1.37492,-1.1785 3.26052,-1.84631 1.88559,-0.66782 4.04618,-0.66782 1.68918,0 2.98553,0.51068 1.29635,0.4714 2.19987,1.37492 0.90351,0.90352 1.37491,2.16058 0.4714,1.21779 0.4714,2.67127 z"
         style="font-style:normal;font-variant:normal;font-weight:normal;font-stretch:normal;font-family:'PT Sans';-inkscape-font-specification:'PT Sans'"
         id="path5724" />
    </g>
  </g>
  <style
     type="text/css"
     id="style26">
	.specularity {opacity:0.5;}
	.low-specularity {opacity:0.25;}
	.full-specularity {opacity:1;}
	.black {fill:#000000;}
	.white {fill:#ffffff;}
	.outline-big {stroke-width:16;stroke:none;opacity:0.1;fill:none;}
	.outline-small {stroke-width:8;stroke:none;opacity:0.2;fill:none;}
	.stroke-highlight {fill:none;stroke:none;opacity:0.2;}
       	.base-shadow 	{fill:black;opacity:75;}
	</style>
  <style
     id="style26-5"
     type="text/css">
	.specularity {opacity:0.5;}
	.low-specularity {opacity:0.25;}
	.full-specularity {opacity:1;}
	.black {fill:#000000;}
	.white {fill:#ffffff;}
	.outline-big {stroke-width:16;stroke:none;opacity:0.1;fill:none;}
	.outline-small {stroke-width:8;stroke:none;opacity:0.2;fill:none;}
	.stroke-highlight {fill:none;stroke:none;opacity:0.2;}
       	.base-shadow 	{fill:black;opacity:75;}
	</style>
</svg>
