<?xml version="1.0" encoding="UTF-8" standalone="no"?>
<!-- Created with Inkscape (http://www.inkscape.org/) -->

<svg
   xmlns:dc="http://purl.org/dc/elements/1.1/"
   xmlns:cc="http://creativecommons.org/ns#"
   xmlns:rdf="http://www.w3.org/1999/02/22-rdf-syntax-ns#"
   xmlns:svg="http://www.w3.org/2000/svg"
   xmlns="http://www.w3.org/2000/svg"
   xmlns:xlink="http://www.w3.org/1999/xlink"
   xmlns:sodipodi="http://sodipodi.sourceforge.net/DTD/sodipodi-0.dtd"
   xmlns:inkscape="http://www.inkscape.org/namespaces/inkscape"
   id="svg8"
   version="1.1"
   viewBox="0 0 198.4375 165.36459"
   height="625"
   width="750"
   inkscape:version="0.92pre2 15180"
   sodipodi:docname="Scientist.svg"
   inkscape:export-filename="/home/jplatt/Scientist.png"
   inkscape:export-xdpi="96"
   inkscape:export-ydpi="96">
  <title
     id="title7498">The Scientist</title>
  <sodipodi:namedview
     inkscape:window-maximized="1"
     inkscape:window-y="35"
     inkscape:window-x="0"
     inkscape:window-height="787"
     inkscape:window-width="1600"
     inkscape:snap-global="false"
     units="px"
     showgrid="false"
     inkscape:current-layer="layer1"
     inkscape:document-units="mm"
     inkscape:cy="345.2704"
     inkscape:cx="361.28855"
     inkscape:zoom="0.86772068"
     inkscape:pageshadow="2"
     inkscape:pageopacity="0.0"
     borderopacity="1.0"
     bordercolor="#666666"
     pagecolor="#ffffff"
     id="base"
     showguides="true" />
  <defs
     id="defs2">
    <linearGradient
       inkscape:collect="always"
       id="linearGradient7677">
      <stop
         style="stop-color:#000000;stop-opacity:1;"
         offset="0"
         id="stop7673" />
      <stop
         style="stop-color:#000000;stop-opacity:0;"
         offset="1"
         id="stop7675" />
    </linearGradient>
    <linearGradient
       inkscape:collect="always"
       id="linearGradient7667">
      <stop
         style="stop-color:#000000;stop-opacity:1;"
         offset="0"
         id="stop7663" />
      <stop
         style="stop-color:#000000;stop-opacity:0;"
         offset="1"
         id="stop7665" />
    </linearGradient>
    <linearGradient
       gradientUnits="userSpaceOnUse"
       id="WhiteTransparent">
      <stop
         id="stop7"
         offset="0"
         style="stop-color:white;stop-opacity:1" />
      <stop
         id="stop9"
         offset="1"
         style="stop-color:white;stop-opacity:0" />
    </linearGradient>
    <linearGradient
       gradientUnits="userSpaceOnUse"
       y2="50"
       x2="90"
       y1="20"
       x1="60"
       xlink:href="#WhiteTransparent"
       id="IcecapTip" />
    <clipPath
       id="clipoutline1"
       clipPathUnits="userSpaceOnUse">
      <path
         d="M 54.1,12.5 12.9,54.7 C -2.7,70.3 23,69 32.3,74.9 36.6,77.7 18.5,81.3 22.2,85 c 3.6,3.7 21.7,7.1 25.3,10.7 3.6,3.7 -7.3,7.6 -3.7,11.3 3.5,3.7 11.9,0.2 13.4,8.6 1.1,6.2 15.4,3.1 21.8,-2.2 4,-3.4 -6.9,-3.4 -3.3,-7.1 9,-9.1 17,-4.1 20.3,-12.5 1.8,-4.5 -13.6,-7.7 -9.5,-10.6 9.8,-6.9 45.8,-10.4 29.2,-27 L 73,12.5 c -5.3,-5 -14,-5 -18.9,0 z m -9.9,64.7 c 0.9,0 30.8,4 19.3,7.1 -4.4,1.2 -24.6,-7.1 -19.3,-7.1 z m 57.2,16.6 c 0,2.1 16.3,3.3 15.4,-0.5 -1.3,-6.4 -13.6,-5.9 -15.4,0.5 z m -69.5,11.1 c 3.7,3.2 9.3,-0.7 11.1,-5.2 -3.6,-4.7 -16.9,0.3 -11.1,5.2 z m 67.5,-6.7 c -4.6,4.2 0.8,8.6 5.3,5.7 1.2,-0.8 -0.1,-4.7 -5.3,-5.7 z"
         id="outline1"
         inkscape:connector-curvature="0" />
    </clipPath>
    <filter
       id="filter6017"
       inkscape:collect="always"
       style="color-interpolation-filters:sRGB">
      <feGaussianBlur
         id="feGaussianBlur6019"
         stdDeviation="0.80546496"
         inkscape:collect="always" />
    </filter>
    <filter
       id="filter6031"
       inkscape:collect="always"
       style="color-interpolation-filters:sRGB">
      <feGaussianBlur
         id="feGaussianBlur6033"
         stdDeviation="3.4903482"
         inkscape:collect="always" />
    </filter>
    <linearGradient
       y2="40"
       x2="60"
       y1="20"
       x1="82.118591"
       gradientUnits="userSpaceOnUse"
       id="linearGradient9175"
       xlink:href="#linearGradient5785"
       inkscape:collect="always" />
    <linearGradient
       id="linearGradient5785"
       gradientUnits="userSpaceOnUse">
      <stop
         style="stop-color:#c0cdf9;stop-opacity:1"
         offset="0"
         id="stop5787" />
      <stop
         style="stop-color:#07092d;stop-opacity:0.28804347"
         offset="1"
         id="stop5789" />
    </linearGradient>
    <clipPath
       id="clipPath9086"
       clipPathUnits="userSpaceOnUse">
      <use
         transform="translate(1.009546e-6)"
         height="300"
         width="400"
         y="0"
         x="0"
         style="fill:#ffffff;fill-opacity:1"
         class="low-specularity"
         xlink:href="#outline1"
         id="use9088" />
    </clipPath>
    <filter
       id="filter8490"
       inkscape:collect="always"
       style="color-interpolation-filters:sRGB">
      <feGaussianBlur
         id="feGaussianBlur8492"
         stdDeviation="2.4163949"
         inkscape:collect="always" />
    </filter>
    <linearGradient
       gradientTransform="matrix(1.009184,0,0,1.009184,-0.3890738,-0.3831933)"
       id="shinySpecular-4"
       xlink:href="#WhiteTransparent"
       x1="33"
       y1="35"
       x2="58"
       y2="60"
       gradientUnits="userSpaceOnUse" />
    <radialGradient
       r="30.599581"
       fy="250.8974"
       fx="116.3104"
       cy="250.8974"
       cx="116.3104"
       gradientTransform="matrix(1.570052,0,0,1.05093,-75.50011,-22.09591)"
       gradientUnits="userSpaceOnUse"
       id="radialGradient9177"
       xlink:href="#WhiteTransparent"
       inkscape:collect="always" />
    <radialGradient
       gradientUnits="userSpaceOnUse"
       gradientTransform="matrix(2.003253,0,0,1.340898,-132.8752,-95.16607)"
       r="30.599581"
       fy="251.994"
       fx="132.44431"
       cy="251.994"
       cx="132.44431"
       id="radialGradient8574"
       xlink:href="#WhiteTransparent"
       inkscape:collect="always" />
    <filter
       height="1.228441"
       y="-0.1142206"
       width="1.156158"
       x="-0.078079157"
       id="filter8732"
       inkscape:collect="always"
       style="color-interpolation-filters:sRGB">
      <feGaussianBlur
         id="feGaussianBlur8734"
         stdDeviation="1.9579068"
         inkscape:collect="always" />
    </filter>
    <radialGradient
       gradientUnits="userSpaceOnUse"
       gradientTransform="matrix(1,0,0,0.4233577,0,97.16423)"
       r="34.25"
       fy="168.5"
       fx="210.25"
       cy="168.5"
       cx="210.25"
       id="radialGradient8744"
       xlink:href="#WhiteTransparent"
       inkscape:collect="always" />
    <radialGradient
       r="34.25"
       fy="182.08189"
       fx="217.5"
       cy="182.08189"
       cx="217.5"
       gradientTransform="matrix(1,0,0,0.4233577,0,97.16423)"
       gradientUnits="userSpaceOnUse"
       id="radialGradient8768"
       xlink:href="#WhiteTransparent"
       inkscape:collect="always" />
    <filter
       height="1.350825"
       y="-0.1754123"
       width="1.148524"
       x="-0.074262142"
       id="filter8764"
       inkscape:collect="always"
       style="color-interpolation-filters:sRGB">
      <feGaussianBlur
         id="feGaussianBlur8766"
         stdDeviation="2.1195652"
         inkscape:collect="always" />
    </filter>
    <linearGradient
       gradientUnits="userSpaceOnUse"
       y2="201.5"
       x2="231.75"
       y1="195.1875"
       x1="231.625"
       id="linearGradient8912"
       xlink:href="#WhiteTransparent"
       inkscape:collect="always" />
    <linearGradient
       gradientUnits="userSpaceOnUse"
       y2="200.0714"
       x2="231.3765"
       y1="195.62131"
       x1="231.3765"
       id="linearGradient8910"
       xlink:href="#WhiteTransparent"
       inkscape:collect="always" />
    <filter
       height="1.556464"
       y="-0.27823201"
       width="1.1708831"
       x="-0.085441329"
       id="filter8906"
       inkscape:collect="always"
       style="color-interpolation-filters:sRGB">
      <feGaussianBlur
         id="feGaussianBlur8908"
         stdDeviation="0.56515877"
         inkscape:collect="always" />
    </filter>
    <radialGradient
       gradientUnits="userSpaceOnUse"
       gradientTransform="matrix(1,0,0,0.1477455,0,174.5692)"
       r="14.09375"
       fy="204.83231"
       fx="228.2188"
       cy="204.83231"
       cx="228.2188"
       id="radialGradient8922"
       xlink:href="#WhiteTransparent"
       inkscape:collect="always" />
    <filter
       height="1.9457181"
       y="-0.47285891"
       width="1.139725"
       x="-0.069862768"
       id="filter8980"
       inkscape:collect="always"
       style="color-interpolation-filters:sRGB">
      <feGaussianBlur
         id="feGaussianBlur8982"
         stdDeviation="0.82052366"
         inkscape:collect="always" />
    </filter>
    <radialGradient
       r="14.09375"
       fy="204.83231"
       fx="228.2188"
       cy="204.83231"
       cx="228.2188"
       gradientTransform="matrix(1,0,0,0.1477455,0,174.5692)"
       gradientUnits="userSpaceOnUse"
       id="radialGradient8994"
       xlink:href="#WhiteTransparent"
       inkscape:collect="always" />
    <radialGradient
       gradientUnits="userSpaceOnUse"
       gradientTransform="matrix(1,0,0,0.4070844,0,115.7601)"
       r="22.75"
       fy="187.8694"
       fx="89.875"
       cy="187.8694"
       cx="89.875"
       id="radialGradient9004"
       xlink:href="#linearGradient8998"
       inkscape:collect="always" />
    <linearGradient
       id="linearGradient8998"
       inkscape:collect="always">
      <stop
         id="stop9000"
         offset="0"
         style="stop-color:#ffffff;stop-opacity:0.33004926" />
      <stop
         id="stop9002"
         offset="1"
         style="stop-color:#ffffff;stop-opacity:0;" />
    </linearGradient>
    <radialGradient
       gradientUnits="userSpaceOnUse"
       gradientTransform="matrix(1.185075,-0.3283582,0.1228557,0.4433973,-45.06831,152.9216)"
       r="10.46875"
       fy="230.8363"
       fx="90.28125"
       cy="230.8363"
       cx="90.28125"
       id="radialGradient9046"
       xlink:href="#WhiteTransparent"
       inkscape:collect="always" />
    <filter
       height="1.33114"
       y="-0.1655701"
       width="1.152359"
       x="-0.076179281"
       id="filter9068"
       inkscape:collect="always"
       style="color-interpolation-filters:sRGB">
      <feGaussianBlur
         id="feGaussianBlur9070"
         stdDeviation="0.66458488"
         inkscape:collect="always" />
    </filter>
    <radialGradient
       r="54.783401"
       fy="21.22575"
       fx="68.39994"
       cy="21.22575"
       cx="68.39994"
       gradientTransform="matrix(1.722153,0,0,1.694977,-49.39526,-14.07806)"
       gradientUnits="userSpaceOnUse"
       id="radialGradient11553"
       xlink:href="#WhiteTransparent"
       inkscape:collect="always" />
    <filter
       id="filter9298"
       inkscape:collect="always"
       style="color-interpolation-filters:sRGB">
      <feGaussianBlur
         id="feGaussianBlur9300"
         stdDeviation="0.32610678"
         inkscape:collect="always" />
    </filter>
    <linearGradient
       gradientUnits="userSpaceOnUse"
       y2="223.5"
       x2="153.5"
       y1="208.1644"
       x1="95.5"
       id="linearGradient5905"
       xlink:href="#WhiteTransparent"
       inkscape:collect="always" />
    <filter
       height="1.244671"
       y="-0.1223357"
       width="1.165018"
       x="-0.082508981"
       id="filter5983-5"
       inkscape:collect="always"
       style="color-interpolation-filters:sRGB">
      <feGaussianBlur
         id="feGaussianBlur5985-9"
         stdDeviation="3.6868363"
         inkscape:collect="always" />
    </filter>
    <linearGradient
       gradientTransform="matrix(0.8852575,0,0,0.8852575,5.177215,9.229337)"
       gradientUnits="userSpaceOnUse"
       y2="84.480324"
       x2="53.63158"
       y1="76.246338"
       x1="57.225201"
       id="linearGradient5801"
       xlink:href="#linearGradient5793-6"
       inkscape:collect="always" />
    <linearGradient
       id="linearGradient5793-6"
       inkscape:collect="always">
      <stop
         id="stop5795-2"
         offset="0"
         style="stop-color:#eeeeec;stop-opacity:1;" />
      <stop
         id="stop5797-1"
         offset="1"
         style="stop-color:#eeeeec;stop-opacity:0;" />
    </linearGradient>
    <radialGradient
       gradientUnits="userSpaceOnUse"
       gradientTransform="matrix(1.351523,0,0,1.717571,-63.70565,-153.9557)"
       r="22.4664"
       fy="214.55119"
       fx="181.22729"
       cy="214.55119"
       cx="181.22729"
       id="radialGradient5811"
       xlink:href="#WhiteTransparent"
       inkscape:collect="always" />
    <filter
       id="filter5845"
       inkscape:collect="always"
       style="color-interpolation-filters:sRGB">
      <feGaussianBlur
         id="feGaussianBlur5847"
         stdDeviation="1.2409356"
         inkscape:collect="always" />
    </filter>
    <linearGradient
       y2="187.6597"
       x2="82.754066"
       y1="180.47569"
       x1="73.712097"
       gradientTransform="matrix(0.4927913,0,0,0.4927913,-6.000388,-9.722518)"
       gradientUnits="userSpaceOnUse"
       id="linearGradient5822"
       xlink:href="#WhiteTransparent"
       inkscape:collect="always" />
    <linearGradient
       id="linearGradient10981-3"
       inkscape:collect="always">
      <stop
         id="stop10983-2"
         offset="0"
         style="stop-color:#729fcf;stop-opacity:1;" />
      <stop
         id="stop10985-3"
         offset="1"
         style="stop-color:#729fcf;stop-opacity:0;" />
    </linearGradient>
    <filter
       id="filter10997-7"
       inkscape:collect="always"
       style="color-interpolation-filters:sRGB">
      <feGaussianBlur
         id="feGaussianBlur10999-0"
         stdDeviation="2.7696726"
         inkscape:collect="always" />
    </filter>
    <linearGradient
       inkscape:collect="always"
       xlink:href="#linearGradient10981-3"
       id="linearGradient1030"
       gradientUnits="userSpaceOnUse"
       gradientTransform="translate(-130.1657,-83.35279)"
       x1="180.8129"
       y1="217.5"
       x2="153.7005"
       y2="144.5" />
    <linearGradient
       inkscape:collect="always"
       xlink:href="#WhiteTransparent"
       id="linearGradient7460"
       gradientUnits="userSpaceOnUse"
       x1="231.625"
       y1="195.1875"
       x2="231.75"
       y2="201.5" />
    <linearGradient
       inkscape:collect="always"
       xlink:href="#WhiteTransparent"
       id="linearGradient7462"
       gradientUnits="userSpaceOnUse"
       x1="231.3765"
       y1="195.62131"
       x2="231.3765"
       y2="200.0714" />
    <linearGradient
       inkscape:collect="always"
       xlink:href="#WhiteTransparent"
       id="linearGradient7464"
       gradientUnits="userSpaceOnUse"
       x1="231.625"
       y1="195.1875"
       x2="231.75"
       y2="201.5" />
    <linearGradient
       inkscape:collect="always"
       xlink:href="#WhiteTransparent"
       id="linearGradient7466"
       gradientUnits="userSpaceOnUse"
       x1="231.3765"
       y1="195.62131"
       x2="231.3765"
       y2="200.0714" />
    <linearGradient
       inkscape:collect="always"
       xlink:href="#linearGradient7667"
       id="linearGradient7669"
       x1="125.32115"
       y1="198.20668"
       x2="1.5245843"
       y2="196.68208"
       gradientUnits="userSpaceOnUse"
       gradientTransform="matrix(1.1054313,0,0,1,-3.4183896,-0.60983521)" />
    <linearGradient
       inkscape:collect="always"
       xlink:href="#linearGradient7677"
       id="linearGradient7679"
       x1="101.84249"
       y1="212.38535"
       x2="147.88506"
       y2="213.60501"
       gradientUnits="userSpaceOnUse"
       gradientTransform="translate(-0.91475289,-1.2196705)" />
    <mask
       maskUnits="userSpaceOnUse"
       id="mask8661">
      <rect
         y="117.63737"
         x="3.5410903e-06"
         height="162.69191"
         width="211.1666"
         id="rect8663"
         style="display:inline;fill:#999999;fill-opacity:1;stroke:none;stroke-width:0.26610357" />
    </mask>
    <mask
       maskUnits="userSpaceOnUse"
       id="mask8665">
      <rect
         y="97.556259"
         x="4.269993e-06"
         height="134.91983"
         width="254.63341"
         id="rect8667"
         style="display:inline;fill:#999999;fill-opacity:1;stroke:none;stroke-width:0.26610357" />
    </mask>
    <mask
       maskUnits="userSpaceOnUse"
       id="mask8669">
      <rect
         y="124.56908"
         x="3.3440447e-06"
         height="172.27844"
         width="199.41612"
         id="rect8671"
         style="display:inline;fill:#999999;fill-opacity:1;stroke:none;stroke-width:0.26610357" />
    </mask>
    <mask
       maskUnits="userSpaceOnUse"
       id="mask8673">
      <rect
         y="112.04685"
         x="3.7177711e-06"
         height="154.96027"
         width="221.70264"
         id="rect8675"
         style="display:inline;fill:#999999;fill-opacity:1;stroke:none;stroke-width:0.26610357" />
    </mask>
    <mask
       maskUnits="userSpaceOnUse"
       id="mask8677">
      <rect
         y="124.01408"
         x="34.013889"
         height="165.51872"
         width="178.15709"
         id="rect8679"
         style="display:inline;fill:#999999;fill-opacity:1;stroke:none;stroke-width:0.24653593" />
    </mask>
    <mask
       maskUnits="userSpaceOnUse"
       id="mask8681">
      <rect
         y="133.64049"
         x="0.65446073"
         height="142.80359"
         width="154.7771"
         id="rect8683"
         style="display:inline;fill:#999999;fill-opacity:1;stroke:none;stroke-width:0.21344109" />
    </mask>
    <mask
       maskUnits="userSpaceOnUse"
       id="mask8685">
      <rect
         y="124.56908"
         x="3.3440447e-06"
         height="172.27844"
         width="199.41612"
         id="rect8687"
         style="display:inline;fill:#999999;fill-opacity:1;stroke:none;stroke-width:0.26610357" />
    </mask>
    <mask
       maskUnits="userSpaceOnUse"
       id="mask8689">
      <rect
         y="124.56908"
         x="3.3440447e-06"
         height="172.27844"
         width="199.41612"
         id="rect8691"
         style="display:inline;fill:#999999;fill-opacity:1;stroke:none;stroke-width:0.26610357" />
    </mask>
    <mask
       maskUnits="userSpaceOnUse"
       id="mask8693">
      <rect
         y="124.56908"
         x="3.3440447e-06"
         height="172.27844"
         width="199.41612"
         id="rect8695"
         style="display:inline;fill:#999999;fill-opacity:1;stroke:none;stroke-width:0.26610357" />
    </mask>
    <mask
       maskUnits="userSpaceOnUse"
       id="mask8697">
      <rect
         y="124.56908"
         x="3.3440447e-06"
         height="172.27844"
         width="199.41612"
         id="rect8699"
         style="display:inline;fill:#999999;fill-opacity:1;stroke:none;stroke-width:0.26610357" />
    </mask>
    <mask
       maskUnits="userSpaceOnUse"
       id="mask8701">
      <rect
         y="124.56908"
         x="3.3440447e-06"
         height="172.27844"
         width="199.41612"
         id="rect8703"
         style="display:inline;fill:#999999;fill-opacity:1;stroke:none;stroke-width:0.26610357" />
    </mask>
  </defs>
  <metadata
     id="metadata5">
    <rdf:RDF>
      <cc:Work
         rdf:about="">
        <dc:format>image/svg+xml</dc:format>
        <dc:type
           rdf:resource="http://purl.org/dc/dcmitype/StillImage" />
        <dc:title>The Scientist</dc:title>
        <dc:date>11/11/2016</dc:date>
        <dc:creator>
          <cc:Agent>
            <dc:title>John David Lawrence Platt</dc:title>
          </cc:Agent>
        </dc:creator>
        <dc:rights>
          <cc:Agent>
            <dc:title>released under CC-BY-SA v 4.0</dc:title>
          </cc:Agent>
        </dc:rights>
        <dc:relation>self</dc:relation>
        <dc:description>Entry for the Inkscape contest.</dc:description>
        <cc:license
           rdf:resource="http://creativecommons.org/licenses/by-sa/4.0/" />
      </cc:Work>
      <cc:License
         rdf:about="http://creativecommons.org/licenses/by-sa/4.0/">
        <cc:permits
           rdf:resource="http://creativecommons.org/ns#Reproduction" />
        <cc:permits
           rdf:resource="http://creativecommons.org/ns#Distribution" />
        <cc:requires
           rdf:resource="http://creativecommons.org/ns#Notice" />
        <cc:requires
           rdf:resource="http://creativecommons.org/ns#Attribution" />
        <cc:permits
           rdf:resource="http://creativecommons.org/ns#DerivativeWorks" />
        <cc:requires
           rdf:resource="http://creativecommons.org/ns#ShareAlike" />
      </cc:License>
    </rdf:RDF>
  </metadata>
  <g
     inkscape:label="Layer 1"
     inkscape:groupmode="layer"
     id="layer1"
     transform="translate(0,-131.6354)">
    <rect
       y="125.24128"
       x="0.090089306"
       height="172.27844"
       width="199.41612"
       id="rect6426"
       style="display:inline;fill:#999999;fill-opacity:1;stroke:none;stroke-width:0.26610357"
       mask="url(#mask8701)"
       transform="matrix(1,0,0,0.96283185,0,11.058256)" />
    <rect
       style="fill:url(#linearGradient7679);fill-opacity:1;stroke:none;stroke-width:0.26458332"
       id="rect7671"
       width="98.183479"
       height="173.49812"
       x="100.92774"
       y="124.4166"
       mask="url(#mask8697)"
       transform="matrix(1,0,0,0.95606327,0.91475289,11.869729)" />
    <rect
       style="fill:url(#linearGradient7669);fill-opacity:1;stroke:none;stroke-width:0.27818155"
       id="rect7661"
       width="105.5015"
       height="172.58337"
       x="-2.7442586"
       y="124.72152"
       mask="url(#mask8693)"
       transform="matrix(1,0,0,0.95936396,0,12.081295)" />
    <g
       id="g4729"
       transform="translate(-1.5245882,-0.60983526)">
      <path
         inkscape:connector-curvature="0"
         id="path7472"
         d="M 6.9068162,198.61721 6.3532426,235.16007 64.755219,235.6784 63.094502,196.80304 Z"
         style="fill:#782121;stroke:none;stroke-width:0.32986417px;stroke-linecap:butt;stroke-linejoin:miter;stroke-opacity:1" />
      <path
         sodipodi:nodetypes="cccccc"
         inkscape:connector-curvature="0"
         id="path7470"
         d="m 42.058717,138.74914 c 7.473239,0.77751 20.758997,23.32522 20.758997,23.32522 l 0.553574,37.06119 -56.1876855,2.33253 -1.9375062,-43.54042 c 0,0 14.9464747,-20.47437 30.7233167,-20.73354"
         style="fill:#00ffff;stroke:none;stroke-width:0.32986417px;stroke-linecap:butt;stroke-linejoin:miter;stroke-opacity:1" />
      <g
         style="display:inline;enable-background:new"
         transform="matrix(0.45558742,0,0,0.47789984,4.2121942,175.30202)"
         id="g9139">
        <g
           style="opacity:0.78325124"
           transform="translate(3.68968e-7,0.4883067)"
           id="g6035">
          <path
             inkscape:connector-curvature="0"
             sodipodi:nodetypes="ccccccccccccccccccccccc"
             style="fill:#000000;fill-opacity:1;filter:url(#filter6017)"
             d="m 54.1,12.98831 -41.2,42.2 c -15.6,15.6 10.1,14.3 19.4,20.2 4.3,2.8 -13.8,6.4 -10.1,10.1 3.6,3.7 21.7,7.1 25.3,10.7 3.6,3.69999 -7.3,7.59999 -3.7,11.29999 3.5,3.7 11.9,0.2 13.4,8.6 1.1,6.2 15.4,3.1 21.8,-2.2 4,-3.4 -6.9,-3.4 -3.3,-7.1 9,-9.09999 17,-4.1 20.3,-12.49999 1.8,-4.5 -13.6,-7.7 -9.5,-10.6 9.8,-6.9 45.8,-10.4 29.2,-27 l -42.7,-43.7 c -5.3,-5.000003 -14,-5.000003 -18.9,0 z m 47.3,81.3 c 0,2.1 16.3,3.3 15.4,-0.5 -1.3,-6.4 -13.6,-5.9 -15.4,0.5 z M 31.9,105.3883 c 3.7,3.2 9.3,-0.7 11.1,-5.2 -3.6,-4.69999 -16.9,0.3 -11.1,5.2 z m 67.5,-6.69999 c -4.6,4.19999 0.8,8.59999 5.3,5.69999 1.2,-0.8 -0.1,-4.7 -5.3,-5.69999 z"
             id="path5987" />
          <path
             inkscape:connector-curvature="0"
             id="path6021"
             d="m 54.1,13.96492 -41.2,42.2 c -15.6,15.6 10.1,14.3 19.4,20.2 4.3,2.8 -13.8,6.4 -10.1,10.1 3.6,3.7 21.7,7.1 25.3,10.7 3.6,3.69998 -7.3,7.59998 -3.7,11.29998 3.5,3.7 11.9,0.2 13.4,8.6 1.1,6.2 15.4,3.1 21.8,-2.2 4,-3.4 -6.9,-3.4 -3.3,-7.1 9,-9.09998 17,-4.1 20.3,-12.49998 1.8,-4.5 -13.6,-7.7 -9.5,-10.6 9.8,-6.9 45.8,-10.4 29.2,-27 l -42.7,-43.7 c -5.3,-5 -14,-5 -18.9,0 z m 47.3,81.3 c 0,2.1 16.3,3.3 15.4,-0.5 -1.3,-6.4 -13.6,-5.9 -15.4,0.5 z M 31.9,106.3649 c 3.7,3.2 9.3,-0.7 11.1,-5.2 -3.6,-4.69998 -16.9,0.3 -11.1,5.2 z m 67.5,-6.69998 c -4.6,4.19998 0.8,8.59998 5.3,5.69998 1.2,-0.8 -0.1,-4.7 -5.3,-5.69998 z"
             style="opacity:0.57635468;fill:#000000;fill-opacity:1;filter:url(#filter6031)"
             sodipodi:nodetypes="ccccccccccccccccccccccc" />
        </g>
        <path
           inkscape:connector-curvature="0"
           sodipodi:nodetypes="ccccccccccccccccccccccc"
           style="fill:#000000;fill-opacity:1"
           d="M 54.1,12.5 12.9,54.7 C -2.7,70.3 23,69 32.3,74.9 36.6,77.7 18.5,81.3 22.2,85 c 3.6,3.7 21.7,7.1 25.3,10.7 3.6,3.7 -7.3,7.6 -3.7,11.3 3.5,3.7 11.9,0.2 13.4,8.6 1.1,6.2 15.4,3.1 21.8,-2.2 4,-3.4 -6.9,-3.4 -3.3,-7.1 9,-9.1 17,-4.1 20.3,-12.5 1.8,-4.5 -13.6,-7.7 -9.5,-10.6 9.8,-6.9 45.8,-10.4 29.2,-27 L 73,12.5 c -5.3,-5 -14,-5 -18.9,0 z m 47.3,81.3 c 0,2.1 16.3,3.3 15.4,-0.5 -1.3,-6.4 -13.6,-5.9 -15.4,0.5 z m -69.5,11.1 c 3.7,3.2 9.3,-0.7 11.1,-5.2 -3.6,-4.7 -16.9,0.3 -11.1,5.2 z m 67.5,-6.7 c -4.6,4.2 0.8,8.6 5.3,5.7 1.2,-0.8 -0.1,-4.7 -5.3,-5.7 z"
           id="use7631" />
        <path
           inkscape:connector-curvature="0"
           sodipodi:nodetypes="ccccccccccccccccccccccc"
           style="fill:none"
           d="M 54.1,12.5 12.9,54.7 C -2.7,70.3 23,69 32.3,74.9 36.6,77.7 18.5,81.3 22.2,85 c 3.6,3.7 21.7,7.1 25.3,10.7 3.6,3.7 -7.3,7.6 -3.7,11.3 3.5,3.7 11.9,0.2 13.4,8.6 1.1,6.2 15.4,3.1 21.8,-2.2 4,-3.4 -6.9,-3.4 -3.3,-7.1 9,-9.1 17,-4.1 20.3,-12.5 1.8,-4.5 -13.6,-7.7 -9.5,-10.6 9.8,-6.9 45.8,-10.4 29.2,-27 L 73,12.5 c -5.3,-5 -14,-5 -18.9,0 z m 47.3,81.3 c 0,2.1 16.3,3.3 15.4,-0.5 -1.3,-6.4 -13.6,-5.9 -15.4,0.5 z m -69.5,11.1 c 3.7,3.2 9.3,-0.7 11.1,-5.2 -3.6,-4.7 -16.9,0.3 -11.1,5.2 z m 67.5,-6.7 c -4.6,4.2 0.8,8.6 5.3,5.7 1.2,-0.8 -0.1,-4.7 -5.3,-5.7 z"
           id="use7639" />
        <use
           inkscape:label="blue_cast"
           id="use7641"
           xlink:href="#outline1"
           class="low-specularity"
           style="opacity:0.66995072;fill:url(#linearGradient9175);filter:url(#filter8490)"
           x="0"
           y="0"
           width="400"
           height="300"
           transform="matrix(0.9905442,0,0,0.9905442,0.6051535,0.604136)"
           clip-path="url(#clipPath9086)" />
        <path
           inkscape:connector-curvature="0"
           id="path7643"
           d="m 16.56522,57.03937 c -11.201945,11.10103 8.47714,7.97256 23.6149,13.92674 l 31.2847,-55.00052 c -4.74316,-4.84409 -10.79826,-4.44041 -15.13776,0 z"
           style="opacity:0.50526309;fill:url(#shinySpecular-4);stroke:none"
           class="specularity" />
        <path
           inkscape:connector-curvature="0"
           d="m 70.5,15.5 16.3,16.6 c 1.5,1.5 1.5,4.6 0.6,5.5 L 79.3,31 77.7,40.7 71,37.1 60.1,44 56.5,29.5 50.7,42.1 36.2,42 c -2.8,0 -2.4,-2.9 0.5,-5.8 5.7,-6.3 16.8,-17 20.3,-20.7 3.6,-3.7 9.9,-3.6 13.5,0 z"
           style="opacity:1;fill:url(#IcecapTip)"
           class="full-specularity"
           id="icecap-7" />
        <path
           inkscape:connector-curvature="0"
           style="opacity:0.21674882;fill:url(#radialGradient9177);fill-opacity:1;fill-rule:evenodd;stroke:none"
           d="m 113,203.5 c 0,0 3.3405,5.1007 3,7.5 -0.6682,4.7087 -10.8094,7.0584 -8.5625,11.25 2.2199,4.1411 10.2214,1.794 16.9375,6.125 6.6875,4.3125 4.8895,13.1015 9.75,15.3125 9.4792,4.312 34.375,-7.4375 33.125,-7.1875 -1.25,0.25 -24.5701,5.0954 -29.8201,0.8454 -5.986,-4.8457 -7.7022,-8.2302 -12.1174,-11.0954 -4.1375,-2.685 -9.9497,-3.7804 -11.3025,-5.9787 -1.3528,-2.1982 2.7092,-5.0346 2.99,-9.2713 0.1686,-2.5444 -4,-7.5 -4,-7.5 z"
           id="path8566"
           transform="matrix(0.5296484,0,0,0.5296484,-11.72226,-13.86416)"
           sodipodi:nodetypes="csszsszszsc" />
        <path
           inkscape:connector-curvature="0"
           sodipodi:nodetypes="csszscssc"
           transform="matrix(0.5296484,0,0,0.5296484,-11.72226,-13.86416)"
           id="path8718"
           d="m 113,203.5 c 0,0 3.3405,5.1007 3,7.5 -0.6682,4.7087 -10.8094,7.0584 -8.5625,11.25 2.2199,4.1411 10.2214,1.794 16.9375,6.125 6.6875,4.3125 4.8895,13.1015 9.75,15.3125 9.4792,4.312 34.375,-7.4375 33.125,-7.1875 -41.3396,0.1574 -33.6249,-10.4946 -49.5625,-17.5 -2.303,-1.0123 -0.9683,-3.7633 -0.6875,-8 0.1686,-2.5444 -4,-7.5 -4,-7.5 z"
           style="opacity:0.27586209;fill:url(#radialGradient8574);fill-opacity:1;fill-rule:evenodd;stroke:none;filter:url(#filter8732)" />
        <path
           inkscape:connector-curvature="0"
           style="opacity:0.45320201;fill:url(#radialGradient8744);fill-opacity:1;fill-rule:evenodd;stroke:none"
           d="M 183.25,181.75 C 220.3537,168.0954 232.2736,166.2194 244.5,154 230.3393,165.9537 200.4015,172.3658 176,183 Z"
           id="path8736"
           transform="matrix(0.5296484,0,0,0.5296484,-11.72226,-13.86416)"
           sodipodi:nodetypes="cccc" />
        <path
           inkscape:connector-curvature="0"
           sodipodi:nodetypes="cccc"
           transform="matrix(0.5296484,0,0,0.5296484,-11.72226,-14.79104)"
           id="path8746"
           d="m 183.25,181.75 c 61.1037,-21.6546 50.7736,-21.5306 61.25,-27.75 -19.4277,7.4367 -55.7345,8.2298 -68.5,29 z"
           style="opacity:0.51231528;fill:url(#radialGradient8768);fill-opacity:1;fill-rule:evenodd;stroke:none;filter:url(#filter8764)" />
        <ellipse
           ry="2.4375"
           rx="7.9375"
           cy="199.0625"
           cx="229.9375"
           style="display:inline;overflow:visible;visibility:visible;opacity:0.2857143;fill:url(#linearGradient7460);fill-opacity:1;fill-rule:nonzero;stroke:none;stroke-width:1;marker:none;enable-background:accumulate"
           id="path8864"
           transform="matrix(0.5296484,0,0,0.5296484,-12.38432,-14.79104)" />
        <ellipse
           ry="2.4375"
           rx="7.9375"
           cy="199.0625"
           cx="229.9375"
           transform="matrix(0.7131486,0,0,1.140781,-54.5779,-134.955)"
           id="path8874"
           style="display:inline;overflow:visible;visibility:visible;opacity:0.62068936;fill:url(#linearGradient7462);fill-opacity:1;fill-rule:nonzero;stroke:none;stroke-width:1;marker:none;filter:url(#filter8906);enable-background:accumulate" />
        <path
           inkscape:connector-curvature="0"
           style="fill:url(#radialGradient8922);fill-opacity:1;fill-rule:evenodd;stroke:none;filter:url(#filter8980)"
           d="m 214.125,203.75 c 3.7695,3.4842 24.7558,5.2722 28.1875,-1 -6.7366,4.7839 -21.7168,3.1026 -28.1875,1 z"
           id="path8914"
           transform="matrix(0.5296484,0,0,0.5296484,-11.72226,-14.23868)"
           sodipodi:nodetypes="ccc" />
        <ellipse
           ry="3.082082"
           rx="6.5084429"
           cy="199.0625"
           cx="229.9375"
           transform="matrix(0.2042516,-0.1035605,0.2395168,0.4723972,5.754795,30.28656)"
           id="path8984"
           style="display:inline;overflow:visible;visibility:visible;opacity:0.2857143;fill:url(#linearGradient7464);fill-opacity:1;fill-rule:nonzero;stroke:none;stroke-width:1;marker:none;enable-background:accumulate" />
        <ellipse
           ry="2.140048"
           rx="7.055552"
           cy="199.0625"
           cx="229.9375"
           style="display:inline;overflow:visible;visibility:visible;opacity:0.62068936;fill:url(#linearGradient7466);fill-opacity:1;fill-rule:nonzero;stroke:none;stroke-width:1;marker:none;filter:url(#filter8906);enable-background:accumulate"
           id="path8986"
           transform="matrix(0.2750159,-0.1394397,0.5158824,1.017471,-65.3535,-69.30064)" />
        <path
           inkscape:connector-curvature="0"
           sodipodi:nodetypes="ccc"
           transform="matrix(0.2042516,-0.1035605,0.2395168,0.4723972,6.259901,30.64976)"
           id="path8988"
           d="m 217.0575,201.9403 c 3.7695,3.4842 26.9713,8.9112 25.255,0.8097 -3.3174,5.3233 -18.7842,1.2929 -25.255,-0.8097 z"
           style="fill:url(#radialGradient8994);fill-opacity:1;fill-rule:evenodd;stroke:none;filter:url(#filter8980)" />
        <path
           inkscape:connector-curvature="0"
           style="fill:url(#radialGradient9004);fill-opacity:1;fill-rule:evenodd;stroke:none"
           d="m 68.25,186 c 0,-0.6206 38.8462,11.8385 45.5,18.5 -5.4712,-5.3385 -33.15971,-17.6161 -37.375,-17.75 -4.21529,-0.1339 -7.625,-0.5 -8.125,-0.75 z"
           id="path8996"
           transform="matrix(0.5296484,0,0,0.5296484,-11.72226,-13.86416)"
           sodipodi:nodetypes="cczc" />
        <g
           id="g9018"
           transform="matrix(0.8790148,-0.1929959,0.2338341,0.6959295,-20.20953,36.72556)">
          <ellipse
             ry="2.4375"
             rx="7.9375"
             cy="199.0625"
             cx="229.9375"
             style="display:inline;overflow:visible;visibility:visible;opacity:0.2857143;fill:url(#linearGradient8912);fill-opacity:1;fill-rule:nonzero;stroke:none;stroke-width:1;marker:none;enable-background:accumulate"
             id="path9006"
             transform="matrix(0.5296484,0,0,0.5296484,-84.4165,-4.727724)" />
          <ellipse
             ry="2.4375"
             rx="7.9375"
             cy="199.0625"
             cx="229.9375"
             transform="matrix(0.7131486,0,0,1.140781,-126.6101,-124.8917)"
             id="path9008"
             style="display:inline;overflow:visible;visibility:visible;opacity:0.62068936;fill:url(#linearGradient8910);fill-opacity:1;fill-rule:nonzero;stroke:none;stroke-width:1;marker:none;filter:url(#filter8906);enable-background:accumulate" />
        </g>
        <path
           inkscape:connector-curvature="0"
           style="opacity:0.61576347;fill:url(#radialGradient9046);fill-opacity:1;fill-rule:evenodd;stroke:none;filter:url(#filter9068)"
           d="m 80.5,220.0625 c 0,0 2.10339,5.6508 7.875,5.9375 5.83887,0.2901 12.5032,-7.007 13.0625,-9.625 -1,2.25 -6.59033,9.0333 -13.8125,8.9375 -4.09986,-0.054 -7.125,-5.25 -7.125,-5.25 z"
           id="path9038"
           transform="matrix(0.5296484,0,0,0.5296484,-11.62295,-14.42691)"
           sodipodi:nodetypes="czczc" />
        <path
           inkscape:label="top_inner_highlight"
           d="m 63.400391,10.207031 c -3.097253,0 -6.109664,1.119729 -8.257813,3.310547 L 13.943359,55.716797 a 1.4566767,1.4566767 0 0 1 -0.01367,0.01172 c -3.76575,3.765749 -4.6833689,6.246568 -4.4511724,7.638672 0.1160983,0.696051 0.4806181,1.290406 1.2089844,1.923828 0.728366,0.633421 1.814295,1.24767 3.138672,1.802734 2.648753,1.110128 6.210573,1.990179 9.710937,2.949219 3.500365,0.95904 6.941314,1.97644 9.542969,3.626953 a 1.4566767,1.4566767 0 0 1 0.01563,0.0098 c 0.396545,0.258215 0.759265,0.573102 1.021485,1.027343 0.262219,0.454242 0.363058,1.063946 0.259765,1.570313 -0.206586,1.012733 -0.840862,1.534685 -1.476562,2.019531 -1.2714,0.969692 -3.033992,1.772502 -4.789063,2.625 -1.755071,0.852498 -3.491971,1.748572 -4.371094,2.462891 -0.439561,0.357159 -0.599989,0.660243 -0.59375,0.638672 0.0062,-0.02157 -0.128773,-0.26354 0.08203,-0.05273 a 1.4566767,1.4566767 0 0 1 0.01367,0.01367 c 0.552307,0.567649 2.265324,1.519499 4.458984,2.388672 2.19366,0.869173 4.886021,1.748066 7.597656,2.628906 2.711635,0.88084 5.443057,1.762523 7.765625,2.669922 2.322568,0.907399 4.214347,1.74755 5.464844,2.998047 a 1.4566767,1.4566767 0 0 1 0.01367,0.01367 c 0.622684,0.639981 1.037708,1.431817 1.130859,2.246094 0.09315,0.814276 -0.118131,1.57267 -0.429687,2.21289 -0.623114,1.280442 -1.630567,2.266702 -2.542969,3.216802 -0.912402,0.95009 -1.729901,1.86349 -2.025391,2.4707 -0.147745,0.3036 -0.168219,0.48572 -0.154297,0.60742 0.01392,0.1217 0.04495,0.26186 0.322266,0.54688 A 1.4566767,1.4566767 0 0 1 44.859375,106 c 1.192742,1.2609 3.785509,1.43202 6.722656,2.11914 1.468574,0.34356 3.020143,0.87346 4.335938,2.01172 1.315794,1.13825 2.295418,2.86411 2.714843,5.21289 a 1.4566767,1.4566767 0 0 1 0,0.002 c 0.176524,0.99495 0.706144,1.48573 1.970704,1.88086 1.264559,0.39514 3.180187,0.45519 5.296875,0.14453 4.231067,-0.62097 9.266349,-2.69051 12.164062,-5.08789 0.164413,-0.1422 0.12384,-0.11325 0.179688,-0.18554 -0.19616,-0.14054 -0.645286,-0.45652 -1.396485,-0.83204 -0.890045,-0.44492 -1.928918,-0.85252 -2.732422,-1.86914 -0.401751,-0.5083 -0.701915,-1.30018 -0.583984,-2.08398 0.117931,-0.7838 0.546903,-1.43319 1.125,-2.02734 a 1.4566767,1.4566767 0 0 1 0.0078,-0.008 c 4.745529,-4.79825 9.436641,-5.965637 12.949219,-6.896481 1.756289,-0.465422 3.197168,-0.893298 4.310547,-1.595703 1.113379,-0.702405 1.986926,-1.649783 2.720703,-3.517578 a 1.4566767,1.4566767 0 0 1 0.0039,-0.0078 c 0.08095,-0.202377 0.07823,-0.240359 -0.03125,-0.478516 -0.10948,-0.238157 -0.40273,-0.618935 -0.873047,-1.027344 -0.940635,-0.816817 -2.51049,-1.719733 -4.0625,-2.580078 -1.552011,-0.860345 -3.067708,-1.643234 -4.164063,-2.660156 -0.548177,-0.508461 -1.100392,-1.139497 -1.166016,-2.113281 -0.06562,-0.973784 0.567086,-1.867526 1.306641,-2.390625 a 1.4566767,1.4566767 0 0 1 0.0039,-0.002 c 2.74583,-1.933288 6.881493,-3.416621 11.392579,-4.980468 4.511082,-1.563848 9.375252,-3.1606 13.328122,-5.009766 3.95288,-1.849166 6.87202,-3.996138 7.79688,-6.142578 0.46243,-1.07322 0.54046,-2.154833 0.0566,-3.558594 -0.48382,-1.403761 -1.59352,-3.115002 -3.56641,-5.08789 a 1.4566767,1.4566767 0 0 1 -0.0117,-0.01172 L 72,13.558594 l -0.002,-0.002 c -2.360461,-2.225808 -5.500354,-3.34961 -8.597656,-3.34961 z m 45.939449,79.998047 c -2.64033,0.09532 -5.06585,1.304857 -6.09961,3.189453 0.29289,0.10957 0.55221,0.22058 1.01954,0.328125 1.37503,0.316434 3.31963,0.542222 5.21093,0.583985 1.89131,0.04176 3.76134,-0.113616 4.91407,-0.433594 0.51958,-0.14423 0.8073,-0.316107 0.93164,-0.40625 -0.25999,-1.079658 -0.8934,-1.846192 -1.92188,-2.414063 -1.07322,-0.59257 -2.54715,-0.90208 -4.05469,-0.847656 z m -70.509762,9.087891 c -2.090061,-0.145362 -4.72053,0.673313 -6.003906,1.705081 -0.641688,0.51588 -0.887896,0.99276 -0.91211,1.31054 -0.02421,0.31779 0.06549,0.75172 0.925782,1.47852 a 1.4566767,1.4566767 0 0 1 0.01367,0.0117 c 1.35352,1.17061 2.867771,1.05974 4.611328,0.10937 1.464512,-0.79827 2.765689,-2.29912 3.632812,-3.875 -0.588706,-0.381638 -1.308952,-0.67356 -2.267578,-0.740231 z m 61.033203,0.611328 c -0.461503,0.578513 -0.728387,1.098963 -0.755859,1.472653 -0.03738,0.5085 0.134422,0.90445 0.529297,1.27735 0.739641,0.69848 2.327091,0.98567 3.957031,0.10937 -0.0359,-0.18943 -0.0984,-0.45737 -0.34375,-0.81445 -0.50163,-0.73008 -1.65445,-1.53832 -3.386719,-2.044923 z"
           inkscape:href="#use7639"
           id="87235"
           style="fill:none;stroke:url(#radialGradient11553);stroke-width:1.0035907;stroke-miterlimit:4;stroke-dasharray:none;stroke-opacity:1;filter:url(#filter9298)"
           xlink:href="#use7639"
           inkscape:original="M 63.400391 8.75 C 59.950391 8.75 56.549609 10 54.099609 12.5 L 12.900391 54.699219 C -2.6996094 70.299219 23.000781 69.000391 32.300781 74.900391 C 36.600781 77.700391 18.499219 81.3 22.199219 85 C 25.799219 88.7 43.9 92.099219 47.5 95.699219 C 51.1 99.399219 40.200781 103.3 43.800781 107 C 47.300781 110.7 55.699219 107.19961 57.199219 115.59961 C 58.299219 121.79961 72.6 118.70039 79 113.40039 C 83 110.00039 72.099219 110.00078 75.699219 106.30078 C 84.699219 97.200781 92.7 102.20078 96 93.800781 C 97.8 89.300781 82.4 86.099219 86.5 83.199219 C 96.3 76.299219 132.29922 72.799219 115.69922 56.199219 L 73 12.5 C 70.35 10 66.850391 8.75 63.400391 8.75 z M 109.28711 88.75 C 105.82461 88.875 102.30039 90.600781 101.40039 93.800781 C 101.40039 95.900781 117.70078 97.100781 116.80078 93.300781 C 116.15078 90.100781 112.74961 88.625 109.28711 88.75 z M 38.931641 97.839844 C 33.944141 97.492969 27.550391 101.22539 31.900391 104.90039 C 35.600391 108.10039 41.2 104.19922 43 99.699219 C 42.1 98.524219 40.594141 97.955469 38.931641 97.839844 z M 99.400391 98.199219 C 94.800391 102.39922 100.19922 106.80039 104.69922 103.90039 C 105.89922 103.10039 104.60039 99.199219 99.400391 98.199219 z "
           inkscape:radius="-1.456531"
           sodipodi:type="inkscape:offset" />
        <path
           inkscape:connector-curvature="0"
           sodipodi:nodetypes="csssssscs"
           transform="matrix(0.4883067,0,0,0.4883067,-5.810401,-7.704252)"
           id="path5897"
           d="m 95.5,172 c -5.09061,1.5019 -21.59202,7.7371 -19.25,12.5 2.2436,4.5627 40.6114,6.4013 46.5,20 2.5679,5.9301 -5.8924,10.4033 -3.75,16.5 1.6497,4.6948 14.412,16.4908 22.486,22.0678 6.333,4.3744 14.651,-3.5224 11.264,-10.0678 -5.3959,-10.4276 18.4427,-23.1991 29.25,-29 6.3052,-3.3844 -13,-20 -13,-20 0,0 -73.5,-12 -73.5,-12 z"
           style="opacity:0.32512309;fill:url(#linearGradient5905);fill-opacity:1;fill-rule:evenodd;stroke:none;filter:url(#filter5983-5)" />
        <path
           inkscape:connector-curvature="0"
           sodipodi:nodetypes="cssssssssss"
           id="path5783"
           d="m 41.74217,78.53304 c 2.23193,1.63922 6.63675,0.65053 9.28212,1.84176 6.34952,2.85921 14.15494,6.04542 12.71857,0.40455 0,0 -1.61577,1.34204 -1.61577,1.34204 0,0 -0.0315,-2.55754 -0.0315,-2.55754 0,0 -3.75198,0.91629 -3.75198,0.91629 0,0 -2.90617,-2.33276 -4.23852,-3.10199 -0.27829,-0.16067 -1.7077,1.29281 -1.7077,1.29281 0,0 -0.25697,-1.5438 -0.25697,-1.5438 -1.85737,-0.19764 -3.69616,-0.28481 -5.31515,-0.27182 -3.88094,0.0311 -6.49906,0.63774 -5.08307,1.6777 z"
           style="fill:url(#linearGradient5801);fill-opacity:1;fill-rule:evenodd;stroke:none" />
        <path
           inkscape:connector-curvature="0"
           sodipodi:nodetypes="csssssc"
           transform="matrix(0.4883067,0,0,0.4883067,-5.810401,-7.704252)"
           id="path5803"
           d="m 182.75,187.25 c -1.7598,6.4783 21.6278,15.2799 19.875,19.75 -3.859,9.8416 -24.976,3.1375 -41.125,23.75 -2.3132,2.9525 3.25,13.5 2.5,12.25 -0.75,-1.25 -6.4649,-9.9629 -5,-14.25 4.5942,-13.4452 49.0128,-18.4575 40.875,-24.875 -4.6799,-3.6906 -21.5055,-13.8872 -17.125,-16.625 z"
           style="opacity:0.47783251;fill:url(#radialGradient5811);fill-opacity:1;fill-rule:evenodd;stroke:none;filter:url(#filter5845)" />
        <ellipse
           ry="1.0625"
           rx="2.5625"
           cy="201.1875"
           cx="233.9375"
           transform="matrix(0.4883067,0,0,0.4883067,-6.359746,-8.009444)"
           id="path6041"
           style="display:inline;overflow:visible;visibility:visible;opacity:0.58620689;fill:#ffffff;fill-opacity:1;fill-rule:nonzero;stroke:none;stroke-width:1;marker:none;enable-background:accumulate" />
        <ellipse
           ry="1.0625"
           rx="2.5625"
           cy="201.1875"
           cx="233.9375"
           style="display:inline;overflow:visible;visibility:visible;opacity:0.58620689;fill:#ffffff;fill-opacity:1;fill-rule:nonzero;stroke:none;stroke-width:1;marker:none;enable-background:accumulate"
           id="path6043"
           transform="matrix(0.3096579,0,0,0.4883067,27.52844,1.573576)" />
        <ellipse
           ry="1.0625"
           rx="2.5625"
           cy="201.1875"
           cx="233.9375"
           style="display:inline;overflow:visible;visibility:visible;opacity:0.58620689;fill:#ffffff;fill-opacity:1;fill-rule:nonzero;stroke:none;stroke-width:1;marker:none;enable-background:accumulate"
           id="path6045"
           transform="matrix(0.5478563,0,0,0.4883067,-92.10223,1.115795)" />
        <path
           inkscape:connector-curvature="0"
           sodipodi:nodetypes="ccc"
           id="path5049"
           d="m 36.67228,76.52865 c -7.15299,4.42411 -18.27403,6.03423 -6.10383,8.97264 -1.44971,-3.2281 3.13858,-2.87202 6.10383,-8.97264 z"
           style="display:inline;overflow:visible;visibility:visible;opacity:0.25123153;fill:url(#linearGradient5822);fill-opacity:1;fill-rule:nonzero;stroke:none;stroke-width:2.04789329;marker:none;enable-background:accumulate" />
        <path
           inkscape:connector-curvature="0"
           style="color:#000000;display:inline;overflow:visible;visibility:visible;opacity:0.36315792;fill:url(#linearGradient1030);fill-opacity:1;fill-rule:nonzero;stroke:none;stroke-width:2;marker:none;filter:url(#filter10997-7);enable-background:accumulate"
           d="m 8.83428,171.6472 c 0,0 22.59178,-2.1279 27.81802,-8.6464 3.05755,-3.8136 -12.15146,-8.2638 -8.86827,-12 12.35008,-14.0541 22.73076,-13.4673 37.05025,-19.3536 14.31949,-5.8862 9.03544,-8.769 4.40381,-11.3535 -7.9325,-4.4264 -25.58722,-9.1424 -19.74696,-19.6465 5.87688,-10.56993 57.34317,-25.24999 57.34317,-25.24999 15.5962,-5.32843 13.6391,-14.96447 6,-23 L 66.83428,6.647214 c 0,0 2.28296,43.388646 -7,61.999996 -11.4715,22.99914 -72.54408,48.66179 -47,51.49999 9,1 13.32065,4.0705 17,11 7.57631,14.2688 -21,40.5 -21,40.5 z"
           id="path10207"
           sodipodi:nodetypes="csszsscccsssc"
           transform="matrix(0.4883067,0,0,0.4883067,57.7504,32.99748)" />
      </g>
      <path
         sodipodi:nodetypes="cccscc"
         inkscape:connector-curvature="0"
         id="path7468"
         d="M 65.585579,235.93758 H 6.3532428 L 5.522883,157.66849 c 0,0 14.519294,-20.47397 31.000103,-20.2152 17.57476,0.27595 27.151874,27.67258 27.151874,27.67258 z"
         style="fill:none;stroke:#000000;stroke-width:0.32986417px;stroke-linecap:butt;stroke-linejoin:miter;stroke-opacity:1" />
    </g>
    <g
       id="g4810"
       transform="translate(-22.563904,-0.30491763)">
      <path
         inkscape:connector-curvature="0"
         id="path6504"
         d="m 133.68107,204.47247 7.96759,1.26109 -1.35619,11.19216 -7.96759,-0.63054 z"
         style="fill:#e9c6af;stroke:none;stroke-width:0.28558341px;stroke-linecap:butt;stroke-linejoin:miter;stroke-opacity:1" />
      <path
         inkscape:connector-curvature="0"
         id="path6512"
         d="m 107.72643,197.70553 -3.75882,-7.37887 9.39706,0.19418 -0.41765,7.9614 z"
         style="fill:#e9c6af;stroke:none;stroke-width:0.28558341px;stroke-linecap:butt;stroke-linejoin:miter;stroke-opacity:1" />
      <path
         inkscape:connector-curvature="0"
         id="path6506"
         d="m 136.22391,209.83209 c 2.2038,-0.31527 7.96759,-0.63054 9.66282,2.83746 1.69523,3.46799 2.8819,22.38432 2.8819,22.38432 l 4.23807,34.67995 5.88145,26.80959 -46.35877,0.38836 6.47352,-42.71971 9.8147,-40.38956 c 0,0 -0.0139,-3.51466 7.40631,-3.99041 z"
         style="fill:#55d400;stroke:none;stroke-width:0.28558341px;stroke-linecap:butt;stroke-linejoin:miter;stroke-opacity:1" />
      <path
         style="fill:#e9c6af;stroke:none;stroke-width:0.28558341px;stroke-linecap:butt;stroke-linejoin:miter;stroke-opacity:1"
         d="m 141.11123,177.98889 c 7.84996,2.22159 13.31081,7.93425 13.31081,12.6948 0,4.76057 -6.82606,15.55115 -13.31081,15.55115 -6.48476,0 -18.08905,7.61689 -18.08905,7.61689 l -1.0239,-15.23378 -6.48475,-2.85633 5.80215,-2.85633 c 0,0 3.75432,-20.3117 7.16735,-20.3117 3.41302,0 6.82605,5.71266 6.82605,5.71266 0,0 9.21518,2.53897 5.80215,-0.31736 z"
         id="path6428"
         inkscape:connector-curvature="0" />
      <g
         transform="matrix(1.1193275,0,0,1.0408396,-8.3793459,-11.809214)"
         id="g6475">
        <path
           d="m 122.57688,181.4362 c 0,0 0.16403,2.29647 0.35318,4.94448 0.25752,3.60522 0.56158,7.86207 0.56158,7.86207 0,0 -4.57377,1.52458 -4.57377,1.52458 0,0 0.0142,-0.14462 0.0417,-0.40487 0.25801,-2.43847 1.68871,-15.02831 3.6173,-13.92626 0,0 0,0 0,0 0,0 0,0 0,0"
           style="opacity:1;fill:#280b0b;fill-opacity:1;stroke:#000000;stroke-width:0;stroke-linecap:butt;stroke-linejoin:miter;stroke-opacity:0"
           id="path6441"
           inkscape:connector-curvature="0" />
        <path
           d="m 122.46944,182.26014 c 0,0 0.3147,2.11507 0.49202,4.59758 0.24142,3.3799 0.51255,7.23133 0.50158,7.10902 -0.006,-0.0672 -4.29906,1.30003 -4.30048,1.26907 -2.5e-4,-0.006 0.0129,-0.1457 0.0387,-0.39309 0.24188,-2.34286 1.46011,-13.61576 3.26816,-12.58258 0,0 0,0 0,0 0,0 0,0 0,0"
           style="opacity:1;fill:#320f0a;fill-opacity:1;stroke:#000000;stroke-width:0.01653646;stroke-linecap:butt;stroke-linejoin:miter;stroke-opacity:0.0625"
           id="path6443"
           inkscape:connector-curvature="0" />
        <path
           d="m 122.362,183.08407 c 0,0 0.46536,1.93369 0.63086,4.25069 0.22533,3.15458 0.46351,6.60059 0.44159,6.35598 -0.0121,-0.13442 -4.02435,1.07546 -4.0272,1.01355 -5.1e-4,-0.0111 0.0116,-0.14678 0.0357,-0.38131 0.22576,-2.24725 1.23151,-12.2032 2.91903,-11.23891 0,0 0,0 0,0 0,0 0,0 0,0"
           style="opacity:1;fill:#3d1409;fill-opacity:1;stroke:#000000;stroke-width:0.03307291;stroke-linecap:butt;stroke-linejoin:miter;stroke-opacity:0.125"
           id="path6445"
           inkscape:connector-curvature="0" />
        <path
           d="m 122.25456,183.90801 c 0,0 0.61603,1.75229 0.76971,3.9038 0.20923,2.92924 0.41447,5.96984 0.38158,5.60292 -0.0181,-0.20163 -3.74964,0.85091 -3.7539,0.75804 -7.7e-4,-0.0167 0.0103,-0.14787 0.0327,-0.36953 0.20962,-2.15164 1.00291,-10.79065 2.56989,-9.89523 0,0 0,0 0,0 0,0 0,0 0,0"
           style="opacity:1;fill:#481808;fill-opacity:1;stroke:#000000;stroke-width:0.04960937;stroke-linecap:butt;stroke-linejoin:miter;stroke-opacity:0.1875"
           id="path6447"
           inkscape:connector-curvature="0" />
        <path
           d="m 122.14712,184.73194 c 0,0 0.76669,1.57091 0.90855,3.55691 0.19314,2.70392 0.36544,5.33911 0.32159,4.84988 -0.0241,-0.26885 -3.47493,0.62634 -3.48062,0.50252 -0.001,-0.0223 0.009,-0.14895 0.0297,-0.35775 0.1935,-2.05603 0.77432,-9.3781 2.22076,-8.55156 0,0 0,0 0,0 0,0 0,0 0,0"
           style="opacity:1;fill:#531d08;fill-opacity:1;stroke:#000000;stroke-width:0.06614583;stroke-linecap:butt;stroke-linejoin:miter;stroke-opacity:0.25"
           id="path6449"
           inkscape:connector-curvature="0" />
        <path
           d="m 122.03967,185.55588 c 0,0 0.91736,1.38951 1.0474,3.21001 0.17704,2.4786 0.3164,4.70837 0.26159,4.09683 -0.0301,-0.33606 -3.20022,0.40179 -3.20733,0.24701 -10e-4,-0.0278 0.008,-0.15003 0.0267,-0.34597 0.17738,-1.96042 0.54572,-7.96554 1.87162,-7.20788 0,0 0,0 0,0 0,0 0,0 0,0"
           style="opacity:1;fill:#5d2207;fill-opacity:1;stroke:#000000;stroke-width:0.08268229;stroke-linecap:butt;stroke-linejoin:miter;stroke-opacity:0.3125"
           id="path6451"
           inkscape:connector-curvature="0" />
        <path
           d="m 121.93223,186.37981 c 0,0 1.06803,1.20812 1.18624,2.86313 0.16095,2.25326 0.26737,4.07762 0.20159,3.34377 -0.0361,-0.40326 -2.9255,0.17723 -2.93404,-0.008 -0.002,-0.0334 0.007,-0.15112 0.0237,-0.3342 0.16125,-1.8648 0.31712,-6.55299 1.52248,-5.86421 0,0 0,0 0,0 0,0 0,0 0,0"
           style="opacity:1;fill:#682606;fill-opacity:1;stroke:#000000;stroke-width:0.09921875;stroke-linecap:butt;stroke-linejoin:miter;stroke-opacity:0.375"
           id="path6453"
           inkscape:connector-curvature="0" />
        <path
           d="m 121.82479,187.20375 c 0,0 1.21869,1.02673 1.32508,2.51623 0.14486,2.02794 0.21834,3.44688 0.1416,2.59073 -0.0422,-0.47048 -2.6508,-0.0473 -2.66075,-0.26401 -0.002,-0.0389 0.005,-0.1522 0.0207,-0.32242 0.14513,-1.76919 0.0885,-5.14043 1.17335,-4.52053 0,0 0,0 0,0 0,0 0,0 0,0"
           style="opacity:1;fill:#732b06;fill-opacity:1;stroke:#000000;stroke-width:0.1157552;stroke-linecap:butt;stroke-linejoin:miter;stroke-opacity:0.4375"
           id="path6455"
           inkscape:connector-curvature="0" />
        <path
           d="m 121.71735,188.02768 c 0,0 1.36935,0.84534 1.46392,2.16934 0.12876,1.80262 0.1693,2.81614 0.0816,1.83768 -0.0482,-0.53769 -2.37609,-0.27189 -2.38746,-0.51952 -0.002,-0.0445 0.004,-0.15329 0.0177,-0.31064 0.12901,-1.67358 -0.14007,-3.72788 0.82422,-3.17686 0,0 0,0 0,0 0,0 0,0 0,0"
           style="opacity:1;fill:#7e3005;fill-opacity:1;stroke:#000000;stroke-width:0.13229166;stroke-linecap:butt;stroke-linejoin:miter;stroke-opacity:0.5"
           id="path6457"
           inkscape:connector-curvature="0" />
        <path
           d="m 121.60991,188.85162 c 0,0 1.52002,0.66394 1.60277,1.82245 0.11266,1.57728 0.12026,2.18539 0.0216,1.08463 -0.0542,-0.60491 -2.10138,-0.49645 -2.11418,-0.77504 -0.002,-0.0501 0.003,-0.15437 0.0147,-0.29886 0.11287,-1.57797 -0.36868,-2.31533 0.47508,-1.83318 0,0 0,0 0,0 0,0 0,0 0,0"
           style="opacity:1;fill:#883404;fill-opacity:1;stroke:#000000;stroke-width:0.14882812;stroke-linecap:butt;stroke-linejoin:miter;stroke-opacity:0.5625"
           id="path6459"
           inkscape:connector-curvature="0" />
        <path
           d="m 121.50247,189.67556 c 0,0 1.67068,0.48255 1.74161,1.47555 0.0966,1.35196 0.0712,1.55466 -0.0384,0.33158 -0.0602,-0.67211 -1.82667,-0.72101 -1.84089,-1.03055 -0.003,-0.0556 0.001,-0.15545 0.0117,-0.28707 0.0968,-1.48237 -0.59727,-0.90278 0.12595,-0.48951 0,0 0,0 0,0 0,0 0,0 0,0"
           style="opacity:1;fill:#933904;fill-opacity:1;stroke:#000000;stroke-width:0.16536458;stroke-linecap:butt;stroke-linejoin:miter;stroke-opacity:0.625"
           id="path6461"
           inkscape:connector-curvature="0" />
        <path
           d="m 121.39503,190.49949 c 0,0 1.82134,0.30116 1.88045,1.12866 0.0805,1.12664 0.0222,0.92392 -0.0984,-0.42147 -0.0663,-0.73932 -1.55196,-0.94556 -1.56761,-1.28606 -0.003,-0.0612 1.3e-4,-0.15653 0.009,-0.27529 0.0806,-1.38676 -0.82587,0.50977 -0.22318,0.85416 0,0 0,0 0,0 0,0 0,0 0,0"
           style="opacity:1;fill:#9e3d03;fill-opacity:1;stroke:#000000;stroke-width:0.18190104;stroke-linecap:butt;stroke-linejoin:miter;stroke-opacity:0.6875"
           id="path6463"
           inkscape:connector-curvature="0" />
        <path
           d="m 121.28759,191.32343 c 0,0 1.97201,0.11977 2.01929,0.78177 0.0644,0.9013 -0.0268,0.29317 -0.15839,-1.17452 -0.0723,-0.80654 -1.27725,-1.17013 -1.29431,-1.54158 -0.003,-0.0668 -0.001,-0.15761 0.006,-0.26351 0.0645,-1.29115 -1.05447,1.92232 -0.57232,2.19784 0,0 0,0 0,0 0,0 0,0 0,0"
           style="opacity:1;fill:#a94202;fill-opacity:1;stroke:#000000;stroke-width:0.1984375;stroke-linecap:butt;stroke-linejoin:miter;stroke-opacity:0.75"
           id="path6465"
           inkscape:connector-curvature="0" />
        <path
           d="m 121.18014,192.14736 c 0,0 2.12268,-0.0616 2.15814,0.43488 0.0483,0.67598 -0.0759,-0.33757 -0.21839,-1.92757 -0.0783,-0.87375 -1.00253,-1.39468 -1.02102,-1.79709 -0.003,-0.0723 -0.002,-0.1587 0.003,-0.25173 0.0484,-1.19554 -1.28307,3.33488 -0.92146,3.54151 0,0 0,0 0,0 0,0 0,0 0,0"
           style="opacity:1;fill:#b34702;fill-opacity:1;stroke:#000000;stroke-width:0.21497394;stroke-linecap:butt;stroke-linejoin:miter;stroke-opacity:0.8125"
           id="path6467"
           inkscape:connector-curvature="0" />
        <path
           d="m 121.0727,192.9713 c 0,0 2.27334,-0.24302 2.29699,0.088 0.0322,0.45066 -0.12492,-0.96831 -0.27839,-2.68062 -0.0843,-0.94095 -0.72783,-1.61924 -0.74774,-2.0526 -0.004,-0.0779 -0.004,-0.15978 -2.7e-4,-0.23995 0.0323,-1.09993 -1.51166,4.74743 -1.27059,4.88519 0,0 0,0 0,0 0,0 0,0 0,0"
           style="opacity:1;fill:#be4b01;fill-opacity:1;stroke:#000000;stroke-width:0.2315104;stroke-linecap:butt;stroke-linejoin:miter;stroke-opacity:0.875"
           id="path6469"
           inkscape:connector-curvature="0" />
        <path
           d="m 120.96526,193.79523 c 0,0 2.42401,-0.4244 2.43583,-0.2589 0.0161,0.22532 -0.17395,-1.59906 -0.33839,-3.43367 -0.0904,-1.00817 -0.45312,-1.8438 -0.47445,-2.30812 -0.004,-0.0834 -0.005,-0.16086 -0.003,-0.22817 0.0161,-1.00432 -1.74027,6.15999 -1.61973,6.22886 0,0 0,0 0,0 0,0 0,0 0,0"
           style="opacity:1;fill:#c95000;fill-opacity:1;stroke:#000000;stroke-width:0.24804686;stroke-linecap:butt;stroke-linejoin:miter;stroke-opacity:0.9375"
           id="path6471"
           inkscape:connector-curvature="0" />
        <path
           d="m 120.85782,194.61917 c 0,0 2.57467,-0.6058 2.57467,-0.6058 0,0 -0.22298,-2.2298 -0.39838,-4.18672 -0.0964,-1.07538 -0.17841,-2.06836 -0.20117,-2.56363 -0.004,-0.089 -0.006,-0.16194 -0.006,-0.21639 0,-0.90871 -1.96886,7.57254 -1.96886,7.57254 0,0 0,0 0,0 0,0 0,0 0,0"
           style="opacity:1;fill:#d45500;fill-opacity:1;stroke:#000000;stroke-width:0.26458332;stroke-linecap:butt;stroke-linejoin:miter;stroke-opacity:1"
           id="path6473"
           inkscape:connector-curvature="0" />
      </g>
      <path
         sodipodi:nodetypes="cccccc"
         inkscape:connector-curvature="0"
         id="path6510"
         d="m 106.89115,197.31716 7.51763,0.9709 5.84706,26.40856 c 0,0 16.28822,-16.31118 17.9588,-12.81593 1.6706,3.49526 -21.5088,26.02019 -21.5088,26.02019 z"
         style="fill:#55d400;fill-opacity:1;stroke:none;stroke-width:0.28558341px;stroke-linecap:butt;stroke-linejoin:miter;stroke-opacity:1" />
      <path
         sodipodi:nodetypes="csssccc"
         inkscape:connector-curvature="0"
         id="path6508"
         d="m 140.30287,215.95849 c 1.87941,2.71852 -20.04703,10.48575 -21.50879,10.48575 -1.46177,0 -27.355861,-25.0493 -25.894101,-25.24348 1.461764,-0.19417 -1.543429,2.1523 -1.461763,1.16509 0.208824,-2.52435 8.144113,-6.99051 8.144113,-6.99051 l 20.673511,18.44716 c 0,0 15.03528,-2.13599 20.04703,2.13599 z"
         style="fill:#55d400;fill-opacity:1;stroke:none;stroke-width:0.28558341px;stroke-linecap:butt;stroke-linejoin:miter;stroke-opacity:1" />
      <path
         inkscape:connector-curvature="0"
         id="path6631"
         d="m 112.52938,191.68592 10.44117,-0.97091 -1.67059,3.10689 -9.8147,1.35927 -2.7147,1.9418 -28.399981,-1.16508 c 0,0 -2.297056,-3.10689 -1.044118,-4.85451 1.252943,-1.74763 1.252943,-3.88361 2.088235,-3.88361 0.835293,0 23.805854,0.9709 23.805854,0.9709 z"
         style="fill:#000000;stroke:#000000;stroke-width:0.28558341px;stroke-linecap:butt;stroke-linejoin:miter;stroke-opacity:1" />
      <path
         inkscape:connector-curvature="0"
         id="path6514"
         d="m 98.53821,195.76371 -5.011761,3.68943 -7.099994,-5.43705 7.099994,-4.66034 z"
         style="fill:#e9c6af;fill-opacity:1;stroke:none;stroke-width:0.28558341px;stroke-linecap:butt;stroke-linejoin:miter;stroke-opacity:1" />
      <path
         inkscape:connector-curvature="0"
         id="path7474"
         d="m 121.95174,203.63097 4.32834,0.4472"
         style="fill:none;stroke:#000000;stroke-width:0.28558341px;stroke-linecap:butt;stroke-linejoin:miter;stroke-opacity:1" />
    </g>
    <text
       xml:space="preserve"
       style="font-style:normal;font-variant:normal;font-weight:normal;font-stretch:normal;font-size:32.56437302px;line-height:32.14516068px;font-family:'URW Chancery L';-inkscape-font-specification:'URW Chancery L';letter-spacing:0px;word-spacing:0px;fill:#e6e6e6;fill-opacity:1;stroke:none;stroke-width:1.28580654px;stroke-linecap:butt;stroke-linejoin:miter;stroke-opacity:1"
       x="63.403252"
       y="143.60767"
       id="text7486"
       transform="matrix(1.087326,0,0,0.84054234,-7.0316389,39.755806)"
       mask="url(#mask8673)"><tspan
         sodipodi:role="line"
         id="tspan7484"
         x="63.403252"
         y="143.60767"
         style="font-style:normal;font-variant:normal;font-weight:normal;font-stretch:normal;font-size:32.56437302px;font-family:'Linux Libertine Display O';-inkscape-font-specification:'Linux Libertine Display O';fill:#e6e6e6;stroke-width:1.28580654px">Inkscape</tspan><tspan
         sodipodi:role="line"
         x="63.403252"
         y="176.08066"
         style="font-style:normal;font-variant:normal;font-weight:normal;font-stretch:normal;font-size:32.56437302px;font-family:'Linux Libertine Display O';-inkscape-font-specification:'Linux Libertine Display O';fill:#e6e6e6;stroke-width:1.28580654px"
         id="tspan7492">         0.92</tspan></text>
    <flowRoot
       xml:space="preserve"
       id="flowRoot7476"
       style="font-style:normal;font-variant:normal;font-weight:normal;font-stretch:normal;font-size:40px;line-height:25px;font-family:'URW Chancery L';-inkscape-font-specification:'URW Chancery L';letter-spacing:0px;word-spacing:0px;fill:#000000;fill-opacity:1;stroke:none;stroke-width:1px;stroke-linecap:butt;stroke-linejoin:miter;stroke-opacity:1"
       mask="url(#mask8669)"><flowRegion
         id="flowRegion7478"
         style="font-style:normal;font-variant:normal;font-weight:normal;font-stretch:normal;font-family:'URW Chancery L';-inkscape-font-specification:'URW Chancery L'"><rect
           id="rect7480"
           width="334.52322"
           height="65.767914"
           x="276.06287"
           y="51.593151"
           style="font-style:normal;font-variant:normal;font-weight:normal;font-stretch:normal;font-family:'URW Chancery L';-inkscape-font-specification:'URW Chancery L'" /></flowRegion><flowPara
         id="flowPara7482" /></flowRoot>    <text
       xml:space="preserve"
       style="font-style:normal;font-variant:normal;font-weight:normal;font-stretch:normal;font-size:20.04763031px;line-height:12.52976894px;font-family:'URW Chancery L';-inkscape-font-specification:'URW Chancery L';letter-spacing:0px;word-spacing:0px;fill:#000000;fill-opacity:1;stroke:none;stroke-width:0.50119072px;stroke-linecap:butt;stroke-linejoin:miter;stroke-opacity:1"
       x="170.06606"
       y="197.21136"
       id="text7490"
       transform="matrix(1.5703705,0,0,2.5631053,-136.97223,-246.70319)"
       mask="url(#mask8665)"><tspan
         sodipodi:role="line"
         id="tspan7488"
         x="170.06606"
         y="197.21136"
         style="font-style:normal;font-variant:normal;font-weight:normal;font-stretch:normal;font-size:9.87777805px;font-family:'Euphoria Script';-inkscape-font-specification:'Euphoria Script';fill:#000000;stroke-width:0.50119072px">Draw Freely.</tspan></text>
    <text
       xml:space="preserve"
       style="font-style:normal;font-variant:normal;font-weight:normal;font-stretch:normal;font-size:11.51796436px;line-height:7.19872761px;font-family:'URW Bookman L';-inkscape-font-specification:'URW Bookman L';letter-spacing:0px;word-spacing:0px;fill:#550000;fill-opacity:1;stroke:none;stroke-width:0.28794912px;stroke-linecap:butt;stroke-linejoin:miter;stroke-opacity:1"
       x="4.8491793"
       y="260.25732"
       id="text7496"
       transform="matrix(0.94435447,0,0,1.0589244,2.439341,-1.8295058)"
       mask="url(#mask8661)"><tspan
         sodipodi:role="line"
         id="tspan7494"
         x="4.8491793"
         y="260.25732"
         style="font-style:normal;font-variant:normal;font-weight:normal;font-stretch:normal;font-family:'URW Bookman L';-inkscape-font-specification:'URW Bookman L';fill:#550000;stroke-width:0.28794912px">www.inkscape.org</tspan></text>
  </g>
  <style
     id="style26"
     type="text/css">
	.specularity {opacity:0.5;}
	.low-specularity {opacity:0.25;}
	.full-specularity {opacity:1;}
	.black {fill:#000000;}
	.white {fill:#ffffff;}
	.outline-big {stroke-width:16;stroke:none;opacity:0.1;fill:none;}
	.outline-small {stroke-width:8;stroke:none;opacity:0.2;fill:none;}
	.stroke-highlight {fill:none;stroke:none;opacity:0.2;}
       	.base-shadow 	{fill:black;opacity:75;}
	</style>
</svg>
