<?xml version="1.0" encoding="UTF-8" standalone="no"?>
<!-- Created with Inkscape (http://www.inkscape.org/) -->
<svg xmlns:i="http://ns.adobe.com/AdobeIllustrator/10.0/" xmlns:dc="http://purl.org/dc/elements/1.1/" xmlns:cc="http://creativecommons.org/ns#" xmlns:rdf="http://www.w3.org/1999/02/22-rdf-syntax-ns#" xmlns:svg="http://www.w3.org/2000/svg" xmlns="http://www.w3.org/2000/svg" xmlns:xlink="http://www.w3.org/1999/xlink" xmlns:sodipodi="http://sodipodi.sourceforge.net/DTD/sodipodi-0.dtd" xmlns:inkscape="http://www.inkscape.org/namespaces/inkscape" id="svg2" sodipodi:version="0.32" inkscape:version="0.48+devel r" width="32" height="20" version="1.0" sodipodi:docname="c.svg" inkscape:output_extension="org.inkscape.output.svg.inkscape" inkscape:export-filename="/home/doctormo/Desktop/small-pd.png" inkscape:export-xdpi="90" inkscape:export-ydpi="90">
  <metadata id="metadata7">
    <rdf:RDF>
      <cc:Work rdf:about="">
        <dc:format>image/svg+xml</dc:format>
        <dc:type rdf:resource="http://purl.org/dc/dcmitype/StillImage"/>
        <dc:title/>
      </cc:Work>
    </rdf:RDF>
  </metadata>
  <defs id="defs5">
    <foreignObject requiredExtensions="http://ns.adobe.com/AdobeIllustrator/10.0/" x="0" y="0" width="1" height="1" id="foreignObject8">
      <i:pgfRef xlink:href="#adobe_illustrator_pgf"/>
    </foreignObject>
  </defs>
  <sodipodi:namedview inkscape:window-height="744" inkscape:window-width="1301" inkscape:pageshadow="2" inkscape:pageopacity="0" guidetolerance="10.0" gridtolerance="10.0" objecttolerance="10.0" borderopacity="1.0" bordercolor="#666666" pagecolor="#ffd7d7" id="base" showgrid="false" inkscape:zoom="10.18" inkscape:cx="1.077" inkscape:cy="6.721" inkscape:window-x="65" inkscape:window-y="24" inkscape:current-layer="svg2" inkscape:window-maximized="1" showguides="false" inkscape:snap-global="true" fit-margin-top="0" fit-margin-left="0" fit-margin-right="0" fit-margin-bottom="0" inkscape:snap-bbox="false" inkscape:snap-page="true" inkscape:snap-grids="false" inkscape:snap-to-guides="false" inkscape:snap-nodes="false" inkscape:snap-others="false"/>
  <path style="color:#000000;fill:#eeeeff;stroke:#ccccee;stroke-width:2.0007;stroke-linecap:round" d="M 1,1.124 C 1,9.525 1.64,19 12.96,19 l 6.08,0 C 30.36,19 31,9.525 31,1.124" id="rect4216" inkscape:connector-curvature="0" sodipodi:nodetypes="cccc"/>
  <path style="color:#000000;fill:#eeeeff;stroke-width:2.0006;stroke-linecap:round" d="M 1.59,0.0255 C 1.59,8.479 2.22,18.02 13.43,18.02 l 4.64,0 C 29.28,18.02 29.9,8.479 29.9,0.0255 Z" id="path4419" inkscape:connector-curvature="0" sodipodi:nodetypes="csccc"/>
  <circle style="color:#000000;fill:#ffffff;stroke:#b00808;stroke-width:0.9999;stroke-linecap:round" id="path4394" cx="-15.75" cy="8.391" r="7.778" transform="scale(-1,1)"/>
  <g id="g11128" transform="matrix(1.255,0,0,1.313,-3.238,-2.129)" style="fill:#73789f"/>
  <text xml:space="preserve" style="font-weight:bold;font-size:12.5px;line-height:125%;font-family:sans-serif;-inkscape-font-specification:'sans-serif Bold';letter-spacing:0px;word-spacing:0px;fill:#b00808;color:#000000" x="10.269391" y="12.941171" id="text11761" sodipodi:linespacing="125%"><tspan sodipodi:role="line" id="tspan11763" x="10.269391" y="12.941171">C</tspan></text>
</svg>