<?xml version="1.0" encoding="UTF-8" standalone="no"?>
<svg xmlns:i="http://ns.adobe.com/AdobeIllustrator/10.0/" xmlns:dc="http://purl.org/dc/elements/1.1/" xmlns:cc="http://creativecommons.org/ns#" xmlns:rdf="http://www.w3.org/1999/02/22-rdf-syntax-ns#" xmlns:svg="http://www.w3.org/2000/svg" xmlns="http://www.w3.org/2000/svg" xmlns:xlink="http://www.w3.org/1999/xlink" version="1.0" height="20.07403" width="42.427174" id="svg2">
  <metadata id="metadata7">
    <rdf:RDF>
      <cc:Work rdf:about="">
        <dc:format>image/svg+xml</dc:format>
        <dc:type rdf:resource="http://purl.org/dc/dcmitype/StillImage"/>
        <dc:title/>
      </cc:Work>
    </rdf:RDF>
  </metadata>
  <defs id="defs5">
    <foreignObject id="foreignObject8" height="1" width="1" y="0" x="0" requiredExtensions="http://ns.adobe.com/AdobeIllustrator/10.0/">
      <i:pgfRef xlink:href="#adobe_illustrator_pgf"/>
    </foreignObject>
  </defs>
  <path id="path4419" d="m 1.5793788,0 c 0,8.2988161 0.4940604,18.227705 9.2839572,18.096597 l 20.70832,-0.282386 c 8.778951,0 9.263631,-9.5153949 9.263631,-17.814211 z" style="color:#000000;fill:#eeeeff;stroke-width:2.0006001;stroke-linecap:round"/>
  <path id="rect4216" d="m 0.88831974,1.1574794 c 0,8.4725843 0.50031426,18.0283206 9.34962326,18.0283206 l 21.951288,0 c 8.849309,0 9.349623,-9.5557363 9.349623,-18.0283206" style="color:#000000;fill:#eeeeff;stroke:#ccccee;stroke-width:1.77646184;stroke-linecap:round"/>
  <text id="text14404" y="13.009918" x="9.1706829" style="font-weight:bold;font-size:11.25969982px;line-height:125%;font-family:sans-serif;-inkscape-font-specification:'sans-serif Bold';letter-spacing:0px;word-spacing:0px;fill:#227e13;stroke-width:1px" xml:space="preserve"><tspan y="13.009918" x="9.1706829" id="tspan14406">MIT</tspan></text>
</svg>