<?xml version="1.0" encoding="UTF-8" standalone="no"?>
<!-- Created with Inkscape (http://www.inkscape.org/) -->

<svg
   xmlns:dc="http://purl.org/dc/elements/1.1/"
   xmlns:cc="http://creativecommons.org/ns#"
   xmlns:rdf="http://www.w3.org/1999/02/22-rdf-syntax-ns#"
   xmlns:svg="http://www.w3.org/2000/svg"
   xmlns="http://www.w3.org/2000/svg"
   xmlns:xlink="http://www.w3.org/1999/xlink"
   xmlns:sodipodi="http://sodipodi.sourceforge.net/DTD/sodipodi-0.dtd"
   xmlns:inkscape="http://www.inkscape.org/namespaces/inkscape"
   version="1.1"
   width="48"
   height="48"
   id="svg2"
   inkscape:version="0.91 r13725"
   sodipodi:docname="facebook.svg"
   inkscape:export-filename="/home/doctormo/Desktop/facebook.png"
   inkscape:export-xdpi="96"
   inkscape:export-ydpi="96">
  <title
     id="title3769">Deviant Art Logo</title>
  <sodipodi:namedview
     pagecolor="#ffffff"
     bordercolor="#666666"
     borderopacity="1"
     objecttolerance="10"
     gridtolerance="10"
     guidetolerance="10"
     inkscape:pageopacity="0"
     inkscape:pageshadow="2"
     inkscape:window-width="1855"
     inkscape:window-height="1056"
     id="namedview11"
     showgrid="false"
     inkscape:zoom="1"
     inkscape:cx="-122.9088"
     inkscape:cy="6.160119"
     inkscape:window-x="65"
     inkscape:window-y="24"
     inkscape:window-maximized="1"
     inkscape:current-layer="svg2"
     fit-margin-top="0"
     fit-margin-left="0"
     fit-margin-right="0"
     fit-margin-bottom="0" />
  <defs
     id="defs4">
    <clipPath
       id="clipPath40"
       clipPathUnits="userSpaceOnUse">
      <path
         id="path42"
         d="M 0,500 1024,500 1024,0 0,0 0,500 Z"
         inkscape:connector-curvature="0" />
    </clipPath>
    <clipPath
       id="clipPath18"
       clipPathUnits="userSpaceOnUse">
      <path
         id="path20"
         d="M 0,2743.88 0,0 l 2743.81,0 0,2743.88 -2743.81,0 z"
         inkscape:connector-curvature="0" />
    </clipPath>
    <linearGradient
       gradientTransform="matrix(0.6652,0,0,0.6708,371.354,-281.501)"
       gradientUnits="userSpaceOnUse"
       xlink:href="#XMLID_8_"
       id="linearGradient5278"
       y2="542.10742"
       x2="332.23581"
       y1="542.10742"
       x1="242.4595" />
    <radialGradient
       gradientTransform="matrix(0.6875,0,0,0.6652,291.963,-263.687)"
       gradientUnits="userSpaceOnUse"
       xlink:href="#XMLID_9_"
       id="radialGradient5280"
       r="94.244698"
       cy="559.80658"
       cx="-89.499496" />
    <radialGradient
       gradientTransform="matrix(0.6794,0,0,0.6652,324.143,-263.687)"
       gradientUnits="userSpaceOnUse"
       xlink:href="#XMLID_10_"
       id="radialGradient5282"
       r="92.532097"
       cy="559.80267"
       cx="50.794399" />
    <radialGradient
       gradientTransform="matrix(0.6652,0,0,0.6652,404.663,-255.901)"
       gradientUnits="userSpaceOnUse"
       xlink:href="#XMLID_11_"
       id="radialGradient5284"
       r="115.4805"
       cy="536.8584"
       cx="397.9761" />
    <radialGradient
       gradientTransform="matrix(0.6652,0,0,0.6652,256.42,-274.632)"
       gradientUnits="userSpaceOnUse"
       xlink:href="#XMLID_12_"
       id="radialGradient5286"
       r="139.93469"
       cy="536.72272"
       cx="-251.0381" />
    <radialGradient
       gradientTransform="matrix(0.666,0,0,0.666,353.504,-242.821)"
       gradientUnits="userSpaceOnUse"
       xlink:href="#XMLID_13_"
       id="radialGradient5288"
       r="88.147499"
       cy="510.457"
       cx="190.2485" />
    <radialGradient
       gradientTransform="matrix(0.666,0,0,0.666,360.812,-245.43)"
       gradientUnits="userSpaceOnUse"
       xlink:href="#XMLID_14_"
       id="radialGradient5290"
       r="95.170601"
       cy="660.5957"
       cx="169.6396" />
    <radialGradient
       gradientTransform="matrix(0.6875,0,0,0.6652,291.963,-263.687)"
       gradientUnits="userSpaceOnUse"
       xlink:href="#XMLID_9_"
       id="radialGradient5348"
       r="94.244698"
       cy="559.80658"
       cx="-89.499496" />
    <radialGradient
       gradientTransform="matrix(0.6794,0,0,0.6652,324.143,-263.687)"
       gradientUnits="userSpaceOnUse"
       xlink:href="#XMLID_10_"
       id="radialGradient5350"
       r="92.532097"
       cy="559.80267"
       cx="50.794399" />
    <radialGradient
       gradientTransform="matrix(0.6652,0,0,0.6652,404.663,-255.901)"
       gradientUnits="userSpaceOnUse"
       xlink:href="#XMLID_11_"
       id="radialGradient5352"
       r="115.4805"
       cy="536.8584"
       cx="397.9761" />
    <radialGradient
       gradientTransform="matrix(0.6652,0,0,0.6652,256.42,-274.632)"
       gradientUnits="userSpaceOnUse"
       xlink:href="#XMLID_12_"
       id="radialGradient5354"
       r="139.93469"
       cy="536.72272"
       cx="-251.0381" />
    <radialGradient
       gradientTransform="matrix(0.666,0,0,0.666,353.504,-242.821)"
       gradientUnits="userSpaceOnUse"
       xlink:href="#XMLID_13_"
       id="radialGradient5356"
       r="88.147499"
       cy="510.457"
       cx="190.2485" />
    <radialGradient
       gradientTransform="matrix(0.666,0,0,0.666,360.812,-245.43)"
       gradientUnits="userSpaceOnUse"
       xlink:href="#XMLID_14_"
       id="radialGradient5358"
       r="95.170601"
       cy="660.5957"
       cx="169.6396" />
    <linearGradient
       gradientTransform="matrix(0.6652,0,0,0.6708,371.354,-281.501)"
       gradientUnits="userSpaceOnUse"
       id="XMLID_8_"
       y2="542.10742"
       x2="332.23581"
       y1="542.10742"
       x1="242.4595">
      <stop
         offset="0.34999999"
         style="stop-color:#85c881;stop-opacity:1"
         id="stop5052" />
      <stop
         offset="0.50300002"
         style="stop-color:#097e3f;stop-opacity:1"
         id="stop5054" />
      <stop
         offset="0.64999998"
         style="stop-color:#205127;stop-opacity:1"
         id="stop5056" />
    </linearGradient>
    <radialGradient
       gradientTransform="matrix(0.6875,0,0,0.6652,291.963,-263.687)"
       gradientUnits="userSpaceOnUse"
       id="XMLID_9_"
       r="94.244698"
       cy="559.80658"
       cx="-89.499496">
      <stop
         offset="0.1124"
         style="stop-color:#ffffff;stop-opacity:1"
         id="stop5063" />
      <stop
         offset="0.12"
         style="stop-color:#f15c49;stop-opacity:1"
         id="stop5065" />
      <stop
         offset="0.31"
         style="stop-color:#4e140e;stop-opacity:1"
         id="stop5067" />
      <stop
         offset="0.4772"
         style="stop-color:#b21f24;stop-opacity:1"
         id="stop5069" />
      <stop
         offset="0.56840003"
         style="stop-color:#b21f24;stop-opacity:1"
         id="stop5071" />
      <stop
         offset="0.67479998"
         style="stop-color:#f15c49;stop-opacity:1"
         id="stop5073" />
      <stop
         offset="0.88"
         style="stop-color:#4e140e;stop-opacity:1"
         id="stop5075" />
    </radialGradient>
    <radialGradient
       gradientTransform="matrix(0.6794,0,0,0.6652,324.143,-263.687)"
       gradientUnits="userSpaceOnUse"
       id="XMLID_10_"
       r="92.532097"
       cy="559.80267"
       cx="50.794399">
      <stop
         offset="0.11"
         style="stop-color:#feee15;stop-opacity:1"
         id="stop5080" />
      <stop
         offset="0.30500001"
         style="stop-color:#615120;stop-opacity:1"
         id="stop5082" />
      <stop
         offset="0.4298"
         style="stop-color:#b08d2f;stop-opacity:1"
         id="stop5084" />
      <stop
         offset="0.58579999"
         style="stop-color:#b38f2f;stop-opacity:1"
         id="stop5086" />
      <stop
         offset="0.67940003"
         style="stop-color:#f1e00b;stop-opacity:1"
         id="stop5088" />
      <stop
         offset="0.88999999"
         style="stop-color:#615120;stop-opacity:1"
         id="stop5090" />
    </radialGradient>
    <radialGradient
       gradientTransform="matrix(0.6652,0,0,0.6652,404.663,-255.901)"
       gradientUnits="userSpaceOnUse"
       id="XMLID_11_"
       r="115.4805"
       cy="536.8584"
       cx="397.9761">
      <stop
         offset="0.08"
         style="stop-color:#f15c49;stop-opacity:1"
         id="stop5095" />
      <stop
         offset="0.0968"
         style="stop-color:#4e140e;stop-opacity:1"
         id="stop5097" />
      <stop
         offset="0.47479999"
         style="stop-color:#b21f24;stop-opacity:1"
         id="stop5099" />
      <stop
         offset="0.57560003"
         style="stop-color:#b21f24;stop-opacity:1"
         id="stop5101" />
      <stop
         offset="0.69319999"
         style="stop-color:#f15c49;stop-opacity:1"
         id="stop5103" />
      <stop
         offset="0.92000002"
         style="stop-color:#4e140e;stop-opacity:1"
         id="stop5105" />
    </radialGradient>
    <radialGradient
       gradientTransform="matrix(0.6652,0,0,0.6652,256.42,-274.632)"
       gradientUnits="userSpaceOnUse"
       id="XMLID_12_"
       r="139.93469"
       cy="536.72272"
       cx="-251.0381">
      <stop
         offset="0.14"
         style="stop-color:#6584c2;stop-opacity:1"
         id="stop5110" />
      <stop
         offset="0.31999999"
         style="stop-color:#263573;stop-opacity:1"
         id="stop5112" />
      <stop
         offset="0.56480002"
         style="stop-color:#2c50a3;stop-opacity:1"
         id="stop5114" />
      <stop
         offset="0.6656"
         style="stop-color:#6584c2;stop-opacity:1"
         id="stop5116" />
      <stop
         offset="0.86000001"
         style="stop-color:#263573;stop-opacity:1"
         id="stop5118" />
    </radialGradient>
    <radialGradient
       gradientTransform="matrix(0.666,0,0,0.666,353.504,-242.821)"
       gradientUnits="userSpaceOnUse"
       id="XMLID_13_"
       r="88.147499"
       cy="510.457"
       cx="190.2485">
      <stop
         offset="0.08"
         style="stop-color:#6584c2;stop-opacity:1"
         id="stop5123" />
      <stop
         offset="0.248"
         style="stop-color:#263573;stop-opacity:1"
         id="stop5125" />
      <stop
         offset="0.47479999"
         style="stop-color:#6584c2;stop-opacity:1"
         id="stop5127" />
      <stop
         offset="0.65960002"
         style="stop-color:#2c50a3;stop-opacity:1"
         id="stop5129" />
      <stop
         offset="0.92000002"
         style="stop-color:#263573;stop-opacity:1"
         id="stop5131" />
    </radialGradient>
    <radialGradient
       gradientTransform="matrix(0.666,0,0,0.666,360.812,-245.43)"
       gradientUnits="userSpaceOnUse"
       id="XMLID_14_"
       r="95.170601"
       cy="660.5957"
       cx="169.6396">
      <stop
         offset="0.07"
         style="stop-color:#6584c2;stop-opacity:1"
         id="stop5136" />
      <stop
         offset="0.242"
         style="stop-color:#263573;stop-opacity:1"
         id="stop5138" />
      <stop
         offset="0.47420001"
         style="stop-color:#6584c2;stop-opacity:1"
         id="stop5140" />
      <stop
         offset="0.66339999"
         style="stop-color:#2c50a3;stop-opacity:1"
         id="stop5142" />
      <stop
         offset="0.93000001"
         style="stop-color:#263573;stop-opacity:1"
         id="stop5144" />
    </radialGradient>
    <radialGradient
       gradientTransform="matrix(0.666,0,0,0.666,4.7388,110.13317)"
       gradientUnits="userSpaceOnUse"
       xlink:href="#XMLID_14_"
       id="radialGradient5406"
       r="95.170601"
       cy="660.5957"
       cx="169.6396" />
    <radialGradient
       gradientTransform="matrix(0.666,0,0,0.666,-2.5692,112.74217)"
       gradientUnits="userSpaceOnUse"
       xlink:href="#XMLID_13_"
       id="radialGradient5409"
       r="88.147499"
       cy="510.457"
       cx="190.2485" />
    <radialGradient
       gradientTransform="matrix(0.6652,0,0,0.6652,48.5898,99.66217)"
       gradientUnits="userSpaceOnUse"
       xlink:href="#XMLID_11_"
       id="radialGradient5415"
       r="115.4805"
       cy="536.8584"
       cx="397.9761" />
    <radialGradient
       gradientTransform="matrix(0.6794,0,0,0.6652,-31.9302,91.87617)"
       gradientUnits="userSpaceOnUse"
       xlink:href="#XMLID_10_"
       id="radialGradient5418"
       r="92.532097"
       cy="559.80267"
       cx="50.794399" />
    <radialGradient
       gradientTransform="matrix(0.6875,0,0,0.6652,-64.1102,91.87617)"
       gradientUnits="userSpaceOnUse"
       xlink:href="#XMLID_9_"
       id="radialGradient5421"
       r="94.244698"
       cy="559.80658"
       cx="-89.499496" />
    <linearGradient
       gradientTransform="matrix(0.6652,0,0,0.6708,15.2808,74.06217)"
       gradientUnits="userSpaceOnUse"
       xlink:href="#XMLID_8_"
       id="linearGradient5425"
       y2="542.10742"
       x2="332.23581"
       y1="542.10742"
       x1="242.4595" />
  </defs>
  <metadata
     id="metadata7">
    <rdf:RDF>
      <cc:Work
         rdf:about="">
        <dc:format>image/svg+xml</dc:format>
        <dc:type
           rdf:resource="http://purl.org/dc/dcmitype/StillImage" />
        <dc:title>Deviant Art Logo</dc:title>
        <dc:creator>
          <cc:Agent>
            <dc:title>deviantart.com</dc:title>
          </cc:Agent>
        </dc:creator>
        <dc:rights>
          <cc:Agent>
            <dc:title>deviantart.com</dc:title>
          </cc:Agent>
        </dc:rights>
        <dc:publisher>
          <cc:Agent>
            <dc:title>deviantart.com</dc:title>
          </cc:Agent>
        </dc:publisher>
      </cc:Work>
    </rdf:RDF>
  </metadata>
  <g
     transform="matrix(2.6663703,0,0,2.6663703,-1610.4877,-1888.1848)"
     id="layer1"
     style="fill:#3b5998;fill-opacity:1">
    <rect
       width="18.002001"
       height="18.002001"
       x="604"
       y="708.14801"
       id="rect3050"
       style="color:#000000;fill:#3b5998;fill-opacity:1;stroke:none"
       ry="3" />
  </g>
  <style
     type="text/css"
     id="style26" />
  <g
     id="g12"
     transform="matrix(0.00797226,0,0,-0.00797226,-20.428652,69.884801)" />
  <path
     inkscape:connector-curvature="0"
     d="m 34.459341,46.361295 -8.365349,0 0,-20.249603 -4.180573,0 0,-6.977746 4.180573,0 0,-4.189544 c 0,-5.6926684 2.359484,-9.077656 9.064838,-9.077656 l 5.582813,0 0,6.979152 -3.489496,0 c -2.610697,0 -2.782536,0.975008 -2.782536,2.795209 l -0.01028,3.492839 6.321521,0 -0.739644,6.977746 -5.581877,0 0,20.249603 0,0 z"
     id="path2579"
     style="fill:#ffffff" />
</svg>
