<?xml version="1.0" encoding="UTF-8" standalone="no"?>
<!-- Created with Inkscape (http://www.inkscape.org/) -->

<svg
   xmlns:dc="http://purl.org/dc/elements/1.1/"
   xmlns:cc="http://creativecommons.org/ns#"
   xmlns:rdf="http://www.w3.org/1999/02/22-rdf-syntax-ns#"
   xmlns:svg="http://www.w3.org/2000/svg"
   xmlns="http://www.w3.org/2000/svg"
   xmlns:sodipodi="http://sodipodi.sourceforge.net/DTD/sodipodi-0.dtd"
   xmlns:inkscape="http://www.inkscape.org/namespaces/inkscape"
   version="1.1"
   width="48"
   height="48"
   id="svg2"
   inkscape:version="0.91 r13725"
   sodipodi:docname="tumblr.svg"
   inkscape:export-filename="/home/doctormo/Desktop/tumblr.png"
   inkscape:export-xdpi="96"
   inkscape:export-ydpi="96">
  <title
     id="title3769">Deviant Art Logo</title>
  <sodipodi:namedview
     pagecolor="#ffffff"
     bordercolor="#666666"
     borderopacity="1"
     objecttolerance="10"
     gridtolerance="10"
     guidetolerance="10"
     inkscape:pageopacity="0"
     inkscape:pageshadow="2"
     inkscape:window-width="1855"
     inkscape:window-height="1056"
     id="namedview11"
     showgrid="false"
     inkscape:zoom="13.111111"
     inkscape:cx="-7.1764107"
     inkscape:cy="19.760342"
     inkscape:window-x="65"
     inkscape:window-y="24"
     inkscape:window-maximized="1"
     inkscape:current-layer="svg2"
     fit-margin-top="0"
     fit-margin-left="0"
     fit-margin-right="0"
     fit-margin-bottom="0" />
  <defs
     id="defs4" />
  <metadata
     id="metadata7">
    <rdf:RDF>
      <cc:Work
         rdf:about="">
        <dc:format>image/svg+xml</dc:format>
        <dc:type
           rdf:resource="http://purl.org/dc/dcmitype/StillImage" />
        <dc:title>Deviant Art Logo</dc:title>
        <dc:creator>
          <cc:Agent>
            <dc:title>deviantart.com</dc:title>
          </cc:Agent>
        </dc:creator>
        <dc:rights>
          <cc:Agent>
            <dc:title>deviantart.com</dc:title>
          </cc:Agent>
        </dc:rights>
        <dc:publisher>
          <cc:Agent>
            <dc:title>deviantart.com</dc:title>
          </cc:Agent>
        </dc:publisher>
      </cc:Work>
    </rdf:RDF>
  </metadata>
  <g
     transform="matrix(2.6663703,0,0,2.6663703,-1610.4877,-1888.1848)"
     id="layer1">
    <rect
       width="18.002001"
       height="18.002001"
       x="604"
       y="708.14801"
       id="rect3050"
       style="color:#000000;fill:#314358;fill-opacity:1;stroke:none"
       ry="3" />
  </g>
  <style
     type="text/css"
     id="style26" />
  <g
     id="g12"
     transform="matrix(0.00797226,0,0,-0.00797226,-20.428652,69.884801)" />
  <g
     id="g4345"
     transform="matrix(0.1880141,0,0,0.1880141,0.51946814,0.33756278)">
    <g
       id="g4347">
      <g
         id="g4349" />
    </g>
    <g
       id="g4353">
      <path
         style="fill:#ffffff"
         id="path4355"
         d="m 168.1,170.9 c -3,1.4 -8.7,2.7 -12.9,2.8 -12.8,0.3 -15.3,-9 -15.4,-15.8 l 0,-49.7 32.1,0 0,-24.14 -32,0 0,-40.68 c 0,0 -23,0 -23.3,0 -0.4,0 -1.1,0.34 -1.2,1.19 -1.4,12.45 -7.2,34.3 -31.41,43.04 l 0,20.59 16.21,0 0,52.2 c 0,17.9 13.1,43.2 47.9,42.6 11.7,-0.2 24.8,-5.1 27.7,-9.3 l -7.7,-22.8"
         inkscape:connector-curvature="0" />
    </g>
  </g>
</svg>
