<?xml version="1.0" encoding="UTF-8" standalone="no"?>
<svg
   xmlns:dc="http://purl.org/dc/elements/1.1/"
   xmlns:cc="http://creativecommons.org/ns#"
   xmlns:rdf="http://www.w3.org/1999/02/22-rdf-syntax-ns#"
   xmlns:svg="http://www.w3.org/2000/svg"
   xmlns="http://www.w3.org/2000/svg"
   xmlns:sodipodi="http://sodipodi.sourceforge.net/DTD/sodipodi-0.dtd"
   xmlns:inkscape="http://www.inkscape.org/namespaces/inkscape"
   width="1000"
   height="1000"
   viewBox="0 0 1000 1000"
   version="1.1"
   id="svg8"
   inkscape:version="1.0alpha (8436fb1882, 2019-05-22, custom)"
   sodipodi:docname="generate.1.svg">
  <style
     id="style846"></style>
  <defs
     id="defs2" />
  <sodipodi:namedview
     units="px"
     showborder="false"
     inkscape:snap-global="false"
     inkscape:pagecheckerboard="false"
     inkscape:bbox-nodes="true"
     inkscape:snap-bbox="true"
     inkscape:snap-nodes="false"
     inkscape:object-nodes="false"
     inkscape:window-maximized="1"
     inkscape:window-y="27"
     inkscape:window-x="0"
     inkscape:window-height="1016"
     inkscape:window-width="1920"
     objecttolerance="20"
     borderlayer="true"
     inkscape:showpageshadow="false"
     inkscape:snap-others="true"
     inkscape:snap-grids="true"
     showgrid="true"
     inkscape:document-rotation="0"
     inkscape:current-layer="layer1"
     inkscape:document-units="px"
     inkscape:cy="560"
     inkscape:cx="400"
     inkscape:zoom="0.33521689"
     inkscape:pageshadow="2"
     inkscape:pageopacity="1"
     borderopacity="1.0"
     bordercolor="#666666"
     pagecolor="#ff4bb1"
     id="base"
     inkscape:snap-text-baseline="true"
     showguides="true"
     inkscape:guide-bbox="true">
    <inkscape:grid
       enabled="false"
       visible="false"
       spacingy="1"
       spacingx="1"
       units="mm"
       id="grid10"
       type="xygrid"
       empcolor="#3f3fff"
       empopacity="0.07058824"
       color="#3f3fff"
       opacity="0.03137255" />
    <sodipodi:guide
       position="635.4095,1120.8173"
       orientation="0,-1"
       id="guide883" />
    <sodipodi:guide
       position="1200.7151,889.6237"
       orientation="1,0"
       id="guide885" />
  </sodipodi:namedview>
  <metadata
     id="metadata5">
    <rdf:RDF>
      <cc:Work
         rdf:about="">
        <dc:format>image/svg+xml</dc:format>
        <dc:type
           rdf:resource="http://purl.org/dc/dcmitype/StillImage" />
        <dc:title />
      </cc:Work>
    </rdf:RDF>
  </metadata>
  <g
     id="layer1"
     inkscape:groupmode="layer"
     inkscape:label="Layer 1">
    <text
       id="text908"
       y="505.67505"
       x="-599.73132"
       style="font-size:40px;line-height:0%;font-family:sans-serif;letter-spacing:0px;word-spacing:0px"
       xml:space="preserve"><tspan
         y="505.67505"
         x="-599.73132"
         id="tspan906"
         sodipodi:role="line" /></text>
    <ellipse
       ry="153.0925"
       rx="215.34348"
       cy="-175.43311"
       cx="475.77075"
       id="path963"
       style="opacity:0.108356;fill:#ffffff;fill-opacity:0.989034;stroke-width:55.251;stroke-linejoin:round" />
    <text
       id="text926"
       y="-51.298286"
       x="478.74213"
       style="font-style:normal;font-variant:normal;font-weight:300;font-stretch:normal;font-size:41.5581px;line-height:1;font-family:Lato;-inkscape-font-specification:'Lato Light';text-align:center;letter-spacing:0px;word-spacing:0px;text-anchor:middle;fill:#ffffff;fill-opacity:0.563929;stroke-width:1.03895"
       xml:space="preserve"><tspan
         style="fill:#ffffff;fill-opacity:0.563929;stroke-width:1.03895"
         y="-51.298286"
         x="478.74213"
         sodipodi:role="line"
         id="tspan924">GROUP</tspan></text>
    <g
       id="inkscape-logo">
      <path
         id="path943"
         d="M 163.15,27.83 28.81,165.3 C -16.58,221.51 59.7,214.97 92.4,231.16 104.13,243.15 47.44,252 59.17,264 c 11.73,11.99 70.93,23.1 82.68,35.09 11.73,11.99 -24.01,24.71 -12.28,36.7 11.73,11.99 38.86,0.63 43.94,28.31 3.62,19.78 48.89,8.5 71.03,-7.7 11.73,-12 -22.44,-10.87 -10.71,-22.86 29.17,-29.83 56.33,-10.84 66.31,-40.73 4.93,-14.77 -42.94,-22.77 -31.19,-34.76 33.75,-19.71 150.4,-32.54 95.05,-87.89 L 224.75,27.83 c -17.03,-16.35 -45.45,-16.53 -61.6,0 z m 154.31,264.98 c 0,6.82 50.25,11.29 50.25,-1.61 -7.16,-20.72 -44.31,-19.32 -50.25,1.61 z M 91.1,329.05 c 11.9,10.29 30.28,-2.56 35.79,-16.92 -11.53,-15.32 -54.69,0.55 -35.79,16.92 z m 220.06,-22.23 c -15.34,13.76 1.72,27.72 16.84,18.83 3.37,-3.42 -0.09,-15.41 -16.84,-18.83 z"
         inkscape:connector-curvature="0"
         style="fill:#702270;fill-opacity:1;stroke:none" />
      <path
         id="path945"
         d="m 131,238.6 c 3.59,2.23 57.89,13.26 71.16,15.46 4.6,0.97 1.34,5.71 -5,8.91 -14.3,3.8 -83.66,-24.37 -66.16,-24.37 z"
         inkscape:connector-curvature="0" />
      <path
         id="path947"
         d="m 216.63,37.47 53.15,53.98 c 5.04,5.15 4.97,15.13 2.15,18 L 245.54,88.34 240.35,119.6 218.3,107.96 182.99,130.27 171.3,83.24 152.33,116.06 h -29 c -11.82,0 -13.21,-15 -2.47,-25.74 18.76,-20.25 40.29,-40.89 51.99,-52.85 11.76,-12.02 32.25,-11.68 43.78,0 z"
         inkscape:connector-curvature="0" />
    </g>
  </g>
</svg>
