<?xml version="1.0" encoding="UTF-8" standalone="no"?>
<svg
   xmlns:dc="http://purl.org/dc/elements/1.1/"
   xmlns:cc="http://creativecommons.org/ns#"
   xmlns:rdf="http://www.w3.org/1999/02/22-rdf-syntax-ns#"
   xmlns:svg="http://www.w3.org/2000/svg"
   xmlns="http://www.w3.org/2000/svg"
   xmlns:sodipodi="http://sodipodi.sourceforge.net/DTD/sodipodi-0.dtd"
   xmlns:inkscape="http://www.inkscape.org/namespaces/inkscape"
   width="10.583333mm"
   height="7.9375005mm"
   viewBox="0 0 10.583333 7.9375005"
   version="1.1"
   id="svg8"
   inkscape:version="1.0.1 (1.0.1+r74)"
   sodipodi:docname="canvas_preview_dark_solid.svg"
   inkscape:export-filename="/home/doctormo/Projects/inkscape/inkscape/share/ui/resources/canvas_dark_solid.png"
   inkscape:export-xdpi="96"
   inkscape:export-ydpi="96">
  <defs
     id="defs2">
    <clipPath
       clipPathUnits="userSpaceOnUse"
       id="clipPath1143">
      <rect
         style="opacity:1;fill:none;fill-opacity:1;fill-rule:evenodd;stroke:#888a85;stroke-width:0.295037;stroke-linecap:round;paint-order:stroke markers fill;stop-color:#000000"
         id="rect1145"
         width="9.7591295"
         height="7.113296"
         x="0.41210213"
         y="0.41210213"
         ry="1.3160923" />
    </clipPath>
  </defs>
  <sodipodi:namedview
     id="base"
     pagecolor="#5b5b5b"
     bordercolor="#666666"
     borderopacity="1.0"
     inkscape:pageopacity="0"
     inkscape:pageshadow="2"
     inkscape:zoom="5.7855654"
     inkscape:cx="22.882035"
     inkscape:cy="36.141561"
     inkscape:document-units="mm"
     inkscape:current-layer="layer1"
     inkscape:document-rotation="0"
     showgrid="false"
     inkscape:pagecheckerboard="true"
     inkscape:snap-global="true"
     inkscape:window-width="1534"
     inkscape:window-height="843"
     inkscape:window-x="66"
     inkscape:window-y="20"
     inkscape:window-maximized="1" />
  <metadata
     id="metadata5">
    <rdf:RDF>
      <cc:Work
         rdf:about="">
        <dc:format>image/svg+xml</dc:format>
        <dc:type
           rdf:resource="http://purl.org/dc/dcmitype/StillImage" />
        <dc:title></dc:title>
      </cc:Work>
    </rdf:RDF>
  </metadata>
  <g
     inkscape:label="Layer 1"
     inkscape:groupmode="layer"
     id="layer1">
    <g
       id="g1111"
       clip-path="url(#clipPath1143)">
      <path
         id="path847"
         style="opacity:1;fill:#5b5b5b;fill-opacity:1;fill-rule:evenodd;stroke-width:0.129024;stroke-linecap:round;paint-order:stroke markers fill;stop-color:#000000"
         d="M 0,1.8521964e-7 V 7.9375008 H 10.583333 V 1.8521964e-7 Z"
         sodipodi:nodetypes="ccccc" />
    </g>
    <rect
       style="opacity:1;fill:none;fill-opacity:1;fill-rule:evenodd;stroke:#888a85;stroke-width:0.295037;stroke-linecap:round;paint-order:stroke markers fill;stop-color:#000000"
       id="rect1108"
       width="9.7591295"
       height="7.113296"
       x="0.41210213"
       y="0.41210213"
       ry="1.3160923" />
  </g>
</svg>
