<?xml version="1.0" encoding="UTF-8" standalone="no"?>
<svg xmlns:dc="http://purl.org/dc/elements/1.1/" xmlns:cc="http://creativecommons.org/ns#" xmlns:rdf="http://www.w3.org/1999/02/22-rdf-syntax-ns#" xmlns:svg="http://www.w3.org/2000/svg" xmlns="http://www.w3.org/2000/svg" xmlns:xlink="http://www.w3.org/1999/xlink" xmlns:sodipodi="http://sodipodi.sourceforge.net/DTD/sodipodi-0.dtd" xmlns:inkscape="http://www.inkscape.org/namespaces/inkscape" width="100" height="40" id="svg2" version="1.1" inkscape:version="0.91 r" sodipodi:docname="asl.svg">
  <sodipodi:namedview pagecolor="#ffffff" bordercolor="#666666" borderopacity="1" objecttolerance="10" gridtolerance="10" guidetolerance="10" inkscape:pageopacity="0" inkscape:pageshadow="2" inkscape:window-width="640" inkscape:window-height="480" id="namedview16" showgrid="false" inkscape:zoom="4.08617" inkscape:cx="69.104498" inkscape:cy="31.921424" inkscape:current-layer="svg2"/>
  <defs id="defs4">
    <linearGradient inkscape:collect="always" id="linearGradient7992">
      <stop style="stop-color:#80287a;stop-opacity:1" offset="0" id="stop7994"/>
      <stop id="stop8000" offset="0.23516516" style="stop-color:#bf2042;stop-opacity:1"/>
      <stop style="stop-color:#e05e2b;stop-opacity:1" offset="0.67026985" id="stop8002"/>
      <stop style="stop-color:#f39124;stop-opacity:1" offset="1" id="stop7996"/>
    </linearGradient>
    <linearGradient inkscape:collect="always" xlink:href="#linearGradient7992" id="linearGradient8057" x1="29.978672" y1="20.000002" x2="70.021332" y2="20.000002" gradientUnits="userSpaceOnUse" gradientTransform="translate(-5.0088818e-7,-1.7985686e-6)"/>
  </defs>
  <metadata id="metadata7">
    <rdf:RDF>
      <cc:Work rdf:about="">
        <dc:format>image/svg+xml</dc:format>
        <dc:type rdf:resource="http://purl.org/dc/dcmitype/StillImage"/>
        <dc:title/>
      </cc:Work>
    </rdf:RDF>
  </metadata>
  <path d="M 68.729371,19.999999 A 18.729436,18.671996 0 0 1 50.000018,38.671997 18.729436,18.671996 0 0 1 31.2705,20.000162 18.729436,18.671996 0 0 1 49.999691,1.328003 18.729436,18.671996 0 0 1 68.729371,19.999674" id="path3685" style="fill:#ffffff;fill-opacity:1;fill-rule:nonzero;stroke:url(#linearGradient8057);stroke-width:2.58365679;stroke-linecap:round;stroke-miterlimit:4;stroke-dasharray:none;stroke-opacity:1" inkscape:connector-curvature="0"/>
  <g transform="scale(0.91020111,1.0986583)" style="color:#000000;font-style:normal;font-variant:normal;font-weight:bold;font-stretch:normal;font-size:15.99652004px;line-height:150%;font-family:'Bitstream Vera Sans';-inkscape-font-specification:'Bitstream Vera Sans, Bold';text-indent:0;text-align:start;text-decoration:none;text-decoration-line:none;text-decoration-style:solid;text-decoration-color:#000000;letter-spacing:0px;word-spacing:0px;text-transform:none;direction:ltr;block-progression:tb;writing-mode:lr-tb;baseline-shift:baseline;text-anchor:start;white-space:normal;clip-rule:nonzero;display:inline;overflow:visible;visibility:visible;opacity:1;isolation:auto;mix-blend-mode:normal;color-interpolation:sRGB;color-interpolation-filters:linearRGB;solid-color:#000000;solid-opacity:1;fill:#d14136;fill-opacity:1;fill-rule:nonzero;stroke:#d14136;stroke-width:0.5;stroke-linecap:round;stroke-linejoin:round;stroke-miterlimit:4;stroke-dasharray:none;stroke-dashoffset:0;stroke-opacity:1;marker:none;marker-start:none;marker-mid:none;marker-end:none;color-rendering:auto;image-rendering:auto;shape-rendering:auto;text-rendering:auto;enable-background:accumulate" id="text6706">
    <path d="m 47.49504,21.902436 -4.702102,0 -0.742026,2.124538 -3.02278,0 4.319373,-11.661526 3.585157,0 4.319373,11.661526 -3.02278,0 -0.734215,-2.124538 z m -3.952265,-2.163592 3.194617,0 -1.593403,-4.639616 -1.601214,4.639616 z" style="fill:#d14136;fill-opacity:1;stroke:#d14136;stroke-width:0.5;stroke-miterlimit:4;stroke-dasharray:none;stroke-opacity:1" id="path8060"/>
    <path d="m 60.316497,12.732556 0,2.468213 q -0.960729,-0.429594 -1.874593,-0.648297 -0.913863,-0.218702 -1.726187,-0.218702 -1.07789,0 -1.593403,0.29681 -0.515513,0.296811 -0.515513,0.921675 0,0.468648 0.343676,0.734215 0.351486,0.257757 1.265349,0.445216 l 1.280972,0.257756 q 1.944889,0.39054 2.765023,1.187242 0.820134,0.796702 0.820134,2.265132 0,1.929268 -1.148188,2.874375 -1.140376,0.937296 -3.491428,0.937296 -1.109133,0 -2.226078,-0.210892 -1.116944,-0.210891 -2.233889,-0.624864 l 0,-2.53851 q 1.116945,0.593621 2.155781,0.898242 1.046648,0.296811 2.015187,0.296811 0.984161,0 1.507484,-0.328054 0.523324,-0.328054 0.523324,-0.937296 0,-0.546756 -0.359297,-0.843567 -0.351486,-0.29681 -1.413755,-0.531134 l -1.163809,-0.257757 q -1.749619,-0.374918 -2.561943,-1.195052 -0.804512,-0.820134 -0.804512,-2.210457 0,-1.741808 1.124755,-2.679104 1.124755,-0.937296 3.233672,-0.937296 0.960728,0 1.976132,0.148405 1.015404,0.140594 2.101106,0.429594 z" style="fill:#d14136;fill-opacity:1;stroke:#d14136;stroke-width:0.5;stroke-miterlimit:4;stroke-dasharray:none;stroke-opacity:1" id="path8062"/>
    <path d="m 62.550439,12.365448 3.007158,0 0,9.388583 5.280102,0 0,2.272943 -8.28726,0 0,-11.661526 z" style="fill:#d14136;fill-opacity:1;stroke:#d14136;stroke-width:0.5;stroke-miterlimit:4;stroke-dasharray:none;stroke-opacity:1" id="path8064"/>
  </g>
</svg>