<?xml version="1.0" encoding="UTF-8" standalone="no"?>
<!-- Created with Inkscape (http://www.inkscape.org/) -->
<svg xmlns:i="http://ns.adobe.com/AdobeIllustrator/10.0/" xmlns:dc="http://purl.org/dc/elements/1.1/" xmlns:cc="http://creativecommons.org/ns#" xmlns:rdf="http://www.w3.org/1999/02/22-rdf-syntax-ns#" xmlns:svg="http://www.w3.org/2000/svg" xmlns="http://www.w3.org/2000/svg" xmlns:xlink="http://www.w3.org/1999/xlink" xmlns:sodipodi="http://sodipodi.sourceforge.net/DTD/sodipodi-0.dtd" xmlns:inkscape="http://www.inkscape.org/namespaces/inkscape" id="svg2" sodipodi:version="0.32" inkscape:version="0.48+devel r" width="100" height="40" version="1.0" sodipodi:docname="cc-by-icon.svg" inkscape:output_extension="org.inkscape.output.svg.inkscape" inkscape:export-filename="/home/doctormo/Desktop/small-pd.png" inkscape:export-xdpi="90" inkscape:export-ydpi="90">
  <metadata id="metadata7">
    <rdf:RDF>
      <cc:Work rdf:about="">
        <dc:format>image/svg+xml</dc:format>
        <dc:type rdf:resource="http://purl.org/dc/dcmitype/StillImage"/>
        <dc:title/>
      </cc:Work>
    </rdf:RDF>
  </metadata>
  <defs id="defs5">
    <foreignObject requiredExtensions="http://ns.adobe.com/AdobeIllustrator/10.0/" x="0" y="0" width="1" height="1" id="foreignObject8">
      <i:pgfRef xlink:href="#adobe_illustrator_pgf"/>
    </foreignObject>
    <foreignObject id="foreignObject8" height="1" width="1" y="0" x="0" requiredExtensions="http://ns.adobe.com/AdobeIllustrator/10.0/">
      <i:pgfRef xlink:href="#adobe_illustrator_pgf"/>
    </foreignObject>
    <foreignObject id="foreignObject8" height="1" width="1" y="0" x="0" requiredExtensions="http://ns.adobe.com/AdobeIllustrator/10.0/">
      <i:pgfRef xlink:href="#adobe_illustrator_pgf"/>
    </foreignObject>
    <inkscape:perspective id="perspective7708" inkscape:persp3d-origin="372.04724 : 350.78739 : 1" inkscape:vp_z="744.09448 : 526.18109 : 1" inkscape:vp_y="0 : 1000 : 0" inkscape:vp_x="0 : 526.18109 : 1" sodipodi:type="inkscape:persp3d"/>
    <inkscape:perspective sodipodi:type="inkscape:persp3d" inkscape:vp_x="0 : 0.5 : 1" inkscape:vp_y="0 : 1000 : 0" inkscape:vp_z="1 : 0.5 : 1" inkscape:persp3d-origin="0.5 : 0.33333333 : 1" id="perspective7679"/>
    <inkscape:perspective id="perspective9" inkscape:persp3d-origin="372.04724 : 350.78739 : 1" inkscape:vp_z="744.09448 : 526.18109 : 1" inkscape:vp_y="0 : 1000 : 0" inkscape:vp_x="0 : 526.18109 : 1" sodipodi:type="inkscape:persp3d"/>
    <radialGradient cx="331.55237" cy="130.5105" r="131.92857" fx="331.55237" fy="130.5105" id="radialGradient2362" xlink:href="#linearGradient3640" gradientUnits="userSpaceOnUse" gradientTransform="matrix(-1.78407,1.39468,-1.80486,-1.41096,1190.16,-186.454)"/>
    <radialGradient cx="331.55237" cy="130.5105" r="131.92857" fx="331.55237" fy="130.5105" id="radialGradient3646" xlink:href="#linearGradient3640" gradientUnits="userSpaceOnUse" gradientTransform="matrix(-0.698445,0.698434,-0.706585,-0.706586,713.838,153.459)"/>
    <linearGradient id="linearGradient3640">
      <stop style="stop-color: rgb(0, 0, 0); stop-opacity: 1;" offset="0" id="stop3642"/>
      <stop style="stop-color: rgb(255, 255, 253); stop-opacity: 0;" offset="1" id="stop3644"/>
    </linearGradient>
    <inkscape:perspective sodipodi:type="inkscape:persp3d" inkscape:vp_x="0 : 300 : 1" inkscape:vp_y="0 : 1000 : 0" inkscape:vp_z="744 : 300 : 1" inkscape:persp3d-origin="372 : 200 : 1" id="perspective23"/>
    <foreignObject id="foreignObject8" height="1" width="1" y="0" x="0" requiredExtensions="http://ns.adobe.com/AdobeIllustrator/10.0/">
      <i:pgfRef xlink:href="#adobe_illustrator_pgf"/>
    </foreignObject>
    <inkscape:perspective sodipodi:type="inkscape:persp3d" inkscape:vp_x="0 : 36.1875 : 1" inkscape:vp_y="0 : 1000 : 0" inkscape:vp_z="303.04401 : 36.1875 : 1" inkscape:persp3d-origin="151.522 : 24.125 : 1" id="perspective60"/>
    <inkscape:perspective sodipodi:type="inkscape:persp3d" inkscape:vp_x="0 : 32 : 1" inkscape:vp_y="0 : 1000 : 0" inkscape:vp_z="64 : 32 : 1" inkscape:persp3d-origin="32 : 21.333333 : 1" id="perspective2820"/>
    <inkscape:perspective sodipodi:type="inkscape:persp3d" inkscape:vp_x="0 : 0.5 : 1" inkscape:vp_y="0 : 1000 : 0" inkscape:vp_z="1 : 0.5 : 1" inkscape:persp3d-origin="0.5 : 0.33333333 : 1" id="perspective3356"/>
  </defs>
  <sodipodi:namedview inkscape:window-height="1056" inkscape:window-width="1855" inkscape:pageshadow="2" inkscape:pageopacity="0" guidetolerance="10.0" gridtolerance="10.0" objecttolerance="10.0" borderopacity="1.0" bordercolor="#666666" pagecolor="#ffd7d7" id="base" showgrid="false" inkscape:zoom="4" inkscape:cx="19.508488" inkscape:cy="22.805845" inkscape:window-x="65" inkscape:window-y="24" inkscape:current-layer="svg2" inkscape:window-maximized="1" showguides="false"/>
  <rect style="fill:#abb1aa;fill-opacity:1;stroke:#000000;stroke-width:2;stroke-linecap:round;stroke-linejoin:round;stroke-miterlimit:4;stroke-opacity:1;stroke-dasharray:none;stroke-dashoffset:0" id="rect3350" width="98" height="37.75" x="1.5" y="1.2499998" rx="1.0662317" ry="0.90645707"/>
  <path inkscape:connector-curvature="0" style="fill:#000000;fill-opacity:1;fill-rule:evenodd;stroke:none" d="m 1.258859,24.721764 97.628973,0 0,15.002026 -97.628973,0 z" id="path3348" sodipodi:nodetypes="ccccc"/>
  <circle r="13.505061" cy="17.593134" cx="17.611784" style="fill:#000000;fill-opacity:1;stroke:#abb1aa;stroke-width:1.99999988;stroke-linecap:round;stroke-linejoin:round;stroke-miterlimit:4;stroke-opacity:1;stroke-dasharray:none;stroke-dashoffset:0" id="path3360"/>
  <g id="g3333" transform="matrix(0.8389478,0,0,0.8389478,-19.301918,4.5894415)">
    <circle r="10.621033" cy="-37.690372" cx="54.028732" style="fill:#ffffff;fill-opacity:1;stroke:#000000;stroke-width:1.8469218;stroke-linecap:round;stroke-linejoin:round;stroke-miterlimit:4;stroke-opacity:1;stroke-dasharray:none;stroke-dashoffset:0" id="path3331" transform="matrix(1.2907631,0,0,1.2907631,-25.738294,64.149342)" d="M 64.649765,-37.690372 A 10.621033,10.621033 0 0 1 54.028732,-27.06934 10.621033,10.621033 0 0 1 43.4077,-37.690372 10.621033,10.621033 0 0 1 54.028732,-48.311405 10.621033,10.621033 0 0 1 64.649765,-37.690372 Z"/>
    <g transform="matrix(0.08627803,0,0,0.08627803,30.92698,12.35943)" id="g2534" style="overflow:visible">
      <g id="Background" i:layer="yes" i:dimmedPercent="100" i:rgbTrio="#4F008000FFFF" transform="translate(-3.9356364,-120.10454)"/>
      <g id="Guides" i:layer="yes" i:dimmedPercent="100" i:rgbTrio="#4F008000FFFF" transform="translate(-3.9356364,-120.10454)"/>
      <g id="g47" transform="matrix(4.7881057,0,0,4.7814576,1.07065e-6,-155.7423)">
        <path inkscape:connector-curvature="0" i:knockout="Off" d="m 31.28,34.919 c -1.79,-3.264 -4.844,-4.563 -8.389,-4.563 -5.16,0 -9.267,3.65 -9.267,9.829 0,6.283 3.861,9.829 9.443,9.829 3.581,0 6.634,-1.966 8.319,-4.949 l -3.932,-2.001 c -0.878,2.106 -2.211,2.738 -3.896,2.738 -2.914,0 -4.247,-2.422 -4.247,-5.616 0,-3.194 1.123,-5.617 4.247,-5.617 0.842,0 2.527,0.457 3.51,2.562 l 4.212,-2.212 z" id="path51" style="fill-rule:evenodd;clip-rule:evenodd"/>
        <path inkscape:connector-curvature="0" i:knockout="Off" d="m 49.562,34.919 c -1.791,-3.264 -4.844,-4.563 -8.389,-4.563 -5.16,0 -9.268,3.65 -9.268,9.829 0,6.283 3.862,9.829 9.443,9.829 3.581,0 6.634,-1.966 8.319,-4.949 l -3.932,-2.001 c -0.877,2.106 -2.211,2.738 -3.896,2.738 -2.913,0 -4.248,-2.422 -4.248,-5.616 0,-3.194 1.124,-5.617 4.248,-5.617 0.842,0 2.527,0.457 3.511,2.562 l 4.212,-2.212 z" id="path53" style="fill-rule:evenodd;clip-rule:evenodd"/>
      </g>
    </g>
  </g>
  <g id="g3325" transform="matrix(0.5474802,0,0,0.5474802,40.516757,5.0455482)">
    <circle transform="matrix(1.2907631,0,0,1.2907631,-25.738294,64.149342)" id="path3319" style="fill:#ffffff;fill-opacity:1;stroke:#000000;stroke-width:2.26414919;stroke-linecap:round;stroke-linejoin:round;stroke-miterlimit:4;stroke-opacity:1;stroke-dasharray:none;stroke-dashoffset:0" cx="54.028732" cy="-37.690372" r="10.621033" d="M 64.649765,-37.690372 A 10.621033,10.621033 0 0 1 54.028732,-27.06934 10.621033,10.621033 0 0 1 43.4077,-37.690372 10.621033,10.621033 0 0 1 54.028732,-48.311405 10.621033,10.621033 0 0 1 64.649765,-37.690372 Z"/>
    <g transform="translate(-8.3313295,52.164232)" id="g3321">
      <path d="m 54.475669,-44.112479 c 0,1.184305 -0.960069,2.144374 -2.144375,2.144374 -1.184305,0 -2.144375,-0.960069 -2.144375,-2.144374 0,-1.184306 0.96007,-2.144375 2.144375,-2.144375 1.184306,0 2.144375,0.960069 2.144375,2.144375 l 0,0 z" style="fill:#000000;fill-opacity:1" id="path2838" inkscape:connector-curvature="0"/>
      <path d="m 50.112832,-27.071611 4.437001,0 0,-7.130405 1.341335,0 c 0,0 -4.91e-4,-5.09567 0,-5.897662 -0.0013,-0.211567 0.0191,-0.632908 -0.287804,-0.939811 -0.306903,-0.306903 -0.721155,-0.288301 -0.939812,-0.287805 -0.218652,4.91e-4 -4.445792,4.91e-4 -4.664444,0 -0.218652,-4.96e-4 -0.632908,-0.0191 -0.939811,0.287805 -0.306908,0.306903 -0.286489,0.728244 -0.287806,0.939811 4.93e-4,0.801992 0,5.897662 0,5.897662 l 1.341341,0 0,7.130405 z" style="fill:#000000;fill-opacity:1" id="path3572" inkscape:connector-curvature="0"/>
    </g>
  </g>
  <text xml:space="preserve" style="font-size:7.27043581px;font-style:normal;font-variant:normal;font-weight:bold;font-stretch:normal;text-align:center;line-height:125%;writing-mode:lr-tb;text-anchor:middle;fill:#ffffff;fill-opacity:1;stroke:none;font-family:Bitstream Vera Sans;-inkscape-font-specification:Bitstream Vera Sans Bold" x="64.238464" y="34.872864" id="text3352-8" sodipodi:linespacing="125%"><tspan sodipodi:role="line" id="tspan3354-2" x="64.238464" y="34.872864">BY</tspan></text>
</svg>