<?xml version="1.0" encoding="UTF-8" standalone="no"?>
<!-- Wikimedia Commons, User:Sven. Hand edited. :)-->

<svg
   xmlns:dc="http://purl.org/dc/elements/1.1/"
   xmlns:cc="http://creativecommons.org/ns#"
   xmlns:rdf="http://www.w3.org/1999/02/22-rdf-syntax-ns#"
   xmlns:svg="http://www.w3.org/2000/svg"
   xmlns="http://www.w3.org/2000/svg"
   xmlns:sodipodi="http://sodipodi.sourceforge.net/DTD/sodipodi-0.dtd"
   xmlns:inkscape="http://www.inkscape.org/namespaces/inkscape"
   width="120"
   height="120"
   viewBox="0 0 90.000001 90.000003"
   id="svg2"
   version="1.1"
   inkscape:version="0.92+devel (47865cb, 2017-08-05, custom)"
   sodipodi:docname="git.svg"
   inkscape:export-filename="/home/doctormo/Desktop/git.png"
   inkscape:export-xdpi="25.6"
   inkscape:export-ydpi="25.6">
  <metadata
     id="metadata57">
    <rdf:RDF>
      <cc:Work
         rdf:about="">
        <dc:format>image/svg+xml</dc:format>
        <dc:type
           rdf:resource="http://purl.org/dc/dcmitype/StillImage" />
        <dc:title></dc:title>
      </cc:Work>
    </rdf:RDF>
  </metadata>
  <defs
     id="defs55">
    <filter
       inkscape:collect="always"
       style="color-interpolation-filters:sRGB"
       id="filter5529"
       x="-0.14652438"
       width="1.2930488"
       y="-0.88565852"
       height="2.771317">
      <feGaussianBlur
         inkscape:collect="always"
         stdDeviation="5.2040868"
         id="feGaussianBlur5531" />
    </filter>
  </defs>
  <sodipodi:namedview
     pagecolor="#e1e1e1"
     bordercolor="#666666"
     borderopacity="1"
     objecttolerance="10"
     gridtolerance="10"
     guidetolerance="10"
     inkscape:pageopacity="0"
     inkscape:pageshadow="2"
     inkscape:window-width="1855"
     inkscape:window-height="1056"
     id="namedview53"
     showgrid="false"
     units="px"
     inkscape:zoom="1"
     inkscape:cx="-107.5"
     inkscape:cy="37.5"
     inkscape:window-x="65"
     inkscape:window-y="24"
     inkscape:window-maximized="1"
     inkscape:current-layer="svg2"
     inkscape:document-rotation="0" />
  <style
     type="text/css"
     id="style26">
	.specularity {opacity:0.5;}
	.low-specularity {opacity:0.25;}
	.full-specularity {opacity:1;}
	.black {fill:#000000;}
	.white {fill:#ffffff;}
	.outline-big {stroke-width:16;stroke:none;opacity:0.1;fill:none;}
	.outline-small {stroke-width:8;stroke:none;opacity:0.2;fill:none;}
	.stroke-highlight {fill:none;stroke:none;opacity:0.2;}
       	.base-shadow 	{fill:black;opacity:75;}
	</style>
  <style
     type="text/css"
     id="style26-3" />
  <ellipse
     style="color:#000000;clip-rule:nonzero;display:inline;overflow:visible;visibility:visible;opacity:0.27600002;isolation:auto;mix-blend-mode:normal;color-interpolation:sRGB;color-interpolation-filters:linearRGB;solid-color:#000000;solid-opacity:1;fill:#000000;fill-opacity:1;fill-rule:nonzero;stroke:none;stroke-width:1.98449993;stroke-linecap:butt;stroke-linejoin:round;stroke-miterlimit:4;stroke-dasharray:none;stroke-dashoffset:0;stroke-opacity:1;marker:none;filter:url(#filter5529);color-rendering:auto;image-rendering:auto;shape-rendering:auto;text-rendering:auto;enable-background:accumulate"
     id="path5435"
     cx="45"
     cy="81.225243"
     rx="42.620239"
     ry="7.0511422"
     transform="matrix(0.8040413,0,0,0.55999208,8.8181405,31.540076)" />
  <path
     inkscape:connector-curvature="0"
     style="fill:#ffffff;fill-rule:evenodd;stroke:none;stroke-width:0.3822948"
     d="m 19.440153,3.2154262 c -0.612723,4.7e-5 -1.224962,0.352159 -1.453765,1.056538 L 9.0890722,31.65383 H 29.79198 L 20.894666,4.2719642 c -0.228804,-0.70457 -0.84179,-1.056586 -1.454513,-1.056538 z M 29.79198,31.65383 44.563345,77.116304 59.335455,31.65383 Z m 29.543475,0 H 80.037616 L 71.141045,4.2719642 c -0.457607,-1.408757 -2.450668,-1.40914 -2.908275,0 z m 20.702161,0 -35.474271,45.462474 38.852203,-28.227845 c 1.071954,-0.778735 1.520483,-2.158956 1.111045,-3.419 z M 44.563345,77.116304 9.0890722,31.65383 4.6008422,45.469459 c -0.409438,1.260044 0.03834,2.640265 1.110297,3.419 z"
     id="Fill-4" />
</svg>
