<?xml version="1.0" encoding="UTF-8" standalone="no"?>
<!-- Wikimedia Commons, User:Sven. Hand edited. :)-->

<svg
   xmlns:dc="http://purl.org/dc/elements/1.1/"
   xmlns:cc="http://creativecommons.org/ns#"
   xmlns:rdf="http://www.w3.org/1999/02/22-rdf-syntax-ns#"
   xmlns:svg="http://www.w3.org/2000/svg"
   xmlns="http://www.w3.org/2000/svg"
   xmlns:sodipodi="http://sodipodi.sourceforge.net/DTD/sodipodi-0.dtd"
   xmlns:inkscape="http://www.inkscape.org/namespaces/inkscape"
   width="120"
   height="120"
   viewBox="0 0 90.000001 90.000003"
   id="svg2"
   version="1.1"
   inkscape:version="0.92+devel (47865cb, 2017-08-05, custom)"
   sodipodi:docname="mac_ports.svg"
   inkscape:export-filename="/home/doctormo/Desktop/apple.png"
   inkscape:export-xdpi="25.6"
   inkscape:export-ydpi="25.6">
  <metadata
     id="metadata57">
    <rdf:RDF>
      <cc:Work
         rdf:about="">
        <dc:format>image/svg+xml</dc:format>
        <dc:type
           rdf:resource="http://purl.org/dc/dcmitype/StillImage" />
        <dc:title></dc:title>
      </cc:Work>
    </rdf:RDF>
  </metadata>
  <defs
     id="defs55">
    <filter
       inkscape:collect="always"
       style="color-interpolation-filters:sRGB"
       id="filter5529"
       x="-0.14652438"
       width="1.2930488"
       y="-0.88565852"
       height="2.771317">
      <feGaussianBlur
         inkscape:collect="always"
         stdDeviation="5.2040868"
         id="feGaussianBlur5531" />
    </filter>
  </defs>
  <sodipodi:namedview
     pagecolor="#e1e1e1"
     bordercolor="#666666"
     borderopacity="1"
     objecttolerance="10"
     gridtolerance="10"
     guidetolerance="10"
     inkscape:pageopacity="0"
     inkscape:pageshadow="2"
     inkscape:window-width="1855"
     inkscape:window-height="1056"
     id="namedview53"
     showgrid="false"
     units="px"
     inkscape:zoom="1"
     inkscape:cx="-107.5"
     inkscape:cy="37.5"
     inkscape:window-x="65"
     inkscape:window-y="24"
     inkscape:window-maximized="1"
     inkscape:current-layer="svg2"
     inkscape:document-rotation="0" />
  <style
     type="text/css"
     id="style26">
	.specularity {opacity:0.5;}
	.low-specularity {opacity:0.25;}
	.full-specularity {opacity:1;}
	.black {fill:#000000;}
	.white {fill:#ffffff;}
	.outline-big {stroke-width:16;stroke:none;opacity:0.1;fill:none;}
	.outline-small {stroke-width:8;stroke:none;opacity:0.2;fill:none;}
	.stroke-highlight {fill:none;stroke:none;opacity:0.2;}
       	.base-shadow 	{fill:black;opacity:75;}
	</style>
  <style
     type="text/css"
     id="style26-3" />
  <ellipse
     style="color:#000000;clip-rule:nonzero;display:inline;overflow:visible;visibility:visible;opacity:0.27600002;isolation:auto;mix-blend-mode:normal;color-interpolation:sRGB;color-interpolation-filters:linearRGB;solid-color:#000000;solid-opacity:1;fill:#000000;fill-opacity:1;fill-rule:nonzero;stroke:none;stroke-width:1.98449993;stroke-linecap:butt;stroke-linejoin:round;stroke-miterlimit:4;stroke-dasharray:none;stroke-dashoffset:0;stroke-opacity:1;marker:none;filter:url(#filter5529);color-rendering:auto;image-rendering:auto;shape-rendering:auto;text-rendering:auto;enable-background:accumulate"
     id="path5435"
     cx="45"
     cy="81.225243"
     rx="42.620239"
     ry="7.0511422"
     transform="matrix(0.8040413,0,0,0.55999208,8.8181405,31.540076)" />
  <text
     xml:space="preserve"
     style="font-style:normal;font-weight:normal;font-size:47.7212677px;line-height:125%;font-family:sans-serif;letter-spacing:0px;word-spacing:0px;fill:#ffffff;fill-opacity:1;stroke:none;stroke-width:1.19303179px;stroke-linecap:butt;stroke-linejoin:miter;stroke-opacity:1"
     x="-2.0213404"
     y="64.220535"
     id="text20469"><tspan
       sodipodi:role="line"
       id="tspan20467"
       x="-2.0213404"
       y="64.220535"
       style="fill:#ffffff;stroke-width:1.19303179px">M</tspan></text>
  <path
     style="color:#000000;font-variation-settings:normal;overflow:visible;opacity:1;vector-effect:none;fill:#ffffff;stroke-width:7.15819073;stroke-linejoin:bevel"
     d="m 56.217732,17.016048 c -6.81795,0 -12.307805,5.487513 -12.307805,12.305471 v 30.89766 c 1.2e-5,6.81795 5.489855,12.307803 12.307805,12.307803 H 75.04294 c 6.817947,0 12.305467,-5.489853 12.305467,-12.307803 v -30.89766 c 0,-6.817958 -5.48752,-12.305471 -12.305467,-12.305471 z m -1.78722,11.869734 h 10.625439 c 3.899102,0 6.842849,0.885453 8.831238,2.65636 2.003923,1.755372 3.005879,4.334062 3.005879,7.736064 0,3.433075 -1.001956,6.027298 -3.005879,7.782668 -1.988389,1.755378 -4.932136,2.633055 -8.831238,2.633055 H 59.137403 V 63.67477 h -4.706891 z m 4.706891,3.868034 V 45.8259 h 5.918548 c 2.190336,0 3.883568,-0.566999 5.079715,-1.701001 1.196133,-1.134003 1.794201,-2.749566 1.794201,-4.846693 0,-2.081592 -0.598068,-3.689388 -1.794201,-4.823391 -1.196147,-1.133998 -2.889379,-1.700999 -5.079715,-1.700999 z"
     id="rect20475"
     inkscape:connector-curvature="0" />
</svg>
