<?xml version="1.0" encoding="UTF-8" standalone="no"?>
<!-- Wikimedia Commons, User:Sven. Hand edited. :)-->

<svg
   xmlns:dc="http://purl.org/dc/elements/1.1/"
   xmlns:cc="http://creativecommons.org/ns#"
   xmlns:rdf="http://www.w3.org/1999/02/22-rdf-syntax-ns#"
   xmlns:svg="http://www.w3.org/2000/svg"
   xmlns="http://www.w3.org/2000/svg"
   xmlns:xlink="http://www.w3.org/1999/xlink"
   xmlns:sodipodi="http://sodipodi.sourceforge.net/DTD/sodipodi-0.dtd"
   xmlns:inkscape="http://www.inkscape.org/namespaces/inkscape"
   width="120"
   height="120"
   viewBox="0 0 90.000001 90.000003"
   id="svg2"
   version="1.1"
   inkscape:version="0.91+devel r"
   sodipodi:docname="source.svg"
   inkscape:export-filename="/home/doctormo/Desktop/source.png"
   inkscape:export-xdpi="25.6"
   inkscape:export-ydpi="25.6">
  <metadata
     id="metadata57">
    <rdf:RDF>
      <cc:Work
         rdf:about="">
        <dc:format>image/svg+xml</dc:format>
        <dc:type
           rdf:resource="http://purl.org/dc/dcmitype/StillImage" />
        <dc:title></dc:title>
      </cc:Work>
    </rdf:RDF>
  </metadata>
  <defs
     id="defs55">
    <linearGradient
       id="linearGradient3418">
      <stop
         style="stop-color:#eeeeec;stop-opacity:1;"
         offset="0"
         id="stop3420" />
      <stop
         style="stop-color:#d3d3ce;stop-opacity:1;"
         offset="1"
         id="stop3422" />
    </linearGradient>
    <linearGradient
       id="linearGradient3410"
       inkscape:collect="always">
      <stop
         id="stop3412"
         offset="0"
         style="stop-color:#888a85;stop-opacity:1;" />
      <stop
         id="stop3414"
         offset="1"
         style="stop-color:#888a85;stop-opacity:0;" />
    </linearGradient>
    <linearGradient
       inkscape:collect="always"
       xlink:href="#linearGradient5225"
       id="linearGradient2426"
       gradientUnits="userSpaceOnUse"
       gradientTransform="matrix(0.631476,0,0,0.631476,8.663914,14.10204)"
       x1="23.394852"
       y1="34.343899"
       x2="23.529411"
       y2="40.219608" />
    <linearGradient
       inkscape:collect="always"
       xlink:href="#linearGradient5137"
       id="linearGradient2423"
       gradientUnits="userSpaceOnUse"
       x1="17.247635"
       y1="6.3760414"
       x2="39.904388"
       y2="38.876041"
       gradientTransform="matrix(1.000767,0,0,0.907837,-1.8481e-2,3.298531)" />
    <radialGradient
       inkscape:collect="always"
       xlink:href="#linearGradient5233"
       id="radialGradient2420"
       gradientUnits="userSpaceOnUse"
       gradientTransform="matrix(1.369739,0,0,0.809589,-8.876064,-38.30817)"
       cx="24.006104"
       cy="32.997028"
       fx="24.006104"
       fy="32.997028"
       r="19.00016" />
    <linearGradient
       inkscape:collect="always"
       xlink:href="#linearGradient6240"
       id="linearGradient2416"
       gradientUnits="userSpaceOnUse"
       gradientTransform="matrix(1.111229,0,0,1.040078,-2.670251,1.025561)"
       x1="20.156862"
       y1="5.0996137"
       x2="20.156862"
       y2="26.039215" />
    <radialGradient
       inkscape:collect="always"
       xlink:href="#linearGradient5225"
       id="radialGradient2419"
       gradientUnits="userSpaceOnUse"
       gradientTransform="matrix(1,0,0,0.24763,0,32.1168)"
       cx="23.9375"
       cy="42.6875"
       fx="23.9375"
       fy="42.6875"
       r="23.75956" />
    <linearGradient
       inkscape:collect="always"
       xlink:href="#linearGradient5137"
       id="linearGradient2417"
       gradientUnits="userSpaceOnUse"
       gradientTransform="matrix(0.631476,0,0,0.631476,8.765948,14.41003)"
       x1="31.743324"
       y1="37.842293"
       x2="31.86105"
       y2="43.82579" />
    <linearGradient
       inkscape:collect="always"
       xlink:href="#linearGradient5225"
       id="linearGradient2411"
       gradientUnits="userSpaceOnUse"
       gradientTransform="matrix(0.631476,0,0,0.631476,8.663914,14.05016)"
       x1="23.394852"
       y1="34.343899"
       x2="23.529411"
       y2="40.219608" />
    <linearGradient
       inkscape:collect="always"
       xlink:href="#linearGradient5137"
       id="linearGradient2408"
       gradientUnits="userSpaceOnUse"
       x1="17.247635"
       y1="6.3760414"
       x2="39.904388"
       y2="38.876041"
       gradientTransform="translate(0,-5.188372e-2)" />
    <radialGradient
       inkscape:collect="always"
       xlink:href="#linearGradient5233"
       id="radialGradient2405"
       gradientUnits="userSpaceOnUse"
       gradientTransform="matrix(1.324163,0,0,0.892302,-7.78188,-9.874578e-2)"
       cx="24.006104"
       cy="32.997028"
       fx="24.006104"
       fy="32.997028"
       r="19.00016" />
    <linearGradient
       inkscape:collect="always"
       xlink:href="#linearGradient6240"
       id="linearGradient2402"
       gradientUnits="userSpaceOnUse"
       gradientTransform="matrix(1.074254,0,0,1.146339,-1.782555,-2.568394)"
       x1="20.156862"
       y1="5.0996137"
       x2="20.156862"
       y2="26.039215" />
    <radialGradient
       inkscape:collect="always"
       xlink:href="#linearGradient5225"
       id="radialGradient2408"
       gradientUnits="userSpaceOnUse"
       gradientTransform="matrix(1,0,0,0.24763,0,32.1168)"
       cx="23.9375"
       cy="42.6875"
       fx="23.9375"
       fy="42.6875"
       r="23.75956" />
    <linearGradient
       inkscape:collect="always"
       xlink:href="#linearGradient5137"
       id="linearGradient2404"
       gradientUnits="userSpaceOnUse"
       x1="31.743324"
       y1="37.842293"
       x2="31.86105"
       y2="43.82579"
       gradientTransform="matrix(0.631476,0,0,0.631476,8.845503,12.69277)" />
    <radialGradient
       inkscape:collect="always"
       xlink:href="#linearGradient5233"
       id="radialGradient2398"
       gradientUnits="userSpaceOnUse"
       gradientTransform="matrix(1.323844,0,0,0.907957,-7.774233,-0.201515)"
       cx="24.006104"
       cy="32.997028"
       fx="24.006104"
       fy="32.997028"
       r="19.00016" />
    <linearGradient
       inkscape:collect="always"
       xlink:href="#linearGradient5225"
       id="linearGradient2394"
       gradientUnits="userSpaceOnUse"
       x1="23.154902"
       y1="34.572548"
       x2="23.529411"
       y2="40.219608"
       gradientTransform="matrix(0.631476,0,0,0.631476,8.845503,12.69276)" />
    <linearGradient
       inkscape:collect="always"
       xlink:href="#linearGradient6240"
       id="linearGradient2391"
       gradientUnits="userSpaceOnUse"
       x1="20.156862"
       y1="5.0996137"
       x2="20.156862"
       y2="26.039215"
       gradientTransform="matrix(1.073996,0,0,1.166451,-1.776354,-2.714491)" />
    <linearGradient
       id="linearGradient5233">
      <stop
         id="stop5235"
         offset="0"
         style="stop-color:#729fcf;stop-opacity:1;" />
      <stop
         id="stop5237"
         offset="1"
         style="stop-color:#326194;stop-opacity:1;" />
    </linearGradient>
    <linearGradient
       id="linearGradient5225"
       inkscape:collect="always">
      <stop
         id="stop5227"
         offset="0"
         style="stop-color:black;stop-opacity:1;" />
      <stop
         id="stop5229"
         offset="1"
         style="stop-color:black;stop-opacity:0;" />
    </linearGradient>
    <linearGradient
       id="linearGradient5137">
      <stop
         id="stop5139"
         offset="0"
         style="stop-color:#eeeeec;stop-opacity:1;" />
      <stop
         id="stop5141"
         offset="1"
         style="stop-color:#e6e6e3;stop-opacity:1;" />
    </linearGradient>
    <linearGradient
       id="linearGradient5833">
      <stop
         id="stop5835"
         offset="0"
         style="stop-color:#afafb2;stop-opacity:1;" />
      <stop
         id="stop5837"
         offset="1.0000000"
         style="stop-color:#8e8e93;stop-opacity:1.0000000;" />
    </linearGradient>
    <linearGradient
       id="linearGradient5541">
      <stop
         id="stop5543"
         offset="0"
         style="stop-color:#3b5a7a;stop-opacity:1;" />
      <stop
         id="stop5545"
         offset="1.0000000"
         style="stop-color:#4e77a1;stop-opacity:1.0000000;" />
    </linearGradient>
    <linearGradient
       id="linearGradient4807">
      <stop
         id="stop4809"
         offset="0"
         style="stop-color:#527da8;stop-opacity:1;" />
      <stop
         id="stop4811"
         offset="1.0000000"
         style="stop-color:#7e9fc1;stop-opacity:1.0000000;" />
    </linearGradient>
    <linearGradient
       id="linearGradient6240"
       inkscape:collect="always">
      <stop
         id="stop6242"
         offset="0"
         style="stop-color:#ffffff;stop-opacity:1;" />
      <stop
         id="stop6244"
         offset="1"
         style="stop-color:#ffffff;stop-opacity:0;" />
    </linearGradient>
    <linearGradient
       id="linearGradient7022">
      <stop
         id="stop7024"
         offset="0.0000000"
         style="stop-color:#f7f7f9;stop-opacity:1.0000000;" />
      <stop
         id="stop7026"
         offset="1.0000000"
         style="stop-color:#f4f4f6;stop-opacity:1.0000000;" />
    </linearGradient>
    <linearGradient
       gradientUnits="userSpaceOnUse"
       y2="15.773952"
       x2="16.103117"
       y1="46.273952"
       x1="56.785713"
       id="linearGradient3416"
       xlink:href="#linearGradient3410"
       inkscape:collect="always" />
    <linearGradient
       x1="32.891998"
       y1="8.059"
       gradientTransform="matrix(2.6605,0,0,2.7752,0.74553,-3.5662)"
       x2="36.358002"
       gradientUnits="userSpaceOnUse"
       y2="5.4565001"
       id="linearGradient2455">
      <stop
         offset="0"
         style="stop-color:#fefefe"
         id="stop8591" />
      <stop
         offset="1"
         style="stop-color:#cbcbcb"
         id="stop8593" />
    </linearGradient>
    <linearGradient
       x1="24"
       y1="2"
       gradientTransform="matrix(2.7576,0,0,2.6744,-2.1817,-4.186)"
       x2="24"
       gradientUnits="userSpaceOnUse"
       y2="46.016998"
       id="linearGradient2459">
      <stop
         offset="0"
         style="stop-color:#fff"
         id="stop3213" />
      <stop
         offset="1"
         style="stop-color:#fff;stop-opacity:0"
         id="stop3215" />
    </linearGradient>
    <radialGradient
       r="139.56"
       gradientTransform="matrix(0.97872,0,0,-1.0535,1.3617,127.48)"
       cx="102"
       cy="112.3"
       gradientUnits="userSpaceOnUse"
       id="radialGradient2462">
      <stop
         offset="0"
         style="stop-color:#b7b8b9"
         id="stop41" />
      <stop
         offset=".18851"
         style="stop-color:#ececec"
         id="stop47" />
      <stop
         offset=".25718"
         style="stop-color:#fafafa;stop-opacity:0"
         id="stop49" />
      <stop
         offset=".30111"
         style="stop-color:#fff;stop-opacity:0"
         id="stop51" />
      <stop
         offset=".53130"
         style="stop-color:#fafafa;stop-opacity:0"
         id="stop53" />
      <stop
         offset=".84490"
         style="stop-color:#ebecec;stop-opacity:0"
         id="stop55" />
      <stop
         offset="1"
         style="stop-color:#e1e2e3;stop-opacity:0"
         id="stop57" />
    </radialGradient>
    <linearGradient
       x1="25.132"
       y1="0.98521"
       gradientTransform="matrix(2.6571,0,0,2.5422,0.22866,-4.9133)"
       x2="25.132"
       gradientUnits="userSpaceOnUse"
       y2="47.013"
       id="linearGradient2465">
      <stop
         offset="0"
         style="stop-color:#f4f4f4"
         id="stop3602" />
      <stop
         offset="1"
         style="stop-color:#dbdbdb"
         id="stop3604" />
    </linearGradient>
    <linearGradient
       x1="-51.785999"
       y1="50.785999"
       gradientTransform="matrix(2.1456,0,0,2.3791,158.09,-7.7465)"
       x2="-51.785999"
       gradientUnits="userSpaceOnUse"
       y2="2.9061999"
       id="linearGradient2467">
      <stop
         offset="0"
         style="stop-color:#aaa"
         id="stop3106" />
      <stop
         offset="1"
         style="stop-color:#c8c8c8"
         id="stop3108" />
    </linearGradient>
    <linearGradient
       x1="302.85999"
       y1="366.64999"
       gradientTransform="matrix(0.17251,0,0,0.039201,0.64822,98.774)"
       x2="302.85999"
       gradientUnits="userSpaceOnUse"
       y2="609.51001"
       id="linearGradient2483">
      <stop
         offset="0"
         style="stop-opacity:0"
         id="stop5050" />
      <stop
         offset=".5"
         id="stop5056" />
      <stop
         offset="1"
         style="stop-opacity:0"
         id="stop5052" />
    </linearGradient>
    <radialGradient
       r="117.14"
       gradientTransform="matrix(-0.059038,0,0,0.039201,56.93,98.774)"
       cx="605.71002"
       cy="486.64999"
       gradientUnits="userSpaceOnUse"
       xlink:href="#linearGradient5225"
       id="radialGradient2485" />
    <radialGradient
       r="117.14"
       gradientTransform="matrix(0.059038,0,0,0.039201,69.07,98.774)"
       cx="605.71002"
       cy="486.64999"
       gradientUnits="userSpaceOnUse"
       xlink:href="#linearGradient5225"
       id="radialGradient2487" />
    <radialGradient
       id="radialGradient2462-9"
       gradientUnits="userSpaceOnUse"
       cy="112.3"
       cx="102"
       gradientTransform="matrix(0.97872,0,0,-1.0535,1.3617,127.48)"
       r="139.56">
      <stop
         id="stop41-5"
         style="stop-color:#b7b8b9"
         offset="0" />
      <stop
         id="stop47-3"
         style="stop-color:#ececec"
         offset=".18851" />
      <stop
         id="stop49-0"
         style="stop-color:#fafafa;stop-opacity:0"
         offset=".25718" />
      <stop
         id="stop51-2"
         style="stop-color:#fff;stop-opacity:0"
         offset=".30111" />
      <stop
         id="stop53-3"
         style="stop-color:#fafafa;stop-opacity:0"
         offset=".53130" />
      <stop
         id="stop55-4"
         style="stop-color:#ebecec;stop-opacity:0"
         offset=".84490" />
      <stop
         id="stop57-6"
         style="stop-color:#e1e2e3;stop-opacity:0"
         offset="1" />
    </radialGradient>
    <radialGradient
       id="radialGradient2485-2"
       xlink:href="#linearGradient5225"
       gradientUnits="userSpaceOnUse"
       cy="486.64999"
       cx="605.71002"
       gradientTransform="matrix(-0.059038,0,0,0.039201,56.93,98.774)"
       r="117.14" />
    <radialGradient
       id="radialGradient2487-6"
       xlink:href="#linearGradient5225"
       gradientUnits="userSpaceOnUse"
       cy="486.64999"
       cx="605.71002"
       gradientTransform="matrix(0.059038,0,0,0.039201,69.07,98.774)"
       r="117.14" />
    <linearGradient
       id="linearGradient2224">
      <stop
         style="stop-color:#7c7c7c;stop-opacity:1;"
         offset="0"
         id="stop2226" />
      <stop
         style="stop-color:#b8b8b8;stop-opacity:1;"
         offset="1"
         id="stop2228" />
    </linearGradient>
    <linearGradient
       id="linearGradient8171">
      <stop
         style="stop-color:#bbbdba;stop-opacity:1;"
         offset="0"
         id="stop8173" />
      <stop
         style="stop-color:#70746e;stop-opacity:1;"
         offset="1"
         id="stop8175" />
    </linearGradient>
    <linearGradient
       id="linearGradient7648"
       gradientUnits="userSpaceOnUse"
       x1="21.9326"
       y1="24.627399"
       x2="21.9326"
       y2="7.1090999">
      <stop
         offset="0"
         style="stop-color:#8595bc;stop-opacity:1;"
         id="stop7650" />
      <stop
         offset="1"
         style="stop-color:#041a3b;stop-opacity:1;"
         id="stop7652" />
    </linearGradient>
    <linearGradient
       y2="7.1090999"
       x2="21.9326"
       y1="24.627399"
       x1="21.9326"
       gradientUnits="userSpaceOnUse"
       id="aigrd3">
      <stop
         id="stop16199"
         style="stop-color:#D0D6E5;stroke-dasharray:none;stroke-miterlimit:4.0000000;stroke-width:1.2166667"
         offset="0" />
      <stop
         id="stop16201"
         style="stop-color:#093A80;stroke-dasharray:none;stroke-miterlimit:4.0000000;stroke-width:1.2166667"
         offset="1" />
    </linearGradient>
    <linearGradient
       y2="36.032799"
       x2="31.081301"
       y1="3.7319"
       x1="12.4873"
       gradientUnits="userSpaceOnUse"
       id="aigrd1">
      <stop
         id="stop16177"
         style="stop-color:#D2D2D2;stroke-dasharray:none;stroke-miterlimit:4.0000000;stroke-width:1.2166667"
         offset="0" />
      <stop
         id="stop16179"
         style="stop-color:#EDEDED;stroke-dasharray:none;stroke-miterlimit:4.0000000;stroke-width:1.2166667"
         offset="1" />
    </linearGradient>
    <linearGradient
       id="linearGradient5048">
      <stop
         style="stop-color:black;stop-opacity:0;"
         offset="0"
         id="stop5050-8" />
      <stop
         id="stop5056-7"
         offset="0.5"
         style="stop-color:black;stop-opacity:1;" />
      <stop
         style="stop-color:black;stop-opacity:0;"
         offset="1"
         id="stop5052-6" />
    </linearGradient>
    <clipPath
       clipPathUnits="userSpaceOnUse"
       id="clipPath4522">
      <path
         style="fill:#ff00ff;stroke:none"
         d="m 230.25239,7.1869904 -2.6191,38.0124406 1.98202,5.73372 53.16079,2.477533 -1.76967,-35.110187 -17.69666,-15.50228 -31.07535,0.9910134 c 0,0 -2.05281,4.1056265 -1.98203,3.6809067 0.0708,-0.42472 0,-0.2831467 0,-0.2831467 z"
         id="path4524"
         inkscape:connector-curvature="0" />
    </clipPath>
    <linearGradient
       id="liquidShade"
       xlink:href="#linearGradient5225"
       x1="0"
       y1="128"
       x2="0"
       y2="64"
       gradientUnits="userSpaceOnUse" />
    <linearGradient
       id="liquidSpecular"
       xlink:href="#linearGradient6240"
       x1="0"
       y1="128"
       x2="0"
       y2="76"
       gradientUnits="userSpaceOnUse" />
    <linearGradient
       id="sideSpecular"
       xlink:href="#linearGradient6240"
       x1="80"
       y1="20"
       x2="60"
       y2="40"
       gradientUnits="userSpaceOnUse" />
    <linearGradient
       id="IcecapTip"
       xlink:href="#linearGradient6240"
       x1="60"
       y1="20"
       x2="90"
       y2="50"
       gradientUnits="userSpaceOnUse" />
    <linearGradient
       id="shinySpecular"
       xlink:href="#linearGradient6240"
       x1="33"
       y1="35"
       x2="58"
       y2="60"
       gradientUnits="userSpaceOnUse" />
    <clipPath
       clipPathUnits="userSpaceOnUse"
       id="clipoutline1">
      <path
         inkscape:connector-curvature="0"
         id="outline1"
         d="M 54.1,12.5 12.9,54.7 C -2.7,70.3 23,69 32.3,74.9 36.6,77.7 18.5,81.3 22.2,85 c 3.6,3.7 21.7,7.1 25.3,10.7 3.6,3.7 -7.3,7.6 -3.7,11.3 3.5,3.7 11.9,0.2 13.4,8.6 1.1,6.2 15.4,3.1 21.8,-2.2 4,-3.4 -6.9,-3.4 -3.3,-7.1 9,-9.1 17,-4.1 20.3,-12.5 1.8,-4.5 -13.6,-7.7 -9.5,-10.6 9.8,-6.9 45.8,-10.4 29.2,-27 L 73,12.5 c -5.3,-5 -14,-5 -18.9,0 z m -9.9,64.7 c 0.9,0 30.8,4 19.3,7.1 -4.4,1.2 -24.6,-7.1 -19.3,-7.1 z m 57.2,16.6 c 0,2.1 16.3,3.3 15.4,-0.5 -1.3,-6.4 -13.6,-5.9 -15.4,0.5 z m -69.5,11.1 c 3.7,3.2 9.3,-0.7 11.1,-5.2 -3.6,-4.7 -16.9,0.3 -11.1,5.2 z m 67.5,-6.7 c -4.6,4.2 0.8,8.6 5.3,5.7 1.2,-0.8 -0.1,-4.7 -5.3,-5.7 z" />
    </clipPath>
    <filter
       id="ShadowBlur"
       filterUnits="userSpaceOnUse"
       x="0"
       y="0">
      <feGaussianBlur
         in="SourceAlpha"
         stdDeviation="3"
         result="blur"
         id="feGaussianBlur24" />
    </filter>
    <linearGradient
       gradientUnits="userSpaceOnUse"
       id="linearGradient5785">
      <stop
         id="stop5787"
         offset="0"
         style="stop-color:#c0cdf9;stop-opacity:1" />
      <stop
         id="stop5789"
         offset="1"
         style="stop-color:#07092d;stop-opacity:0.28804347" />
    </linearGradient>
    <clipPath
       clipPathUnits="userSpaceOnUse"
       id="clipPath9086">
      <use
         id="use9088"
         xlink:href="#outline1"
         class="low-specularity"
         style="fill:#ffffff;fill-opacity:1"
         x="0"
         y="0"
         width="400"
         height="300"
         transform="translate(1.009546e-6,0)" />
    </clipPath>
    <linearGradient
       gradientUnits="userSpaceOnUse"
       y2="60"
       x2="58"
       y1="35"
       x1="33"
       xlink:href="#linearGradient6240"
       id="shinySpecular-4"
       gradientTransform="matrix(1.009184,0,0,1.009184,-0.3890738,-0.3831933)" />
    <linearGradient
       inkscape:collect="always"
       id="linearGradient5793-6">
      <stop
         style="stop-color:#eeeeec;stop-opacity:1;"
         offset="0"
         id="stop5795-2" />
      <stop
         style="stop-color:#eeeeec;stop-opacity:0;"
         offset="1"
         id="stop5797-1" />
    </linearGradient>
    <linearGradient
       inkscape:collect="always"
       id="linearGradient10981-3">
      <stop
         style="stop-color:#729fcf;stop-opacity:1;"
         offset="0"
         id="stop10983-2" />
      <stop
         style="stop-color:#729fcf;stop-opacity:0;"
         offset="1"
         id="stop10985-3" />
    </linearGradient>
    <linearGradient
       id="linearGradient3895">
      <stop
         style="stop-color:#a3a3a3;stop-opacity:1;"
         offset="0"
         id="stop3897" />
      <stop
         id="stop3903"
         offset="0.64354533"
         style="stop-color:#969696;stop-opacity:1;" />
      <stop
         style="stop-color:#9d9d9d;stop-opacity:0;"
         offset="1"
         id="stop3899" />
    </linearGradient>
    <linearGradient
       id="linearGradient3883">
      <stop
         style="stop-color:#b3bdc4;stop-opacity:1;"
         offset="0"
         id="stop3885" />
      <stop
         id="stop3891"
         offset="0.5"
         style="stop-color:#d8dde1;stop-opacity:1;" />
      <stop
         style="stop-color:#b3bdc4;stop-opacity:1;"
         offset="1"
         id="stop3887" />
    </linearGradient>
    <linearGradient
       id="linearGradient3901">
      <stop
         id="stop3909"
         offset="0"
         style="stop-color:#c4c4c4;stop-opacity:1;" />
      <stop
         style="stop-color:#e9ecee;stop-opacity:1;"
         offset="0.5"
         id="stop3914" />
      <stop
         style="stop-color:#d4d9dd;stop-opacity:1"
         offset="1"
         id="stop3905" />
    </linearGradient>
    <linearGradient
       x1="0"
       y1="128"
       x2="0"
       y2="76"
       id="linearGradient6419"
       xlink:href="#linearGradient6240"
       gradientUnits="userSpaceOnUse" />
    <linearGradient
       x1="80"
       y1="20"
       x2="60"
       y2="40"
       id="linearGradient6421"
       xlink:href="#linearGradient6240"
       gradientUnits="userSpaceOnUse" />
    <clipPath
       id="clipoutline1-2">
      <path
         d="M 54.1,12.5 12.9,54.7 C -2.7,70.3 23,69 32.3,74.9 36.6,77.7 18.5,81.3 22.2,85 c 3.6,3.7 21.7,7.1 25.3,10.7 3.6,3.7 -7.3,7.6 -3.7,11.3 3.5,3.7 11.9,0.2 13.4,8.6 1.1,6.2 15.4,3.1 21.8,-2.2 4,-3.4 -6.9,-3.4 -3.3,-7.1 9,-9.1 17,-4.1 20.3,-12.5 1.8,-4.5 -13.6,-7.7 -9.5,-10.6 9.8,-6.9 45.8,-10.4 29.2,-27 L 73,12.5 c -5.3,-5 -14,-5 -18.9,0 z m -9.9,64.7 c 0.9,0 30.8,4 19.3,7.1 -4.4,1.2 -24.6,-7.1 -19.3,-7.1 z m 57.2,16.6 c 0,2.1 16.3,3.3 15.4,-0.5 -1.3,-6.4 -13.6,-5.9 -15.4,0.5 z m -69.5,11.1 c 3.7,3.2 9.3,-0.7 11.1,-5.2 -3.6,-4.7 -16.9,0.3 -11.1,5.2 z m 67.5,-6.7 c -4.6,4.2 0.8,8.6 5.3,5.7 1.2,-0.8 -0.1,-4.7 -5.3,-5.7 z"
         id="outline1-3" />
    </clipPath>
    <filter
       id="filter8490-9"
       color-interpolation-filters="sRGB">
      <feGaussianBlur
         id="feGaussianBlur8492-7"
         stdDeviation="2.4163949"
         inkscape:collect="always" />
    </filter>
    <filter
       id="filter6017-3"
       color-interpolation-filters="sRGB">
      <feGaussianBlur
         id="feGaussianBlur6019-9"
         stdDeviation="0.80546496"
         inkscape:collect="always" />
    </filter>
    <filter
       id="filter6031-0"
       color-interpolation-filters="sRGB">
      <feGaussianBlur
         id="feGaussianBlur6033-8"
         stdDeviation="3.4903482"
         inkscape:collect="always" />
    </filter>
    <clipPath
       id="clipPath9086-1">
      <use
         transform="translate(1.0095461e-6,0)"
         id="use9088-0"
         style="opacity:0.25;fill:#ffffff;fill-opacity:1"
         x="0"
         y="0"
         width="400"
         height="300"
         xlink:href="#outline1-3" />
    </clipPath>
    <filter
       id="filter8490-0"
       color-interpolation-filters="sRGB">
      <feGaussianBlur
         id="feGaussianBlur8492-5"
         stdDeviation="2.4163949"
         inkscape:collect="always" />
    </filter>
    <linearGradient
       x1="60"
       y1="20"
       x2="90"
       y2="50"
       id="IcecapTip-0"
       xlink:href="#linearGradient6240"
       gradientUnits="userSpaceOnUse" />
    <radialGradient
       cx="116.31038"
       cy="250.89737"
       r="30.599579"
       fx="116.31038"
       fy="250.89737"
       id="radialGradient9177-1"
       xlink:href="#linearGradient6240"
       gradientUnits="userSpaceOnUse"
       gradientTransform="matrix(1.5700516,0,0,1.0509301,-75.500107,-22.095908)" />
    <radialGradient
       cx="132.44434"
       cy="251.99396"
       r="30.599579"
       fx="132.44434"
       fy="251.99396"
       id="radialGradient8574-0"
       xlink:href="#linearGradient6240"
       gradientUnits="userSpaceOnUse"
       gradientTransform="matrix(2.0032532,0,0,1.340898,-132.8752,-95.166065)" />
    <filter
       height="1.2284414"
       y="-0.11422065"
       width="1.1561583"
       x="-0.078079157"
       id="filter8732-3"
       color-interpolation-filters="sRGB">
      <feGaussianBlur
         id="feGaussianBlur8734-5"
         stdDeviation="1.9579068"
         inkscape:collect="always" />
    </filter>
    <radialGradient
       cx="210.25"
       cy="168.5"
       r="34.25"
       fx="210.25"
       fy="168.5"
       id="radialGradient8744-9"
       xlink:href="#linearGradient6240"
       gradientUnits="userSpaceOnUse"
       gradientTransform="matrix(1,0,0,0.4233577,0,97.164234)" />
    <radialGradient
       cx="217.5"
       cy="182.08189"
       r="34.25"
       fx="217.5"
       fy="182.08189"
       id="radialGradient8768-6"
       xlink:href="#linearGradient6240"
       gradientUnits="userSpaceOnUse"
       gradientTransform="matrix(1,0,0,0.4233577,0,97.164234)" />
    <filter
       height="1.3508246"
       y="-0.1754123"
       width="1.1485243"
       x="-0.074262142"
       id="filter8764-9"
       color-interpolation-filters="sRGB">
      <feGaussianBlur
         id="feGaussianBlur8766-2"
         stdDeviation="2.1195652"
         inkscape:collect="always" />
    </filter>
    <linearGradient
       x1="231.37646"
       y1="195.62132"
       x2="231.37646"
       y2="200.07138"
       id="linearGradient8910-3"
       xlink:href="#linearGradient6240"
       gradientUnits="userSpaceOnUse" />
    <filter
       height="1.556464"
       y="-0.27823201"
       width="1.1708827"
       x="-0.085441329"
       id="filter8906-3"
       color-interpolation-filters="sRGB">
      <feGaussianBlur
         id="feGaussianBlur8908-7"
         stdDeviation="0.56515877"
         inkscape:collect="always" />
    </filter>
    <radialGradient
       cx="228.21875"
       cy="204.83229"
       r="14.09375"
       fx="228.21875"
       fy="204.83229"
       id="radialGradient8922-9"
       xlink:href="#linearGradient6240"
       gradientUnits="userSpaceOnUse"
       gradientTransform="matrix(1,0,0,0.1477455,0,174.56924)" />
    <filter
       height="1.9457178"
       y="-0.47285891"
       width="1.1397254"
       x="-0.069862768"
       id="filter8980-1"
       color-interpolation-filters="sRGB">
      <feGaussianBlur
         id="feGaussianBlur8982-9"
         stdDeviation="0.82052366"
         inkscape:collect="always" />
    </filter>
    <linearGradient
       x1="231.625"
       y1="195.1875"
       x2="231.75"
       y2="201.5"
       id="linearGradient8990-4"
       xlink:href="#linearGradient6240"
       gradientUnits="userSpaceOnUse" />
    <linearGradient
       x1="231.37646"
       y1="195.62132"
       x2="231.37646"
       y2="200.07138"
       id="linearGradient8992-2"
       xlink:href="#linearGradient6240"
       gradientUnits="userSpaceOnUse" />
    <radialGradient
       cx="228.21875"
       cy="204.83229"
       r="14.09375"
       fx="228.21875"
       fy="204.83229"
       id="radialGradient8994-0"
       xlink:href="#linearGradient6240"
       gradientUnits="userSpaceOnUse"
       gradientTransform="matrix(1,0,0,0.1477455,0,174.56924)" />
    <radialGradient
       cx="89.875"
       cy="187.86935"
       r="22.75"
       fx="89.875"
       fy="187.86935"
       id="radialGradient9004-6"
       xlink:href="#linearGradient6240"
       gradientUnits="userSpaceOnUse"
       gradientTransform="matrix(1,0,0,0.4070844,0,115.76014)" />
    <linearGradient
       x1="231.625"
       y1="195.1875"
       x2="231.75"
       y2="201.5"
       id="linearGradient9023-6"
       xlink:href="#linearGradient6240"
       gradientUnits="userSpaceOnUse" />
    <linearGradient
       x1="231.37646"
       y1="195.62132"
       x2="231.37646"
       y2="200.07138"
       id="linearGradient9025-1"
       xlink:href="#linearGradient6240"
       gradientUnits="userSpaceOnUse" />
    <radialGradient
       cx="90.28125"
       cy="230.83626"
       r="10.46875"
       fx="90.28125"
       fy="230.83626"
       id="radialGradient9046-1"
       xlink:href="#linearGradient6240"
       gradientUnits="userSpaceOnUse"
       gradientTransform="matrix(1.1850746,-0.3283582,0.1228557,0.4433973,-45.068314,152.92161)" />
    <filter
       height="1.3311402"
       y="-0.1655701"
       width="1.1523587"
       x="-0.076179281"
       id="filter9068-2"
       color-interpolation-filters="sRGB">
      <feGaussianBlur
         id="feGaussianBlur9070-7"
         stdDeviation="0.66458488"
         inkscape:collect="always" />
    </filter>
    <radialGradient
       cx="68.39994"
       cy="21.225746"
       r="54.783398"
       fx="68.39994"
       fy="21.225746"
       id="radialGradient11553-3"
       xlink:href="#linearGradient6240"
       gradientUnits="userSpaceOnUse"
       gradientTransform="matrix(1.7221535,0,0,1.6949765,-49.39526,-14.078057)" />
    <filter
       id="filter9298-4"
       color-interpolation-filters="sRGB">
      <feGaussianBlur
         id="feGaussianBlur9300-4"
         stdDeviation="0.32610678"
         inkscape:collect="always" />
    </filter>
    <linearGradient
       x1="95.5"
       y1="208.16444"
       x2="153.5"
       y2="223.5"
       id="linearGradient5905-4"
       xlink:href="#linearGradient6240"
       gradientUnits="userSpaceOnUse" />
    <filter
       height="1.2446715"
       y="-0.12233575"
       width="1.165018"
       x="-0.082508981"
       id="filter5983-8"
       color-interpolation-filters="sRGB">
      <feGaussianBlur
         id="feGaussianBlur5985-3"
         stdDeviation="3.6868363"
         inkscape:collect="always" />
    </filter>
    <linearGradient
       x1="57.225197"
       y1="76.246338"
       x2="53.63158"
       y2="84.480316"
       id="linearGradient5801-2"
       xlink:href="#linearGradient5793-6"
       gradientUnits="userSpaceOnUse"
       gradientTransform="matrix(0.8852575,0,0,0.8852575,5.1772151,9.2293372)" />
    <radialGradient
       cx="181.22731"
       cy="214.55121"
       r="22.466398"
       fx="181.22731"
       fy="214.55121"
       id="radialGradient5811-3"
       xlink:href="#linearGradient6240"
       gradientUnits="userSpaceOnUse"
       gradientTransform="matrix(1.3515234,0,0,1.7175707,-63.705646,-153.95568)" />
    <filter
       id="filter5845-5"
       color-interpolation-filters="sRGB">
      <feGaussianBlur
         id="feGaussianBlur5847-5"
         stdDeviation="1.2409356"
         inkscape:collect="always" />
    </filter>
    <linearGradient
       x1="73.712105"
       y1="180.47572"
       x2="82.754066"
       y2="187.65974"
       id="linearGradient5822-7"
       xlink:href="#linearGradient6240"
       gradientUnits="userSpaceOnUse"
       gradientTransform="matrix(0.4927913,0,0,0.4927913,-6.0003885,-9.7225182)" />
    <filter
       id="filter10997-7-2"
       color-interpolation-filters="sRGB">
      <feGaussianBlur
         id="feGaussianBlur10999-0-7"
         stdDeviation="2.7696726"
         inkscape:collect="always" />
    </filter>
    <linearGradient
       x1="180.81293"
       y1="217.5"
       x2="153.70045"
       y2="144.5"
       id="linearGradient1539"
       xlink:href="#linearGradient10981-3"
       gradientUnits="userSpaceOnUse"
       gradientTransform="translate(-130.16572,-83.352786)" />
    <filter
       inkscape:collect="always"
       style="color-interpolation-filters:sRGB"
       id="filter5529"
       x="-0.14652438"
       width="1.2930488"
       y="-0.88565852"
       height="2.771317">
      <feGaussianBlur
         inkscape:collect="always"
         stdDeviation="5.2040868"
         id="feGaussianBlur5531" />
    </filter>
    <inkscape:perspective
       sodipodi:type="inkscape:persp3d"
       inkscape:vp_x="0 : 128 : 1"
       inkscape:vp_y="0 : 1000 : 0"
       inkscape:vp_z="256 : 128 : 1"
       inkscape:persp3d-origin="128 : 85.333333 : 1"
       id="perspective24" />
    <linearGradient
       gradientTransform="matrix(-0.44359349,0,0,0.44359349,-397.21531,-225.83368)"
       gradientUnits="userSpaceOnUse"
       xlink:href="#linearGradient6240"
       id="linearGradient2449"
       y2="425.39993"
       x2="-395.84943"
       y1="274.711"
       x1="-344.15295" />
    <inkscape:perspective
       id="perspective2892"
       inkscape:persp3d-origin="372.04724 : 350.78739 : 1"
       inkscape:vp_z="744.09448 : 526.18109 : 1"
       inkscape:vp_y="0 : 1000 : 0"
       inkscape:vp_x="0 : 526.18109 : 1"
       sodipodi:type="inkscape:persp3d" />
    <inkscape:perspective
       sodipodi:type="inkscape:persp3d"
       inkscape:vp_x="0 : 0.5 : 1"
       inkscape:vp_y="0 : 1000 : 0"
       inkscape:vp_z="1 : 0.5 : 1"
       inkscape:persp3d-origin="0.5 : 0.33333333 : 1"
       id="perspective2879" />
    <inkscape:perspective
       sodipodi:type="inkscape:persp3d"
       inkscape:vp_x="0 : 0.5 : 1"
       inkscape:vp_y="0 : 1000 : 0"
       inkscape:vp_z="1 : 0.5 : 1"
       inkscape:persp3d-origin="0.5 : 0.33333333 : 1"
       id="perspective2932" />
    <inkscape:perspective
       id="perspective2892-0"
       inkscape:persp3d-origin="372.04724 : 350.78739 : 1"
       inkscape:vp_z="744.09448 : 526.18109 : 1"
       inkscape:vp_y="0 : 1000 : 0"
       inkscape:vp_x="0 : 526.18109 : 1"
       sodipodi:type="inkscape:persp3d" />
    <inkscape:perspective
       sodipodi:type="inkscape:persp3d"
       inkscape:vp_x="0 : 0.5 : 1"
       inkscape:vp_y="0 : 1000 : 0"
       inkscape:vp_z="1 : 0.5 : 1"
       inkscape:persp3d-origin="0.5 : 0.33333333 : 1"
       id="perspective2879-9" />
  </defs>
  <sodipodi:namedview
     pagecolor="#e1e1e1"
     bordercolor="#666666"
     borderopacity="1"
     objecttolerance="10"
     gridtolerance="10"
     guidetolerance="10"
     inkscape:pageopacity="0"
     inkscape:pageshadow="2"
     inkscape:window-width="1855"
     inkscape:window-height="1056"
     id="namedview53"
     showgrid="false"
     units="px"
     inkscape:zoom="1"
     inkscape:cx="-227.5"
     inkscape:cy="121.5"
     inkscape:window-x="65"
     inkscape:window-y="24"
     inkscape:window-maximized="1"
     inkscape:current-layer="svg2" />
  <style
     type="text/css"
     id="style26">
	.specularity {opacity:0.5;}
	.low-specularity {opacity:0.25;}
	.full-specularity {opacity:1;}
	.black {fill:#000000;}
	.white {fill:#ffffff;}
	.outline-big {stroke-width:16;stroke:none;opacity:0.1;fill:none;}
	.outline-small {stroke-width:8;stroke:none;opacity:0.2;fill:none;}
	.stroke-highlight {fill:none;stroke:none;opacity:0.2;}
       	.base-shadow 	{fill:black;opacity:75;}
	</style>
  <style
     type="text/css"
     id="style26-3" />
  <ellipse
     style="color:#000000;clip-rule:nonzero;display:inline;overflow:visible;visibility:visible;opacity:0.27600002;isolation:auto;mix-blend-mode:normal;color-interpolation:sRGB;color-interpolation-filters:linearRGB;solid-color:#000000;solid-opacity:1;fill:#000000;fill-opacity:1;fill-rule:nonzero;stroke:none;stroke-width:1.98449993;stroke-linecap:butt;stroke-linejoin:round;stroke-miterlimit:4;stroke-dasharray:none;stroke-dashoffset:0;stroke-opacity:1;marker:none;filter:url(#filter5529);color-rendering:auto;image-rendering:auto;shape-rendering:auto;text-rendering:auto;enable-background:accumulate"
     id="path5435"
     cx="45"
     cy="81.225243"
     rx="42.620239"
     ry="7.0511422"
     transform="matrix(0.8040413,0,0,0.55999208,8.8181405,31.540076)" />
  <g
     transform="matrix(0.52092559,-0.25928663,0.25928663,0.52092559,-302.12308,-151.99933)"
     id="layer1"
     inkscape:label="Layer 1"
     inkscape:transform-center-x="5.1119403"
     inkscape:transform-center-y="-2.0670498"
     style="fill:#ffffff">
    <path
       id="path2764"
       style="fill:#ffffff;fill-opacity:1;fill-rule:evenodd;stroke:none"
       d="m 384.89382,596.61954 -11.53571,-77.6314 -17.65552,5.84688 -2.06935,-16.43088 33.33795,-4.12965 c 12.62916,2.52919 19.80429,7.94533 18.62917,17.78157 -4.49592,-5.45313 -10.63437,-5.59689 -19.27931,-4.50259 l 10.67411,77.97262 3.68481,16.73664 2.23843,14.49623 -15.74538,2.37269 -3.3785,-16.78435 1.0993,-15.72776 z"
       sodipodi:nodetypes="ccccccccccccc"
       inkscape:connector-curvature="0" />
  </g>
  <g
     transform="matrix(0.57630446,0.0804127,-0.0804127,0.57630446,-122.30599,-317.859)"
     id="layer1-0"
     inkscape:label="Layer 1"
     style="fill:#ffffff">
    <path
       sodipodi:nodetypes="cccccccccccccccccccccc"
       d="m 353.28084,600.90589 33.10947,-67.46816 -5.86334,-16.14544 17.82641,-16.41385 -5.23143,16.58009 11.02614,5.37331 10.4583,-14.03288 -1.91616,24.93852 -13.89114,5.74739 -34.27285,67.75428 2.02068,20.43357 -15.6537,10.45892 -15.20425,-7.40944 -1.72393,-20.29077 19.31566,-9.52564 z m -8.59827,23.10888 -0.98914,-8.078 7.30177,-3.95512 6.13074,3.25927 0.0909,7.561 -6.57535,4.11691 -5.95904,-2.90401 z"
       style="fill:#ffffff;fill-opacity:1;fill-rule:evenodd;stroke:none"
       id="path3227"
       inkscape:connector-curvature="0" />
  </g>
</svg>
