<?xml version="1.0" encoding="UTF-8" standalone="no"?>
<svg
   xmlns:dc="http://purl.org/dc/elements/1.1/"
   xmlns:cc="http://creativecommons.org/ns#"
   xmlns:rdf="http://www.w3.org/1999/02/22-rdf-syntax-ns#"
   xmlns:svg="http://www.w3.org/2000/svg"
   xmlns="http://www.w3.org/2000/svg"
   xmlns:sodipodi="http://sodipodi.sourceforge.net/DTD/sodipodi-0.dtd"
   xmlns:inkscape="http://www.inkscape.org/namespaces/inkscape"
   inkscape:export-ydpi="144"
   inkscape:export-xdpi="144"
   inkscape:export-filename="/home/vanntile/Documents/doc/Design/Sponsor_Icons_export.png"
   sodipodi:docname="Sponsor_Icons_source.svg"
   inkscape:version="1.0alpha (127bd6e045, 2019-03-04)"
   id="svg8"
   version="1.1"
   viewBox="0 0 423.33333 529.16664"
   height="2000"
   width="1600">
  <defs
     id="defs2"><clipPath
   id="clipPath1019-6"
   clipPathUnits="userSpaceOnUse">
  <path
     inkscape:connector-curvature="0"
     id="path1021-3"
     d="M 174.4497,136.91569 A 38.940486,38.940486 0 0 1 135.5092,175.85618 38.940486,38.940486 0 0 1 96.568716,136.91569 38.940486,38.940486 0 0 1 135.5092,97.975203 38.940486,38.940486 0 0 1 174.4497,136.91569 Z"
     style="fill:#ffffff;fill-opacity:1;stroke:#37474f;stroke-width:1.59259;stroke-linejoin:round;stroke-miterlimit:4;stroke-dasharray:none;stroke-opacity:1;paint-order:markers fill stroke" />
</clipPath>
<clipPath
   id="clipPath1210-1-2"
   clipPathUnits="userSpaceOnUse">
  <path
     style="display:inline;opacity:1;fill:#ffffff;fill-opacity:1;stroke:none;stroke-width:3.25393;stroke-linejoin:round;stroke-miterlimit:4;stroke-dasharray:none;stroke-opacity:1;paint-order:markers fill stroke"
     d="m 155.1985,200.45364 a 36.79745,36.79745 0 0 1 -36.79746,36.79745 36.79745,36.79745 0 0 1 -36.79745,-36.79745 36.79745,36.79745 0 0 1 36.79745,-36.79744 36.79745,36.79745 0 0 1 36.79746,36.79744 z"
     id="path1212-2-0"
     inkscape:connector-curvature="0" />
</clipPath>
<clipPath
   id="clipPath1856"
   clipPathUnits="userSpaceOnUse">
  <path
     inkscape:connector-curvature="0"
     id="path1858"
     d="m 441.22256,-242.06429 a 59.841432,59.841432 0 0 1 -59.84144,59.84143 59.841432,59.841432 0 0 1 -59.84142,-59.84143 59.841432,59.841432 0 0 1 59.84142,-59.84142 59.841432,59.841432 0 0 1 59.84144,59.84142 z"
     style="display:inline;opacity:1;fill:#ffffff;fill-opacity:1;stroke:none;stroke-width:5.29167;stroke-linejoin:round;stroke-miterlimit:4;stroke-dasharray:none;stroke-opacity:1;paint-order:markers fill stroke;stop-opacity:1" />
</clipPath>
<clipPath
   id="clipPath3333"
   clipPathUnits="userSpaceOnUse">
  <path
     inkscape:connector-curvature="0"
     id="path3335"
     d="m 522.65389,298.52456 a 30.405641,30.405641 0 0 1 -30.40565,30.40564 30.405641,30.405641 0 0 1 -30.40562,-30.40564 30.405641,30.405641 0 0 1 30.40562,-30.40563 30.405641,30.405641 0 0 1 30.40565,30.40563 z"
     style="display:inline;opacity:1;fill:#ffffff;fill-opacity:1;stroke:none;stroke-width:2.68872;stroke-linejoin:round;stroke-miterlimit:4;stroke-dasharray:none;stroke-opacity:1;paint-order:markers fill stroke;stop-opacity:1" />
</clipPath>

-nodetypes=&quot;ccccc&quot;
         style=&quot;opacity:1;fill:#4494d5;fill-opacity:1;stroke:none;stroke-width:2.71357;stroke-linecap:round;stroke-linejoin:round;stroke-miterlimit:4;stroke-dasharray:none;stroke-opacity:1;paint-order:markers fill stroke;stop-opacity:1&quot;
         d=&quot;m 484.58251,303.22192 h 15.38003 c 2.27659,12.73775 0,34.26668 0,46.94553 h -15.38003 c 0,-12.38884 -2.37962,-34.37532 0,-46.94553 z&quot;
         id=&quot;path3220&quot;
         inkscape:connector-curvature=&quot;0&quot;
         sodipodi:nodetypes=&quot;ccccc&quot; /&gt;
      -nodetypes=&quot;ccccc&quot;
         inkscape:connector-curvature=&quot;0&quot;
         id=&quot;path3222&quot;
         d=&quot;m 490.44323,283.88504 h 3.40616 v 6.41018 h -3.40616 z&quot;
         style=&quot;opacity:1;fill:#c3e7fc;fill-opacity:1;stroke:none;stroke-width:2.11667;stroke-linecap:round;stroke-linejoin:round;stroke-miterlimit:4;stroke-dasharray:none;stroke-opacity:1;paint-order:markers fill stroke;stop-opacity:1&quot; /&gt;
      -nodetypes=&quot;ccccc&quot; /&gt;
      -nodetypes=&quot;ccccc&quot; /&gt;
      -nodetypes=&quot;ccccc&quot; /&gt;
      -nodetypes=&quot;cccc&quot; /&gt;
      -nodetypes=&quot;cccc&quot; /&gt;
      -nodetypes=&quot;cccc&quot; /&gt;
      -nodetypes=&quot;cccc&quot; /&gt;
    -nodetypes=&quot;ccccc&quot;
           style=&quot;opacity:1;fill:#4494d5;fill-opacity:1;stroke:none;stroke-width:2.71357;stroke-linecap:round;stroke-linejoin:round;stroke-miterlimit:4;stroke-dasharray:none;stroke-opacity:1;paint-order:markers fill stroke;stop-opacity:1&quot;
           d=&quot;m 484.58251,303.22192 h 15.38003 c 2.27659,12.73775 0,34.26668 0,46.94553 h -15.38003 c 0,-12.38884 -2.37962,-34.37532 0,-46.94553 z&quot;
           id=&quot;path3299&quot;
           inkscape:connector-curvature=&quot;0&quot;
           sodipodi:nodetypes=&quot;ccccc&quot; /&gt;
        -nodetypes=&quot;ccccc&quot;
           inkscape:connector-curvature=&quot;0&quot;
           id=&quot;path3301&quot;
           d=&quot;m 490.44323,283.88504 h 3.40616 v 6.41018 h -3.40616 z&quot;
           style=&quot;opacity:1;fill:#c3e7fc;fill-opacity:1;stroke:none;stroke-width:2.11667;stroke-linecap:round;stroke-linejoin:round;stroke-miterlimit:4;stroke-dasharray:none;stroke-opacity:1;paint-order:markers fill stroke;stop-opacity:1&quot; /&gt;
        -nodetypes=&quot;ccccc&quot; /&gt;
        -nodetypes=&quot;ccccc&quot; /&gt;
        -nodetypes=&quot;ccccc&quot; /&gt;
        -nodetypes=&quot;cccc&quot; /&gt;
        -nodetypes=&quot;cccc&quot; /&gt;
        -nodetypes=&quot;cccc&quot; /&gt;
        -nodetypes=&quot;cccc&quot; /&gt;
      <clipPath
   clipPathUnits="userSpaceOnUse"
   id="clipPath1164">
  <path
     inkscape:connector-curvature="0"
     id="path1166"
     d="m 402.18504,211.74044 a 30.405641,30.405641 0 0 1 -30.40565,30.40564 30.405641,30.405641 0 0 1 -30.40562,-30.40564 30.405641,30.405641 0 0 1 30.40562,-30.40564 30.405641,30.405641 0 0 1 30.40565,30.40564 z"
     style="display:inline;opacity:1;fill:#ffffff;fill-opacity:1;stroke:none;stroke-width:2.68872;stroke-linejoin:round;stroke-miterlimit:4;stroke-dasharray:none;stroke-opacity:1;paint-order:markers fill stroke;stop-opacity:1" />
</clipPath>
</defs>
  <sodipodi:namedview
     inkscape:object-nodes="false"
     inkscape:snap-object-midpoints="true"
     inkscape:snap-smooth-nodes="true"
     inkscape:snap-text-baseline="true"
     showborder="true"
     inkscape:snap-intersection-paths="true"
     inkscape:object-paths="true"
     inkscape:snap-global="false"
     inkscape:guide-bbox="true"
     showguides="false"
     inkscape:document-rotation="0"
     inkscape:window-maximized="1"
     inkscape:window-y="28"
     inkscape:window-x="59"
     inkscape:window-height="1016"
     inkscape:window-width="1861"
     borderlayer="true"
     inkscape:snap-page="true"
     inkscape:showpageshadow="false"
     units="px"
     showgrid="false"
     inkscape:current-layer="layer1"
     inkscape:document-units="px"
     inkscape:cy="1000"
     inkscape:cx="800"
     inkscape:zoom="0.342"
     inkscape:pageshadow="2"
     inkscape:pageopacity="0"
     borderopacity="1.0"
     bordercolor="#666666"
     pagecolor="#fafafa"
     id="base">
    <sodipodi:guide
       inkscape:color="rgb(0,0,255)"
       inkscape:locked="false"
       inkscape:label=""
       id="guide1040"
       orientation="-0.90814317,0.41865974"
       position="82.93365,109.78193" />
    <sodipodi:guide
       inkscape:color="rgb(0,0,255)"
       inkscape:locked="false"
       inkscape:label=""
       id="guide1046"
       orientation="-0.99531218,0.096714363"
       position="92.69171,73.041381" />
  </sodipodi:namedview>
  <metadata
     id="metadata5">
    <rdf:RDF>
      <cc:Work
         rdf:about="">
        <dc:format>image/svg+xml</dc:format>
        <dc:type
           rdf:resource="http://purl.org/dc/dcmitype/StillImage" />
        <dc:title />
      </cc:Work>
    </rdf:RDF>
  </metadata>
  <g
     sodipodi:insensitive="true"
     style="display:inline"
     inkscape:label="Background"
     id="layer2"
     inkscape:groupmode="layer">
    <path
       inkscape:connector-curvature="0"
       id="rect1360"
       d="M 0,0 H 423.33332 V 529.16666 H 0 Z"
       style="fill:#ececec;fill-opacity:1;stroke:none;stroke-width:2.45934;stroke-linecap:round;stroke-linejoin:round;paint-order:markers fill stroke" />
    <text
       id="text2475"
       y="307.40396"
       x="25.055374"
       style="font-size:11.2889px;line-height:1.25;font-family:Amstelvar;-inkscape-font-specification:Amstelvar;letter-spacing:0px;word-spacing:0px;opacity:1;fill:#37474f;fill-opacity:1;stroke-width:0.264583;stop-opacity:1"
       xml:space="preserve"><tspan
         style="font-style:normal;font-variant:normal;font-weight:800;font-stretch:normal;font-family:Objectivity;-inkscape-font-specification:'Objectivity Ultra-Bold';fill:#37474f;fill-opacity:1;stroke-width:0.264583"
         y="307.40396"
         x="25.055374"
         id="tspan2473"
         sodipodi:role="line">Color Scheme</tspan></text>
    <text
       xml:space="preserve"
       style="font-size:11.2889px;line-height:1.25;font-family:Amstelvar;-inkscape-font-specification:Amstelvar;letter-spacing:0px;word-spacing:0px;opacity:1;fill:#37474f;fill-opacity:1;stroke-width:0.264583;stop-opacity:1"
       x="24.705418"
       y="172.76329"
       id="text2479"><tspan
         sodipodi:role="line"
         id="tspan2477"
         x="24.705418"
         y="172.76329"
         style="font-style:normal;font-variant:normal;font-weight:800;font-stretch:normal;font-family:Objectivity;-inkscape-font-specification:'Objectivity Ultra-Bold';fill:#37474f;fill-opacity:1;stroke-width:0.264583">Illustrations</tspan></text>
    <text
       id="text2483"
       y="34.093899"
       x="24.547375"
       style="font-size:11.2889px;line-height:1.25;font-family:Amstelvar;-inkscape-font-specification:Amstelvar;letter-spacing:0px;word-spacing:0px;opacity:1;fill:#37474f;fill-opacity:1;stroke-width:0.264583;stop-opacity:1"
       xml:space="preserve"><tspan
         style="font-style:normal;font-variant:normal;font-weight:800;font-stretch:normal;font-size:22.5778px;font-family:Objectivity;-inkscape-font-specification:'Objectivity Ultra-Bold';fill:#37474f;fill-opacity:1;stroke-width:0.264583"
         y="34.093899"
         x="24.547375"
         id="tspan2481"
         sodipodi:role="line">Sponsors badges</tspan></text>
  </g>
  <g
     sodipodi:insensitive="true"
     style="display:inline"
     inkscape:label="Color Scheme"
     id="layer3"
     inkscape:groupmode="layer">
    <text
       xml:space="preserve"
       style="font-weight:bold;font-size:8.46667px;line-height:1.25;font-family:Objectivity;-inkscape-font-specification:'Objectivity Bold';text-align:center;letter-spacing:0px;word-spacing:0px;text-anchor:middle;display:inline;opacity:1;fill:#424242;stroke-width:0.264583;stop-opacity:1"
       x="244.95425"
       y="489.94843"
       id="text1086"><tspan
         sodipodi:role="line"
         id="tspan1084"
         x="244.95425"
         y="489.94843"
         style="font-style:normal;font-variant:normal;font-weight:800;font-stretch:normal;font-family:Objectivity;-inkscape-font-specification:'Objectivity Ultra-Bold';text-align:center;text-anchor:middle;fill:#424242;stroke-width:0.264583">platinum</tspan></text>
    <text
       xml:space="preserve"
       style="font-weight:bold;font-size:8.46667px;line-height:1.25;font-family:Objectivity;-inkscape-font-specification:'Objectivity Bold';text-align:center;letter-spacing:0px;word-spacing:0px;text-anchor:middle;display:inline;opacity:1;fill:#424242;stroke-width:0.264583;stop-opacity:1"
       x="115.51508"
       y="489.94843"
       id="text1078"><tspan
         sodipodi:role="line"
         id="tspan1076"
         x="115.51508"
         y="489.94843"
         style="font-style:normal;font-variant:normal;font-weight:800;font-stretch:normal;font-family:Objectivity;-inkscape-font-specification:'Objectivity Ultra-Bold';text-align:center;text-anchor:middle;fill:#424242;stroke-width:0.264583">silver</tspan></text>
    <text
       id="text1074"
       y="489.94843"
       x="51.365646"
       style="font-weight:bold;font-size:8.46667px;line-height:1.25;font-family:Objectivity;-inkscape-font-specification:'Objectivity Bold';text-align:center;letter-spacing:0px;word-spacing:0px;text-anchor:middle;display:inline;opacity:1;fill:#424242;stroke-width:0.264583;stop-opacity:1"
       xml:space="preserve"><tspan
         style="font-style:normal;font-variant:normal;font-weight:800;font-stretch:normal;font-family:Objectivity;-inkscape-font-specification:'Objectivity Ultra-Bold';text-align:center;text-anchor:middle;fill:#424242;stroke-width:0.264583"
         y="489.94843"
         x="51.365646"
         id="tspan1072"
         sodipodi:role="line">bronze</tspan></text>
    <text
       id="text1325"
       y="489.94843"
       x="310.29871"
       style="font-weight:bold;font-size:8.46667px;line-height:1.25;font-family:Objectivity;-inkscape-font-specification:'Objectivity Bold';letter-spacing:0px;word-spacing:0px;display:inline;opacity:1;fill:#424242;stroke-width:0.264583;stop-opacity:1"
       xml:space="preserve"><tspan
         style="font-style:normal;font-variant:normal;font-weight:800;font-stretch:normal;font-family:Objectivity;-inkscape-font-specification:'Objectivity Ultra-Bold';text-align:center;text-anchor:middle;fill:#424242;stroke-width:0.264583"
         y="489.94843"
         x="310.29871"
         id="tspan1323"
         sodipodi:role="line">diamond</tspan></text>
    <circle
       r="12.919077"
       cy="335.75238"
       cx="51.456726"
       id="circle1020"
       style="display:inline;opacity:1;fill:#37474f;fill-opacity:1;stroke:none;stroke-width:1.05833;stroke-linecap:round;stroke-linejoin:round;stroke-miterlimit:4;stroke-dasharray:none;stroke-opacity:1;stop-opacity:1" />
    <circle
       style="display:inline;opacity:1;fill:#b48c5d;fill-opacity:1;stroke:none;stroke-width:1.05833;stroke-linecap:round;stroke-linejoin:round;stroke-miterlimit:4;stroke-dasharray:none;stroke-opacity:1;stop-opacity:1"
       id="circle1022"
       cx="51.456726"
       cy="377.16672"
       r="12.919077" />
    <circle
       r="12.919077"
       cy="418.58099"
       cx="51.456726"
       id="circle1024"
       style="display:inline;opacity:1;fill:#d69e60;fill-opacity:1;stroke:none;stroke-width:1.05833;stroke-linecap:round;stroke-linejoin:round;stroke-miterlimit:4;stroke-dasharray:none;stroke-opacity:1;stop-opacity:1" />
    <circle
       style="display:inline;opacity:1;fill:#deb280;fill-opacity:1;stroke:none;stroke-width:1.05833;stroke-linecap:round;stroke-linejoin:round;stroke-miterlimit:4;stroke-dasharray:none;stroke-opacity:1;stop-opacity:1"
       id="circle1026"
       cx="51.456726"
       cy="459.99527"
       r="12.919077" />
    <text
       xml:space="preserve"
       style="font-weight:bold;font-size:8.46667px;line-height:1.25;font-family:Objectivity;-inkscape-font-specification:'Objectivity Bold';text-align:center;letter-spacing:0px;word-spacing:0px;text-anchor:middle;display:inline;opacity:1;fill:#424242;stroke-width:0.264583;stop-opacity:1"
       x="51.437111"
       y="355.20389"
       id="text2341"><tspan
         sodipodi:role="line"
         id="tspan2339"
         x="51.437111"
         y="355.20389"
         style="font-style:normal;font-variant:normal;font-weight:800;font-stretch:normal;font-size:4.23333px;font-family:Objectivity;-inkscape-font-specification:'Objectivity Ultra-Bold';text-align:center;text-anchor:middle;fill:#424242;stroke-width:0.264583">#37474f</tspan></text>
    <text
       id="text2411"
       y="397.47028"
       x="51.437111"
       style="font-weight:bold;font-size:8.46667px;line-height:1.25;font-family:Objectivity;-inkscape-font-specification:'Objectivity Bold';text-align:center;letter-spacing:0px;word-spacing:0px;text-anchor:middle;display:inline;opacity:1;fill:#424242;stroke-width:0.264583;stop-opacity:1"
       xml:space="preserve"><tspan
         style="font-style:normal;font-variant:normal;font-weight:800;font-stretch:normal;font-size:4.23333px;font-family:Objectivity;-inkscape-font-specification:'Objectivity Ultra-Bold';text-align:center;text-anchor:middle;fill:#424242;stroke-width:0.264583"
         y="397.47028"
         x="51.437111"
         id="tspan2409"
         sodipodi:role="line">#b48c5d</tspan></text>
    <text
       xml:space="preserve"
       style="font-weight:bold;font-size:8.46667px;line-height:1.25;font-family:Objectivity;-inkscape-font-specification:'Objectivity Bold';text-align:center;letter-spacing:0px;word-spacing:0px;text-anchor:middle;display:inline;opacity:1;fill:#424242;stroke-width:0.264583;stop-opacity:1"
       x="51.437111"
       y="438.75522"
       id="text2431"><tspan
         sodipodi:role="line"
         id="tspan2429"
         x="51.437111"
         y="438.75522"
         style="font-style:normal;font-variant:normal;font-weight:800;font-stretch:normal;font-size:4.23333px;font-family:Objectivity;-inkscape-font-specification:'Objectivity Ultra-Bold';text-align:center;text-anchor:middle;fill:#424242;stroke-width:0.264583">#d69e60</tspan></text>
    <text
       id="text2451"
       y="479.89987"
       x="51.437111"
       style="font-weight:bold;font-size:8.46667px;line-height:1.25;font-family:Objectivity;-inkscape-font-specification:'Objectivity Bold';text-align:center;letter-spacing:0px;word-spacing:0px;text-anchor:middle;display:inline;opacity:1;fill:#424242;stroke-width:0.264583;stop-opacity:1"
       xml:space="preserve"><tspan
         style="font-style:normal;font-variant:normal;font-weight:800;font-stretch:normal;font-size:4.23333px;font-family:Objectivity;-inkscape-font-specification:'Objectivity Ultra-Bold';text-align:center;text-anchor:middle;fill:#424242;stroke-width:0.264583"
         y="479.89987"
         x="51.437111"
         id="tspan2449"
         sodipodi:role="line">#deb280</tspan></text>
    <circle
       style="display:inline;opacity:1;fill:#37474f;fill-opacity:1;stroke:none;stroke-width:1.05833;stroke-linecap:round;stroke-linejoin:round;stroke-miterlimit:4;stroke-dasharray:none;stroke-opacity:1;stop-opacity:1"
       id="circle1004"
       cx="115.61591"
       cy="335.75238"
       r="12.919077" />
    <circle
       r="12.919077"
       cy="377.16672"
       cx="115.61591"
       id="circle1006"
       style="display:inline;opacity:1;fill:#a1a6a8;fill-opacity:1;stroke:none;stroke-width:1.05833;stroke-linecap:round;stroke-linejoin:round;stroke-miterlimit:4;stroke-dasharray:none;stroke-opacity:1;stop-opacity:1" />
    <circle
       style="display:inline;opacity:1;fill:#cccccc;fill-opacity:1;stroke:none;stroke-width:1.05833;stroke-linecap:round;stroke-linejoin:round;stroke-miterlimit:4;stroke-dasharray:none;stroke-opacity:1;stop-opacity:1"
       id="circle1008"
       cx="115.61591"
       cy="418.58099"
       r="12.919077" />
    <circle
       r="12.919077"
       cy="459.99527"
       cx="115.61591"
       id="circle1010"
       style="display:inline;opacity:1;fill:#dddddd;fill-opacity:1;stroke:none;stroke-width:1.05833;stroke-linecap:round;stroke-linejoin:round;stroke-miterlimit:4;stroke-dasharray:none;stroke-opacity:1;stop-opacity:1" />
    <text
       id="text2395"
       y="355.20389"
       x="115.59631"
       style="font-weight:bold;font-size:8.46667px;line-height:1.25;font-family:Objectivity;-inkscape-font-specification:'Objectivity Bold';text-align:center;letter-spacing:0px;word-spacing:0px;text-anchor:middle;display:inline;opacity:1;fill:#424242;stroke-width:0.264583;stop-opacity:1"
       xml:space="preserve"><tspan
         style="font-style:normal;font-variant:normal;font-weight:800;font-stretch:normal;font-size:4.23333px;font-family:Objectivity;-inkscape-font-specification:'Objectivity Ultra-Bold';text-align:center;text-anchor:middle;fill:#424242;stroke-width:0.264583"
         y="355.20389"
         x="115.59631"
         id="tspan2393"
         sodipodi:role="line">#37474f</tspan></text>
    <text
       xml:space="preserve"
       style="font-weight:bold;font-size:8.46667px;line-height:1.25;font-family:Objectivity;-inkscape-font-specification:'Objectivity Bold';text-align:center;letter-spacing:0px;word-spacing:0px;text-anchor:middle;display:inline;opacity:1;fill:#424242;stroke-width:0.264583;stop-opacity:1"
       x="115.59631"
       y="397.47028"
       id="text2415"><tspan
         sodipodi:role="line"
         id="tspan2413"
         x="115.59631"
         y="397.47028"
         style="font-style:normal;font-variant:normal;font-weight:800;font-stretch:normal;font-size:4.23333px;font-family:Objectivity;-inkscape-font-specification:'Objectivity Ultra-Bold';text-align:center;text-anchor:middle;fill:#424242;stroke-width:0.264583">#a1a6a8</tspan></text>
    <text
       id="text2435"
       y="438.75522"
       x="115.59631"
       style="font-weight:bold;font-size:8.46667px;line-height:1.25;font-family:Objectivity;-inkscape-font-specification:'Objectivity Bold';text-align:center;letter-spacing:0px;word-spacing:0px;text-anchor:middle;display:inline;opacity:1;fill:#424242;stroke-width:0.264583;stop-opacity:1"
       xml:space="preserve"><tspan
         style="font-style:normal;font-variant:normal;font-weight:800;font-stretch:normal;font-size:4.23333px;font-family:Objectivity;-inkscape-font-specification:'Objectivity Ultra-Bold';text-align:center;text-anchor:middle;fill:#424242;stroke-width:0.264583"
         y="438.75522"
         x="115.59631"
         id="tspan2433"
         sodipodi:role="line">#cccccc</tspan></text>
    <text
       xml:space="preserve"
       style="font-weight:bold;font-size:8.46667px;line-height:1.25;font-family:Objectivity;-inkscape-font-specification:'Objectivity Bold';text-align:center;letter-spacing:0px;word-spacing:0px;text-anchor:middle;display:inline;opacity:1;fill:#424242;stroke-width:0.264583;stop-opacity:1"
       x="115.59631"
       y="479.89987"
       id="text2455"><tspan
         sodipodi:role="line"
         id="tspan2453"
         x="115.59631"
         y="479.89987"
         style="font-style:normal;font-variant:normal;font-weight:800;font-stretch:normal;font-size:4.23333px;font-family:Objectivity;-inkscape-font-specification:'Objectivity Ultra-Bold';text-align:center;text-anchor:middle;fill:#424242;stroke-width:0.264583">#dddddd</tspan></text>
    <circle
       r="12.919077"
       cy="335.75238"
       cx="179.7751"
       id="path996"
       style="display:inline;opacity:1;fill:#37474f;fill-opacity:1;stroke:none;stroke-width:1.05833;stroke-linecap:round;stroke-linejoin:round;stroke-miterlimit:4;stroke-dasharray:none;stroke-opacity:1;stop-opacity:1" />
    <circle
       style="display:inline;opacity:1;fill:#f6c00c;fill-opacity:1;stroke:none;stroke-width:1.05833;stroke-linecap:round;stroke-linejoin:round;stroke-miterlimit:4;stroke-dasharray:none;stroke-opacity:1;stop-opacity:1"
       id="circle998"
       cx="179.7751"
       cy="377.16672"
       r="12.919077" />
    <circle
       r="12.919077"
       cy="418.58099"
       cx="179.7751"
       id="circle1000"
       style="display:inline;opacity:1;fill:#fee000;fill-opacity:1;stroke:none;stroke-width:1.05833;stroke-linecap:round;stroke-linejoin:round;stroke-miterlimit:4;stroke-dasharray:none;stroke-opacity:1;stop-opacity:1" />
    <circle
       style="display:inline;opacity:1;fill:#fff080;fill-opacity:1;stroke:none;stroke-width:1.05833;stroke-linecap:round;stroke-linejoin:round;stroke-miterlimit:4;stroke-dasharray:none;stroke-opacity:1;stop-opacity:1"
       id="circle1002"
       cx="179.7751"
       cy="459.99527"
       r="12.919077" />
    <text
       id="text1082"
       y="489.94843"
       x="179.86366"
       style="font-weight:bold;font-size:8.46667px;line-height:1.25;font-family:Objectivity;-inkscape-font-specification:'Objectivity Bold';text-align:center;letter-spacing:0px;word-spacing:0px;text-anchor:middle;display:inline;opacity:1;fill:#424242;stroke-width:0.264583;stop-opacity:1"
       xml:space="preserve"><tspan
         style="font-style:normal;font-variant:normal;font-weight:800;font-stretch:normal;font-family:Objectivity;-inkscape-font-specification:'Objectivity Ultra-Bold';text-align:center;text-anchor:middle;fill:#424242;stroke-width:0.264583"
         y="489.94843"
         x="179.86366"
         id="tspan1080"
         sodipodi:role="line">gold</tspan></text>
    <text
       xml:space="preserve"
       style="font-weight:bold;font-size:8.46667px;line-height:1.25;font-family:Objectivity;-inkscape-font-specification:'Objectivity Bold';text-align:center;letter-spacing:0px;word-spacing:0px;text-anchor:middle;display:inline;opacity:1;fill:#424242;stroke-width:0.264583;stop-opacity:1"
       x="179.75549"
       y="355.20389"
       id="text2399"><tspan
         sodipodi:role="line"
         id="tspan2397"
         x="179.75549"
         y="355.20389"
         style="font-style:normal;font-variant:normal;font-weight:800;font-stretch:normal;font-size:4.23333px;font-family:Objectivity;-inkscape-font-specification:'Objectivity Ultra-Bold';text-align:center;text-anchor:middle;fill:#424242;stroke-width:0.264583">#37474f</tspan></text>
    <text
       id="text2419"
       y="397.47028"
       x="179.75549"
       style="font-weight:bold;font-size:8.46667px;line-height:1.25;font-family:Objectivity;-inkscape-font-specification:'Objectivity Bold';text-align:center;letter-spacing:0px;word-spacing:0px;text-anchor:middle;display:inline;opacity:1;fill:#424242;stroke-width:0.264583;stop-opacity:1"
       xml:space="preserve"><tspan
         style="font-style:normal;font-variant:normal;font-weight:800;font-stretch:normal;font-size:4.23333px;font-family:Objectivity;-inkscape-font-specification:'Objectivity Ultra-Bold';text-align:center;text-anchor:middle;fill:#424242;stroke-width:0.264583"
         y="397.47028"
         x="179.75549"
         id="tspan2417"
         sodipodi:role="line">#f6c00c</tspan></text>
    <text
       xml:space="preserve"
       style="font-weight:bold;font-size:8.46667px;line-height:1.25;font-family:Objectivity;-inkscape-font-specification:'Objectivity Bold';text-align:center;letter-spacing:0px;word-spacing:0px;text-anchor:middle;display:inline;opacity:1;fill:#424242;stroke-width:0.264583;stop-opacity:1"
       x="179.75549"
       y="438.75522"
       id="text2439"><tspan
         sodipodi:role="line"
         id="tspan2437"
         x="179.75549"
         y="438.75522"
         style="font-style:normal;font-variant:normal;font-weight:800;font-stretch:normal;font-size:4.23333px;font-family:Objectivity;-inkscape-font-specification:'Objectivity Ultra-Bold';text-align:center;text-anchor:middle;fill:#424242;stroke-width:0.264583">#fee000</tspan></text>
    <text
       id="text2459"
       y="479.89987"
       x="179.75549"
       style="font-weight:bold;font-size:8.46667px;line-height:1.25;font-family:Objectivity;-inkscape-font-specification:'Objectivity Bold';text-align:center;letter-spacing:0px;word-spacing:0px;text-anchor:middle;display:inline;opacity:1;fill:#424242;stroke-width:0.264583;stop-opacity:1"
       xml:space="preserve"><tspan
         style="font-style:normal;font-variant:normal;font-weight:800;font-stretch:normal;font-size:4.23333px;font-family:Objectivity;-inkscape-font-specification:'Objectivity Ultra-Bold';text-align:center;text-anchor:middle;fill:#424242;stroke-width:0.264583"
         y="479.89987"
         x="179.75549"
         id="tspan2457"
         sodipodi:role="line">#fff080</tspan></text>
    <circle
       style="display:inline;opacity:1;fill:#37474f;fill-opacity:1;stroke:none;stroke-width:1.05833;stroke-linecap:round;stroke-linejoin:round;stroke-miterlimit:4;stroke-dasharray:none;stroke-opacity:1;stop-opacity:1"
       id="circle1012"
       cx="244.99261"
       cy="335.75238"
       r="12.919077" />
    <circle
       r="12.919077"
       cy="377.16672"
       cx="244.99261"
       id="circle1014"
       style="display:inline;opacity:1;fill:#dfdfe0;fill-opacity:1;stroke:none;stroke-width:1.05833;stroke-linecap:round;stroke-linejoin:round;stroke-miterlimit:4;stroke-dasharray:none;stroke-opacity:1;stop-opacity:1" />
    <circle
       style="display:inline;opacity:1;fill:#ededed;fill-opacity:1;stroke:#37474f;stroke-width:2.11667;stroke-linecap:round;stroke-linejoin:round;stroke-miterlimit:4;stroke-dasharray:none;stroke-opacity:1;stop-opacity:1"
       id="circle1016"
       cx="244.99261"
       cy="418.58099"
       r="12.919077" />
    <circle
       r="12.919077"
       cy="459.99527"
       cx="244.99261"
       id="circle1018"
       style="display:inline;opacity:1;fill:#fdfdfd;fill-opacity:1;stroke:#37474f;stroke-width:2.11667;stroke-linecap:round;stroke-linejoin:round;stroke-miterlimit:4;stroke-dasharray:none;stroke-opacity:1;stop-opacity:1" />
    <text
       id="text2403"
       y="355.20389"
       x="244.97299"
       style="font-weight:bold;font-size:8.46667px;line-height:1.25;font-family:Objectivity;-inkscape-font-specification:'Objectivity Bold';text-align:center;letter-spacing:0px;word-spacing:0px;text-anchor:middle;display:inline;opacity:1;fill:#424242;stroke-width:0.264583;stop-opacity:1"
       xml:space="preserve"><tspan
         style="font-style:normal;font-variant:normal;font-weight:800;font-stretch:normal;font-size:4.23333px;font-family:Objectivity;-inkscape-font-specification:'Objectivity Ultra-Bold';text-align:center;text-anchor:middle;fill:#424242;stroke-width:0.264583"
         y="355.20389"
         x="244.97299"
         id="tspan2401"
         sodipodi:role="line">#37474f</tspan></text>
    <text
       xml:space="preserve"
       style="font-weight:bold;font-size:8.46667px;line-height:1.25;font-family:Objectivity;-inkscape-font-specification:'Objectivity Bold';text-align:center;letter-spacing:0px;word-spacing:0px;text-anchor:middle;display:inline;opacity:1;fill:#424242;stroke-width:0.264583;stop-opacity:1"
       x="244.97299"
       y="397.47028"
       id="text2423"><tspan
         sodipodi:role="line"
         id="tspan2421"
         x="244.97299"
         y="397.47028"
         style="font-style:normal;font-variant:normal;font-weight:800;font-stretch:normal;font-size:4.23333px;font-family:Objectivity;-inkscape-font-specification:'Objectivity Ultra-Bold';text-align:center;text-anchor:middle;fill:#424242;stroke-width:0.264583">#dfdfe0</tspan></text>
    <text
       id="text2443"
       y="438.75522"
       x="244.97299"
       style="font-weight:bold;font-size:8.46667px;line-height:1.25;font-family:Objectivity;-inkscape-font-specification:'Objectivity Bold';text-align:center;letter-spacing:0px;word-spacing:0px;text-anchor:middle;display:inline;opacity:1;fill:#424242;stroke-width:0.264583;stop-opacity:1"
       xml:space="preserve"><tspan
         style="font-style:normal;font-variant:normal;font-weight:800;font-stretch:normal;font-size:4.23333px;font-family:Objectivity;-inkscape-font-specification:'Objectivity Ultra-Bold';text-align:center;text-anchor:middle;fill:#424242;stroke-width:0.264583"
         y="438.75522"
         x="244.97299"
         id="tspan2441"
         sodipodi:role="line">#ededed</tspan></text>
    <text
       xml:space="preserve"
       style="font-weight:bold;font-size:8.46667px;line-height:1.25;font-family:Objectivity;-inkscape-font-specification:'Objectivity Bold';text-align:center;letter-spacing:0px;word-spacing:0px;text-anchor:middle;display:inline;opacity:1;fill:#424242;stroke-width:0.264583;stop-opacity:1"
       x="244.97299"
       y="479.89987"
       id="text2463"><tspan
         sodipodi:role="line"
         id="tspan2461"
         x="244.97299"
         y="479.89987"
         style="font-style:normal;font-variant:normal;font-weight:800;font-stretch:normal;font-size:4.23333px;font-family:Objectivity;-inkscape-font-specification:'Objectivity Ultra-Bold';text-align:center;text-anchor:middle;fill:#424242;stroke-width:0.264583">#fdfdfd</tspan></text>
    <circle
       r="12.919077"
       cy="335.75238"
       cx="310.21011"
       id="circle1315"
       style="display:inline;opacity:1;fill:#37474f;fill-opacity:1;stroke:none;stroke-width:1.05833;stroke-linecap:round;stroke-linejoin:round;stroke-miterlimit:4;stroke-dasharray:none;stroke-opacity:1;stop-opacity:1" />
    <circle
       style="display:inline;opacity:1;fill:#1c63bc;fill-opacity:1;stroke:none;stroke-width:1.05833;stroke-linecap:round;stroke-linejoin:round;stroke-miterlimit:4;stroke-dasharray:none;stroke-opacity:1;stop-opacity:1"
       id="circle1317"
       cx="310.21011"
       cy="377.16672"
       r="12.919077" />
    <circle
       r="12.919077"
       cy="418.58099"
       cx="310.21011"
       id="circle1319"
       style="display:inline;opacity:1;fill:#4494d5;fill-opacity:1;stroke:none;stroke-width:1.05833;stroke-linecap:round;stroke-linejoin:round;stroke-miterlimit:4;stroke-dasharray:none;stroke-opacity:1;stop-opacity:1" />
    <circle
       style="display:inline;opacity:1;fill:#c3e7fc;fill-opacity:1;stroke:none;stroke-width:2.11667;stroke-linecap:round;stroke-linejoin:round;stroke-miterlimit:4;stroke-dasharray:none;stroke-opacity:1;stop-opacity:1"
       id="circle1321"
       cx="310.21011"
       cy="459.99527"
       r="12.919077" />
    <text
       xml:space="preserve"
       style="font-weight:bold;font-size:8.46667px;line-height:1.25;font-family:Objectivity;-inkscape-font-specification:'Objectivity Bold';text-align:center;letter-spacing:0px;word-spacing:0px;text-anchor:middle;display:inline;opacity:1;fill:#424242;stroke-width:0.264583;stop-opacity:1"
       x="310.19049"
       y="355.20389"
       id="text2407"><tspan
         sodipodi:role="line"
         id="tspan2405"
         x="310.19049"
         y="355.20389"
         style="font-style:normal;font-variant:normal;font-weight:800;font-stretch:normal;font-size:4.23333px;font-family:Objectivity;-inkscape-font-specification:'Objectivity Ultra-Bold';text-align:center;text-anchor:middle;fill:#424242;stroke-width:0.264583">#37474f</tspan></text>
    <text
       id="text2427"
       y="397.47028"
       x="310.19049"
       style="font-weight:bold;font-size:8.46667px;line-height:1.25;font-family:Objectivity;-inkscape-font-specification:'Objectivity Bold';text-align:center;letter-spacing:0px;word-spacing:0px;text-anchor:middle;display:inline;opacity:1;fill:#424242;stroke-width:0.264583;stop-opacity:1"
       xml:space="preserve"><tspan
         style="font-style:normal;font-variant:normal;font-weight:800;font-stretch:normal;font-size:4.23333px;font-family:Objectivity;-inkscape-font-specification:'Objectivity Ultra-Bold';text-align:center;text-anchor:middle;fill:#424242;stroke-width:0.264583"
         y="397.47028"
         x="310.19049"
         id="tspan2425"
         sodipodi:role="line">#1c63bc</tspan></text>
    <text
       xml:space="preserve"
       style="font-weight:bold;font-size:8.46667px;line-height:1.25;font-family:Objectivity;-inkscape-font-specification:'Objectivity Bold';text-align:center;letter-spacing:0px;word-spacing:0px;text-anchor:middle;display:inline;opacity:1;fill:#424242;stroke-width:0.264583;stop-opacity:1"
       x="310.19049"
       y="438.75522"
       id="text2447"><tspan
         sodipodi:role="line"
         id="tspan2445"
         x="310.19049"
         y="438.75522"
         style="font-style:normal;font-variant:normal;font-weight:800;font-stretch:normal;font-size:4.23333px;font-family:Objectivity;-inkscape-font-specification:'Objectivity Ultra-Bold';text-align:center;text-anchor:middle;fill:#424242;stroke-width:0.264583">#4494d5</tspan></text>
    <text
       id="text2467"
       y="479.89987"
       x="310.19049"
       style="font-weight:bold;font-size:8.46667px;line-height:1.25;font-family:Objectivity;-inkscape-font-specification:'Objectivity Bold';text-align:center;letter-spacing:0px;word-spacing:0px;text-anchor:middle;display:inline;opacity:1;fill:#424242;stroke-width:0.264583;stop-opacity:1"
       xml:space="preserve"><tspan
         style="font-style:normal;font-variant:normal;font-weight:800;font-stretch:normal;font-size:4.23333px;font-family:Objectivity;-inkscape-font-specification:'Objectivity Ultra-Bold';text-align:center;text-anchor:middle;fill:#424242;stroke-width:0.264583"
         y="479.89987"
         x="310.19049"
         id="tspan2465"
         sodipodi:role="line">#c3e7fc</tspan></text>
  </g>
  <g
     inkscape:label="Badges"
     id="layer1"
     inkscape:groupmode="layer">
    <g
       transform="matrix(0.51282027,0,0,0.51282027,-94.8908,490.60905)"
       id="g1777"
       style="opacity:1;stop-opacity:1">
      <path
         sodipodi:nodetypes="sscsss"
         inkscape:connector-curvature="0"
         style="opacity:1;fill:#fee000;fill-opacity:1;stroke:none;stroke-width:3.78485;stroke-linecap:round;stroke-linejoin:round;stroke-miterlimit:4;stroke-dasharray:none;stroke-opacity:1;stop-opacity:1"
         d="m 590.60985,-571.21163 c 5.27537,13.31791 -4.50036,17.38697 -10.08328,25.74915 -2.32467,3.48191 -3.3897,7.46282 -3.39847,11.33741 4.9e-4,11.41412 9.26704,21.21815 20.66782,20.66667 32.13573,-1.5544 22.11295,-45.55568 1.41324,-63.16868 -4.68172,-3.98358 -10.49245,0.63615 -8.59931,5.41545 z"
         id="path1526" />
      <path
         style="opacity:1;fill:#fee000;fill-opacity:1;stroke:none;stroke-width:3.78485;stroke-linecap:butt;stroke-linejoin:miter;stroke-miterlimit:4;stroke-dasharray:none;stroke-opacity:1;stop-opacity:1"
         d="m 580.96906,-456.09783 c -20.41383,-76.1855 53.95128,-76.77541 33.37937,0 -3.86579,14.42727 -29.75228,13.53649 -33.37937,0 z"
         id="path1528"
         inkscape:connector-curvature="0"
         sodipodi:nodetypes="ccc" />
      <path
         id="path1530"
         d="m 590.60985,-571.21163 c 5.27537,13.31791 -4.50036,17.38697 -10.08328,25.74915 -2.32467,3.48191 -3.3897,7.46282 -3.39847,11.33741 4.9e-4,11.41412 9.26704,21.21815 20.66782,20.66667 32.13573,-1.5544 22.11295,-45.55568 1.41324,-63.16868 -4.68172,-3.98358 -10.49245,0.63615 -8.59931,5.41545 z"
         style="opacity:1;fill:none;fill-opacity:1;stroke:#000000;stroke-width:3.78485;stroke-linecap:round;stroke-linejoin:round;stroke-miterlimit:4;stroke-dasharray:none;stroke-opacity:1;stop-opacity:1"
         inkscape:connector-curvature="0"
         sodipodi:nodetypes="sscsss" />
      <path
         sodipodi:nodetypes="cscscsc"
         inkscape:connector-curvature="0"
         id="path1532"
         d="m 597.7621,-513.45749 c -4.66425,0.0184 -8.04492,2.22475 -8.61588,4.83182 -1.30546,5.96105 3.19916,8.95566 8.71352,8.95566 6.96228,0.0564 12.20228,8.36385 10.8528,14.51386 -3.00486,13.69402 -4.66214,23.44908 -1.20864,37.31375 3.26845,-1.72321 5.82494,-4.4527 6.84401,-8.25594 10.27466,-38.34554 -3.1326,-57.39086 -16.58581,-57.35915 z"
         style="opacity:1;fill:#f6c00c;fill-opacity:1;stroke:none;stroke-width:3.63395;stroke-linejoin:round;stroke-miterlimit:4;stroke-dasharray:none;stroke-opacity:1;stop-opacity:1" />
      <path
         sodipodi:nodetypes="ccc"
         inkscape:connector-curvature="0"
         id="path1534"
         d="m 580.96906,-456.09783 c -20.41383,-76.1855 53.95128,-76.77541 33.37937,0 -3.86579,14.42727 -29.75228,13.53649 -33.37937,0 z"
         style="opacity:1;fill:none;stroke:#37474f;stroke-width:5.29166;stroke-linecap:butt;stroke-linejoin:miter;stroke-miterlimit:4;stroke-dasharray:none;stroke-opacity:1;stop-opacity:1" />
      <path
         inkscape:connector-curvature="0"
         id="path1536"
         d="m 595.18714,-578.135 c -3.31926,0.13507 -5.93775,3.48775 -4.57706,6.92287 5.04811,12.74416 -3.68375,17.02191 -9.33768,24.69391 5.19682,-0.2485 9.98698,-3.54772 11.88309,-8.74137 2.52045,-6.90388 10.15467,-10.46039 17.06014,-7.95286 -3.05796,-5.17164 -6.80575,-9.84072 -11.00586,-13.41452 -1.31674,-1.12039 -2.7238,-1.56087 -4.02263,-1.50803 z"
         style="opacity:1;fill:#fff080;fill-opacity:1;stroke:none;stroke-width:3.00351;stroke-linejoin:round;stroke-miterlimit:4;stroke-dasharray:none;stroke-opacity:1;stop-opacity:1" />
      <path
         inkscape:connector-curvature="0"
         id="path1538"
         d="m 616.70235,-548.01023 a 35.627361,35.627361 0 0 1 -24.78999,33.89483 c 1.86579,0.51651 3.8389,0.75555 5.88301,0.65668 19.5827,-0.94722 23.5106,-17.65632 18.90698,-34.55151 z"
         style="opacity:1;fill:#f6c00c;fill-opacity:1;stroke:none;stroke-width:3.78485;stroke-linecap:round;stroke-linejoin:round;stroke-miterlimit:4;stroke-dasharray:none;stroke-opacity:1;stop-opacity:1" />
      <path
         sodipodi:nodetypes="sscsss"
         inkscape:connector-curvature="0"
         style="opacity:1;fill:none;fill-opacity:1;stroke:#37474f;stroke-width:5.29166;stroke-linecap:round;stroke-linejoin:round;stroke-miterlimit:4;stroke-dasharray:none;stroke-opacity:1;stop-opacity:1"
         d="m 590.60985,-571.21163 c 5.27537,13.31791 -4.50036,17.38697 -10.08328,25.74915 -2.32467,3.48191 -3.3897,7.46282 -3.39847,11.33741 4.9e-4,11.41412 9.26704,21.21815 20.66782,20.66667 32.13573,-1.5544 22.11295,-45.55568 1.41324,-63.16868 -4.68172,-3.98358 -10.49245,0.63615 -8.59931,5.41545 z"
         id="path1540" />
    </g>
    <g
       transform="matrix(0.51281978,0,0,0.51281978,-14.834053,564.26202)"
       id="g1790"
       style="opacity:1;stop-opacity:1">
      <path
         style="opacity:1;fill:#ededed;fill-opacity:1;stroke:none;stroke-width:3.98006;stroke-linecap:round;stroke-linejoin:round;stroke-miterlimit:4;stroke-dasharray:none;stroke-opacity:1;stop-opacity:1"
         d="m 607.37344,-657.56123 13.16648,-22.805 -22.75278,-46.90908 -22.75278,46.90908 13.16648,22.805 z"
         id="path1550"
         inkscape:connector-curvature="0"
         sodipodi:nodetypes="cccccc" />
      <path
         style="opacity:1;fill:#ededed;fill-opacity:1;stroke:none;stroke-width:3.98006;stroke-linecap:round;stroke-linejoin:round;stroke-miterlimit:4;stroke-dasharray:none;stroke-opacity:1;paint-order:markers fill stroke;stop-opacity:1"
         d="m 588.20084,-657.56123 h 19.1726 v 73.89932 h -19.1726 z"
         id="path1552"
         inkscape:connector-curvature="0"
         sodipodi:nodetypes="ccccc" />
      <path
         sodipodi:nodetypes="cc"
         inkscape:connector-curvature="0"
         id="path1554"
         d="M 612.03905,-657.56123 H 583.53522"
         style="opacity:1;fill:none;stroke:#37474f;stroke-width:5.29167;stroke-linecap:round;stroke-linejoin:round;stroke-miterlimit:4;stroke-dasharray:none;stroke-opacity:1;stop-opacity:1" />
      <path
         sodipodi:nodetypes="ccccsc"
         style="display:inline;opacity:1;fill:#fdfdfd;fill-opacity:1;stroke:none;stroke-width:0.430275px;stroke-linecap:butt;stroke-linejoin:miter;stroke-opacity:1;stop-opacity:1"
         d="m 597.78714,-715.25913 v -9.8946 l -22.75278,44.7875 7.7611,13.44263 c -1.18238,-9.72598 -1.95852,-13.71574 0.48918,-18.71501 z"
         id="path1556"
         inkscape:connector-curvature="0" />
      <path
         inkscape:connector-curvature="0"
         id="path1558"
         d="m 597.78714,-681.79133 v -45.48398"
         style="opacity:1;fill:none;fill-opacity:1;stroke:#37474f;stroke-width:2.64584;stroke-linecap:round;stroke-linejoin:round;stroke-miterlimit:4;stroke-dasharray:none;stroke-opacity:1;stop-opacity:1" />
      <path
         id="path1560"
         d="m 597.78714,-727.27534 9.40304,51.5297 -10.32998,18.18419 h 10.51318 l 13.16627,-22.80461 z"
         style="opacity:1;fill:#dededf;fill-opacity:0.941176;stroke:none;stroke-width:3.98006;stroke-linecap:round;stroke-linejoin:round;stroke-miterlimit:4;stroke-dasharray:none;stroke-opacity:1;stop-opacity:1"
         inkscape:connector-curvature="0" />
      <path
         sodipodi:nodetypes="cccccc"
         inkscape:connector-curvature="0"
         id="path1562"
         d="m 607.37344,-657.56123 13.16648,-22.805 -22.75278,-46.90908 -22.75278,46.90908 13.16648,22.805 z"
         style="opacity:1;fill:none;stroke:#37474f;stroke-width:5.29167;stroke-linecap:round;stroke-linejoin:round;stroke-miterlimit:4;stroke-dasharray:none;stroke-opacity:1;stop-opacity:1" />
      <path
         id="path1564"
         d="m 601.35774,-681.7894 a 3.5706062,3.5706062 0 0 1 -3.5706,3.57062 3.5706062,3.5706062 0 0 1 -3.57062,-3.57062 3.5706062,3.5706062 0 0 1 3.57062,-3.5706 3.5706062,3.5706062 0 0 1 3.5706,3.5706 z"
         style="opacity:1;fill:#37474f;fill-opacity:1;stroke:none;stroke-width:7.14122;stroke-linecap:round;stroke-linejoin:round;stroke-miterlimit:4;stroke-dasharray:none;stroke-opacity:1;paint-order:markers fill stroke;stop-opacity:1"
         inkscape:connector-curvature="0" />
      <path
         sodipodi:nodetypes="ccccsc"
         inkscape:connector-curvature="0"
         id="path1566"
         d="m 594.95184,-657.56145 12.4216,2.2e-4 v 73.89932 h -5.87848 v -40.35142 c 0,-21.23384 -2.15499,-29.16 -6.54312,-33.54812 z"
         style="opacity:1;fill:#dededf;fill-opacity:0.941176;stroke:none;stroke-width:3.98006;stroke-linecap:round;stroke-linejoin:round;stroke-miterlimit:4;stroke-dasharray:none;stroke-opacity:1;paint-order:markers fill stroke;stop-opacity:1" />
      <path
         sodipodi:nodetypes="cccc"
         inkscape:connector-curvature="0"
         id="path1568"
         d="m 588.20084,-657.56123 h 15.23735 c -10.42284,1.36464 -13.65585,3.83326 -15.23735,18.84264 z"
         style="opacity:1;fill:#fdfdfd;fill-opacity:1;stroke:none;stroke-width:6.49285;stroke-linecap:round;stroke-linejoin:round;stroke-miterlimit:4;stroke-dasharray:none;stroke-opacity:1;paint-order:markers fill stroke;stop-opacity:1" />
      <path
         sodipodi:nodetypes="ccccc"
         inkscape:connector-curvature="0"
         id="path1570"
         d="m 588.20084,-657.56123 h 19.1726 v 73.89932 h -19.1726 z"
         style="opacity:1;fill:none;fill-opacity:1;stroke:#37474f;stroke-width:5.29167;stroke-linecap:round;stroke-linejoin:round;stroke-miterlimit:4;stroke-dasharray:none;stroke-opacity:1;paint-order:markers fill stroke;stop-opacity:1" />
    </g>
    <g
       transform="matrix(0.51282082,0,0,0.51282082,-175.84973,423.84812)"
       id="g1767"
       style="opacity:1;stop-opacity:1">
      <path
         sodipodi:nodetypes="ccccc"
         inkscape:connector-curvature="0"
         id="path1582"
         d="m 584.95551,-345.71055 c -5.17008,-4.31526 -10.79131,-13.21035 -13.00329,-19.34815 4.88678,-33.46987 24.98538,-49.46355 55.18928,-64.61781 -16.58985,25.83939 -22.26291,47.43462 -21.95398,71.74861 -5.20125,0.34654 -15.06479,3.07599 -20.23201,12.21735 z"
         style="display:inline;opacity:1;fill:#cfcfcf;fill-opacity:1;stroke:none;stroke-width:4.49792;stroke-linecap:round;stroke-linejoin:round;stroke-miterlimit:4;stroke-dasharray:none;stroke-opacity:1;stop-opacity:1" />
      <path
         sodipodi:nodetypes="cccccc"
         inkscape:connector-curvature="0"
         id="path1584"
         d="m 627.14174,-429.67657 c -12.51125,10.48873 -27.61082,42.32096 -27.06,64.43545 -5.12404,2.72819 -11.51495,6.3519 -14.82864,10.41942 l -0.29742,9.11105 c 5.16723,-9.14135 15.0306,-11.87079 20.23184,-12.21732 -0.30893,-24.31399 5.36437,-45.90921 21.95422,-71.7486 z"
         style="display:inline;opacity:1;fill:#a1a6a8;fill-opacity:1;stroke:none;stroke-width:4.49792;stroke-linecap:round;stroke-linejoin:round;stroke-miterlimit:4;stroke-dasharray:none;stroke-opacity:1;stop-opacity:1" />
      <path
         sodipodi:nodetypes="ccccccc"
         inkscape:connector-curvature="0"
         id="path1586"
         d="m 627.14174,-429.67657 c -30.20391,15.15426 -50.30262,31.14789 -55.1894,64.61776 2.21198,6.1378 7.83326,15.03292 13.00334,19.34816 l 0.16024,-4.90878 c -4.08156,-4.66911 -7.59864,-10.12194 -9.33921,-14.95167 4.68255,-32.07113 27.81991,-47.51682 50.91493,-63.39388 0.15122,-0.23771 0.29702,-0.47316 0.4501,-0.71159 z"
         style="display:inline;opacity:1;fill:#dddddd;fill-opacity:1;stroke:none;stroke-width:4.49792;stroke-linecap:round;stroke-linejoin:round;stroke-miterlimit:4;stroke-dasharray:none;stroke-opacity:1;stop-opacity:1" />
      <path
         style="display:inline;opacity:1;fill:none;fill-opacity:1;stroke:#37474f;stroke-width:3.70417;stroke-linecap:round;stroke-linejoin:round;stroke-miterlimit:4;stroke-dasharray:none;stroke-opacity:1;stop-opacity:1"
         d="m 584.67581,-333.24727 c -0.28151,-34.29376 4.48086,-65.76286 42.46569,-96.42924"
         id="path1588"
         inkscape:connector-curvature="0"
         sodipodi:nodetypes="cc" />
      <path
         style="display:inline;opacity:1;fill:none;fill-opacity:1;stroke:#37474f;stroke-width:4.49792;stroke-linecap:round;stroke-linejoin:round;stroke-miterlimit:4;stroke-dasharray:none;stroke-opacity:1;stop-opacity:1"
         d="m 584.95551,-345.71055 c -5.17008,-4.31526 -10.79131,-13.21035 -13.00329,-19.34815 4.88678,-33.46987 24.98538,-49.46355 55.18928,-64.61781 -16.58985,25.83939 -22.26291,47.43462 -21.95398,71.74861 -5.20125,0.34654 -15.06479,3.07599 -20.23201,12.21735 z"
         id="path1590"
         inkscape:connector-curvature="0"
         sodipodi:nodetypes="ccccc" />
      <path
         sodipodi:nodetypes="cc"
         style="display:inline;opacity:1;fill:none;fill-opacity:1;stroke:#37474f;stroke-width:3.70417;stroke-linecap:round;stroke-linejoin:round;stroke-miterlimit:4;stroke-dasharray:none;stroke-opacity:1;stop-opacity:1"
         d="m 573.63863,-373.68729 5.46099,7.85542"
         id="path1592"
         inkscape:connector-curvature="0" />
      <path
         sodipodi:nodetypes="cc"
         inkscape:connector-curvature="0"
         id="path1594"
         d="m 577.95759,-386.21088 4.82763,6.9248"
         style="display:inline;opacity:1;fill:none;fill-opacity:1;stroke:#37474f;stroke-width:3.70417;stroke-linecap:round;stroke-linejoin:round;stroke-miterlimit:4;stroke-dasharray:none;stroke-opacity:1;stop-opacity:1" />
      <path
         sodipodi:nodetypes="cc"
         style="display:inline;opacity:1;fill:none;fill-opacity:1;stroke:#37474f;stroke-width:3.70417;stroke-linecap:round;stroke-linejoin:round;stroke-miterlimit:4;stroke-dasharray:none;stroke-opacity:1;stop-opacity:1"
         d="m 584.31059,-397.23458 3.74479,5.62195"
         id="path1596"
         inkscape:connector-curvature="0" />
      <path
         sodipodi:nodetypes="cc"
         inkscape:connector-curvature="0"
         id="path1598"
         d="m 591.27042,-405.50895 2.73304,4.04338"
         style="display:inline;opacity:1;fill:none;fill-opacity:1;stroke:#37474f;stroke-width:3.70417;stroke-linecap:round;stroke-linejoin:round;stroke-miterlimit:4;stroke-dasharray:none;stroke-opacity:1;stop-opacity:1" />
      <path
         sodipodi:nodetypes="cc"
         inkscape:connector-curvature="0"
         id="path1600"
         d="m 605.48842,-368.99297 -8.61525,5.82992"
         style="display:inline;opacity:1;fill:none;fill-opacity:1;stroke:#37474f;stroke-width:3.70417;stroke-linecap:round;stroke-linejoin:round;stroke-miterlimit:4;stroke-dasharray:none;stroke-opacity:1;stop-opacity:1" />
      <path
         sodipodi:nodetypes="cc"
         style="display:inline;opacity:1;fill:none;fill-opacity:1;stroke:#37474f;stroke-width:3.70417;stroke-linecap:round;stroke-linejoin:round;stroke-miterlimit:4;stroke-dasharray:none;stroke-opacity:1;stop-opacity:1"
         d="m 606.73155,-379.71963 -8.46247,5.12684"
         id="path1602"
         inkscape:connector-curvature="0" />
      <path
         sodipodi:nodetypes="cc"
         inkscape:connector-curvature="0"
         id="path1604"
         d="m 609.01594,-390.34726 -7.29035,3.20268"
         style="display:inline;opacity:1;fill:none;fill-opacity:1;stroke:#37474f;stroke-width:3.70417;stroke-linecap:round;stroke-linejoin:round;stroke-miterlimit:4;stroke-dasharray:none;stroke-opacity:1;stop-opacity:1" />
      <path
         sodipodi:nodetypes="cc"
         style="display:inline;opacity:1;fill:none;fill-opacity:1;stroke:#37474f;stroke-width:3.70417;stroke-linecap:round;stroke-linejoin:round;stroke-miterlimit:4;stroke-dasharray:none;stroke-opacity:1;stop-opacity:1"
         d="m 612.45633,-401.06504 -5.3673,1.7369"
         id="path1606"
         inkscape:connector-curvature="0" />
    </g>
    <g
       transform="matrix(0.51282042,0,0,0.51282042,-253.60888,332.52012)"
       id="g1752"
       style="opacity:1;stop-opacity:1">
      <path
         inkscape:connector-curvature="0"
         id="path1614"
         d="m 587.16748,-272.15446 -17.78238,38.58153 10.11658,104.13049 h 31.13175 L 620.75,-233.57293 602.96763,-272.15446 Z"
         style="opacity:1;fill:#d69e60;fill-opacity:1;stroke:none;stroke-width:4.17941;stroke-linecap:round;stroke-linejoin:round;stroke-miterlimit:4;stroke-dasharray:none;stroke-opacity:1;stop-opacity:1" />
      <path
         style="opacity:1;fill:#b48c5d;fill-opacity:1;stroke:none;stroke-width:0.451826px;stroke-linecap:butt;stroke-linejoin:miter;stroke-opacity:1;stop-opacity:1"
         d="m 596.9109,-129.44244 h 13.72254 l 10.11656,-104.13049 -17.60585,-38.58153 3.8851,38.58153 z"
         id="path1616"
         inkscape:connector-curvature="0"
         sodipodi:nodetypes="cccccc" />
      <path
         style="opacity:1;fill:#deb280;fill-opacity:1;stroke:none;stroke-width:0.451826px;stroke-linecap:butt;stroke-linejoin:miter;stroke-opacity:1;stop-opacity:1"
         d="m 576.45542,-233.57293 h -7.07032 l 17.78238,-38.58153 h 15.97667 l 0.50989,1.58334 c -7.20634,1.66616 -12.11123,4.27109 -14.66159,9.80324 z"
         id="path1618"
         inkscape:connector-curvature="0"
         sodipodi:nodetypes="ccccccc" />
      <path
         style="opacity:1;fill:none;stroke:#37474f;stroke-width:5.29166;stroke-linecap:round;stroke-linejoin:round;stroke-miterlimit:4;stroke-dasharray:none;stroke-opacity:1;stop-opacity:1"
         d="m 587.16748,-269.53192 -17.78238,38.58152 10.11658,104.1305 h 31.13175 L 620.75,-230.9504 602.96763,-269.53192 Z"
         id="path1620"
         inkscape:connector-curvature="0" />
      <path
         style="opacity:1;fill:none;fill-opacity:1;stroke:#37474f;stroke-width:5.29166;stroke-linecap:round;stroke-linejoin:miter;stroke-miterlimit:4;stroke-dasharray:none;stroke-opacity:1;stop-opacity:1"
         d="M 569.3851,-230.9504 H 620.75"
         id="path1622"
         inkscape:connector-curvature="0" />
      <rect
         style="opacity:1;fill:#b48c5d;fill-opacity:1;stroke:#37474f;stroke-width:5.29166;stroke-linecap:round;stroke-linejoin:round;stroke-miterlimit:4;stroke-dasharray:none;stroke-opacity:1;paint-order:markers fill stroke;stop-opacity:1"
         id="rect1624"
         width="7.8822765"
         height="39.411381"
         x="595.1059"
         y="-212.12794"
         rx="3.9411383"
         ry="3.9411383" />
      <path
         style="opacity:1;fill:#37474f;fill-opacity:1;stroke:#37474f;stroke-width:5.29166;stroke-linecap:butt;stroke-linejoin:miter;stroke-miterlimit:4;stroke-dasharray:none;stroke-opacity:1;stop-opacity:1"
         d="m 591.59508,-269.53192 h 6.94494 c 0,-14.54686 -6.94494,-14.2253 -6.94494,0 z"
         id="path1626"
         inkscape:connector-curvature="0"
         sodipodi:nodetypes="ccc" />
    </g>
    <path
       style="opacity:1;stop-opacity:1"
       inkscape:connector-curvature="0"
       d=""
       id="path137" />
    <path
       style="opacity:1;stop-opacity:1"
       inkscape:connector-curvature="0"
       d=""
       id="path139" />
    <g
       id="g1097">
      <path
         style="opacity:1;fill:#4494d5;fill-opacity:1;stroke:none;stroke-width:2.71357;stroke-linecap:round;stroke-linejoin:round;stroke-miterlimit:4;stroke-dasharray:none;stroke-opacity:1;paint-order:markers fill stroke;stop-opacity:1"
         d="m 364.11366,215.61975 h 15.38003 c 2.27659,12.73775 0,34.26668 0,46.94553 h -15.38003 c 0,-12.38884 -2.37962,-34.37532 0,-46.94553 z"
         id="path1081"
         inkscape:connector-curvature="0"
         sodipodi:nodetypes="ccccc" />
      <rect
         y="202.69305"
         x="366.63129"
         height="12.926697"
         width="10.296229"
         id="rect3224"
         style="opacity:1;fill:#4494d5;fill-opacity:1;stroke:none;stroke-width:2.71357;stroke-linecap:round;stroke-linejoin:round;stroke-miterlimit:4;stroke-dasharray:none;stroke-opacity:1;paint-order:markers fill stroke;stop-opacity:1" />
      <path
         style="opacity:1;fill:#1c63bc;fill-opacity:1;stroke:none;stroke-width:0.264583px;stroke-linecap:butt;stroke-linejoin:miter;stroke-opacity:1;stop-opacity:1"
         d="m 371.10008,215.61962 c 8.06071,6.5839 3.35277,31.29696 5.02914,46.94545 h 3.36466 c 0,-12.67886 2.2766,-34.20772 0,-46.94545 z"
         id="path3228"
         inkscape:connector-curvature="0" />
      <path
         inkscape:connector-curvature="0"
         style="opacity:1;fill:#c3e7fc;fill-opacity:1;stroke:none;stroke-width:0.264583px;stroke-linecap:butt;stroke-linejoin:miter;stroke-opacity:1;stop-opacity:1"
         d="m 363.15019,236.762 c 0.25625,9.39911 0.96325,19.03323 0.96325,25.80307 h 3.36465 z"
         id="path3233" />
      <path
         sodipodi:nodetypes="ccccc"
         inkscape:connector-curvature="0"
         id="path3189"
         d="m 364.11366,215.61975 h 15.38003 c 2.27659,12.73775 0,34.26668 0,46.94553 h -15.38003 c 0,-12.38884 -2.37962,-34.37532 0,-46.94553 z"
         style="opacity:1;fill:none;fill-opacity:1;stroke:#37474f;stroke-width:2.71357;stroke-linecap:round;stroke-linejoin:round;stroke-miterlimit:4;stroke-dasharray:none;stroke-opacity:1;paint-order:markers fill stroke;stop-opacity:1" />
      <path
         style="opacity:1;fill:none;fill-opacity:1;stroke:#37474f;stroke-width:2.11667;stroke-linecap:round;stroke-linejoin:round;stroke-miterlimit:4;stroke-dasharray:none;stroke-opacity:1;paint-order:markers fill stroke;stop-opacity:1"
         d="m 369.97438,196.28287 h 3.40616 v 6.41018 h -3.40616 z"
         id="rect3204"
         inkscape:connector-curvature="0" />
      <path
         style="opacity:1;fill:#c3e7fc;fill-opacity:1;stroke:none;stroke-width:0.264583px;stroke-linecap:butt;stroke-linejoin:miter;stroke-opacity:1;stop-opacity:1"
         d="m 373.10581,204.04864 -5.10726,5.17657 5.65208,2.52527 z"
         id="path3246"
         inkscape:connector-curvature="0" />
      <path
         style="opacity:1;fill:#c3e7fc;fill-opacity:1;stroke:none;stroke-width:0.264583px;stroke-linecap:butt;stroke-linejoin:miter;stroke-opacity:1;stop-opacity:1"
         d="m 366.63126,206.9142 4.76759,-4.27075 h -4.76761 z"
         id="path3238"
         inkscape:connector-curvature="0" />
      <path
         style="opacity:1;fill:#1c63bc;fill-opacity:1;stroke:none;stroke-width:0.264583px;stroke-linecap:butt;stroke-linejoin:miter;stroke-opacity:1;stop-opacity:1"
         d="m 373.10581,204.04864 -6.4907,2.08855 1.38359,3.08802 z"
         id="path3250"
         inkscape:connector-curvature="0" />
      <path
         style="opacity:1;fill:#1c63bc;fill-opacity:1;stroke:none;stroke-width:0.264583px;stroke-linecap:butt;stroke-linejoin:miter;stroke-opacity:1;stop-opacity:1"
         d="m 372.51592,202.69304 4.41158,10.2044 v -10.2044 z"
         id="path3240"
         inkscape:connector-curvature="0" />
      <path
         style="opacity:1;fill:#c3e7fc;fill-opacity:1;stroke:none;stroke-width:0.264583px;stroke-linecap:butt;stroke-linejoin:miter;stroke-opacity:1;stop-opacity:1"
         d="m 376.9275,208.55046 -7.23612,7.06927 7.23612,-1e-4 z"
         id="path3242"
         inkscape:connector-curvature="0" />
      <path
         style="opacity:1;fill:#1c63bc;fill-opacity:1;stroke:none;stroke-width:0.264583px;stroke-linecap:butt;stroke-linejoin:miter;stroke-opacity:1;stop-opacity:1"
         d="m 371.86464,215.61963 -5.23338,-8.65587 v 8.65597 z"
         id="path3244"
         inkscape:connector-curvature="0" />
      <rect
         style="opacity:1;fill:none;fill-opacity:1;stroke:#37474f;stroke-width:2.71357;stroke-linecap:round;stroke-linejoin:round;stroke-miterlimit:4;stroke-dasharray:none;stroke-opacity:1;paint-order:markers fill stroke;stop-opacity:1"
         id="rect3206"
         width="10.296229"
         height="12.926697"
         x="366.63129"
         y="202.69305" />
      <path
         style="opacity:1;fill:#37474f;fill-opacity:1;stroke:#37474f;stroke-width:2.11667;stroke-linecap:round;stroke-linejoin:round;stroke-miterlimit:4;stroke-dasharray:none;stroke-opacity:1;paint-order:markers fill stroke;stop-opacity:1"
         d="m 371.67746,193.38586 1.70308,2.89701 h -3.40616 z"
         id="rect3208"
         inkscape:connector-curvature="0" />
    </g>
    <g
       transform="matrix(0.50810351,0,0,0.50810351,92.500503,-27.857652)"
       style="display:inline;opacity:1;stop-opacity:1"
       id="g1700-3">
      <path
         inkscape:connector-curvature="0"
         id="path997-0"
         d="m 294.37267,230.26736 a 59.841431,59.841431 0 0 1 -59.84143,59.84143 59.841431,59.841431 0 0 1 -59.84143,-59.84143 59.841431,59.841431 0 0 1 59.84143,-59.84143 59.841431,59.841431 0 0 1 59.84143,59.84143 z"
         style="fill:#ffffff;fill-opacity:1;stroke:none;stroke-width:2.4474;stroke-linejoin:round;stroke-miterlimit:4;stroke-dasharray:none;stroke-opacity:1;paint-order:markers fill stroke" />
      <g
         transform="matrix(1.5367407,0,0,1.5367407,26.288734,19.863448)"
         id="g1015-7"
         clip-path="url(#clipPath1019-6)">
        <path
           sodipodi:nodetypes="sscsss"
           inkscape:connector-curvature="0"
           style="opacity:1;fill:#fee000;fill-opacity:1;stroke:none;stroke-width:2.46291;stroke-linecap:round;stroke-linejoin:round;stroke-miterlimit:4;stroke-dasharray:none;stroke-opacity:1"
           d="m 130.83874,117.38958 c 3.43283,8.66634 -2.92851,11.31419 -6.56147,16.75569 -1.51273,2.26578 -2.20577,4.85627 -2.21148,7.37757 3.2e-4,7.42749 6.03032,13.80724 13.44913,13.44838 20.91161,-1.01149 14.38951,-29.64435 0.91963,-41.10562 -3.04652,-2.59223 -6.82773,0.41396 -5.59581,3.52398 z"
           id="path999-8" />
        <path
           style="fill:#fee000;fill-opacity:1;stroke:none;stroke-width:2.46291;stroke-linecap:butt;stroke-linejoin:miter;stroke-miterlimit:4;stroke-dasharray:none;stroke-opacity:1"
           d="m 124.56521,192.29734 c -13.28385,-49.57603 35.1076,-49.9599 21.72089,0 -2.51558,9.38823 -19.36064,8.80857 -21.72089,0 z"
           id="path1001-6"
           inkscape:connector-curvature="0"
           sodipodi:nodetypes="ccc" />
        <path
           id="path1003-8"
           d="m 130.83874,117.38958 c 3.43283,8.66634 -2.92851,11.31419 -6.56147,16.75569 -1.51273,2.26578 -2.20577,4.85627 -2.21148,7.37757 3.2e-4,7.42749 6.03032,13.80724 13.44913,13.44838 20.91161,-1.01149 14.38951,-29.64435 0.91963,-41.10562 -3.04652,-2.59223 -6.82773,0.41396 -5.59581,3.52398 z"
           style="opacity:1;fill:none;fill-opacity:1;stroke:#000000;stroke-width:2.46291;stroke-linecap:round;stroke-linejoin:round;stroke-miterlimit:4;stroke-dasharray:none;stroke-opacity:1"
           inkscape:connector-curvature="0"
           sodipodi:nodetypes="sscsss" />
        <path
           sodipodi:nodetypes="cscscsc"
           inkscape:connector-curvature="0"
           id="path1005-8"
           d="m 135.49291,154.97181 c -3.03516,0.012 -5.23505,1.44771 -5.60659,3.1442 -0.8495,3.87902 2.08178,5.8277 5.67013,5.8277 4.53055,0.0367 7.94036,5.44259 7.06222,9.44457 -1.95535,8.91108 -3.03379,15.25897 -0.7865,24.2811 2.12687,-1.12134 3.79045,-2.8975 4.45359,-5.37237 6.68601,-24.95251 -2.03847,-37.34583 -10.79285,-37.3252 z"
           style="fill:#f6c00c;fill-opacity:1;stroke:none;stroke-width:2.36471;stroke-linejoin:round;stroke-miterlimit:4;stroke-dasharray:none;stroke-opacity:1" />
        <path
           sodipodi:nodetypes="ccc"
           inkscape:connector-curvature="0"
           id="path1007-4"
           d="m 124.56521,192.29734 c -13.28385,-49.57603 35.1076,-49.9599 21.72089,0 -2.51558,9.38823 -19.36064,8.80857 -21.72089,0 z"
           style="fill:none;stroke:#37474f;stroke-width:3.44343;stroke-linecap:butt;stroke-linejoin:miter;stroke-miterlimit:4;stroke-dasharray:none;stroke-opacity:1" />
        <path
           inkscape:connector-curvature="0"
           id="path1009-3"
           d="m 133.81731,112.88435 c -2.15993,0.0879 -3.86386,2.26958 -2.97842,4.50491 3.28495,8.29298 -2.39712,11.07663 -6.07629,16.06901 3.38172,-0.1617 6.49881,-2.3086 7.73266,-5.68825 1.64013,-4.49255 6.60793,-6.80687 11.10151,-5.17515 -1.9899,-3.36533 -4.42869,-6.40363 -7.16182,-8.7292 -0.85684,-0.72907 -1.77245,-1.0157 -2.61764,-0.98132 z"
           style="fill:#fff080;fill-opacity:1;stroke:none;stroke-width:1.95447;stroke-linejoin:round;stroke-miterlimit:4;stroke-dasharray:none;stroke-opacity:1" />
        <path
           inkscape:connector-curvature="0"
           id="path1011-1"
           d="m 147.81786,132.48738 a 23.183717,23.183717 0 0 1 -16.13154,22.05631 c 1.21412,0.33611 2.49808,0.49166 3.82824,0.42732 12.74301,-0.61638 15.299,-11.48946 12.3033,-22.48363 z"
           style="opacity:1;fill:#f6c00c;fill-opacity:1;stroke:none;stroke-width:2.46291;stroke-linecap:round;stroke-linejoin:round;stroke-miterlimit:4;stroke-dasharray:none;stroke-opacity:1" />
        <path
           sodipodi:nodetypes="sscsss"
           inkscape:connector-curvature="0"
           style="opacity:1;fill:none;fill-opacity:1;stroke:#37474f;stroke-width:3.44343;stroke-linecap:round;stroke-linejoin:round;stroke-miterlimit:4;stroke-dasharray:none;stroke-opacity:1"
           d="m 130.83874,117.38958 c 3.43283,8.66634 -2.92851,11.31419 -6.56147,16.75569 -1.51273,2.26578 -2.20577,4.85627 -2.21148,7.37757 3.2e-4,7.42749 6.03032,13.80724 13.44913,13.44838 20.91161,-1.01149 14.38951,-29.64435 0.91963,-41.10562 -3.04652,-2.59223 -6.82773,0.41396 -5.59581,3.52398 z"
           id="path1013-4" />
      </g>
      <path
         style="fill:none;fill-opacity:1;stroke:#37474f;stroke-width:5.29167;stroke-linejoin:round;stroke-miterlimit:4;stroke-dasharray:none;stroke-opacity:1;paint-order:markers fill stroke"
         d="m 294.37267,230.26736 a 59.841431,59.841431 0 0 1 -59.84143,59.84143 59.841431,59.841431 0 0 1 -59.84143,-59.84143 59.841431,59.841431 0 0 1 59.84143,-59.84143 59.841431,59.841431 0 0 1 59.84143,59.84143 z"
         id="path1023-9"
         inkscape:connector-curvature="0" />
    </g>
    <g
       id="g1447-2"
       style="display:inline;opacity:1;stop-opacity:1"
       transform="matrix(0.50810351,0,0,0.50810351,85.633596,-67.315827)">
      <path
         style="display:inline;opacity:1;fill:#ffffff;fill-opacity:1;stroke:none;stroke-width:5.29167;stroke-linejoin:round;stroke-miterlimit:4;stroke-dasharray:none;stroke-opacity:1;paint-order:markers fill stroke;stop-opacity:1"
         d="m 465.44662,307.92511 a 59.841431,59.841431 0 0 1 -59.84143,59.84143 59.841431,59.841431 0 0 1 -59.84143,-59.84143 59.841431,59.841431 0 0 1 59.84143,-59.84143 59.841431,59.841431 0 0 1 59.84143,59.84143 z"
         id="path1206-3-9"
         inkscape:connector-curvature="0" />
      <g
         style="opacity:1;stop-opacity:1"
         id="g1204-6-3"
         transform="matrix(1.6262385,0,0,1.6262385,213.05686,-18.06032)"
         clip-path="url(#clipPath1210-1-2)">
        <path
           style="fill:#ededed;fill-opacity:1;stroke:none;stroke-width:2.4474;stroke-linecap:round;stroke-linejoin:round;stroke-miterlimit:4;stroke-dasharray:none;stroke-opacity:1"
           d="m 124.29581,220.87761 8.09628,-14.02316 -13.99105,-28.84514 -13.99105,28.84514 8.09628,14.02316 z"
           id="path1182-1-1"
           inkscape:connector-curvature="0"
           sodipodi:nodetypes="cccccc" />
        <path
           style="fill:#ededed;fill-opacity:1;stroke:none;stroke-width:2.4474;stroke-linecap:round;stroke-linejoin:round;stroke-miterlimit:4;stroke-dasharray:none;stroke-opacity:1;paint-order:markers fill stroke"
           d="m 112.50627,220.87761 h 11.78954 v 45.44187 h -11.78954 z"
           id="path1184-2-9"
           inkscape:connector-curvature="0"
           sodipodi:nodetypes="ccccc" />
        <path
           sodipodi:nodetypes="cc"
           inkscape:connector-curvature="0"
           id="path1186-9-4"
           d="M 127.16477,220.87761 H 109.63731"
           style="fill:none;stroke:#37474f;stroke-width:3.25393;stroke-linecap:round;stroke-linejoin:round;stroke-miterlimit:4;stroke-dasharray:none;stroke-opacity:1" />
        <path
           sodipodi:nodetypes="ccccsc"
           style="display:inline;fill:#fdfdfd;fill-opacity:1;stroke:none;stroke-width:0.264583px;stroke-linecap:butt;stroke-linejoin:miter;stroke-opacity:1"
           d="m 118.40104,185.39825 v -6.08435 l -13.99105,27.54055 4.77243,8.26609 c -0.72707,-5.98066 -1.20433,-8.43403 0.3008,-11.50816 z"
           id="path1188-3-7"
           inkscape:connector-curvature="0" />
        <path
           inkscape:connector-curvature="0"
           id="path1190-1-8"
           d="M 118.40104,205.97813 V 178.00931"
           style="fill:none;fill-opacity:1;stroke:#37474f;stroke-width:1.62697;stroke-linecap:round;stroke-linejoin:round;stroke-miterlimit:4;stroke-dasharray:none;stroke-opacity:1" />
        <path
           id="path1192-9-4"
           transform="scale(0.26458333)"
           d="m 447.5,672.79102 21.85352,119.75976 -24.00782,42.26172 h 24.4336 l 30.59961,-53 z"
           style="fill:#dededf;fill-opacity:0.941176;stroke:none;stroke-width:9.25002;stroke-linecap:round;stroke-linejoin:round;stroke-miterlimit:4;stroke-dasharray:none;stroke-opacity:1"
           inkscape:connector-curvature="0" />
        <path
           sodipodi:nodetypes="cccccc"
           inkscape:connector-curvature="0"
           id="path1194-4-5"
           d="m 124.29581,220.87761 8.09628,-14.02316 -13.99105,-28.84514 -13.99105,28.84514 8.09628,14.02316 z"
           style="fill:none;stroke:#37474f;stroke-width:3.25393;stroke-linecap:round;stroke-linejoin:round;stroke-miterlimit:4;stroke-dasharray:none;stroke-opacity:1" />
        <path
           id="path1196-7-0"
           d="m 120.59666,205.97932 a 2.1956227,2.1956227 0 0 1 -2.19562,2.19563 2.1956227,2.1956227 0 0 1 -2.19563,-2.19563 2.1956227,2.1956227 0 0 1 2.19563,-2.19562 2.1956227,2.1956227 0 0 1 2.19562,2.19562 z"
           style="fill:#37474f;fill-opacity:1;stroke:none;stroke-width:4.39125;stroke-linecap:round;stroke-linejoin:round;stroke-miterlimit:4;stroke-dasharray:none;stroke-opacity:1;paint-order:markers fill stroke"
           inkscape:connector-curvature="0" />
        <path
           sodipodi:nodetypes="ccccsc"
           inkscape:connector-curvature="0"
           id="path1198-8-3"
           d="m 116.65757,220.87747 7.63824,1.4e-4 v 45.44187 h -3.61477 v -24.81273 c 0,-13.05703 -1.32514,-17.93095 -4.02347,-20.62928 z"
           style="fill:#dededf;fill-opacity:0.941176;stroke:none;stroke-width:2.4474;stroke-linecap:round;stroke-linejoin:round;stroke-miterlimit:4;stroke-dasharray:none;stroke-opacity:1;paint-order:markers fill stroke" />
        <path
           sodipodi:nodetypes="cccc"
           inkscape:connector-curvature="0"
           id="path1200-4-6"
           d="m 112.50627,220.87761 h 9.36969 c -6.40917,0.83914 -8.3972,2.35713 -9.36969,11.58664 z"
           style="fill:#fdfdfd;fill-opacity:1;stroke:none;stroke-width:3.99256;stroke-linecap:round;stroke-linejoin:round;stroke-miterlimit:4;stroke-dasharray:none;stroke-opacity:1;paint-order:markers fill stroke" />
        <path
           sodipodi:nodetypes="ccccc"
           inkscape:connector-curvature="0"
           id="path1202-5-1"
           d="m 112.50627,220.87761 h 11.78954 v 45.44187 h -11.78954 z"
           style="fill:none;fill-opacity:1;stroke:#37474f;stroke-width:3.25393;stroke-linecap:round;stroke-linejoin:round;stroke-miterlimit:4;stroke-dasharray:none;stroke-opacity:1;paint-order:markers fill stroke" />
      </g>
      <path
         inkscape:connector-curvature="0"
         id="path1178-0-0"
         d="m 465.44662,307.92511 a 59.841431,59.841431 0 0 1 -59.84143,59.84143 59.841431,59.841431 0 0 1 -59.84143,-59.84143 59.841431,59.841431 0 0 1 59.84143,-59.84143 59.841431,59.841431 0 0 1 59.84143,59.84143 z"
         style="display:inline;opacity:1;fill:none;fill-opacity:1;stroke:#37474f;stroke-width:5.29167;stroke-linejoin:round;stroke-miterlimit:4;stroke-dasharray:none;stroke-opacity:1;paint-order:markers fill stroke;stop-opacity:1" />
    </g>
    <g
       transform="matrix(0.79999997,0,0,0.79999997,-47.735175,219.49523)"
       id="g1950"
       style="opacity:1;stop-opacity:1">
      <path
         style="display:inline;opacity:1;fill:#ffffff;fill-opacity:1;stroke:none;stroke-width:3.3609;stroke-linejoin:round;stroke-miterlimit:4;stroke-dasharray:none;stroke-opacity:1;paint-order:markers fill stroke;stop-opacity:1"
         d="m 262.18888,-162.94154 a 38.007053,38.007053 0 0 1 -38.00705,38.00705 38.007053,38.007053 0 0 1 -38.00705,-38.00705 38.007053,38.007053 0 0 1 38.00705,-38.00705 38.007053,38.007053 0 0 1 38.00705,38.00705 z"
         id="path1149-5"
         inkscape:connector-curvature="0" />
      <path
         inkscape:connector-curvature="0"
         id="path1168-9"
         d="m 262.18888,-162.94154 a 38.007053,38.007053 0 0 1 -38.00705,38.00705 38.007053,38.007053 0 0 1 -38.00705,-38.00705 38.007053,38.007053 0 0 1 38.00705,-38.00705 38.007053,38.007053 0 0 1 38.00705,38.00705 z"
         style="display:inline;opacity:1;fill:none;fill-opacity:1;stroke:#37474f;stroke-width:3.3609;stroke-linejoin:round;stroke-miterlimit:4;stroke-dasharray:none;stroke-opacity:1;paint-order:markers fill stroke;stop-opacity:1" />
      <g
         style="opacity:1;stop-opacity:1"
         id="g1509-7"
         transform="matrix(0.63512941,0,0,0.63512941,178.05115,-309.19111)">
        <path
           sodipodi:nodetypes="ccccc"
           inkscape:connector-curvature="0"
           id="path1479-7"
           d="m 59.800308,276.19149 c -5.170079,-4.31526 -10.791312,-13.21035 -13.003288,-19.34815 4.886777,-33.46987 24.985376,-49.46355 55.18928,-64.61781 -16.589848,25.83939 -22.262914,47.43462 -21.953982,71.74861 -5.201243,0.34654 -15.064786,3.07599 -20.23201,12.21735 z"
           style="display:inline;opacity:1;fill:#cfcfcf;fill-opacity:1;stroke:none;stroke-width:4.49792;stroke-linecap:round;stroke-linejoin:round;stroke-miterlimit:4;stroke-dasharray:none;stroke-opacity:1;stop-opacity:1" />
        <path
           sodipodi:nodetypes="cccccc"
           inkscape:connector-curvature="0"
           id="path1482-6"
           transform="scale(0.26458333)"
           d="m 385.46094,726.52148 c -47.28663,39.64243 -104.35586,159.95322 -102.27401,243.53556 -19.36644,10.31127 -43.52106,24.00718 -56.04525,39.38046 l -1.1241,34.4355 c 19.52966,-34.55 56.80855,-44.86598 76.4668,-46.17573 -1.16762,-91.8954 20.27477,-173.5151 82.97656,-271.17579 z"
           style="display:inline;opacity:1;fill:#a1a6a8;fill-opacity:1;stroke:none;stroke-width:17;stroke-linecap:round;stroke-linejoin:round;stroke-miterlimit:4;stroke-dasharray:none;stroke-opacity:1;stop-opacity:1" />
        <path
           sodipodi:nodetypes="ccccccc"
           inkscape:connector-curvature="0"
           id="path1487-7"
           transform="scale(0.26458333)"
           d="M 385.46094,726.52148 C 271.30445,783.79743 195.3408,844.24579 176.87109,970.74609 c 8.36023,23.19799 29.60603,56.81731 49.14649,73.12691 l 0.60563,-18.5529 c -15.42637,-17.647 -28.7193,-38.25615 -35.29781,-56.51023 17.69784,-121.21371 105.1461,-179.59112 192.43437,-239.59893 0.57155,-0.89843 1.1226,-1.78831 1.70117,-2.68946 z"
           style="display:inline;opacity:1;fill:#dddddd;fill-opacity:1;stroke:none;stroke-width:17;stroke-linecap:round;stroke-linejoin:round;stroke-miterlimit:4;stroke-dasharray:none;stroke-opacity:1;stop-opacity:1" />
        <path
           style="display:inline;opacity:1;fill:none;fill-opacity:1;stroke:#37474f;stroke-width:3.70417;stroke-linecap:round;stroke-linejoin:round;stroke-miterlimit:4;stroke-dasharray:none;stroke-opacity:1;stop-opacity:1"
           d="m 59.520611,288.65477 c -0.281509,-34.29376 4.48086,-65.76286 42.465689,-96.42924"
           id="path1416-3"
           inkscape:connector-curvature="0"
           sodipodi:nodetypes="cc" />
        <path
           style="display:inline;opacity:1;fill:none;fill-opacity:1;stroke:#37474f;stroke-width:4.49792;stroke-linecap:round;stroke-linejoin:round;stroke-miterlimit:4;stroke-dasharray:none;stroke-opacity:1;stop-opacity:1"
           d="m 59.800308,276.19149 c -5.170079,-4.31526 -10.791312,-13.21035 -13.003288,-19.34815 4.886777,-33.46987 24.985376,-49.46355 55.18928,-64.61781 -16.589848,25.83939 -22.262914,47.43462 -21.953982,71.74861 -5.201243,0.34654 -15.064786,3.07599 -20.23201,12.21735 z"
           id="path1418-6"
           inkscape:connector-curvature="0"
           sodipodi:nodetypes="ccccc" />
        <path
           sodipodi:nodetypes="cc"
           style="display:inline;opacity:1;fill:none;fill-opacity:1;stroke:#37474f;stroke-width:3.70417;stroke-linecap:round;stroke-linejoin:round;stroke-miterlimit:4;stroke-dasharray:none;stroke-opacity:1;stop-opacity:1"
           d="m 48.483433,248.21475 5.460988,7.85542"
           id="path1420-5"
           inkscape:connector-curvature="0" />
        <path
           sodipodi:nodetypes="cc"
           inkscape:connector-curvature="0"
           id="path1422-6"
           d="m 52.802389,235.69116 4.827634,6.9248"
           style="display:inline;opacity:1;fill:none;fill-opacity:1;stroke:#37474f;stroke-width:3.70417;stroke-linecap:round;stroke-linejoin:round;stroke-miterlimit:4;stroke-dasharray:none;stroke-opacity:1;stop-opacity:1" />
        <path
           sodipodi:nodetypes="cc"
           style="display:inline;opacity:1;fill:none;fill-opacity:1;stroke:#37474f;stroke-width:3.70417;stroke-linecap:round;stroke-linejoin:round;stroke-miterlimit:4;stroke-dasharray:none;stroke-opacity:1;stop-opacity:1"
           d="m 59.155393,224.66746 3.744785,5.62195"
           id="path1424-3"
           inkscape:connector-curvature="0" />
        <path
           sodipodi:nodetypes="cc"
           inkscape:connector-curvature="0"
           id="path1426-9"
           d="m 66.115218,216.39309 2.733043,4.04338"
           style="display:inline;opacity:1;fill:none;fill-opacity:1;stroke:#37474f;stroke-width:3.70417;stroke-linecap:round;stroke-linejoin:round;stroke-miterlimit:4;stroke-dasharray:none;stroke-opacity:1;stop-opacity:1" />
        <path
           sodipodi:nodetypes="cc"
           inkscape:connector-curvature="0"
           id="path1430-4"
           d="m 80.333216,252.90907 -8.615248,5.82992"
           style="display:inline;opacity:1;fill:none;fill-opacity:1;stroke:#37474f;stroke-width:3.70417;stroke-linecap:round;stroke-linejoin:round;stroke-miterlimit:4;stroke-dasharray:none;stroke-opacity:1;stop-opacity:1" />
        <path
           sodipodi:nodetypes="cc"
           style="display:inline;opacity:1;fill:none;fill-opacity:1;stroke:#37474f;stroke-width:3.70417;stroke-linecap:round;stroke-linejoin:round;stroke-miterlimit:4;stroke-dasharray:none;stroke-opacity:1;stop-opacity:1"
           d="m 81.576354,242.18241 -8.46247,5.12684"
           id="path1432-8"
           inkscape:connector-curvature="0" />
        <path
           sodipodi:nodetypes="cc"
           inkscape:connector-curvature="0"
           id="path1434-1"
           d="m 83.86074,231.55478 -7.290352,3.20268"
           style="display:inline;opacity:1;fill:none;fill-opacity:1;stroke:#37474f;stroke-width:3.70417;stroke-linecap:round;stroke-linejoin:round;stroke-miterlimit:4;stroke-dasharray:none;stroke-opacity:1;stop-opacity:1" />
        <path
           sodipodi:nodetypes="cc"
           style="display:inline;opacity:1;fill:none;fill-opacity:1;stroke:#37474f;stroke-width:3.70417;stroke-linecap:round;stroke-linejoin:round;stroke-miterlimit:4;stroke-dasharray:none;stroke-opacity:1;stop-opacity:1"
           d="m 87.301128,220.837 -5.367294,1.7369"
           id="path1436-2"
           inkscape:connector-curvature="0" />
      </g>
    </g>
    <g
       transform="matrix(0.79999991,0,0,0.79999991,-44.613063,221.4796)"
       id="g1971"
       style="opacity:1;stop-opacity:1">
      <path
         inkscape:connector-curvature="0"
         id="path1932"
         d="m 158.24017,-165.42216 a 38.007053,38.007053 0 0 1 -38.00705,38.00705 38.007053,38.007053 0 0 1 -38.00705,-38.00705 38.007053,38.007053 0 0 1 38.00705,-38.00705 38.007053,38.007053 0 0 1 38.00705,38.00705 z"
         style="display:inline;opacity:1;fill:#ffffff;fill-opacity:1;stroke:none;stroke-width:3.3609;stroke-linejoin:round;stroke-miterlimit:4;stroke-dasharray:none;stroke-opacity:1;paint-order:markers fill stroke;stop-opacity:1" />
      <g
         style="opacity:1;stop-opacity:1"
         id="g1832"
         clip-path="url(#clipPath1856)"
         transform="matrix(0.63512939,0,0,0.63512939,-122.01763,-11.679863)">
        <path
           inkscape:connector-curvature="0"
           id="path1078-3"
           d="m 373.48106,-272.15446 -17.78238,38.58153 10.11658,104.13049 h 31.13175 l 10.11657,-104.13049 -17.78237,-38.58153 z"
           style="opacity:1;fill:#d69e60;fill-opacity:1;stroke:none;stroke-width:4.17941;stroke-linecap:round;stroke-linejoin:round;stroke-miterlimit:4;stroke-dasharray:none;stroke-opacity:1;stop-opacity:1" />
        <path
           style="opacity:1;fill:#b48c5d;fill-opacity:1;stroke:none;stroke-width:0.451826px;stroke-linecap:butt;stroke-linejoin:miter;stroke-opacity:1;stop-opacity:1"
           d="m 383.22448,-129.44244 h 13.72254 l 10.11656,-104.13049 -17.60585,-38.58153 3.8851,38.58153 z"
           id="path1080-0"
           inkscape:connector-curvature="0"
           sodipodi:nodetypes="cccccc" />
        <path
           style="opacity:1;fill:#deb280;fill-opacity:1;stroke:none;stroke-width:0.451826px;stroke-linecap:butt;stroke-linejoin:miter;stroke-opacity:1;stop-opacity:1"
           d="m 362.769,-233.57293 h -7.07032 l 17.78238,-38.58153 h 15.97667 l 0.50989,1.58334 c -7.20634,1.66616 -12.11123,4.27109 -14.66159,9.80324 z"
           id="path1082-4"
           inkscape:connector-curvature="0"
           sodipodi:nodetypes="ccccccc" />
        <path
           style="opacity:1;fill:none;stroke:#37474f;stroke-width:5.29166;stroke-linecap:round;stroke-linejoin:round;stroke-miterlimit:4;stroke-dasharray:none;stroke-opacity:1;stop-opacity:1"
           d="m 373.48106,-269.53192 -17.78238,38.58152 10.11658,104.1305 h 31.13175 l 10.11657,-104.1305 -17.78237,-38.58152 z"
           id="path1084-4"
           inkscape:connector-curvature="0" />
        <path
           style="opacity:1;fill:none;fill-opacity:1;stroke:#37474f;stroke-width:5.29166;stroke-linecap:round;stroke-linejoin:miter;stroke-miterlimit:4;stroke-dasharray:none;stroke-opacity:1;stop-opacity:1"
           d="m 355.69868,-230.9504 h 51.3649"
           id="path1086-4"
           inkscape:connector-curvature="0" />
        <rect
           style="opacity:1;fill:#b48c5d;fill-opacity:1;stroke:#37474f;stroke-width:5.29166;stroke-linecap:round;stroke-linejoin:round;stroke-miterlimit:4;stroke-dasharray:none;stroke-opacity:1;paint-order:markers fill stroke;stop-opacity:1"
           id="rect1088-4"
           width="7.8822765"
           height="39.411381"
           x="381.41953"
           y="-212.12794"
           rx="3.9411383"
           ry="3.9411383" />
        <path
           style="opacity:1;fill:#37474f;fill-opacity:1;stroke:#37474f;stroke-width:5.29166;stroke-linecap:butt;stroke-linejoin:miter;stroke-miterlimit:4;stroke-dasharray:none;stroke-opacity:1;stop-opacity:1"
           d="m 377.90866,-269.53192 h 6.94494 c 0,-14.54686 -6.94494,-14.2253 -6.94494,0 z"
           id="path1090-7"
           inkscape:connector-curvature="0"
           sodipodi:nodetypes="ccc" />
      </g>
      <path
         inkscape:connector-curvature="0"
         id="path1679-6"
         d="m 158.21579,-165.42201 a 38.007052,38.007052 0 0 1 -38.00706,38.00705 38.007052,38.007052 0 0 1 -38.007046,-38.00705 38.007052,38.007052 0 0 1 38.007046,-38.00705 38.007052,38.007052 0 0 1 38.00706,38.00705 z"
         style="display:inline;opacity:1;fill:none;fill-opacity:1;stroke:#37474f;stroke-width:3.3609;stroke-linejoin:round;stroke-miterlimit:4;stroke-dasharray:none;stroke-opacity:1;paint-order:markers fill stroke;stop-opacity:1" />
    </g>
    <g
       id="g1185">
      <path
         inkscape:connector-curvature="0"
         id="path1973"
         d="M 402.18504,89.142002 A 30.405641,30.405641 0 0 1 371.7794,119.54764 30.405641,30.405641 0 0 1 341.37376,89.142002 30.405641,30.405641 0 0 1 371.7794,58.736362 30.405641,30.405641 0 0 1 402.18504,89.142002 Z"
         style="display:inline;opacity:1;fill:#ffffff;fill-opacity:1;stroke:none;stroke-width:2.68872;stroke-linejoin:round;stroke-miterlimit:4;stroke-dasharray:none;stroke-opacity:1;paint-order:markers fill stroke;stop-opacity:1" />
      <g
         clip-path="url(#clipPath1164)"
         transform="translate(0,-122.59844)"
         id="g1160">
        <path
           style="opacity:1;fill:#4494d5;fill-opacity:1;stroke:none;stroke-width:2.71357;stroke-linecap:round;stroke-linejoin:round;stroke-miterlimit:4;stroke-dasharray:none;stroke-opacity:1;paint-order:markers fill stroke;stop-opacity:1"
           d="m 364.11366,215.61975 h 15.38003 c 2.27659,12.73775 0,34.26668 0,46.94553 h -15.38003 c 0,-12.38884 -2.37962,-34.37532 0,-46.94553 z"
           id="path1132"
           inkscape:connector-curvature="0"
           sodipodi:nodetypes="ccccc" />
        <rect
           y="202.69305"
           x="366.63129"
           height="12.926697"
           width="10.296229"
           id="rect1134"
           style="opacity:1;fill:#4494d5;fill-opacity:1;stroke:none;stroke-width:2.71357;stroke-linecap:round;stroke-linejoin:round;stroke-miterlimit:4;stroke-dasharray:none;stroke-opacity:1;paint-order:markers fill stroke;stop-opacity:1" />
        <path
           style="opacity:1;fill:#1c63bc;fill-opacity:1;stroke:none;stroke-width:0.264583px;stroke-linecap:butt;stroke-linejoin:miter;stroke-opacity:1;stop-opacity:1"
           d="m 371.10008,215.61962 c 8.06071,6.5839 3.35277,31.29696 5.02914,46.94545 h 3.36466 c 0,-12.67886 2.2766,-34.20772 0,-46.94545 z"
           id="path1136"
           inkscape:connector-curvature="0" />
        <path
           inkscape:connector-curvature="0"
           style="opacity:1;fill:#c3e7fc;fill-opacity:1;stroke:none;stroke-width:0.264583px;stroke-linecap:butt;stroke-linejoin:miter;stroke-opacity:1;stop-opacity:1"
           d="m 363.15019,236.762 c 0.25625,9.39911 0.96325,19.03323 0.96325,25.80307 h 3.36465 z"
           id="path1138" />
        <path
           sodipodi:nodetypes="ccccc"
           inkscape:connector-curvature="0"
           id="path1140"
           d="m 364.11366,215.61975 h 15.38003 c 2.27659,12.73775 0,34.26668 0,46.94553 h -15.38003 c 0,-12.38884 -2.37962,-34.37532 0,-46.94553 z"
           style="opacity:1;fill:none;fill-opacity:1;stroke:#37474f;stroke-width:2.71357;stroke-linecap:round;stroke-linejoin:round;stroke-miterlimit:4;stroke-dasharray:none;stroke-opacity:1;paint-order:markers fill stroke;stop-opacity:1" />
        <path
           style="opacity:1;fill:none;fill-opacity:1;stroke:#37474f;stroke-width:2.11667;stroke-linecap:round;stroke-linejoin:round;stroke-miterlimit:4;stroke-dasharray:none;stroke-opacity:1;paint-order:markers fill stroke;stop-opacity:1"
           d="m 369.97438,196.28287 h 3.40616 v 6.41018 h -3.40616 z"
           id="path1142"
           inkscape:connector-curvature="0" />
        <path
           style="opacity:1;fill:#c3e7fc;fill-opacity:1;stroke:none;stroke-width:0.264583px;stroke-linecap:butt;stroke-linejoin:miter;stroke-opacity:1;stop-opacity:1"
           d="m 373.10581,204.04864 -5.10726,5.17657 5.65208,2.52527 z"
           id="path1144"
           inkscape:connector-curvature="0" />
        <path
           style="opacity:1;fill:#c3e7fc;fill-opacity:1;stroke:none;stroke-width:0.264583px;stroke-linecap:butt;stroke-linejoin:miter;stroke-opacity:1;stop-opacity:1"
           d="m 366.63126,206.9142 4.76759,-4.27075 h -4.76761 z"
           id="path1146"
           inkscape:connector-curvature="0" />
        <path
           style="opacity:1;fill:#1c63bc;fill-opacity:1;stroke:none;stroke-width:0.264583px;stroke-linecap:butt;stroke-linejoin:miter;stroke-opacity:1;stop-opacity:1"
           d="m 373.10581,204.04864 -6.4907,2.08855 1.38359,3.08802 z"
           id="path1148"
           inkscape:connector-curvature="0" />
        <path
           style="opacity:1;fill:#1c63bc;fill-opacity:1;stroke:none;stroke-width:0.264583px;stroke-linecap:butt;stroke-linejoin:miter;stroke-opacity:1;stop-opacity:1"
           d="m 372.51592,202.69304 4.41158,10.2044 v -10.2044 z"
           id="path1150"
           inkscape:connector-curvature="0" />
        <path
           style="opacity:1;fill:#c3e7fc;fill-opacity:1;stroke:none;stroke-width:0.264583px;stroke-linecap:butt;stroke-linejoin:miter;stroke-opacity:1;stop-opacity:1"
           d="m 376.9275,208.55046 -7.23612,7.06927 7.23612,-1e-4 z"
           id="path1152"
           inkscape:connector-curvature="0" />
        <path
           style="opacity:1;fill:#1c63bc;fill-opacity:1;stroke:none;stroke-width:0.264583px;stroke-linecap:butt;stroke-linejoin:miter;stroke-opacity:1;stop-opacity:1"
           d="m 371.86464,215.61963 -5.23338,-8.65587 v 8.65597 z"
           id="path1154"
           inkscape:connector-curvature="0" />
        <rect
           style="opacity:1;fill:none;fill-opacity:1;stroke:#37474f;stroke-width:2.71357;stroke-linecap:round;stroke-linejoin:round;stroke-miterlimit:4;stroke-dasharray:none;stroke-opacity:1;paint-order:markers fill stroke;stop-opacity:1"
           id="rect1156"
           width="10.296229"
           height="12.926697"
           x="366.63129"
           y="202.69305" />
        <path
           style="opacity:1;fill:#37474f;fill-opacity:1;stroke:#37474f;stroke-width:2.11667;stroke-linecap:round;stroke-linejoin:round;stroke-miterlimit:4;stroke-dasharray:none;stroke-opacity:1;paint-order:markers fill stroke;stop-opacity:1"
           d="m 371.67746,193.38586 1.70308,2.89701 h -3.40616 z"
           id="path1158"
           inkscape:connector-curvature="0" />
      </g>
      <path
         style="display:inline;opacity:1;fill:none;fill-opacity:1;stroke:#37474f;stroke-width:2.68872;stroke-linejoin:round;stroke-miterlimit:4;stroke-dasharray:none;stroke-opacity:1;paint-order:markers fill stroke;stop-opacity:1"
         d="M 402.18504,89.142002 A 30.405641,30.405641 0 0 1 371.7794,119.54764 30.405641,30.405641 0 0 1 341.37376,89.142002 30.405641,30.405641 0 0 1 371.7794,58.736362 30.405641,30.405641 0 0 1 402.18504,89.142002 Z"
         id="path1999"
         inkscape:connector-curvature="0" />
    </g>
    <text
       id="text2479-8"
       y="134.5506"
       x="20.367136"
       style="font-size:11.2889px;line-height:1.25;font-family:Amstelvar;-inkscape-font-specification:Amstelvar;letter-spacing:0px;word-spacing:0px;display:inline;opacity:1;fill:#37474f;fill-opacity:1;stroke-width:0.264583;stop-opacity:1"
       xml:space="preserve"><tspan
         style="font-style:normal;font-variant:normal;font-weight:800;font-stretch:normal;font-size:8.46667px;font-family:Objectivity;-inkscape-font-specification:'Objectivity Ultra-Bold';fill:#37474f;fill-opacity:1;stroke-width:0.264583"
         y="134.5506"
         x="20.367136"
         id="tspan2477-7"
         sodipodi:role="line">Bronze Stylus</tspan></text>
    <text
       xml:space="preserve"
       style="font-size:11.2889px;line-height:1.25;font-family:Amstelvar;-inkscape-font-specification:Amstelvar;letter-spacing:0px;word-spacing:0px;display:inline;opacity:1;fill:#37474f;fill-opacity:1;stroke-width:0.264583;stop-opacity:1"
       x="107.00409"
       y="134.5506"
       id="text3801"><tspan
         sodipodi:role="line"
         id="tspan3799"
         x="107.00409"
         y="134.5506"
         style="font-style:normal;font-variant:normal;font-weight:800;font-stretch:normal;font-size:8.46667px;font-family:Objectivity;-inkscape-font-specification:'Objectivity Ultra-Bold';fill:#37474f;fill-opacity:1;stroke-width:0.264583">Silver Quill</tspan></text>
    <text
       id="text3805"
       y="134.5506"
       x="181.44223"
       style="font-size:11.2889px;line-height:1.25;font-family:Amstelvar;-inkscape-font-specification:Amstelvar;letter-spacing:0px;word-spacing:0px;display:inline;opacity:1;fill:#37474f;fill-opacity:1;stroke-width:0.264583;stop-opacity:1"
       xml:space="preserve"><tspan
         style="font-style:normal;font-variant:normal;font-weight:800;font-stretch:normal;font-size:8.46667px;font-family:Objectivity;-inkscape-font-specification:'Objectivity Ultra-Bold';fill:#37474f;fill-opacity:1;stroke-width:0.264583"
         y="134.5506"
         x="181.44223"
         id="tspan3803"
         sodipodi:role="line">Golden Brush</tspan></text>
    <text
       xml:space="preserve"
       style="font-size:11.2889px;line-height:1.25;font-family:Amstelvar;-inkscape-font-specification:Amstelvar;letter-spacing:0px;word-spacing:0px;display:inline;opacity:1;fill:#37474f;fill-opacity:1;stroke-width:0.264583;stop-opacity:1"
       x="261.97922"
       y="134.5506"
       id="text3809"><tspan
         sodipodi:role="line"
         id="tspan3807"
         x="261.97922"
         y="134.5506"
         style="font-style:normal;font-variant:normal;font-weight:800;font-stretch:normal;font-size:8.46667px;font-family:Objectivity;-inkscape-font-specification:'Objectivity Ultra-Bold';fill:#37474f;fill-opacity:1;stroke-width:0.264583">Platinum Pen</tspan></text>
    <text
       xml:space="preserve"
       style="font-size:11.2889px;line-height:1.25;font-family:Amstelvar;-inkscape-font-specification:Amstelvar;letter-spacing:0px;word-spacing:0px;display:inline;opacity:1;fill:#37474f;fill-opacity:1;stroke-width:0.264583;stop-opacity:1"
       x="335.66647"
       y="134.5506"
       id="text3813"><tspan
         sodipodi:role="line"
         id="tspan3811"
         x="335.66647"
         y="134.5506"
         style="font-style:normal;font-variant:normal;font-weight:800;font-stretch:normal;font-size:8.46667px;font-family:Objectivity;-inkscape-font-specification:'Objectivity Ultra-Bold';fill:#37474f;fill-opacity:1;stroke-width:0.264583">Diamond Scribe</tspan></text>
  </g>
</svg>
