<?xml version="1.0" encoding="UTF-8" standalone="no"?>
<svg
   xmlns:dc="http://purl.org/dc/elements/1.1/"
   xmlns:cc="http://creativecommons.org/ns#"
   xmlns:rdf="http://www.w3.org/1999/02/22-rdf-syntax-ns#"
   xmlns:svg="http://www.w3.org/2000/svg"
   xmlns="http://www.w3.org/2000/svg"
   xmlns:sodipodi="http://sodipodi.sourceforge.net/DTD/sodipodi-0.dtd"
   xmlns:inkscape="http://www.inkscape.org/namespaces/inkscape"
   inkscape:version="1.1-dev (c3426e545d, 2020-05-25)"
   inkscape:export-ydpi="6.8000002"
   inkscape:export-xdpi="6.8000002"
   inkscape:export-filename="/home/doctormo/Projects/inkscape/media/content/media/sponsor_levels/Sponsor_Icons_icon_platinum.png"
   sodipodi:docname="Sponsor_Icons_icon_platinum.svg"
   id="svg8"
   version="1.1"
   viewBox="0 0 317.5 317.5"
   height="1200"
   width="1200">
  <sodipodi:namedview
     inkscape:current-layer="svg8"
     inkscape:window-maximized="1"
     inkscape:window-y="20"
     inkscape:window-x="67"
     inkscape:cy="600"
     inkscape:cx="600"
     inkscape:zoom="0.60916667"
     showgrid="false"
     id="namedview26"
     inkscape:window-height="852"
     inkscape:window-width="1533"
     inkscape:pageshadow="2"
     inkscape:pageopacity="0"
     guidetolerance="10"
     gridtolerance="10"
     objecttolerance="10"
     borderopacity="1"
     bordercolor="#666666"
     pagecolor="#ffffff" />
  <defs
     id="defs2">
    <clipPath
       clipPathUnits="userSpaceOnUse"
       id="clipPath1856">
      <path
         style="display:inline;opacity:1;fill:#ffffff;fill-opacity:1;stroke:none;stroke-width:5.29167;stroke-linejoin:round;stroke-miterlimit:4;stroke-dasharray:none;stroke-opacity:1;paint-order:markers fill stroke;stop-opacity:1"
         d="m 441.22256,-242.06429 a 59.841432,59.841432 0 0 1 -59.84144,59.84143 59.841432,59.841432 0 0 1 -59.84142,-59.84143 59.841432,59.841432 0 0 1 59.84142,-59.84142 59.841432,59.841432 0 0 1 59.84144,59.84142 z"
         id="path1858" />
    </clipPath>
    <clipPath
       clipPathUnits="userSpaceOnUse"
       id="clipPath1019-6">
      <path
         style="fill:#ffffff;fill-opacity:1;stroke:#37474f;stroke-width:1.59259;stroke-linejoin:round;stroke-miterlimit:4;stroke-dasharray:none;stroke-opacity:1;paint-order:markers fill stroke"
         d="M 174.4497,136.91569 A 38.940486,38.940486 0 0 1 135.5092,175.85618 38.940486,38.940486 0 0 1 96.568716,136.91569 38.940486,38.940486 0 0 1 135.5092,97.975203 38.940486,38.940486 0 0 1 174.4497,136.91569 Z"
         id="path1021-3" />
    </clipPath>
    <clipPath
       clipPathUnits="userSpaceOnUse"
       id="clipPath1210-1-2">
      <path
         id="path1212-2-0"
         d="m 155.1985,200.45364 a 36.79745,36.79745 0 0 1 -36.79746,36.79745 36.79745,36.79745 0 0 1 -36.79745,-36.79745 36.79745,36.79745 0 0 1 36.79745,-36.79744 36.79745,36.79745 0 0 1 36.79746,36.79744 z"
         style="display:inline;opacity:1;fill:#ffffff;fill-opacity:1;stroke:none;stroke-width:3.25393;stroke-linejoin:round;stroke-miterlimit:4;stroke-dasharray:none;stroke-opacity:1;paint-order:markers fill stroke" />
    </clipPath>
  </defs>
  <metadata
     id="metadata5">
    <rdf:RDF>
      <cc:Work
         rdf:about="">
        <dc:format>image/svg+xml</dc:format>
        <dc:type
           rdf:resource="http://purl.org/dc/dcmitype/StillImage" />
        <dc:title />
      </cc:Work>
    </rdf:RDF>
  </metadata>
  <g
     transform="matrix(2.4558337,0,0,2.4558337,-837.34889,-597.46286)"
     style="display:inline;opacity:1;stop-opacity:1"
     id="g1447-2">
    <path
       id="path1206-3-9"
       d="m 465.44662,307.92511 a 59.841431,59.841431 0 0 1 -59.84143,59.84143 59.841431,59.841431 0 0 1 -59.84143,-59.84143 59.841431,59.841431 0 0 1 59.84143,-59.84143 59.841431,59.841431 0 0 1 59.84143,59.84143 z"
       style="display:inline;opacity:1;fill:#ffffff;fill-opacity:1;stroke:none;stroke-width:5.29167;stroke-linejoin:round;stroke-miterlimit:4;stroke-dasharray:none;stroke-opacity:1;paint-order:markers fill stroke;stop-opacity:1" />
    <g
       clip-path="url(#clipPath1210-1-2)"
       transform="matrix(1.6262385,0,0,1.6262385,213.05686,-18.06032)"
       id="g1204-6-3"
       style="opacity:1;stop-opacity:1">
      <path
         id="path1182-1-1"
         d="m 124.29581,220.87761 8.09628,-14.02316 -13.99105,-28.84514 -13.99105,28.84514 8.09628,14.02316 z"
         style="fill:#ededed;fill-opacity:1;stroke:none;stroke-width:2.4474;stroke-linecap:round;stroke-linejoin:round;stroke-miterlimit:4;stroke-dasharray:none;stroke-opacity:1" />
      <path
         id="path1184-2-9"
         d="m 112.50627,220.87761 h 11.78954 v 45.44187 h -11.78954 z"
         style="fill:#ededed;fill-opacity:1;stroke:none;stroke-width:2.4474;stroke-linecap:round;stroke-linejoin:round;stroke-miterlimit:4;stroke-dasharray:none;stroke-opacity:1;paint-order:markers fill stroke" />
      <path
         style="fill:none;stroke:#37474f;stroke-width:3.25393;stroke-linecap:round;stroke-linejoin:round;stroke-miterlimit:4;stroke-dasharray:none;stroke-opacity:1"
         d="M 127.16477,220.87761 H 109.63731"
         id="path1186-9-4" />
      <path
         id="path1188-3-7"
         d="m 118.40104,185.39825 v -6.08435 l -13.99105,27.54055 4.77243,8.26609 c -0.72707,-5.98066 -1.20433,-8.43403 0.3008,-11.50816 z"
         style="display:inline;fill:#fdfdfd;fill-opacity:1;stroke:none;stroke-width:0.264583px;stroke-linecap:butt;stroke-linejoin:miter;stroke-opacity:1" />
      <path
         style="fill:none;fill-opacity:1;stroke:#37474f;stroke-width:1.62697;stroke-linecap:round;stroke-linejoin:round;stroke-miterlimit:4;stroke-dasharray:none;stroke-opacity:1"
         d="M 118.40104,205.97813 V 178.00931"
         id="path1190-1-8" />
      <path
         style="fill:#dededf;fill-opacity:0.941176;stroke:none;stroke-width:9.25002;stroke-linecap:round;stroke-linejoin:round;stroke-miterlimit:4;stroke-dasharray:none;stroke-opacity:1"
         d="m 447.5,672.79102 21.85352,119.75976 -24.00782,42.26172 h 24.4336 l 30.59961,-53 z"
         transform="scale(0.26458333)"
         id="path1192-9-4" />
      <path
         style="fill:none;stroke:#37474f;stroke-width:3.25393;stroke-linecap:round;stroke-linejoin:round;stroke-miterlimit:4;stroke-dasharray:none;stroke-opacity:1"
         d="m 124.29581,220.87761 8.09628,-14.02316 -13.99105,-28.84514 -13.99105,28.84514 8.09628,14.02316 z"
         id="path1194-4-5" />
      <path
         style="fill:#37474f;fill-opacity:1;stroke:none;stroke-width:4.39125;stroke-linecap:round;stroke-linejoin:round;stroke-miterlimit:4;stroke-dasharray:none;stroke-opacity:1;paint-order:markers fill stroke"
         d="m 120.59666,205.97932 a 2.1956227,2.1956227 0 0 1 -2.19562,2.19563 2.1956227,2.1956227 0 0 1 -2.19563,-2.19563 2.1956227,2.1956227 0 0 1 2.19563,-2.19562 2.1956227,2.1956227 0 0 1 2.19562,2.19562 z"
         id="path1196-7-0" />
      <path
         style="fill:#dededf;fill-opacity:0.941176;stroke:none;stroke-width:2.4474;stroke-linecap:round;stroke-linejoin:round;stroke-miterlimit:4;stroke-dasharray:none;stroke-opacity:1;paint-order:markers fill stroke"
         d="m 116.65757,220.87747 7.63824,1.4e-4 v 45.44187 h -3.61477 v -24.81273 c 0,-13.05703 -1.32514,-17.93095 -4.02347,-20.62928 z"
         id="path1198-8-3" />
      <path
         style="fill:#fdfdfd;fill-opacity:1;stroke:none;stroke-width:3.99256;stroke-linecap:round;stroke-linejoin:round;stroke-miterlimit:4;stroke-dasharray:none;stroke-opacity:1;paint-order:markers fill stroke"
         d="m 112.50627,220.87761 h 9.36969 c -6.40917,0.83914 -8.3972,2.35713 -9.36969,11.58664 z"
         id="path1200-4-6" />
      <path
         style="fill:none;fill-opacity:1;stroke:#37474f;stroke-width:3.25393;stroke-linecap:round;stroke-linejoin:round;stroke-miterlimit:4;stroke-dasharray:none;stroke-opacity:1;paint-order:markers fill stroke"
         d="m 112.50627,220.87761 h 11.78954 v 45.44187 h -11.78954 z"
         id="path1202-5-1" />
    </g>
    <path
       style="display:inline;opacity:1;fill:none;fill-opacity:1;stroke:#37474f;stroke-width:5.29167;stroke-linejoin:round;stroke-miterlimit:4;stroke-dasharray:none;stroke-opacity:1;paint-order:markers fill stroke;stop-opacity:1"
       d="m 465.44662,307.92511 a 59.841431,59.841431 0 0 1 -59.84143,59.84143 59.841431,59.841431 0 0 1 -59.84143,-59.84143 59.841431,59.841431 0 0 1 59.84143,-59.84143 59.841431,59.841431 0 0 1 59.84143,59.84143 z"
       id="path1178-0-0" />
  </g>
</svg>
