<?xml version="1.0" encoding="UTF-8" standalone="no"?>
<svg
   xmlns:dc="http://purl.org/dc/elements/1.1/"
   xmlns:cc="http://creativecommons.org/ns#"
   xmlns:rdf="http://www.w3.org/1999/02/22-rdf-syntax-ns#"
   xmlns:svg="http://www.w3.org/2000/svg"
   xmlns="http://www.w3.org/2000/svg"
   xmlns:sodipodi="http://sodipodi.sourceforge.net/DTD/sodipodi-0.dtd"
   xmlns:inkscape="http://www.inkscape.org/namespaces/inkscape"
   width="770"
   height="327"
   viewBox="0 0 770 327"
   id="svg4808"
   version="1.1"
   inkscape:version="0.92+devel (203bb5c, 2017-08-13)"
   sodipodi:docname="betrugstest-logo.svg">
  <metadata
     id="metadata4834">
    <rdf:RDF>
      <cc:Work
         rdf:about="">
        <dc:format>image/svg+xml</dc:format>
        <dc:type
           rdf:resource="http://purl.org/dc/dcmitype/StillImage" />
      </cc:Work>
    </rdf:RDF>
  </metadata>
  <sodipodi:namedview
     pagecolor="#ffffff"
     bordercolor="#666666"
     borderopacity="1"
     objecttolerance="10"
     gridtolerance="10"
     guidetolerance="10"
     inkscape:pageopacity="0"
     inkscape:pageshadow="2"
     inkscape:window-width="1855"
     inkscape:window-height="1056"
     id="namedview4832"
     showgrid="false"
     inkscape:zoom="1"
     inkscape:cx="412.5"
     inkscape:cy="164"
     inkscape:window-x="65"
     inkscape:window-y="24"
     inkscape:window-maximized="1"
     inkscape:current-layer="svg4808"
     inkscape:document-rotation="0" />
  <defs
     id="defs4810">
    <style
       id="style4812">
      .cls-1 {
        font-size: 40.59px;
        font-family: Oswald;
        font-weight: 300;
      }

      .cls-2 {
        fill: #1d7b18;
      }

      .cls-3 {
        font-size: 27px;
        font-weight: 700;
        text-transform: uppercase;
      }

      .cls-4 {
        fill-opacity: 0;
        stroke: #29292a;
        stroke-linejoin: round;
        stroke-width: 10px;
        fill-rule: evenodd;
        filter: url(#filter);
      }
    </style>
    <filter
       id="filter"
       x="18"
       y="41"
       width="275"
       height="274"
       filterUnits="userSpaceOnUse">
      <feFlood
         result="flood"
         flood-color="#fff"
         flood-opacity="0"
         id="feFlood4815" />
      <feComposite
         result="composite"
         operator="in"
         in2="SourceGraphic"
         id="feComposite4817" />
      <feBlend
         result="blend"
         in2="SourceGraphic"
         id="feBlend4819" />
    </filter>
  </defs>
  <g
     transform="translate(300.24 172.208) scale(4.12 4.114)"
     style="font-weight:300;font-size:40.59000015px;font-family:Oswald"
     id="Betrugs_Test.com">
    <path
       d="m 2.88189,-32.8779 7.06266,0 q 4.30254,0 6.16968,2.15127 1.86714,2.11068 1.86714,6.04791 0,2.67894 -0.97416,4.58667 -0.97416,1.90773 -3.20661,2.35422 2.67894,0.73062 3.81546,2.96307 1.13652,2.23245 1.13652,5.2767 0,4.42431 -1.74537,6.98148 Q 15.30243,0 10.99989,0 l -8.118,0 0,-32.8779 z m 7.54974,14.16591 q 2.63835,0 3.69369,-1.50183 1.05534,-1.54242 1.05534,-4.4649 0,-2.07009 -0.56826,-3.32838 -0.52767,-1.25829 -1.90773,-1.86714 -1.33947,-0.60885 -3.81546,-0.60885 l -2.92248,0 0,11.7711 4.4649,0 z m -0.04059,16.39836 q 2.11068,0 3.2472,-0.73062 1.17711,-0.77121 1.6236,-2.31363 0.48708,-1.54242 0.48708,-4.14018 0,-6.81912 -5.2767,-6.81912 l -4.50549,0 0,14.00355 4.42431,0 z"
       style="fill:#1d7b18"
       id="path4841" />
    <path
       d="m 28.532867,0.36531 q -2.27304,0 -3.6531,-0.89298 -1.38006,-0.89298 -2.0295,-2.88189 -0.64944,-1.98891 -0.64944,-5.39847 l 0,-5.92614 q 0,-3.45015 0.64944,-5.39847 0.69003,-1.98891 2.07009,-2.8413 1.42065,-0.85239 3.6531,-0.85239 2.4354,0 3.73428,1.05534 1.33947,1.01475 1.82655,3.08484 0.52767,2.07009 0.52767,5.56083 l -0.04059,2.11068 -9.45747,0 0,3.49074 q 0,2.47599 0.28413,3.89664 0.28413,1.42065 1.01475,2.11068 0.73062,0.64944 2.07009,0.64944 1.54242,0 2.35422,-0.97416 0.85239,-0.97416 0.85239,-3.53133 l 0,-1.6236 2.88189,0 0,1.29888 q 0,3.40956 -1.42065,5.23611 -1.42065,1.82655 -4.66785,1.82655 z m 3.20661,-14.08473 0,-1.94832 q 0,-2.11068 -0.24354,-3.32838 -0.20295,-1.2177 -0.89298,-1.90773 -0.69003,-0.69003 -2.07009,-0.69003 -1.25829,0 -1.98891,0.56826 -0.73062,0.52767 -1.05534,1.90773 -0.32472,1.33947 -0.32472,3.81546 l 0,1.58301 6.57558,0 z"
       style="fill:#1d7b18"
       id="path4843" />
    <path
       d="m 44.222168,0.28413 q -2.4354,0 -3.32838,-1.29888 -0.89298,-1.33947 -0.89298,-3.85605 l 0,-16.6419 -2.88189,0 0,-1.94832 2.88189,0 0,-7.26561 2.96307,0 0,7.26561 3.89664,0 0,1.94832 -3.89664,0 0,16.35777 q 0,1.78596 0.4059,2.47599 0.4059,0.64944 1.66419,0.64944 0.77121,0 1.70478,-0.20295 l 0,2.27304 q -1.25829,0.24354 -2.51658,0.24354 z"
       style="fill:#1d7b18"
       id="path4845" />
    <path
       d="m 50.20095,-23.46102 3.00366,0 0,3.20661 q 1.05534,-1.74537 2.47599,-2.59776 1.46124,-0.85239 2.92248,-0.85239 0.36531,0 0.52767,0.04059 l 0,3.16602 q -0.73062,-0.24354 -1.46124,-0.24354 -2.80071,0 -4.4649,2.71953 l 0,18.02196 -3.00366,0 0,-23.46102 z"
       style="fill:#1d7b18"
       id="path4847" />
    <path
       d="m 65.498306,0.36531 q -1.78596,0 -2.71953,-1.29888 -0.93357,-1.29888 -0.93357,-3.69369 l 0,-18.83376 3.00366,0 0,18.18432 q 0,1.78596 0.52767,2.55717 0.56826,0.73062 1.70478,0.73062 1.01475,0 2.07009,-0.60885 1.09593,-0.64944 2.07009,-1.70478 l 0,-19.15848 2.96307,0 0,23.46102 -2.96307,0 0,-2.59776 q -1.17711,1.38006 -2.63835,2.19186 -1.46124,0.77121 -3.08484,0.77121 z"
       style="fill:#1d7b18"
       id="path4849" />
    <path
       d="m 85.1889,7.7121 q -3.81546,0 -5.92614,-0.93357 -2.07009,-0.89298 -2.07009,-3.04425 0,-1.70478 1.09593,-3.12543 1.13652,-1.42065 2.76012,-2.27304 -1.05534,-0.28413 -1.82655,-0.85239 -0.77121,-0.56826 -0.77121,-1.17711 0,-1.13652 0.77121,-2.31363 0.77121,-1.17711 2.0295,-2.47599 -1.54242,-1.13652 -2.27304,-2.88189 -0.69003,-1.78596 -0.69003,-4.26195 0,-3.57192 1.66419,-5.88555 1.66419,-2.31363 4.91139,-2.31363 3.57192,0 5.03316,2.92248 0.36531,-0.60885 1.25829,-1.38006 0.89298,-0.8118 1.90773,-1.25829 l 0.60885,-0.20295 0.8118,2.07009 q -0.97416,0.16236 -2.19186,0.8118 -1.17711,0.64944 -1.66419,1.2177 0.28413,0.77121 0.48708,2.0295 0.24354,1.2177 0.24354,2.07009 0,3.77487 -1.54242,6.00732 -1.54242,2.19186 -4.91139,2.19186 -0.60885,0 -1.29888,-0.08118 -0.64944,-0.12177 -1.09593,-0.28413 -0.16236,0.24354 -0.60885,0.89298 -0.4059,0.60885 -0.69003,1.17711 -0.28413,0.56826 -0.28413,0.93357 0,0.60885 1.94832,0.93357 0.32472,0.12177 1.33947,0.28413 1.01475,0.12177 1.54242,0.20295 0.69003,0.08118 0.85239,0.12177 2.92248,0.48708 4.38372,1.82655 1.50183,1.29888 1.50183,3.61251 0,2.80071 -1.98891,4.09959 Q 88.55787,7.7121 85.1889,7.7121 Z M 84.90477,-9.49806 q 2.31363,0 3.08484,-1.70478 0.77121,-1.70478 0.77121,-4.42431 0,-6.0885 -3.85605,-6.0885 -2.23245,0 -3.08484,1.78596 -0.85239,1.78596 -0.85239,4.30254 0,6.12909 3.93723,6.12909 z m 0.24354,14.81535 q 2.31363,0 3.6531,-0.77121 1.33947,-0.73062 1.33947,-2.23245 0,-1.25829 -0.93357,-1.98891 -0.89298,-0.73062 -3.49074,-1.17711 l -3.00366,-0.4059 q -3.00366,1.86714 -3.00366,4.01841 0,1.33947 1.25829,1.94832 1.25829,0.60885 4.18077,0.60885 z"
       style="fill:#1d7b18"
       id="path4851" />
    <path
       d="m 101.65385,0.36531 q -2.760124,0 -4.464904,-1.78596 -1.66419,-1.78596 -1.90773,-4.8708 l 2.47599,-0.77121 q 0.24354,2.67894 1.2177,3.93723 1.01475,1.25829 2.800714,1.25829 1.54242,0 2.39481,-0.89298 0.89298,-0.89298 0.89298,-2.4354 0,-2.27304 -2.8413,-4.70844 l -3.206614,-2.76012 q -1.6236,-1.33947 -2.4354,-2.67894 -0.77121,-1.33947 -0.77121,-3.08484 0,-2.55717 1.50183,-3.97782 1.50183,-1.42065 4.099594,-1.42065 2.59776,0 3.97782,1.66419 1.42065,1.66419 1.58301,4.50549 l -2.11068,0.69003 q -0.24354,-4.62726 -3.32838,-4.62726 -1.38006,0 -2.232454,0.77121 -0.8118,0.73062 -0.77121,2.07009 0,1.09593 0.4059,1.94832 0.4059,0.8118 1.501834,1.74537 l 3.32838,2.96307 q 1.86714,1.66419 2.88189,3.16602 1.01475,1.46124 1.01475,3.6531 0,2.67894 -1.6236,4.18077 -1.6236,1.46124 -4.38372,1.46124 z"
       style="fill:#1d7b18"
       id="path4853" />
    <path
       d="m 3.618,15.498 -3.348,0 0,-3.591 11.529,0 0,3.591 -3.321,0 0,18.279 -4.86,0 0,-18.279 z"
       style="font-weight:700;font-size:27px;text-transform:uppercase"
       id="path4855" />
    <path
       d="m 18.134297,34.047 q -2.565,0 -3.996,-1.35 -1.431,-1.377 -1.431,-3.861 l 0,-5.724 q 0,-2.484 1.431,-3.834 1.431,-1.377 3.996,-1.377 2.592,0 3.888,1.323 1.296,1.323 1.296,3.888 l 0,3.132 -6.264,0 0,2.754 q 0,1.917 1.053,1.917 1.161,0 1.161,-1.512 l 0,-1.647 4.05,0 0,1.512 q 0,2.349 -1.377,3.564 -1.35,1.215 -3.807,1.215 z m 1.134,-9.855 0,-1.566 q 0,-0.864 -0.324,-1.215 -0.297,-0.378 -0.837,-0.378 -0.513,0 -0.783,0.405 -0.27,0.405 -0.27,1.431 l 0,1.323 2.214,0 z"
       style="font-weight:700;font-size:27px;text-transform:uppercase"
       id="path4857" />
    <path
       d="m 30.330281,34.047 q -1.998,0 -3.321,-0.918 -1.296,-0.945 -2.106,-2.997 l 2.997,-1.323 q 0.432,1.08 0.999,1.674 0.594,0.594 1.269,0.594 0.513,0 0.783,-0.27 0.27,-0.297 0.27,-0.783 -0.027,-0.459 -0.513,-0.945 -0.486,-0.513 -1.647,-1.458 l -1.134,-0.945 q -1.404,-1.188 -2.052,-2.16 -0.621,-0.972 -0.621,-2.322 0,-1.242 0.648,-2.214 0.675,-0.972 1.782,-1.512 1.107,-0.567 2.376,-0.567 1.917,0 3.186,1.053 1.296,1.026 1.836,2.97 l -2.835,1.296 q -0.27,-0.864 -0.837,-1.539 -0.567,-0.702 -1.242,-0.702 -0.432,0 -0.702,0.243 -0.243,0.243 -0.243,0.648 0,0.486 0.486,1.026 0.513,0.54 1.701,1.512 l 1.107,0.972 q 0.918,0.81 1.458,1.377 0.567,0.567 0.945,1.35 0.405,0.783 0.405,1.701 0,1.323 -0.702,2.295 -0.675,0.945 -1.836,1.458 -1.134,0.486 -2.457,0.486 z"
       style="font-weight:700;font-size:27px;text-transform:uppercase"
       id="path4859" />
    <path
       d="m 41.584641,33.939 q -1.647,-0.054 -2.511,-0.81 -0.864,-0.756 -1.161,-1.944 -0.27,-1.215 -0.27,-2.916 l 0,-7.209 -1.512,0 0,-2.889 1.512,0 0,-4.752 4.455,0 0,4.752 2.214,0 0,2.889 -2.214,0 0,8.046 q 0,1.269 1.512,1.269 0.351,0 0.648,-0.054 0.324,-0.054 0.405,-0.054 l 0,3.456 q -1.377,0.243 -2.403,0.243 l -0.675,-0.027 z"
       style="font-weight:700;font-size:27px;text-transform:uppercase"
       id="path4861" />
    <path
       d="m 46.593562,29.619 4.158,0 0,4.158 -4.158,0 0,-4.158 z"
       style="font-weight:700;font-size:27px;text-transform:uppercase"
       id="path4863" />
    <path
       d="m 58.396359,34.047 q -2.538,0 -3.969,-1.377 -1.431,-1.377 -1.431,-3.834 l 0,-5.724 q 0,-2.484 1.404,-3.834 1.431,-1.377 3.996,-1.377 2.538,0 3.888,1.188 1.377,1.188 1.377,3.51 l 0,1.647 -4.239,0 0,-1.782 q 0,-0.891 -0.27,-1.215 -0.243,-0.351 -0.756,-0.351 -0.513,0 -0.756,0.432 -0.216,0.405 -0.216,1.404 l 0,6.48 q 0,0.999 0.243,1.404 0.243,0.405 0.756,0.405 0.513,0 0.756,-0.351 0.243,-0.351 0.243,-1.188 l 0,-2.079 4.239,0 0,1.89 q 0,2.322 -1.377,3.537 -1.377,1.215 -3.888,1.215 z"
       style="font-weight:700;font-size:27px;text-transform:uppercase"
       id="path4865" />
    <path
       d="m 71.106609,34.047 q -2.565,0 -4.023,-1.296 -1.431,-1.296 -1.431,-3.807 l 0,-5.94 q 0,-2.511 1.431,-3.807 1.458,-1.296 4.023,-1.296 2.565,0 4.023,1.323 1.458,1.296 1.458,3.78 l 0,5.94 q 0,2.484 -1.458,3.807 -1.458,1.296 -4.023,1.296 z m 0,-2.916 q 0.648,0 0.891,-0.459 0.243,-0.486 0.243,-1.431 l 0,-6.534 q 0,-0.945 -0.243,-1.404 -0.243,-0.486 -0.891,-0.486 -0.594,0 -0.864,0.486 -0.243,0.486 -0.243,1.404 l 0,6.534 q 0,0.945 0.243,1.431 0.27,0.459 0.864,0.459 z"
       style="font-weight:700;font-size:27px;text-transform:uppercase"
       id="path4867" />
    <path
       d="m 79.002,18.171 4.32,0 0,1.242 q 1.566,-1.539 3.699,-1.539 0.945,0 1.62,0.486 0.702,0.459 1.053,1.377 1.647,-1.863 3.969,-1.863 1.377,0 2.187,1.026 0.837,0.999 0.837,2.754 l 0,12.123 -4.32,0 0,-11.664 q 0,-0.621 -0.216,-0.918 -0.189,-0.297 -0.648,-0.297 -0.297,0 -0.729,0.162 -0.432,0.135 -0.783,0.405 l 0,0.189 0,12.123 -4.266,0 0,-11.664 q 0,-1.215 -0.891,-1.215 -0.702,0 -1.512,0.567 l 0,12.312 -4.32,0 0,-15.606 z"
       style="font-weight:700;font-size:27px;text-transform:uppercase"
       id="path4869" />
  </g>
  <g
     style="fill: ; filter: url(#filter)"
     id="g4826">
    <path
       id="Rounded_Rectangle_1"
       data-name="Rounded Rectangle 1"
       class="cls-4"
       d="M173.645,60.488l99.828,99.422a25.489,25.489,0,0,1,0,36.153l-99.828,99.421a25.742,25.742,0,0,1-36.3,0L37.516,196.063a25.49,25.49,0,0,1,0-36.153l99.828-99.422A25.743,25.743,0,0,1,173.645,60.488Z"
       style="stroke: inherit; filter: none; fill: inherit" />
  </g>
  <path
     inkscape:connector-curvature="0"
     id="path4780"
     data-name="Rounded Rectangle 1"
     class="cls-4"
     d="M 173.645,60.488004 273.473,159.91 c 10.02502,9.96609 10.02502,26.18691 0,36.153 l -99.828,99.421 c -11.29127,11.24523 -25.16872,11.07594 -36.29,0 L 37.527,196.063 c -10.025023,-9.96609 -10.025023,-26.18691 0,-36.153 l 99.828,-99.421996 c 10.29728,-10.255396 25.95459,-10.293377 36.29,0 z"
     style="fill:none;fill-opacity:0;fill-rule:evenodd;stroke:#29292a;stroke-width:15.11811024;stroke-linejoin:round;filter:url(#filter);stroke-miterlimit:4;stroke-dasharray:none"
     transform="matrix(1,0,0,-1,-17.27814,366.1783)"
     sodipodi:nodetypes="sccssccss" />
  <path
     style="fill:#1d7b18;stroke:none;stroke-width:1px;stroke-linecap:butt;stroke-linejoin:miter;stroke-opacity:1;fill-opacity:1"
     d="m 66.401327,179.51244 64.485903,45.33167 C 182.66716,143.51163 235.81652,64.544532 306,15 233.14281,96.965547 181.8815,189.72903 143.01824,288.69154 Z"
     id="path4838"
     inkscape:connector-curvature="0"
     sodipodi:nodetypes="ccccc" />
</svg>
