<?xml version="1.0" encoding="UTF-8" standalone="no"?>
<svg
   xmlns:dc="http://purl.org/dc/elements/1.1/"
   xmlns:cc="http://creativecommons.org/ns#"
   xmlns:rdf="http://www.w3.org/1999/02/22-rdf-syntax-ns#"
   xmlns:svg="http://www.w3.org/2000/svg"
   xmlns="http://www.w3.org/2000/svg"
   xmlns:sodipodi="http://sodipodi.sourceforge.net/DTD/sodipodi-0.dtd"
   xmlns:inkscape="http://www.inkscape.org/namespaces/inkscape"
   version="1.1"
   id="svg2"
   width="162"
   height="70"
   viewBox="0 0 162 69.999997"
   sodipodi:docname="betrugs.svg"
   inkscape:version="1.0alpha (c15df26511, 2019-01-24, custom)"
   inkscape:export-filename="/home/doctormo/Desktop/betrugs.png"
   inkscape:export-xdpi="96"
   inkscape:export-ydpi="96">
  <metadata
     id="metadata8">
    <rdf:RDF>
      <cc:Work
         rdf:about="">
        <dc:format>image/svg+xml</dc:format>
        <dc:type
           rdf:resource="http://purl.org/dc/dcmitype/StillImage" />
        <dc:title></dc:title>
      </cc:Work>
    </rdf:RDF>
  </metadata>
  <defs
     id="defs6">
    <style
       id="style4812">
      .cls-1 {
        font-size: 40.59px;
        font-family: Oswald;
        font-weight: 300;
      }

      .cls-2 {
        fill: #1d7b18;
      }

      .cls-3 {
        font-size: 27px;
        font-weight: 700;
        text-transform: uppercase;
      }

      .cls-4 {
        fill-opacity: 0;
        stroke: #29292a;
        stroke-linejoin: round;
        stroke-width: 10px;
        fill-rule: evenodd;
        filter: url(#filter);
      }
    </style>
    <filter
       id="filter"
       x="18"
       y="41"
       width="275"
       height="274"
       filterUnits="userSpaceOnUse">
      <feFlood
         result="flood"
         flood-color="#fff"
         flood-opacity="0"
         id="feFlood4815" />
      <feComposite
         result="composite"
         operator="in"
         in2="SourceGraphic"
         id="feComposite4817" />
      <feBlend
         result="blend"
         in2="SourceGraphic"
         id="feBlend4819" />
    </filter>
  </defs>
  <sodipodi:namedview
     pagecolor="#ffffff"
     bordercolor="#666666"
     inkscape:document-rotation="0"
     borderopacity="1"
     objecttolerance="10"
     gridtolerance="10"
     guidetolerance="10"
     inkscape:pageopacity="1"
     inkscape:pageshadow="2"
     inkscape:window-width="640"
     inkscape:window-height="480"
     id="namedview4"
     showgrid="false"
     inkscape:zoom="0.29252323"
     inkscape:cx="61.113704"
     inkscape:cy="-120.7368"
     inkscape:current-layer="g10" />
  <g
     inkscape:groupmode="layer"
     inkscape:label="Image"
     id="g10"
     transform="translate(-32.303028,157.368)" />
  <style
     type="text/css"
     id="style9976">
	.st0{fill:#349334;}
	.st1{fill:#4CB749;}
	.st2{fill:#118011;}
	.st3{fill:url(#SVGID_1_);}
	.st4{fill:#FFFFFF;}
	.st5{fill:url(#SVGID_2_);}
	.st6{fill:url(#SVGID_3_);}
	.st7{fill:url(#SVGID_4_);}
</style>
  <style
     id="style9976-3"
     type="text/css">
	.st0{fill:#349334;}
	.st1{fill:#4CB749;}
	.st2{fill:#118011;}
	.st3{fill:url(#SVGID_1_);}
	.st4{fill:#FFFFFF;}
	.st5{fill:url(#SVGID_2_);}
	.st6{fill:url(#SVGID_3_);}
	.st7{fill:url(#SVGID_4_);}
</style>
</svg>
