<?xml version="1.0" encoding="UTF-8" standalone="no"?>
<svg
   xmlns:dc="http://purl.org/dc/elements/1.1/"
   xmlns:cc="http://creativecommons.org/ns#"
   xmlns:rdf="http://www.w3.org/1999/02/22-rdf-syntax-ns#"
   xmlns:svg="http://www.w3.org/2000/svg"
   xmlns="http://www.w3.org/2000/svg"
   xmlns:xlink="http://www.w3.org/1999/xlink"
   xmlns:sodipodi="http://sodipodi.sourceforge.net/DTD/sodipodi-0.dtd"
   xmlns:inkscape="http://www.inkscape.org/namespaces/inkscape"
   version="1.1"
   id="svg2"
   width="162"
   height="70"
   viewBox="0 0 162 69.999997"
   sodipodi:docname="cloudscale.ch2.svg"
   inkscape:version="1.0alpha (c15df26511, 2019-01-24, custom)"
   inkscape:export-filename="/home/doctormo/Desktop/cloudscale.png"
   inkscape:export-xdpi="96"
   inkscape:export-ydpi="96">
  <metadata
     id="metadata8">
    <rdf:RDF>
      <cc:Work
         rdf:about="">
        <dc:format>image/svg+xml</dc:format>
        <dc:type
           rdf:resource="http://purl.org/dc/dcmitype/StillImage" />
        <dc:title></dc:title>
      </cc:Work>
    </rdf:RDF>
  </metadata>
  <defs
     id="defs6" />
  <sodipodi:namedview
     pagecolor="#ffffff"
     bordercolor="#666666"
     inkscape:document-rotation="0"
     borderopacity="1"
     objecttolerance="10"
     gridtolerance="10"
     guidetolerance="10"
     inkscape:pageopacity="1"
     inkscape:pageshadow="2"
     inkscape:window-width="640"
     inkscape:window-height="480"
     id="namedview4"
     showgrid="false"
     inkscape:zoom="2.2998404"
     inkscape:cx="108.88002"
     inkscape:cy="-12.370008"
     inkscape:current-layer="g10" />
  <g
     inkscape:groupmode="layer"
     inkscape:label="Image"
     id="g10"
     transform="translate(-32.303028,157.368)">
    <image
       id="image991"
       xlink:href="data:image/png;base64,iVBORw0KGgoAAAANSUhEUgAACvAAAAFYCAYAAACPwikhAADwJElEQVR4AezdA5Ak4RnH4e9uui+2 nVLM3YutxXF6NrZto3vSsW3b2dmLWYxt27Y5eeMyDu927Tz/que4GutXu2WBZ2bX6fdUB9ur14fb e1RN97h63L2onkxfHn+eJdiMz/XSuuleUI2njxxtdLetJ/1SKWVXMbMBzMzMzMxOOnnQeUYb0xtU 42k/atpn1/EYpmq6zTA7Eeqme20dn2M07p5WjdsHjCbtobL//qcLBQAA4HhaP3LJC61tLd18ZXP5 YSuz5edea2vvS1c2l14ff56daKuz5VfG7y9Zme194sps6T6rs6W1lXdc7BShAACwPUrf764nD7rs 7sPdHauN6aPrZvrCetK94kS2Q/E5XlmP25dWTfvkqpneb3Tt/kC5zqNPE8rCgAU94MChB55l1HRf q5puPjBvLde5ziiU7QIAAFA108dWTff3MN9mv4ug97qhHA8AAAAR7T4zAtr5kETU+5MIei8SCgAA uUrTn7lquk+H+QD8qjr8oMuHsghgQQ84MJp0zxlgvPsvo3F341C2AwAAQLUxXR3Y46Q/lIP9GUM5 FgAAACtHLnX5f0WzQ7S19K5QAADIVTfdawb2nPinQ1kEsIAHGojtit9/HOYDdSSU7QAAAFA33auG 9jipnrR3CeVYAAAARCj7uDAfqL/sf/NFTxcKAAA5yrg/bdV0fw7zIdnTtBcMZaeDBTzQQJk88GyD jXfDqOm+FgoAAMA2+drgAt6me1koxwIAAGB1a/ntww14Q3yH4FAAAMhRjdurDrIdmkyvFwrsdAt4 oIFq0l1hyAFv+Gu5al+FAgAAkGr9Liepmu5vYT4wHw3lWAAAAKzOlr805IB3dXPvTUIBACBH3Uxv M9B26P6hwE63gAcaGG20+wYd8Iay3p86FAAAgFRNf2Y/qQQAANipIpL9YZgP1bVmS3cKBQCAHFXT 3TPMh2f68FBgp1vAAw2MxtONwQe81+nPGgoAAECqcX/egT5O+lEoxwIAACAi2V+G+XAt3ScUAABy VOOuHeRz4uPuSaHATreABxqIgPcGgw94Jw86TygAAACZTnKoPf9AHyf9MhQAAIBjDHh/F+bDtfdB oQAAkKMatw8e6HPiTwkFdrqFO8CAgBcAAEDAO0AAAICAd2u5DQUAgBwC3mMHAl5AwAsAACDgBQAA EPACACDgBQEvkE/ACwAAIOAFAAAQ8AIAIOAFAS+QT8ALAAAg4AUAABDwAgAg4AUBL5BPwAsAACDg BQAAEPACACDgBQEvkE/ACwAAIOAFAAAQ8AIAIOAFAS+QScALAAAg4AUAABDwAgAg4AUBL5BIwAsA ACDgBQAAEPACACDgBQEvkETACwAAIOAFAAAQ8AIAIOAFAS+QQMALAAAg4AUAABDwAgAg4AUBL5BA wAsAACDgBQAAEPACACDgBQEvkEDACwAAIOAFAAAQ8AIAIOAFAS+QQMALAAAg4AUAABDwAgAg4AUB L5BAwAsAACDgBQAAEPACACDgBQEvkEDACwAAIOAFAAAQ8AIAIOAFAS+QQMALAAAg4AUAABDwAgAg 4E0EAl5AwAsAACDgBQAAEPACACDgTQQCXkDACwAAIOAFAAAQ8AIAIOBNBAJeQMALAAAg4AUAABDw AgAg4E0EAl5AwAsAACDgBQAAEPACACDgTQQCXkDACwAAIOAFAAAQ8AIAIOBNBAJeQMALAAAg4AUA ABDwAgAg4E0EAl5AwAsAACDgBQAAEPACACDgTQQCXkDACwAAIOAFAAAQ8AIAIOBNBAJeQMALAAAg 4AUAABDwAgAg4E0EAl5AwAsAACDgBQAAEPACACDgTQQCXkDACwAAIOAFAAAQ8AIAIOBNBAJeQMAL AAAg4AUAABDwAgAg4E0EAl5AwAsAACDgBQAAEPACACDgTQQCXkDACwAAIOAFAAAQ8AIAIOBNBAJe QMALAAAg4AUAABDwAgAg4E0EAl5AwAsAACDgBQAAEPACACDgTQQCXkDACwAAIOAFAAAQ8AIAIOBN BAJeQMALAAAg4AUAABDwAgAg4E0EAl5AwAsAACDgBQAAEPACACDgTQQCXkDACwAAIOAFAAAQ8AIA IOBNBAJeQMALAAAg4AUAABDwAgAg4E0EAl5AwAsAACDgBQAAEPACACDgTQQCXkDACwAAIOAFAAAQ 8AIAIOBNBAJeQMALAAAg4AUAABDwAgAg4E0EAl5AwAsAACDgBQAAEPACACDgTQQCXkDACwAAIOAF AAAQ8AIAIOBNBAJeQMALAAAg4AUAABDwAgAg4E0EAl5AwAsAACDgBQAAEPACACDgTQQCXkDACwAA IOAFAAAQ8AIAIOBNBAJeQMALAAAg4AUAABDwAgAg4E0EAl5AwAsAACDgBQAAEPACACDgTQQCXkDA CwAAIOAFAAAQ8AIAIOBNBAJeQMALAAAg4AUAABDwAgAg4E0EAl5AwAsAACDgBQAAEPACACDgTQQC XkDACwAAIOAFAAAQ8AIAIOBNBAJeQMALAAAg4AUAABDwAgAg4E0EAl5AwAsAACDgBQAAEPACACDg TQQCXkDACwAAIOAFAAAQ8AIAIOBNBAJeQMALAAAg4AUAABDwAgAg4E0EAl5AwAsAACDgBQAAEPAC ACDgTQQCXkDACwAAIOAFAAAQ8AIAIOBNBgJeQMCbD2K7ysH+jP8KOSbdFaqN9ppVGDXT6/zLpLth Pe5u+z+T7tb//7/20H/fvp70S+U6/bnLyr1PEcogAQAg4B0uAABAwAsAgIA3Hwh4AQEvnACH7nuq PYe7i44OTw/WTXfXatw9KSLdrarp3hu+EH4S/h7mx9kfwnfCJ8O743O/pJpM+wiAb16N26uWcX/e ctW+CiUVAAAC3h0JAAAQ8AIAIODNBwJeQMAL1+lPX0UYW0/au4ya7nlVM/1Q1XQ/DfMB+8to0n09 ouK3VM300f+83O5p+ouU2962DgUAgBNCwDs4AACAgBcAAAFvPhDw/oO9u4Bu5Lz2AH43lrwQZmbm tUberYtu15LWWZLkqtzQ6QkzJ5bUKYYelZkCBZ3VyJuFNszMzC/MuMz+3v+q81zIxjEIBv5zzk+y C4mlmW/w/90bMtW26tPO2VRpm/VxPfZuXiQZe6t/+jtbQXyFgh3gJcqdvXEkk58aSRe/jW1pAbwE JkBW4vPdr1V7o9nCca099kFi2+uBEBERkQ+l7U302ko19Tovd+6W+jewCwAr8AYfdVYmbjJt3oGb KnVIuW3nrnL7bt2lti3/+T/vvL4zAkJEtWf9wooOjMFS+zY6Br2ouzx5h4F9Qmn/DUCIaHC2Les1 e3zrv1f//Ur3NyBE/4wBXvIjMTJm4LxkrrVFo86BOkod40G8iIhIDrfHDWR3ZtrbeTZjhL9t4O+c YU8A8RRigNfjJJdrccfPFqMai8hhcSx6FF6oXvDgUzf+SLb306j4eCgGVVErP+K9D26CR+E1WAXG 597XSpF4vweuQhv4y/F+sbakb8kUZ0WzdkwrYILUFDHAS5S2d2lJF77Wki3+FNvOQ7AWTMgshL9G svlCJFv8rE4IASEiIqImwE1TTLDZJ9JTTOG66Cgco7+nE2/wPg9V9W/H+5PwNvSD8bBF8DhcF03n L8H7+fp5otnej8nMszYECSgGeD2JgdvkbGufVF/sU6lKvAcPr49NOdbZybL1ffz8w4QT/y1+LyUr savxn92B0MMjCcd6Hu/vusworIV34Tl4OOnEb8O/cz5+/n2qHLsQv5+adGJfTVTapkxxJu2VK+3f ChJGRBgDm2McWlOdWPbvY8P6QbIS/7OOzVTFug9j5wWM0SU6tnxuGbzi7hNuxGeq4LP9BM5NVGJf 63KsT+rEAA0xggQBUa6Ua9HtOuG0fyblxA/FuP6mHn9xvJ2nx0Ych5+EtzAu+sF41CJ4Dvulu7FP +hvG7OX4/eKEEzs+VbampWa37z9jrjUBJOiIAV7vIJ0gpPsf3Q/p/gj71IuwDVyGa4wFeL8T5xlP 4/19D50DvQQPwLU4BvxFz/fwfpqe/+EzxFKljs1AiIhGA3mObfQeLJ59fxGdWs9C3ubHkWxhtt6n RZGnB/H+MiwD42vZwhLcN38RPz8A17uf8Qd43n169bPP6v24Bn9BqN4Y4G0mjPkNorMKk1G87RvI enzffZ50DTwG74Ops1XwGjwCN2EsVloy+V9q9gRj8euRTO8nJde7vYiMAY8vXLigYi424OnYqZ2L wfQnHDgfXmcwl16HaxAg/SFa2R+Nnzv0ATcINY6vA7xEuVPHR3ryXQjAXOBOhDD0AavhFhyLzkbQ xqrDyRQXLly4cOHCBTOeWzP2AZik+SW9qYKbGlfg5+dCcq7R707g7NObyHpzKUiVexngpUbpXrDH WA29ds2OpRLl+NFJxzoffu8GZO+Bl2AFGB9ZCy9qqE8/C9579WG2fk4NP4H4HBHG7uSNMGY/gbDe MQiV/BTb+k3wHhj6F0vhXoR6L9FJBxrMmTJn8tYgXkZUnTjjxBPYZk+H37nH5GVgQuLFajC5el4S /5IG6wJ3DCcGeBuOdKKfBlx1EoROHoAr4RUwAfQOXAc/SJStb0wtt7ezii8RrYtkzt0cHWWnoHjC yS3Z/K9xr+guDbXyOfcHvK+FMbRYYjSTP1VzAtqRF6RmiAHeBtHnKBrQ1xwHfp/jPmfpB+MDK/6/ U7QG7XUsagd/kBogvNBwHXVUVAeUHhzcWSCvgqERWwV3Ycf0I62iqWFoEKWIFXiJxqbzu+vFCwIi fxv+jELCSdTzmJ35c5jFVghEREQjhJuCuDkxFTdVv+3Ofl4MZgAtggVwhp67gfgUA7w1RVqBqVo5 14kdgWp333aDbDcnHetl6AcTIivgfoSBLk1UrJOnOm0dfJBNfpC8YtKuWlnWDes+CGvA0Iihonfs T6jifUqyz5rc7GAgkU4yqR6nHetXCK4+6k5GMfQvFmrVXgTRCgjgfTZ55UHrg5BvMcBbd9RVsjZO ldu7kuW4rd0IBiZChNdquMet2JvrLrVtCRIeRIRlTOssez+tsIlczO/cLm2GRqwfHkNm6/fIEBzb Oqtw4KgKWnFhgLeOtGOjG9i9MoghfQ0haxdH7eCo+7m6jkUuXMb12Lth5388wmPzsQEuBVNX9IQG eqths257I5DaIQZ4yRcQ5tfQrlaSremsI1oGczFL8VC0+V4fRBG1ZvL7Ytsowhx4HF6Cd+voJXhM 23Dg/Co/NmPvBVIrRFjGaFsXbfsPc+ExndBQ5+36bexfn8X7Pbh2+CMuVk/Qdlcg5Ee5lr/PhC58 C+6CtWBoqPIP6k0/3Jw6CMRPGOClkei8vjMydXbsIIRTj0yUYz/SlqrwOhga1Cq4V4ORiUr8ywgF bQvSTEQz53xiQ4zjDAInv9BKlGDqit5LOPGyVjTurli7g9QTkYbKtDq8O8afA0PDtgoBtOsRxj+z u69tPxDyFQZ4a46sX1jRasDfiV+EdfgwGPpID8L5OuEzmBOaiAhFIbZA3uWreE5wOe4dvQWmrug1 PAO6tPoMfKa9HQgNGQO8NYRlTDTdO8l9Pvk4mJB5C2PxT1rAU/eDIDQEH/JfEAaU+7D2P5s++4VW wZWa1q9F+W1igNfLyN6Bod2GWgoI8xZxJWm3goQQ2fZ62AZ+7IExtxZB3v+uyaw8LlwQmkVLpRs9 sa/FbFo99wLxPpLcqeNbMvls7W+qMswbzeZPlGnnbAridQzw0lB0zrW2wIPqdLIS/+9kOXZrTUMQ 9DhCQT9LVWJfmDbvwE1B6o0oMadtO60M7YbvV4JpGnoc7bW/p222QWqEaNuEEzvebWm+GkxN0XMY tz/WEJpty3og5GkM8NYEdS+YvBHG/qFYZw4sAkMj9m61Q0El3tP5u85xIETkT2N78nviXmgvngvc 0eSCEJQu3o1Q6rlDKSBEDPDWggbHdZtDscqnOQYHrIlki7din3ie7h9B1o305Z9QtKfQhg3nQszK eI4DyZPWwA1oLXDcyB/+EgO85CkIjrbMKs7ALJySO8ZNU9B7OJn8xUCVPAqNSDZ/upe2Ra1YCkI0 GgiDX+21CRMyq3dHEPIgPRfJ5Kfr7Hysq0Vg6oaWV7/nWYVPgXgUA7zrRNVW0X2xGRpOcStK9YOh RrSajd0AZ3Y5sX1BaoVIWxdr1VfdxjzbMp+eQ7D6P7r6rANBiIZDxzgqvJ+IapA3cow31Is6btEy 3wIhj2KAl0aoo9QxXq+LEpXYJdjHLqnL+qelOEct6feslY1BiMjbNNeA0O6ZcK9X78tS/mENqI6b kd8VhD6IAd6R0UJZmnVBzvAK/L4azGCoeCfyfqdI9rxtQf4J4YUQBNUNRNvqgiHfWI5KnX/GwXaq trcFGRpigJc8wJ2BWLwA6/sNMOQp91SrnifPWB8kuAjLGK9NWtJZiaOpwsuFS+ssez+P7lvPACHv aM3k98W5yP/g53fBUIOhCkVLtpjRG1wgHsIA7wCaWpm4i1uR80pYDqbp6BmELb870nbdRFoZEpWz u7Et9fmuCifdg6p0J6RKHZuBrAuRtiBHtd1pCSde9kQ1bXoMTuqsTNwEhLyDAV4aLhyDJ+E8/DcN D+3S63B+8opJu4IQkXdI94lj8XztS1p8zlddZakfrsN96a/LDHsCiCJW4B0uOdwep3mKEXf0pzVw JbJrPdJpR0BCDy+hhY2hI5rJ/x7vy8CQr72krQgkd+6WIIMiBnibhxC2b8nmP491fD0vZnxTlfdH gW1nQJ4NOnKbo9HQme4e3afOBWkuqt5YzRa+guDujZ7ZNuhxVOU9Uishg3gBA7wM7SYd6wy409tV dilVse5DSOv0z5UO3h5kMESHlNq3SZRj52lFVzDkayvgMg0SgSgiPRboBA9sG6+AIc9ZqsG/xOy2 OEjTEQO8Q0Iz53xiQ1RsPgrr5F4wTUVrsS6uTjhWrvP6zghIcxDR2HR+d+3ojXtIb4IhX1vYkin+ eGzG3gsk3BjgHSotEIp9wHn4+XUwNUEvQ1Fm2tuBhBZeQmWgfHWmeDsHQSCtQFXeSwZvAU8M8FLD oZKrOwPpCTDkO2thbqQn3wUSHIQL05wXtzn8XbNAiEbCnaBnPOgJkOYg6bY3wnXCyfj5FTDkPThX fAGOakZFXlbgpc7S/hugvfaRSce6BQz5zupkOTZ7aiXeCfLPiBKzJ+6JbeQHga2iTfeknPih4W0v TQgzWdU27o61Cox/cNxqtWSQpiAGeAdFU+ZM3jpZjttYF++CIc95TjvFzJhrTQAhosbAfUtLcyhu 1UhDAavKmy5crTmyMHcIZYB3cFqxGQWEzq5rR0dahWIvf4r2FNpAwiY8HxSDCQfVE1DG/llu9KFx ZSTT+0mQf0UM8FLDzDxv60i2aGOdvg0mCCh/L46lhwajlQFFsvnTPRniyhROAiEaCbfKu/GgRSDU WJK2d6ne4MkWlvAY7hPp4t043/gcSJOEKMBLWr0RLbZ/m3SsxWACgR7SKmF8mE0a6EYAZX5oKmnT i9inn9D5u85xIMFGYmQMxnca6/12MORPCcd6FOHrw3Ol/VtBqKEY4F0n4sQn33lTg9bT5h24KUjt EVG1OGC2mME9pNvAUCg8olmagSITIcIA77ppJkILjzS8OAzdoqF6kLAI/gdEcNdto/sWGAql63Cw 6QQhAAZ4645y9k4tmfwvtSo2mOAhhHifiWaKR/g7yEuevRhD6xEQohFB+M+j+841INQY42bkd3Wr Ma8GQz6ULszXlnQgDRfoAC/ZtqyX7IvN0PajwX2QSynHeksfZncvmLwRCIVHqtzeFepQH72SKsdO CWaIn6rH8HL881jPD4IJCKpYLyTK1jca2hKeGOD9V+TED8D37nDik28txPXtN2fO+cSGIEQ0em5w 94u4j/Q4GAqlJ7ANfD1Mz8EZ4P0g5Kq6m9xhmrKFO3Q9gARdcD9Y94ljo9n8iVihr4Ihghui6d5J ICHHAG/9UO7cLSOZ4gVYh8vBUCiCvM9V213nci0g5C/ueDUe9D0QohF6FIwXyeH2OJA6IvdchJOI AmO5dnPQ63uQRglmgJc6Sh3jtc1o0rFeAkOh8QackbzyoPVBgosS5fgnEo51vbveiV5POLHjrV9Y URDyN624i/Gdw3p9BExg0VOJSvzLGtQGqS9igFfRIeW2nTEx4hf4zteAId97O+VYZ+u1LwgRDR+W MS3Z/EwUCHzQvRdH9FRLppjTbQMCvTDA6wKZaW8XTecv8dT3QLfhWdFnQYIqeB8IO05t7Y0w0Qvr WKFE/Wit/CetyAUSUgzw1h7NsLdwwzLLwFAoPabHX3+1FCGM24s8uj2dD0I0Qp6dFa/dQUDqgLrt jTAT98LAnovQ443sqhKsAC9pcDNVtk5POtZrYCjEQd6ydVzgqvuRWzEutuBD1jvREyknPguEfKov 9imsxzvBUGg8iElXSZC6obAHeMk5aCs3uLsKTODQi3CYToABGRoiimR7P437SHeBIfqg4u2RWb0f BwkoBnhBjjoqigD/2XjWtMSz2yItiKbtiSBBE6gPgxXVgR3nnUNYoUQr4GKZedaGIGHDAC/VTPKM 9bG+vgWLwQCx3fV9Ppr9RAzwkt8xwEuYOIIJekfi+30dDAVaP6od/FzPP0HqiQHeYNCgJh5OH+tW YDVErocSlbYpIORvU5xJmyPc92Os09VgBkcUv7FrdrwNhPwBY3wvVBEssZ17iFViV3c5sX1BqPYY 4A0nrUzvdiV5HwwF3j1d5djHQD4cEUna3gX3l0u89zoklC3M1m0GJGBCH+DFfuBgVt/2jbUt2cIv tCMnSGDgxf+y9g7RTP4yfaAHZhiIXkYbhM+DhAoDvDQ6brXzYg4nMs9/yDokmjs2nd8dhLyLAV7y MwZ4SSdwsipCKD0VzfZ+DKReGOD1v1S5vUuDmmA+BNHc7oq1Owj5SzWc71gnwTtghoFoTbIS/++Z cz6xIQh504y51oRUOXYhq0KSawWc31nafwMQqh0GeMMo3q2V6cFQqKyFX3aX2rYEIaIBbpGq4ndx H2k5mGEgWgrnaLVWkIAIbYC3WiQmnT/ZLQJpyFfe04rJkrNbQfzO53+8jImmC0dhpSwCQzQK1+pD WpDgY4CXRgf7XQvr6BYwH4FoFfxA25qDkPcwwEs+xQAvTcD+6wKdZQuGQmm1bgP1ujHDAK9/HVJu 2xlVFv86xAeZRMuSTuzMXCnXAkLel3LaDkb45O5RrneiV1G9+VAQ8hbsk6dj/TwHhujfvIIAYhqE aoQB3tCYMmfy1olK7BLuR0LvPVQ2PwqEYkKEwNdUFqmiGngy0pPvAgmAUAZ4x86090DH2lu5Lftd /mG8d4D4mb74Umsmvy8HEtXYMp1ZocFwCPLCAO/IUM7eBhczf2C18xGgV1Gx+TDv7V+5MMBLfsMA L1VvrqYLL+j3SaT3BGSmvR1ILTHA6z+2LetVH0Y61iIww0R0f6LSPhGEvKmj1DEe4fyLsK5WgyGq kT4NNYFQc6XK1rbJslX56HVGFL+0c661BQiNDgO84ZBwrFzKsd4a+F6JKtb87vLkHUCIwgj3l7fA s+5LeV+Vaqi/JVv8qVZ0BvGx0AV4WzKFL+F9MRgKhLWRdOG/fT0W8eIvnXYEX3qe5aupjq4NeHiU Ad5hI4Qvc1gvb4MhGoWbvFXtnBjgJd9ggJfS9ibuRCJD9G9ei2R7Pw1SKwzw+kvyikm7IsxxGx/G jh5bdMd7O6/vjICQdyTLbZ9GsO/pOq13ojenOrEsCDUH9r1fwnp4B8wQEb2hoUSQkSMGeAOur31H diYZBL0Hh4EQhQlCll/EfaQ3wRDVWku28HQkW/gEiE+FJsCrmUO3w6MJJI7F//VrZWx98Y1xPfZu +MJvA0NUZwtR2etwkABigHfIaNyM/K5YH1eBIaqRZaiWZ8tRR0VBqLkY4CU/YICXouneSZgN/cwg 3y3RalRnPrtW1f4Z4PUPDV0lHetdMES1kHBid3WV23cDoeayfmFFsU7Oh7VgiOpJW4t3layNQagx OisTN9FqqiNdZ0SoKlrS7Qhk+IgB3uBKlGMZfIdvgxkUUTk2e9q8AzcFIQoy6bY3QhfmS3j/lBpg jQZDJWe3gvhMKAK8Mqt3R6yj27mtBl4//EAOt8eB+AZefMGt/vgeGKJGiWbyl+FgtQFIgDDA+9EI M49wMXMy2wZQHT0QzRbaQahpGOAdBP0fe/cB3lZ19w/858iyw16djJYRukJCfK+cNASoIZZkk8aW 5IryFrrbdKYtbSDDkt7bvVugk/XSPVRLckgIZZNC2XvvUWZYYYZMn//3pHr+BrK8pHvPuV89z+dR hofuvvec7/mdAGCAl7LZSGMml9fhTFBE24LBin+WzrnNIKNgQICXOpdNaEZo4/QadWQSPZssx7pB /EEbK2uXnH/XdbsTVdyHE/3uNBCqrXilZSbW+ROgRonovhEet2RdgJemF6dvh3V3MiiioUJF7odQ sfkQEBsRRbvz03RlVLabUp1dp4tTgpjE/gBv76F4fxoUhUXu5qZu730gJgj+B+w6cSeEyP7m40Yl uqOpJz8RxBIM8G4VbQwspArX1mVbE6vlZfLf1oFxEKo7BniDixjgpcyit2OdXQpqeIgKy2XWgt1A RogB3oCbWZ66Byr2La95ZyZRKXaqDouDUP0ky84nEyX3ZZ+2O9FqhKC+AEJjz/NkXKLi/C/W83pQ RGNkHSwQJQ0gQ0KWBXipo8+ZjPV2F6gRIFqbLLnfsOo8SuR546phxPWgfED0bCSd+yCIIawO8Fbz UatBUeisiqbznwcJukB/uKYe7z06PAnKV0SZ/MuRVP44EPMxwLtlhOmpP+ZD1V2ia5p7cgeC1Bcx wEtBxAAvRTOeg0qqD490PRPpyhqjurdggDewENw9CJ2LD4KqB6J42bnmyOLBe4HUFumwdKLs/DYg 2544Nf9f2ooTdwShMbLEfVOy4v6zhtuNaElbZcquINtENgV4qeR8eEwGPxFVYn+bvcTdHsRkRHpg f2Mqf04w2vKI0/gXfqBnGgQJOlsDvNVZpzeACi9CBvWvge+jDeoHi3QXZmMlrgQVIEQnD15gjcUA 76ZotvcmrPd+UEQ+WaVvoEGoXhjgDR5igJei6cInORKaxsgTCIK7IMPEAG9AJfudw9Cp+Dwoojp7 rKPU2gpCtaFD0ljPV4IKEKKbOypT9gWhUcI5FOvzUVBENXZXZ3/L+0C2jswP8FK2mI3Ey+4PsL4G QBGNkZtMvv8hQkDrYBSruo/togFD50nK2xUkyGwL8OoZgHE+OHPw5xDlbsS+vi9IIAXvA0kDwiTf 0aMRQAUOUSZ/tnSduBOIoRjgfR1qTBVmYp0/CioAiEqS9XYHoZpjgDc4iAFewiA53KOewusgjXng tbv3EJBhYIA3gDoqsTZ0JL4Eisgnr8YrznEgNLbay+6hWL8rQAUQ0ZMd5ZbpIDQyujIk1uMqUER1 8iLCjSmQrSCjA7yULE7fPVmOXVij9U/0lB5AC2ISokim8GG0Ib0CKoCIbh/f4+0PElQ2BXgl6zXh vQSK6A2eaezJtYMETbA+zCe88agG9zcDNijRLQYHTBngBSAEZRozhe8FbcAEkZ42PZrJt4JQTTHA GwzEAC/hORDr5x+giMZcJv8yRlYfCTJEDPAGTKLfmY0OxNWgiHw2kKy43xIlDSA0eoly7Bg7j29i gJ/0uTJZdudj/W0ARVRnA4lSzAOhzTI4wEu6OirW0R2giGpotR6EA0JkAgQPFxrQ3030dGOm93CQ QLIkwCudc5u3MfM00XpkU78AEiTB+SCotocQyXKzNipxSlZvCohpGOAlSS/cQ0/XACqgiFYjyDsH hGqHAV7yGwO8VH0OvKzG657oFexncZAhYIA3QJIl94ighfuIEEz7Q9slbY0gNHLxivtVBvvIzjAg ZYsTmxKV2N/83m5E8ZLzi2wxGwF5HTI0wEsdfc5krJ9HQRHVwQDMAwkqoo2zumUKv2bbJxlkTSSV PxokaGwI8Epi3g6NqfwFQ/y5RCeL540DCYJAfIjmLm8CVsw9oIgM81xjuvdQEIOEPMBLOngeyeQf 4PFLJsAgnz9I9vjtQGjsMcBLfmKAl8bPzu2H9XIXKKI6eBWNkAmQbWCANyDifS0xPQUyqMAhKsXO nl6cvh0IDY8OPydK7hkmbnciBM9/svUq3NRWnLgj1tX5oIKCeM2evcTdHmQQmRfgpXhf7Cism5dA EdXZ9wN5/0PUdeJOhharIlofTRc+CxIgxgd4JevtiPfLQQ0VUTSd/yP2nSYQ3/n9AZp6vPdgpTwK ishQqyPpXAbEECEO8BJGTx2nK5CBIjJH7npJefuC0NhigJf8wgAvNffkDsQ6eQQUUV0r8XbnDwPZ GgZ4gxDenXIgOgmfAhVURPGye0nnsmk7gwwN6aqcWHf/AEVkrtgf3VPdKMjr0aylk3bD+rkiaNuM KFl2L3vdNZsMC/AS7juzWC9rQRH55DTPk3EgQUAkKW9XtB9dAYrIXIUfgASC4QFe6ZzbzMq7NArn BaH/1tdfHu3Jt2BFPAWKyHDrDJrqPYwBXsIUItjup/BYJYOtaOzuPQSExpD5AV4iBngN1Jz23uXj IE6i53VbBMjmMcDrt67FM3ZCB/XtJnRiEiUr7g2J8uS3gNDWtZ3VNh7H9lI7tj2Rs0xfr0AAKL64 ZU+smztABRFRvOxcM7M8dQ8QmmpSgJfKsWOwTtaBIvJ5MMTpQQjxEsls700I6t1gQzslUSRd+KW0 eY0gPjM2wKtzMKiiWhzl7yD6l67sDuIX335xtKc3hhXwDCiLEJ0snjcOJMDCFuClxLwdsE4XgyIy 3Gp9/gKhsWF+gJeIAV7TVIORj4Ei8tEKvS+CbB4DvH4RJQ0GVuckuivR37oPyBbQeZN3sHBKfaJb jyq1vBMk7HSYWQ9oMGCbEd2hw+YgYccAryHKzrFYH+tBBQORc6afIV4i6Vr0VrQf3QLKIkTnS3b+ LiA+MjLAi1dDJJM7Y0x+D1GqcK1kvd1B/ODLL41256dh4V8EZSGiki7RDhJQYQrwUtZ7m77Q8Li0 CA00ZgoeCI2WWQFeIgZ4zdfckzsQ6+EJUER+i6Tz9+tGf5A3YoDXP7qjnh2iZCJUln0oudiZAEKv N3uJuz0qxy23dNsTPR6vtE4BCSsG9MlAd85cPO2tIGHGAK8JYp/GuhgAFShEJfcMUdIAQlRP1fDu XaCI7JO7VbK9e4H4xdAKvD8GNaaIId6UtytIvdX9Fzb1eJOx0M+CIrLYJYPltYOHAd5waOrJT8R0 AQ/xeCQb6dF0MmdOFIRGjgFeMh8DvMZA4xMCkw8GapsQZQr/lk9440FeiwFef3SUW6azuhQZ7pHE 2VP3AwGgbHFiEwIo51i+3YlWotL0ISBhc2Tx4L2w/NeDIjLMzTPLU/cACSkGeAOuo+xkAv5sRHQy CFG96DBVYyp/A9szyWY619Hc5U0A8YFxAd5ouvDJ2vw+osKVkvV2tLoCb1M6914s7FOgKBTYGdzp 7QwSNAzw2g/73xFYjytB0ai8CLfhIr0c7+VIOnca3r+LUXDzo6ncF6Kp/JxoJv+ZSLqQBYBM/iP6 36v/9zV8bS8eKn+Or/8D3s9pzOSvqgar14GiUcD6lMS8HUBoZBjgJfMxwGuE9MI9sPy3gwogYsPo 30WkQQZfDPD6oK04cUdU8bmXnaBkgfs4NTeAe6obxfroB0UUAi8lS+4RIKFRbjkYIbOHue3JYDfO WjppN5AQYoA3yMqxONbBalDBRuScAEJUa5Kdvwtnm6UQeUzn6kDqzKwAb6b3cLyvAUVUIxcOFn+p j7r9ovE93v76ZAOKKEQukezx24EECQO8dotkCrOwDl8FRUOySj/46Yqu+PM8HB89CN+6OmwEUjNt XqOkvH112Pq/I8QK38Hv70cA+AG8D4CioShcph/eQWj4GOAl8zHAa4Dt9cC2QF9LiDL5RSBVDPD6 IFGKncrOT7JFsuLeoEPpIGHleTIuWXb/ErJtT/RSot+dBmK79rJ76GD4j8hol89e4m4PEjIM8AaV ruhecl/msUmGGEhUYp8GIaqVjW3L6fzloIhC5NHxs3P7gdSPOQHeavbwaVBENdavMz0g9VCfX5L1 dh/sSCcKnaWDB3UwMMBrL4RQP8TRRlu1uhoi+rGulqvDGZLNRkACBdW7ER6ZgQq+X0RVuD9yyvFt QAB7ZIFrYoCXTMYArwFwjcVyLwEVcEQbMAguDQIM8NZZst85THf8gSKyyJJsMRsBCSMs/49BEYXQ s8m+1okgtuqoTNkXy7kCFJEl+kN4zWaAN4Day857sewrQREZZH28L3YUyFgjEs8bp2dHBUUUNsgG 3CdZ720gdWJEgFdmLdgN73eDIqoHPUM3SD3U/hfMmRPVpYVBEYVX4SSQoGCA1064kfsY1t16UABA q+H8xnRufmO699DBMvcG6vL21KFjHL+nYJnuAUWvlbt1+A8yxAAvGYwBXgPgHPMzXp/IIC819Xjv AQZ460iHJdDhdxMoshAr8X4LJGziJfcz3P4UZvGy+1BnseXNIBZ6M5bxTlBEdnF+CxIiDPAGTNsS 902ovHsvj0Uy1Au1GMBExLZlovwV0jm3GaQOAh/gxauBoX7yR+4EkFqr7Q8XadCVA7kxgUIPU/J/ AiQIGOC1D861n9eVw4CjYDL5ByKp/K8wiOSDkpi3A4iNmlO5A6Lp3JcaU/lzsNyvgKL83dLduw8I DQ0DvGQoBngNgHuTT/G6RAa6RbLHb8cAb/3Ey86X2NlJFtvQ3uckQcICU5x2YrnXgSIKuYtsq+iZ OG/yDliu60ER2Sl2PEhIMMAbIG1ntY3HNrmCxyAZreQ+MJYDmIg29n+ynVIjVuI9HaQeDKjAOw8U kQ8GcIwcA1JLNf3hWIgCKCLa6AXJLHo7iN8Y4LULQtlf1heNsId2EUT8QbQn3wISNjqojOmeP4x1 UYJXQ/4g8yBDvAzwkvkY4DUbBnMeieVdC4pMxCmRGOCtj85l03bWU42DIrLYozr0BmK9cuwgLO+L oICISu4XQSxyBrcrWW5DvBTrArEfA7xBIUoaMADqbzz+LMFZCC5xT3WjIESjgbblDs44S/QaqVwC pA6CG+Dt7j2EfU7ks1eimXwrSK3U7AdHenJHsRrkkG2AJxE6ul/Dn68Lttz1+nOiqtZDjZn8y8NY TsrkF4H4jQFee+jqdiEO7z6lp0+JpnqnggCQdJ24UyRdOBbr59wQX4fvlqz3NpCtIwZ4yTQM8Bog 4+2tr9GgaMjWwnMYlPWwvobBdT65G54AVvbP5L/NAG/txSuxE9nJWTPr4Lmqx+D+N7gPrtuK2+D+ qudgLShiiG9L2ovuLljWe0DRkLwI91fdAtcF3J1wf7LsPj30ZSSsr7tBbKCriQ992al6rNxfdb0f x22y4t4w+Bk4uGIYnp9ZnvouEMsxwBsUZeeEba4LWg3PVT0I98OdcF2N3Qr3Yzs9jPdVoGhI18Cf ghCN1Pgeb3+0GT0Liobk2cGMUe7GoOeM4J5qHup5UDREmI0XpMYCG+BFRe6/4P0RULTRkzjebx5F 3u/G12QTV4KiIXtEsgvfDFITtfih1Qvrc6BosCIgOgHPxp9/unGq+1RhZlO3976NG1ekAcx9YYpR yXrvwPLNQGjs47qzE8v4d1TEvPcNwULK5CsgY4EBXsJ27MG6WgcqZK5DwGWOPveAbA317oWbsPl6 wEUop8BOL9wDhLaMAV4yCQO8BpgzJ4rlvALUIMJ1+D94P2/jwKNM7nOomj+rKe0dhHX2JslmIyCB g22p7yP0cys+81w8z/4Gn395iBrQNzDAW1PVaWLdx0Ftgp6Kl51r8F7+b7XD2I/w5wXJsvPZZCXW kyy1tidL7hGJiuPGK61T2kut+x9VannnrKWTdutaPGMnkFrIFic2JYvTd9ehFlRtm5Esx7r1Z9Lh ClRa+g3ez8H77fjML2+yTOzELoLYSpQ0YDn7QQEAvYBjdznWz+l6sEK85KTb+2ItnaVpe3cum9AM YqpsMRuZuXjaWzv6nMl6uXTwCH6LZb5y03AL6WrzIKbDNr70dctGz+P4vkxfp/UxoK+J+hiPL27Z M6iVB6cXp2+XOHvqfon+1kPiFec4fObvJkpOXzUEtwEUAOn7mcF7KnsxwOu/jkqsTQ+8C+FAwztx DroQ6+DP+PPJ/93Wzhy8p9rL7qEdi2PvxjPHHvoeEyQoNs4g0+e+J15u/UC85H4Gn/3HsATuBwUA NKDvEUGIhkv3+1ZDqAoA6CkEKy9Ae/KvEWI8fmO7co83Wc/6rNtvQYyV9Zqky9sz2tMb++8ss7le 5IvOwjLftEmlVVoBUnMBDfCGNHP2IlyK/pmf6GyXzuLp/JQ+bkDGVOfcZp33i2Z636/zR7ooZTSV +wN+/zXwEqjXoQtr1a839j8QndL6pMqKuoWr8f7dSCbXJV2L3goSStn5uzRmCkdUT/b/gjWgQmwx iN/MD/CSPreE7Ob1BX2D0tzlTQCh4dE3EdV95kJQoZEqXCud3s4gm0UGBHiJGOA1Cc4pJ/HhXQ+u KlymBzVGuguzJe29BcQaIg1N3flJaMD5qn62YbUEBnhHCqGXz7NCrnsb/AnmJfqd2Qj7HdRWnLgj iOk6iy1vxvLEdXAR2/ovYQ8HIQi0FMRaJWcRgwruowjxnYn9/lPJvtaJnifjQMKm7ZK2xvZ+d5IO 4VSnA18BKszaKlN2BTGZ3p+xLGtAhdh9cJo+xjv7W95n1zFeDaXp63bJzaNy7z8Zxt/oH4PhQSsx wOszHfjHcj4Zkmr0J2Hg3yf1AEQ9kBPENvr5Rz/T6cERWO5/wbrQD3RZ7EwAIRqOamBMhdzdyHGc giDrR5pTuQNAwkg+4Y3XM/Dq0DLWyRJ4EVSIPW19gJeeQSGYP+qCmRsLgXreOBDfIWOCz3Uwzs9f gD8MFo0LuUzheyBjbcx/ICrznBnSjfQKdti/6WnLt1IymRLzdtAhMhzYv9dVmnkg+8LwAC819uTa sY5eBRUCT2Cf9WTWgt1AaPSqN1l/CFEA/ArJejuCbIIMCPASMcBrCtzjfyjMDWhY/jMAgzdP3Akk NHQDTnd+GgbNfEs3MIMaCmKAV1c2C1kH5nNQRgXdL3eUWlt1FTyQMNEVO1Hx7xO6Gi3WxUpQ4RH7 EYiNdDVoLON6UKFTcq/C/jxfV6IF2RTp8JuuFI5z/jf1NNRhDHaDmK4a4H0KVIisxTnuXBznc+N9 Uw4ECRN9n9Le5yQRxP95Nbyswil2PIilGOD1kR7woqt4W3z83IjlK+gBiiBh1F50d9Gzp+hK7YNB 7dC5cTiBbSI982pI2/rW6wq7CKp+Sc9yDrIpkjavsbE7fxjW1c+xrzwcwv3kUhsDvJS79b/94b2H DlZ0DT4dMMZnPwGf/RJYByqEBnQBH5CxNKY/TJdTDtsFFc5FSfePMhw0Aijrr8v8Yx2WwhIki6a8 KSA+MzjAS3oaCVR0ezkEx8udekBEDaf/IEyFoCslhiQMvnSzN75kQICXiAFeI2S8vUM4OO8VPSgR wdWZg9cYimY8R19bttaQSgzwoiNzahimDYXLN06d39cS01POgwCQDi3o4CechU7tl23fF5LlloNB bDNr6aTdsHz/ARUWuoocqsf978gCfaSnncZ6/D48Dsp6CD+CWOLnYbh2bwzUVdwv6KnbQQBIDz7C uvkp1tEjoEJktR6EAGIhBnj9VIp5Fh4vG2BJe8l5P8gg0gNh2svuodjup2IdvRCye+efghBtS3NX 7t267ztsM4hGM/mvSWbR20FoGEQadEEJFJb8TVhmh8O+8kWQ2qpHgJfQp/QfXQzFlgrburhpNJOb i2W7JoyFfaTL2xNkrIzdD8r27qXLOoenImT+27qjGmQMEKaWxYiZE7FuHwFlqSUgAWBogJeq59lH LL9peUiPstQj6UDqgPT5N134ge1B3kg6dxrI6xADvP4jBnjNJ9KgqwSE6KH8HtyvfF46vZ1BaAv0 fpHJz8B0b2dhna0GRQzwahoCm7+2uJPyVnTKLzyq1PJOENo2PW13sux8VlcztXSf+BOIjVBV9e8h CR+sg3/o0PnYTKdOOsSvp5lGGPoCi/ebVZ2laXuD2KAa2H/U1ir58Yr7k86KewAIbVG1GnMsHi/H SmGZHl7PGjF7ibs9iGUY4PWJDrhadvys1sFUDm4aeoVzPSsJBsZcG5L76A3VgZtCtCW6kJMOs4al IARCp6dHe/ItIDR6ur8FBcE+jmqgN1q83zwm2eO3A6mx2gV4aTX6lIrYTzvE88aB2Kipx3sPzuc/ CUmwHiCV/6eINECAXtjJQtFpi5sHXFSPkazXBFIzrMr7UZy8brZs/3lp/OzcfiABYGKAl7Lzd8F6 uc3m0UYY2fUZHyvuEo45XOPOrFaXV5b6OsggYoDXb8QAr/kwvdfxIXkQvwHXyY+x2u4IYBQ2nu/m syovA7yankJTB2VAWWR9ouz8tb0v1gJCo9Kig5KwAZTxSu69OvQGYptkOfaxEAQOnk1W3G/FF7fs CVIjhOqWOuhuWxgQYYRvgNhEV5TXgT/LKmrPSZw3eQcQGp6N58aSmw/F1PAYfAZiFwZ4/dBWnLij vj+0p9K8cwGDuyNWnZlm8B7IWhX34faiuwvI5hA1Zgrfs3+G5vzDug1dUt6uILVBjT25dqzv86wr UJXJdYHUw5gHeOmRxkzuG5JeuAdIaGS9HXHe+zKW/+6QVFX+CshYGJMfAl+xfKVfgpNVAqQ+SIfC dcgUneT3W7D/DOjgN0hAmBbgJYRasU7Ot3W0oa7+qi/kIP6jpnTuvdgu54Ky0AZUnc2AECvw+o8Y 4DVfU7f3PrsruEMqfw7ePwBCo6PvafVzEf58BahwYoAXAaBZFnVGrkEH/Bk167TmNPu/N7wz+/GO xbF3g9gm0d+6j+XT/z6mw5c6ZANSH1Q97sswAMpwS3SlUhDbdFRibVi+F00P7qL64XHZYjYCQqOz cXBWxf0C1u39Vlfi7YsdBWIRBnj9UHZPA2WBJ3Gv9BEQGr32Uuv+1X1jDShL/R6E6I0au3sPsbyo 0F0IsX2ivsWrqDHdeyiC4f+2ZB86GaRuxirAS3ciQ/mp0BcGReav2h90FyiLrdJ9pSCjNfofgJCd ri4KykJXwHQQf5A+qUUzubn481PmdvrnFoIEiGEBXsLUD7+19By7RFLeviDBQ5HuwuzBQRRWWcVr OyvwBgAxwGs+PHxjmS63ueJuY6b3cJCxR9WKCNeBChkGeMuxX1rSAbmkozJlX5DaocTZU/erdmav NS3UoMOIIFbC/m9rxV2E8r/YuWxCM4g/qKPcMh3b4l+gDHV157JpO4PYqqPU2mpoNf1bahfcpbZL 2hr1+sV6fsTWCpJdi2fsBGIJBnjrrewcaccgldgf2ypTdgUZW6QHycXLsf8b3E/skiw7HSBEmiad c5vRTnS7pdUYH4qk8kf7O1U+RVK5lNH7WCZfkTavEaReGOAd9Ta7CrPNp3nsvwFmtUTe6eOW5k6q CleOxXYf9crGTni2hSt4ZTSV+2qADixKzNtBT7uKbfOCSZV3AzpdOwO8BsG6mAfKMnfo0W8gwUby CW88Ril62GZrQFnkCcn27gUScgzw+oYY4DVfdQocZaGn9bOgblQAqSESaUDDTTYsUykBMMBrQXW2 x+NlNwtSN1QN8jpnYv2vBxVwz7T3u5NAbBSvxP7HzkCBW0yUJ78FJBgoWWptx7a5CZQ5nEsHw7t2 i/e1xMwJ8caWJyqxTlHSAFJbpKuXJ0vOD22sJBkvOb8AsQQDvHWkBwdhme4CZbB1uF+aD1Jb1F52 D8X6vs26c2jZfShx3uQdQIi0at+jssw6OJmzzgatAmghi+Dgg0aFwFP5P/tRuZkB3pHK3QodILRl euCG3sdsndVT95mCjMaovhknu2PtGxGT+4t0LXorSABR1nsbOtT/ZsINmh5FABJADPAaAg8vR+h9 CZQl1iIs+AN9cQYxBzX35A7E9rvEupFQ3BcZ4PUJMcBrvIy39+DAOmus2Xif0nXiTiB1RKgkEE0X Pott8CgosjfAi6n33236tJ/+VpuiamDsOlABtTJZch0QG80sT90Dy7gClDVK7r1YtiNAgod0pVRd FRnb6gUDqsotbjurbTxISJgQ4r0r0e/MBvEB6Ur0ZfdyUBbZEC/FZoBYgAHeeiq73zd9EKMOlYLU B2WLE5swAKUX634VKFvoAR4gRE09+YnWFQ5C5c2m7vwkkOAhyR6/Hdr+v6OzCqCCLJLJ/8KvQpMM 8A7bM7oYzPAqJVNzKncAZsD8p4X7w4vS3bsPyIiN+BtnLdgNH+ApUJZ4DuWsPwxiBJqFEPnDAd2X VuvS6CDBxACvEXByx3pYYdWDS9o7CMRE6Dh6u57GUTf8xyvOJ/D3b2xseCvFTtX01FG6Ys9r6ale 9f/FK+5PUNVgEf7t88mKc3Sy3zlMT7frnupGQUyhHxaimdxcffMBygaYwuZXICHGAK9PiAFe02FZ FoOyyG3RlDcFxD+kq1PgunQStsd6UGRfgDdedr5kbLWpkvM1EP+RDvShetPXsV1WgwqQF9tLzvtB bFWtgqwscpquFAkSbNRZmra3DsgGejrxS9oaQcKmGuJdCSpAXoV5/re7kb5m64qd+pptUQXJ2y3Z txjgrZNkueVg/TwBylC36uswiA+ov+V9yYp7g0X33+v0MQESXoRXAwpY/duqqrsIPZoR4CMdstaZ hQDnKb4N4puhBnhpNdbXD6XT2xmERiaazn/KotwJQCZ/NshIjfgbEQA8xaIVeZGuIgViEEIAQlfJ ClQHbyb/Mi5sCZAAY4A36DAlAtbB5dY8uOA41csEEmS6UoqulrQxoFt2f4rOyWVoULgTXgVVA+vh ETT8XoKKMr+GL26s/FOcvjtIUOljE9v0Mnsq7xc+CRJSDPD6hBjgNVmkJ3eURc+BAxjRfmqwtgtF e/ItjanCtWwItDDAW3H+YGAH47MIZsVBgoX0sxu2zz2gAmBVRyXWBmKr6vreAMoCTyXLsW4Qs5Ae VK3bUQIW5vuN58k4kLAKWIj36vay816QAKF+d5IOAYKyQ+x4EMMxwFsvZfdfBu/rV+gZGED8Q3rQ AArFeNX+JGW+2BWipAEknAiFZY6zpkhQJv9AY7r3UBBzEF4NKBQ4J2DBwYHGdO4EEF8NJcBL546f ndsPZEzQfjblTrRIOvdBkJEY0Tc1pXPvHSwvbrQNUBCRBuDL0Fe0Oz8N2/GWIFRxjmZ63w8ScAzw BhzOs6fZcXHKPxjkB5fOintAshT7qO5sQcPBLbAuSNN44v1P8BXdEaIrVoAEhR5Jihv5+ZbcC7yK BzUXJIQY4PUJMcBrqOr5P38bKAs8ocPIIMFDel/T00/pAZL2NN4wwKsHx5k2VWzH4ti7QYKJOpdN 2xkdwOf6XenR9pC3KGmwaBr0y/UMOyBmorbKlF0x6Pp0bMsBUH5CqPi7IBQLRoi34p4S3ErIlDhv 8g7Vtk5lgZWdxZY3gxiMAd460LPxGbufl5w+XfAEJBgoXm79gH5GtaSaeRaEwkcS83ZA+9AjdhQH yhf1bGIgxqJ3YFsuBeWz9dFM/jMgfmOAd6tW1qYoGEk2G0E/0CKLZma8W7JeE8iwjeSbdKoclOFe iKRyKRDz0cYwQabgVUPZygdP4kbtYBATMMAb5PBu4eN2PLjkfiddJ+4EEhSzlk7aTTeaocPnLAMb Op7VjWbopPp84uyp+4EEgQ5o45zykAVh8/slO38XkJBhgNcnxACvqXSg0pIH6PNk1oLdQIKNmru8 CYPTmpmMAd72oruLSdU7cd/9NCv4mUGHtTAA8gyf9pU1ibLzQRCbxSux/7EicFWKnZotTmwCMR8l S63t2K5PgPLBAI6LE0EGUXtfrEW3X/kyHXcl9mWQ4KNExZmjr5+gDHcaiMEY4K0xHX7FcjwIyjR4 FioGc0AExRe37Kkr2Jp/X+4+wIB4OGHGrW9Z0Da3Xhc4sqdAIF/oI/6Yj0Uk1qAq9dEg/mOAdyvO le7efUBqhxozvYfrwjugLPB1kOEa9jdYMmXqbc2p3AEgZJdIJteF7ftMvauM6o5lEEMwwBtQ43u8 /fXgAlAGW62nnQAJgs7StL31tGZodLrMmimGAG5Eg/f/dvQ5k0H8JFlv98ZU/p8WjJb9I0jIMMDr E2KA10g43+v7bAumNjtV5syJghiBNhmsaSYGeOOVlpkG3WtviFfcBIg5CJ3A3/YhMNYDYrPpxenb IYTysOHPz6tRIfRjIGSXI4sH74U2n+V13p/WJ8vOZ0E2RR2l1ta6VuItuS+bd82mjkqsbXA/MdZ6 HVoHMRQDvLWXM3Tf/gfDu8GmB6TpgWmGn0N1UHw+CIVHtdrpKlAGexbh3SNByC5Nae8gbN87QNXR K/jdHSABwQDvpp6vb+6FJNu7F9b7FTYUlJWs97baVuAVacCBe6PhK+oKSS/cA4QslfH2xnb+F6g6 uFP/PhBzMMAbSAgmWHAxeiSa6X0/iJ/alrhvQgP+3GpodwMoy92BBsGFif7WfUD8UL0/mG96sAah ro+AhAcDvH4hBnhNhPPFSYbfp6xDA8CXQcxEke7CbN1QDspADPCWnS8Z05FYcn4IYhyqZ1ACz5nO sSD2c+eBMtiLDPfZLVvMRhBi8eo0aHstZkf6MMiWUR0r8T4fL8VmgJiHOvtb3mf+AJHYuSBmYoC3 psqT34JleInh3VoibK+vGN7/9YLuywOhcEBBtDMNLwL0UFM6914QspNkj98O2/rk+rXx9h4KEigM 8A7CrIB64AFInVHn3GbM9v0nC4oJ/QJkOIYX9EjnjzF8JZX0iReELFefKk3XSXbhm0EMwwBvAGGZ vwnKYBf5ejwoafhvVS/nr7q6DqgQ2gAXJSvO0e6pbhSk3iLpQrfhVaSfl5S3L0hIMMDrE2KA1zhd 3p6GV0h4MZLOfRDEbKSnqsL2vJwBXvNgcN1JhtxTP5o4b/IOIEaiegROBxA8+hyI7dqKE3fE8q4A ZajH45XWKSBkv2pFz8dqWckZoawUyLZRHSrxrjC7+ilBtYq2e7PRFST7ncNADMQAby2VnZ8ZGEhf 3rlsQjOIOShectLYfq+CMlG87P4AhOzX3JM7UBdXAGWm3K2DBd3Idpjx+0PVNlhVIyuiPfkWkKBh gPc1szhmvSYQn5BIQzXvpwy2Zvzs3H4gQzX0L8xmI7oz3NyDrPBr8bxxIBQeuux8jS6wl0qntzOI gRjgDRiM4JmBZV4PykQIU/yfX1NRdy2esRMqLX0NFXfvfd3DPz2uK9DEF7fsCVJPTT35iXokqsE3 U5frex6QEGCA1yfEAK9pMEDjtwaf15/BdelgELKDvu/E88wpDPCaBR02S424j67EPg1iOEI1Khio SXgX1aRBQsDgqZ8BbQSDs9RQWMxcPO2t2P6X16LSa6LUcjgIDV2y5Do1qsT7OIJmB4GYj9oqU3bF Necag6eAvwzEQAzw1gjOfW8fXLfGuGPW0km7gZiHsM8doavZGnrP/rK+fwMhu2FmrT+b2xZXuGww E0Jh0dyVeze2/901qOT8H/2zQQKIAd5M/uVgzdZL0XThs2bnqPKngwzVkL8QF9ZPGJ2QF2mAEL74 0mEy7MMPjuE+tdTwSs4M8AYJbvpxjnrA0PPrAG5kFoHU21HF1rfpgOo2OwJoTbzi/CHR574HpE6q lRpz15t7g57Lg4QAA7w+IQZ4jYLK5HqkKCgDPRft6Y2BkH2qjTdrQRmBFXjvNuDe+am2s9rGg5iP kmXns2M9pSz24/kgYaADVVjm50AZ6B5d1RGEwkdXD0Qo8I9juD89m+h3p4EMH9WgEu+jibOn7gdC 9kgWp++ObXs9KBO19zlJEMMwwFs7vzJsH36yozJlXxBzUXvJeT+25YugzOP8DITspXMaesZkYwv+ dJ24EwiF0KwFu2EfuHgMg3z3j+/x9gcJqpAHeO9u6s5PAgkWiqTyRxvcD7R+OKH9oX0RKtHhhHKf oeHdXzC8y5d0LXorQkpXjn5UTO4vg5VGjcUAb4Dg3PobQy82q1GN71iQeuosTdsb1bt+o4OpoGjI 1qMS1d/qWaFEEvN2QNj6bEP373XRlDcFxHIM8PqEGOA1Ce5/f2ds5V3rz+WE55pOPTKeAd5gEyUN eupxTt9Zb4QQ7yd1iNeHEIn5MGDW0EqIdw/ORENhpa87OAd8cwwqcT/SXnbeCzJylKzEpo5FiBfH 99PcHvbSId5kxb3B0AqSV4EYhgHeGjiq1PJOw/ot1rHCvFUON7D6s7aK9+92Q8XRvxtaeXe5ZL0d QSjUmpA3O2v0+1PuRp1XAgmyEAd4L2Sl7cDPMN9jaog3msr9AWQohvRFkUzuQ2aGd3NnMLzL1/9/ oWoubhKLI96fMHWweN44EMMxwBsQjd35wwwddfgSbjSPBKmXzmLLm3WHun6YBzVitAEdHsXOinsA SK3pAUDGBr8y+av05wexGAO8PiEGeI2R8fY29KF4JSvvhkgm36oD2wzwBle1kqcKunhfSwyE7ILB hcfocMIoQ2M/BQmL2Uvc7XVQzrjn3Yr7MCvvvhbFK85xIx5AUnLvZUXCsZMsuc4oZ9F6gddp++n2 38FZG8wSL7d+AMQgDPDWxilGDXwqud8AIZu0tmPbvgrKMD8GIfvoaqOGTn1+DcO7r0V6RmI9M/GI KzmnvF1Bgi6MAV5dwFEHtUGCjZDX69ZF2EwsHKdnOgXZpqF80WDlUoOk8udIm9cIQgQAIg2NmYI3 glFWP7AoDM4AbxB0zm3Gct5uZGigu/cQkHqYXpy+Xbzk5tFx8jLDt2NqDRrET5q1dNJuILWEVwPO oScZOiLqqyAWY4DXJ8QArynwTPVzA8/fr0RTeReEQqQn34Jt/xQDvMGUXOxMMOD++DFR0gBC9klW nKOxjddyStehiZedLxn4jPt8R58zGeR1iMot07F/rBhmRfbbWQluzI0mxLtqMBxJttNFB/SU/qDM 4iwDMQsDvGNJV5E2qg+j5PTx+cdOHWUnMzgLiTFeaC+6u4CQXTDt+a+MKxCYzt+/uUqpRNUKoK+A GoaLpevEnUBMEMIA78lmFXAkPUP4YJjeHDh/nAKyLdv8gsZM7+EGlrS/Wk/dDbI5ROjknTPEEV84 +HPzQWzCAK//MFLr2wbexDwXTfVOBamHRL8zG41eDzBsW1PPxivuV7PFbASklrD/fNPEEJgeIQxi KQZ4fUIM8Boh6+2uq+6DMsgAGlmPAaHwaerOTwpmJV4GeKvhKRVw/wAhi1Xc1LArcaKKWtiCDfrZ UFceNey59tVkv3MYyOYQzSxPfRdCuQ8NMdD079oNdqZkJTZVh3SGdXyXnQ4QCg9dbdnAYg4Dpg0k YYB3jJVjvQbtr/9hWNJu2MYLjKtkXomdCEL2kNnemwbDjsZY0dzlTQDZHCLkO2bovMTQKrvmi6ZV dg1RgHdAF30EMRClcyeYmDnR10WQrdrWF+AHLQFlkEc4KoaGAun8LPaX1aC2YC2mY/0MiGUY4PWZ DhcYOB31iqae/ESQWtMdK2jwWs5wbV1d11FqbQWpIVNDvMtALMUAr0+IAV4TNGZyeQPP2d8EofCK prwpg42ogcEKvOVYNzsLg4A6KrG2IQbH1iXL7nyQ0KnEegysengsCNHWdJam7Y395Y5thMXOSZw3 eQeQ2qH2snvoEIODL+jzNgiFT7V6/gAoc8T+CGIOBnjHSueyCc34zE+YEjbnwIhwSJRipxp2X/9Y tjixCYTsgPagAiiDrIHpIERb09TjTcb741uttpkp/Fqy2QiISUIS4F2PYiAfAzEWmTl7KI4vkK3Z 6n/qqnP4QRtAGWL1sKpDEvX0xnCA37eZfenRxnTvoSAWYoDXTyINCMxdaVzl3XT+YJBaarukrVFX g/WtwgJt0I06Ne6sGgyMGsTaao4M8BqAGOD1yZw5UXzeJ0AZpCQiDRDyF1/VWYRWM8AbHLjP/Dio QMPsHyBkPz2F+1ZnesH/6XAZSBgh6HipSc+xCB2fBEI0FF2LZ+yE979sZl9ajwq93/Q8GQdSexSv tMzEel8JagsebO+LtYBQeOG4/IFhbatrZi6e9lYQEzDAO4bKsU8Zs5+i/R+E7KfDsNjmV4IyyMdB zEfVtuXHQZkC/dSfByEaCsksejv2mwtBvcEqkwsEhiDAOxBNFT4NYjbSAXlsz/NBGeQp6ZzbDLJF W/vPanhCmWIkJ0MiyXo7osz2fLgZ+9FdjanCt6TrxJ1ALMUAr49Q+fnjRl1IMvmX6xFmT5ZbDsZD 3U2gfEaYLrWW04/i1RBJ5X9lXHX/xLwdQCzDAK8BiAFeP+A8fbRZ5+nczfqeHkQj0oNvdIMcA7zB kKg4c4IfAmw5GITCQU8ZjOeeM7Dt177mOejlZMn5oQ74gYRRe9l5r1nVDp1L3VPdKMhwEMX7Ykfh 2nQBQlcPIyD4d3+mvadEn/seHMs3b1oZ0v1LW2XKriAUbtliNpKsuP80rG11AYghGOAdI/Gyc40h ++d/wnWvSx2VKfsODpgxQewKEPNRJJ3LGFXEJ5M7A2Q4iMTzxiH3cSym9P832qIfxH5/mmS9d4CY yv4Ab+4EELKDzFqwWySTv9eo6w1yeiBbsuX/yHpN+AFPmnNhzZ8FQkRDwACvH6ph8fxjoAyxCjdq bSC1IkoaNlbdLburQQUGDcDJtZqyaGOIN50/3awwe8EDsQwDvAYgBnj9gM96MShDvNqUzr0X5LWI cK+5kAHeYMCU/F8O+v1v2xL3TSAULgjyviNecY5DhaoPJYvTdwcJs0Ql9nODnllXDFY5NBUR6YAm wvjH/ndQRexHuko6iKYRzSxP3QPn/EdBGeJ+U6p5M8A7NqqFSZQRSs6HQShc8DzeY1LfVLzSOgXE bGRYVcSb5BPeeBCicLM+wPtNELJLU9o7CO+vgDJDYTnIlmzxPyKZwocNCu8+IJ3eziDbREQM8PoE 59bvGHQTsz7SXZgNUivxxS174oH8fFABRSX3qs6KewDIWKtObbAUlCFeGRw5aQ0GeA1ADPDWW1OP 9x6jKpdmct8A2RwiTGn2ewZ4/Yf7ynmggqxz2YRmEKKwml6cvh2OhWdBmUAHEUCIiMh+iVLL4Tj3 rwdlgvY+JwkSdAzwjpFS7FRDKpsuFyUNIBQ+2AdOMybAW3J+AWIuGt/j7Y+2oA2gDLAabeGTQYjI 3gAvKiX/EoTsFE3l55i0PzZ1e+8D2RzZ0n/gGy8yJWQ2rOndiYgBXj909+5j0uiPaCY3F6RWqg2v T4AKPHpRV6QCGWs6yIYA6dXGHBfp/F9BLMIArwGIAd56w3nhJIMedi/XA0JANosoMW8H7Ce3MMDr L3TgLAr4/e4GdmZT2CXLsY8ZE94tu6eDEBFReOD8/31QhiiDGIAB3lFqK07cUbedgwq49bpSMAiF U+eyaTtjP3gElAGen73E3R7ETIS25R8Y1M72dRAiArAxwBtN5/4kIg1g8YsvbOsSKCOk8j8H2ZzN /2OXt6cxI2My+R+CENGQMcDrAyzTP0AZ4qcgtZKoOHPwEL4WlDFoAE5uu6StEWRzmrty78YIpz9j Gz8BK+FiVPOfBbI1kln0dnzfw8YcH935w0DswACvAYgB3vpq8xrxOVeYUhm9uSd3IAjRVnV5E7C/ vMAAr38QuigE/F53NQhRyJ1nyCwxD+iwDAgREYWHe6obxXXgOlAGWN1WmbIrSJAxwDt6ybLzSSMG P5Xcs0Ao3DCwNm1MFd6KcxyIeQivBoP6+y4VzxsHQkQA9gV4c9dL9vjtQMh23u7Y5o+AMsDTMmdO FGQTm/tHpNCPN2HB9A2ArqgDQkRDxgBv/cO700EZolyrBxY9ajZRif2NYVijnb+5BmhMT9CNfeel LQy0WQSyNU3d+UnGBGsy+atA7MAArwGIAd66QgNNwpiR06ncV0GIhgL3KscywOsfdG4vDPg97joQ orDqLLa8uXocqOBzPghCRETh09HnTDanKETsUyCBxgDv6JkxAGr9zPLUd4EQYTBcxZB+qCUg5iE9 a7Yh7WtrmtK594IMIiLLArzPjp+d2w+EwiGSyqUMCpd3gLyRbO4fdTjFhIWKdBdmgwwLEdU/wMsA 70WgDHCndHo7g4w1NA7sgcpblzEAa4V74n1TDgTBq6Exk8tvo2r/QLQ7Pw1kayKZXJf+WiPuP9K5 D4JYgAFeAxADvPUUyeTPMuaeBdWCQYiGSk+XxQCvP+Jl9+sGzDYhRGEVLztfMqISVzlWAiEiovBC 8PRHRrSfVpwLQAKMAd5RMmcAlHMmiEbUXnTfgf3iVVABt2bW0km7gZiFMID+l2a0rxW+A/I6RGRT gHd9Y08hCUIhk873gwo69FX9DuSNNvkHnUI3JEBTBhk2ImKAt44MGm34Yq1GGyYXOxN06BMUWeOZ GWfNiGPAT9+QAq+Z/Kkg24Kv/S6owEvlbxCRBjD9xQCvAYgB3rrpnNuMz7iSAznJVnqgmi/T+DHA a0Q40PNkHAhRGOEY+BeogHulozJlXxAiIgqv6cXp2+GacB+ogNsQX9yyJ0hAMcA7SvFS7HMG7Ifr EmdP3Q9E04jiFfcnrGReCyTZbARtQE8GPzSVf2izM3wTkU0B3nkgFD7S3bvP4KzRgfaCZI/fDuR1 3vgPqMB7ggELs7Y5lTsAZNiIiAHeOsKyXAoq4AawT/SAjLVEf+sheNh+DhTZ47DfHf5I04cW3TOM fexikG0RzxuH92WGVOHNgPiAFXiJGOCtCVRI6DakQsJykJEgwv1pJwO89ZeoxD4d9PtbVvehsNLh Ih0yAhVopZgHQjEiIup3ZhvRhlpyvwgSUAzwjlbZvdiA6rt/BXktomRx+u7YP1aCCrjzQMxBjZnC EUb07aXyR4NsgoisCPAipF8UkQYI6YsvZF57jbgeZQppkNd63V/AiLAZOpd/CzIiRMQAb53o0vyG 3Mx8tzaVtlo/gIe2F0GRPZxTjrqlMZN7drg3yyBDIemFe+D9oeAfN7lbdeAYxGQM8A4iBngZ4M2f bsR9S3fvISAjRRRN5f7AAG99xSvOcUG/x02WWw4GIQoZIwL28Eznsmk7gxAREYER4cl42V0KEkwM 8I5GNQC5HlSg9bvTQDZBVHYXgAq4te1FdxcQM1BjqvATA9rVbtlivx4R2RDgfVxmLdgNhEIMVdax LzwR/ABv/iyQ13r9XzClpK5uCyrAXtVlj0FGhIgY4K2Txkz+KgNuZK6ROXOiIGMJnYCdeMBeBYrs sf+iYy8fyX0CBg4cCzJUOHZm4PvWB39AUf4YEIMxwGsAYoC3LkQa8PkeARVomXwfyGgQ6cFC2J+e YYC3flAp7UPB79x2ZoMQhU7J6TOgetwJIJpGRESUrMSm4hoxACrAVs1e4m4PEjwM8I5KOXaMAW35 l4NsDlHX4hk7mVCFt6PsZEDMQGj/ucOAaoezQDaLiIwP8EZSuRQIUTSTm2vAPrtik0Elr/1LJPP/ 2LsL+LbNdY/jT5c47ZiZmbfWctp1mK1xnHRbYzv1mJkZbywfHWYYM7MXy4UxMzMzM28dtWvz3r/u rS+ua2xJziPnn8/nm3PGivzKkeSf3jc/MQJLpv4LpHZExIA3fJids1P7PoZvRvQ4q4EEKVlKTMDF 9XQwjYHa+1qnL7rvEffWOM7ukFyuCaQaCGx+G4Fj6PmoL8PBgJcUYMCrQCxjbxyB99z+lm5nPRC/ iDDmD2LAWz+pkrV1BJY4PhxkKCGyzrFiGP9fg1Hso5+Jn4iIiKLxEAomuQDRiAGvD651MRjNUuX4 DiBEc4IQ/S/6V8qxzgPRjyTtrBKBiSEeAiGiOYtywIv7/ZeAeIgk57REYcXnWE9vAqTC+wYATZn8 hcp/gJn+YzMiYsAbPvwMt+mfPbSwJ0iQUqXWdlxY/wCGGsPWV4z9fL6dT3yyxpPltyR38pIgVWtz mvHveED/cZTfDiSqGPCSAgx4FcDNmX+LwE3WKSBEQfCebMbSfo8y4K2Pdje+bgTOey8GGUKIohHX l+O/Avm/iIiI2idZG6qfhbdsnQqiEAPeGomRYdi+D8Ao9lnXDWsMByGak22KGy8fgYl43vWOORDS LZa1D9E/+25+IggRzVGUA94PJOcsBkJUgXFxDBjVsnkbpKLyfwAy9ntgFCuB+EJEDHhDFks7IyPw FFIRJEgdk1o3xQX1NDCNgcacPe6llp58recG38fStgVSq+Hp/Or490wDo9idIFHFgJcUYMCrALbt Lv0Xsr1bghAFaEsGvPWRKo5dLAIz8L4KQjTE/EH5sfnjuMljlgYhIiL6OSk3cZvy2SNfBtGIAW+t 4pa3fcqdAjJ3RInLtI9n72ENEN2oOWuXVX8mnrbf9iYNApkzIopqwNvUXdgehOh/ktyJC3srkoNR 7AGQCqn8nxHb51fVf/D1bg5CRP4w4A0XYtbLlO/fzyTjLAUSkMqNq2/AUGNY5/cT78dY+Q5MDfqb soUdQfyKpfNHqg/iu+0xIFHEgJcY8DLglQMOiFXe7/XKPw1CFDz7Zga84RMjw9TP7AOpkrUsCNGQ 4Vr3aj4mk27iQpA5ISIi6ignurSfY44vti4Dog0D3trgHOpY7WMuWW4dCTIXRJFYkQOOANGLRGQY 7v18Akax40DmgogiGPDGMvkrQYh+DsbIKWAUmyEdx80PIp7K/8HS57sq/9D2WRAi8o8Bb4hyvctj +6eD0cp7vwcJSGWpnXfBUAMoWf3LHrX/XV6EC6Ym6cJvQIIg3hLXGfs+5TNaXwUSRQx4iQEvA95Y tneTCNyEORSEKHA9vQnvnIcBb/hwnvkeGOX2BCEaCnLF9Vvwv9+rjurLidEgc0BERFR5UOwFMFp1 uvEsiDYMeGtUivcpv6Z5GoRoIBxH5km61lu63wsSV4PoRcMzzlrK76VN59L6RAMTwYD3O+nuXRGE 6OdE4HcU5LcB8fx30Jexz1K+0SeCEBEDXs0qMZxiN4IEpeuGMQvNvilkoo+2uWbMtAV3P/5hn2Ns shfdggSlpcdZB//eH8EoNXNEj7MaSNQw4CUGvAx4sV3HgFHse0k7i4CEgQhjbCoD3vDhQ51H1Z8P l+O3ghANBZ3uqLHKHyx91YuyQIiIiH5Jspw4QfUDKa71dxBlGPDWyrU+AKNVsmTZIANFhPPu3yq/ Vn8PhPSKZex9VN9Ly9plECKaqygGvL8GIfpFWfsh5eO4AOLxvlU8A0apfkk7q4AQkW8MeMOCKAfb /iUYpaYFuV/b7mxr9j7kZvjaGDa7aKs3Wnp6X/M5xl6U3IkLgwRt9km4UStd+BtI1DDgBWLAy4DX BaOYCxIaomxhawa84UMkcGUEzolndZXGrABC1Ogw3o9THjsVQIiIiOYmOXnUcvjdMROMUg+DqMOA t3pTRq+q/5omsQHIQBEl+0auqX1ctxetlUBIJ0wSeIHqVWmz+YkgRDRXUQt4P5aO4+YHIfolsbR9 mO7GxL4JxON9q0RnM8EodRcIEQWCAW9IYpnC3kNpJnNv9gCGr41h5N8nPNaczX/lc4x9MbwnvyZI GKTr8OFNWftVxcfYZ942gkQJA14gBrwMeN9TfZM1U9gTJExE4T/QzIDXmwlK0fkvZ6wicq1rFB+L /anJ8TVABoCIiMiLUW8Bo9T0XHH9FhBFGPDWwo3vqvx65iWQahHh2uB51dfp5cTOIKST8ntqX8le zggQIpqraAW86fzJIERzI7mTl8SYmQFGqa8rq1uL9y3WbY/RfPDFsvnDQYgoEAx4Q4LtfkBv/GK/ HuRFSrIUz3gfqoGJNlr1pN3uDuAhnllNPfnxIKHCk7KqI7O0vQNIhDDgJQa8DHiXUH5OONPbRpAw EcUyhf0Z8Iaro5SYGJHz4y/byiMXASFqZLMDD6PUkyADRURElCzH99J8jtnZF98IRBMGvNVLlq2/ KZ999y8g1SJCwPsnju1akOScFtzzma62MUrbV4AMCBFFKeD9spoVgYkwZm4Do1VlkjzxvsWy9n6q N3aCswYIEQWDAW/wWjL5dXUvEVLIgAThP5dhsqaBUeoHeDPpxh/Btt6Ycq0iXIlo4JwK78958Pfd Dk/Be/ATmKGiva/1+0X2OvqeQMZYNn8sSF2k7VsVL3FwK0ikMOAlxRjwhq85W9ha+TnhHSBhI/KW 22rO2t8y4A1Pqq91/cicK5fjvwIhalRji2PnVb3UeMn6A8hAERERjS+2LqN5sgkExruB6MGAtzbx W3XPUmp1gFSNqJTYTHnAeyMI6RPL2Bsrn3RnN5ABIKJIBbyFP4EMGBFaFt2/rwo9IOJ9w584BYxS r4AQUXAY8AYPb/z/GgLxS+WDvhfAKPBRqmzdlCrF/+zdBO10R41NlaxlQWrRdmdbc2d55Cr4/1vj hsWBuPl7Jv4b9/mPlfXZ4vLNPhieO/n5QJ5gzdiXgdTRxpUZgxXqj9pDRwx4ST8GvGGKpfNHciWW 2Ygy+SsZ8IbHWzY4Qg/MfZWcPGo5kIZE1DcqofkYTE2KbwFSDSIiotkzuBuNvPvXIHow4K2Ja30A Rqkft59qzQdSLaJcMdeEMfQZGKXeAyF9MOnT7orvoc2SjLMUyMAQkf+Al5/Fk04tPfb6qsd1tuCA iPdtdtxllDoFhIgY8Kq1lzMC2/y51pOYWNaJgwQBN6rOGLQnyF3rrf+YPbeU2L291LoaSD14YS+i 3ji24Yikmyjhf78GE1WJM1JPI1L5OJjxlX98MGK0pkz+QsXvX78HiQ4GvKQfA97wNGXs83g+SATQ 1F3YngFvuHAu+jSYaIjfIEaGgTQaopQb31vx8feldw0OUg0iIqKqloDn7JEMeKvUNtVaQvk1zB0g PhBNAqPVOHf04iCkS3PW/rPie2iPgFSBiPwHvFwNl9SKpe23FY9tF6RyMH6ofargwBARA96ANWXt XRTvyxJIEBCxblvnpcj64UE4rt2NrwuigXWOFfNm6cWH+v/Atr0LJirWLOxyL17L6WAC8KFknRVA 6m3E9vlVKz+HQh9ILtcEEgUMeEk/BrxhwjY9AEYjxMWvgdQLkeScFoy9Lxnwhqa6hwEVQOS4P0ij IUK08xfFsc71IFUjIiJyE0nF55ZvgijCgLdabnwb1furlHBAakbkxo/XPMaTbutWIKQLAt4peiO/ wt9AqkFE+gNer3MCqRZRLGNfonhsvwIikjt6XvyffjAaSa53eZDAEBED3oBhe6/TujwIfhFtDOJT 5Qnzj+vzQbn1crKcOGF8adTKIJo5jszjLe+J7T4XvlF7c6MvMWOpQw65JcCxNaO5294CZLA0ZQpn K74xMA4kAhjwEgNeBrx6H+TM2heB1BMRPnjoY8AbHkQVO0Up4IVp7X2JUSCNhAjX3EW94bxVAKkW ERHRttdtuGhl8gmFfvImhQDRgQFv9eIH6N5fiS6QmhFNat1UdcBbsvYDIV1wr+cZvfeW8xNBBoyI ohDw/igTTlgQpFpEsUz+UMVje4Y3QZy0ZPLrKt7I90ECRUQMeIOUdhbROhMofgldCRIEXCBfHvZN zKRrXdNZTrRFdanaCZM3W3D2jbxnwGix9ZWbfDbfTic+EezYKuwPMphkgrMctuV7nbNG5s8FiQIG vKQfA97Q7OWM0PwgZyxd2BekrohwjsOANzzbFDdePmIBr+cD/w8WEumSdOOPaD3m2vviKZBaEBER zZ7p1qg0ZfSqIEow4K1Syk38XvH+6vcmYAGpFVHXDWsMx1j6AYxO8d+BkC641/MNGI2ku3dFkAEj oigEvFNBakEU6+lNqO7jcs5K2NB8p+KNdEGIiAGvVrG0vZfSfThz+IT82iB+YfbW8SFeeGPW2vg/ GulDcS9ATrnxTvxst4MZTJucN+7lWE/+nYDH1imK3stOVXr8fSoHHBAD0Y4BL+nHgDcs3nmC5nPB yioC9UQkWWcFBrzhwjnq62Ai5jlvRjeQRkBUWV1Hof5UcexiILUgIiLqKMX71M4yX7K2BlGCAW/1 rlC7r0rWqyC+EbnW42B0SlwGQnpIzllM8f2zD0GqRETKA95Y1t4PpBZEknNaMI5+AKPUVojP8ger 3cBswQEJFBEx4A0QtvVGne+fdh+IXx03bzQ/LtzfCOGC+zs4ZdzkMUuDNKpOd9TYwQp51/9jz2MY C9+BCdA93skNiAKVyGYGGHV6CikQ9Rjwkn4MeEOCmzEdis8Fpw/W7xuipoz9GgPe8KRc67wIBrye Z70ZhEGijMi7xld8nL0LUjMiIqJSwlEcn+0DogQD3mq51n1glLoWxC+iZDl+qdqHIFzrXhDSI5Z1 4orvn90M0liIGPCO6HFWA6kVEcbRY2A0asoU9vTCjd+p3cCsvQtIoIiIAW9Qtj1pUS8wAaPQ2IBm yPormADNhHPHF1uXARkqkmWrAz/3S3V64n7W8sfsfQtev1kBz4T4luROXhJEk1gmf6XOk6z8hSDa MeAl/RjwhsV7WlnvuWD+SRCiwRBL569mwBsaX6t7KPB++yRrQ5CoIhrnjl5L8TF2O0jtiIiIEvso js8KIEow4K2Wa70HRqOka/0axC8ivDecqPh94R0Q0qOpu7C94sboNJDqEJHygPddED+IlHYlFQVB xXu22imwe3oTIIEiIga8AYllCvvr3H+Fh0H8SvaNXBMXYdPBBCN+V7LcOhJkKOq6YY3h3o1H7Ivv wYRhm2vGTFtwt2MfDGFcTWvpcTYC0SaWti2l72NfStfhw0E0Y8BLDHiH9Ay8J6u9DszYRRCiwdCc zR/LgDc8ueL6LThv/RJMRH3eUU50gUQS0aTWTRUv/3wmSM2IiIjcRFLxeeQpICow4K2KGBmGbfoJ jE7xXUECQLSd4veFn7xjEYR0wGfke+tdZj9/OEh1iEhzwIse4AoQP4iwWr2jeAbe0wX/51owGkmX sxBIoIiIAW9AsJ3XgdEGr28PiF9YcmxKQBfWX3WU4wfw4hqgvdS6Gm78XR/0DYzNL9ry7ZaJva+G MKb6m9L2DiBaYRvvAKMOlqcHUY0BL+nHgDck2J6/glEpXfgbCNGgyPZuyYA3VL6X5VSgP+laf8oV c00gUUKULCUmqJ2ZsBQ/CoSIiKhWnZMTaysOUq8AUYIBbxXayiMX0b2v4haIX0SpyfE1NI9171gE IR2witXxau+f9RRSIERUFdUBrzfpBogfRIhkd1U8sdFVgv9zOxiFPgcJHBEx4A3CXs4IbOd3Ct/Y 35JcrgnEj1SptT2g5ZuuS5WsZUHof0MgPTHlWp8GsZ9HnTL+Mbz+n4IJwa9BNMPJVrfS2bD/AaIc A15SiQFv+Jqy9kWcJYHo/5PMyYsz4A1Xyk10RzzgBSjHb01OHrUcSGQQleN7qV3+uRTPgBAREdVI dWiZKls3gSjBgLcKXWVrdc37quuGMQuB+EXUdlHbCO+BVTAaecciCOkw+zMcoxFW71wHhIiqojng hXwniB9EsWzvJnonNrJvFfyfZ8Ao9AIIETHg1ch7ek/p00c2iF+4GH7Y73I2CFQdx5F5QOjndZXG rIB9dR+YWq2e3/UevPYzwIRgEjZ0HhDV2pxmbOv7YJR5EUQ3BrykEwPe8DVn7SmKl4rpBhksRN4D xQx4w+N9KOj/QTY1PvMezAOJBCLXOg6MSpNaNwUhIiKqVa64foveIDXxKIgSDHirkConRiveV1+D BIVI87W6dyyCkA5NGfs8tffgtz1pURAiqorqgFeyzgogvhClnVUUB7xPSCxtv6101rq7QYJHRAx4 /cN+/JfC/TZTcs5KIH7gplTa54X0O8lSYjOQuaO2O9uavdgZ+20WmIFqv7b1x0X2OfLeMONTyZ24 MEgUYHt/D0abET3OaiBaMeAlrRjwhg/H/71qZ+DtsUeBDBYiBO4PMeANF85n/wimUSTL8UtTxbGL gRBp1lGyfqv1OPKW7AXxg4iICL9TZoBRp2S9CqIGA94qJLoU76sXQAJE9KTa6wU33glCOsQydlHp vbMZIjJMqv3iF7/4pTng/SGQ45pf/ModPa/az0XR7gr+z0cqNy5jXwMSPCJiwOsftvFlMKpgJj0Q P8TIMFwIPwWmJqXEFH5wXZsON74d9uHnYOZmy8s2+3j4jic9F+J4+mL4BGcNkKgYsX1+VWz3LH0n W/mDQbRiwDuUMeBlwGs/pnY/5ZzFQAYLUSyTv5wBb7jai9ZK3qodYBrIRyk3sQcIkVYdbuIvWo+h CZM3WxDEDyIiotkzkhqF3gHRggFvFUrxHfUGjYnbQIJChHE1FYxOiZ1ASAfc25kMRqF3QYioamoD Xsz4/TpIEIgwpr4Bo9AnapeGbMoWtgUJHBEx4PXJm1FT5/tmfgKIH0nXyvmYReC3XgAMQrXpmDJ6 1ZRrvfxL+3n0WclnW7L2+2HO5Iz3iC6QqMG236I/rFeGAe9QxoCXAe8zWmdJABlcRIW/MOANHz4I 71McDfgQv6G91LoaCJE2mEHun0qPnWtBAkBERPSx1oe9GPBGM+BNlRK7Kw4aLwMJDpF1MRil9gQh HXBf5wYw+hR+B0JEVVMa8EK2cD9IEIgQ8b6mcZzD11688a3GjZOMsxRI4IiIAa9Psax9iMJ99pkc cEAMxA9cdD0Mpkr9qZJ1LEgACDMYY58+COb/Wud3E+/Ha/19uDPg548GiSKccO2h8NicJjmnBUQj BrxDGgNeBrwvgVHoR5DBRZQ/ngFv+JJu61aaowGffoQ/ckZR0qajZJ2pNHw/HsQ/IiIi6yMwCn3B gDeaAW+yZO2neAbe00GCQoQxf6re8R7fH4R0wH2d23XO1FnoBiGiKikOeMEFCQjR82AU+kHwbQYD XiL9GPDqEcvY1+ibfdc+B8SPznKirYaL5ulctiYEN280f6ps3VTZz7hJOHPpww66K+xxFEvnLwWJ KulyFvJObsBoEsv2bgKiEQNe0ooBb/jwu/8NBrxEPw83LPdkwFsf3pKvqsMB/z7E+f0+uWKuCWSw ESHgPZ8B76AgIiIGvN+BaMGAtwol6xC1+6lk/QEkMERu/Hdax3vSjR8KQjrgs6V7GfASMeCth1gm fzlIAIg0B7yzBN/6GfAS6ceAVw9s37tgVEkXxoH4gQvgqVXeHPo25cY7QYJHueL6LVje9Oq2q8d+ Md8uJzwe/jjKPy65o+cFiTL8LJPAKHMciE4MeEknBrzhm/P5DANeoqZsYdt6jXkGvKM2xrXFLDAN 7kXEyns4jswDMliIMBYvYcA7KIiIiAHvDAa80Qx4U6X4UYr308kgQSFKudaJet8bEkeDkA74bOlB BrxEDHjroSmbPx/EPyLFAS+I940BL5F+DHjVWFnh/vpE2pxmkFqNc0evVdUH54h3O91RY0HCQwvk Tl4v1pN/rQ5j6EPJOiuARB1mlNxF3TGatcsgKjHgHcoY8DLg/YAB7xwRbcWAt37wIeEViuOBoD2O sGQ7MTIMhKi+GPAOIiIiYsD7EwPeaAa82J7jFM/AezhIYIjK1sFax7sXF4OQDvh86SEGvEQMeOt0 XJ8OEgQiBrwMeP0jYsCrgsZ9h180Z4P4kSxbf6tqtoByogskNFSZ+e0rMCGb0dxtbwHSCGTCCQvi Z/oBjCIfi8gwUfjFgJf0Y8DLgJeo/mLZ3k0Y8NZPZ3nkKrjG+BHMEPKMNyNv251tzSBEdcKAN2KI iIgBLwNeBXCeonU/Jd34oSCBISolDuSM03NHDHiJGPDW1SkgASBiwMuAt3EQA14GvPYZ6i5GEHqC 1CpXXL8FF78fgxmA/mQ5vhdIOEhEhjVn8ifitZ0FJmyxrL0fSCNpTts3aTtOh2ectUC0YcBL+jHg ZcBLVH+xHnsUA976SrlWQW9AEKKS9Soc3l60FgYJGxED3sZHREQMeBnwMuAlYsBLDHiJiAEvEQNe BrxESjHg9Q/b9pS2yEVyzgIgteooxXcc+A0h6xiQcJB0HDc/XtNrwdRH4V8gjQYR71Ha3tNimcLe INow4CX9GPAy4CWqv5ZuZz0GvPXlzUSL642HwQxRPyTL8UuT5daRIGEhYsDb+IiIiAEvA14GvEQM eIkBLxEx4CViwMuAl0gfBrz+VeLKmWAUuRnED1z43gJmblKl+J9BwkHS3bsiXo/HwNTJbdLmNIM0 muET8mvrmynbPgdEGwa8pB8DXga8RPVX/3MJBryejj5rHVx3fA9miHusoxw/YGxx7LwgQSJiwNv4 iIiIAS8DXga8RAx4iQEvETHgJWLAy4CXSCEGvP7Fuu0x2vaTN9MoSK3GF1uXwYXvTDBzcUeumGsC CR41d9tb4PX8uH4XsPabkjt5SZBGhZ/xNV3Ha+FBEGUY8EYQMeBlwEvEgLeReSt+MOAFgE+wP/6U 7Bu5JkgAiBjw+kf/zt59wLlx1vu//9m7Wjuk0/v/Enwaxkms0cY45X+WZCV5k+O1pEWQU+hgak5w CAmxNWLovVdzSjihL9bIToLpmF4OvddQ0hN6S8P23O9wlxuMnVir1Wp/s/ro9XqzpGuf0czokT7z DAC4R8BLwEvACxDwgoAXAAEvQMBLwAs4R8DbHQWvj/M2TiPVxj+IdavcLjy1g4nxteVWcA+x3kOu Em7UtrxFkj753ciGcJXYYjZUa77B2f76O4uipWKOZDDgBQh4CXgBAt7FzBJbUmrltxHv7ueLxXZw dik+9q5i3QMIeAGgU8HWIHfq9HH3Su8SUG4XTii3RsdLrcJDSnHhMel5uRwH5/9ZqRU8N73wZpF7 9j6/c1zYlN414M/Kcf7R+nvqinoq6VgVt60ujMf5fxifDu57xqWrjo4iWyo23wh4CXgJeAECXhDw AiDgBQh4CXgB9wh4u6Nxe42zcfqZmS2Rrh+a9H5CktuxpxQXimLoLatHI0PV8D/6/JrZO1QJHyq2 6FXDM70d15ZNRivEPCHgxSJFwEvACxDwZtjkjpMOV/zxLaLdA9qtQOZD5bjwiPWXBHcQmw2AgBcA RCyxJROtNfde1y6MFVvB43QseqH8j3xAviHXSYKeu0Hx78/08zL5inxC3lNs5V+rn89cF+dr49uD VWk8LdYFAl4CXgLePhjbNTacXlyYXuCg4POk0vb8+mI7/6j0jirybHlRSuP3+lKrsDWlP3639v/p P9Ofuzid28CZOPg2AS8IeAG3CHgBAl4CXoCAl4BXz+tjkjiyXaxbxR2r75kGupLcplYhEkNvKZy6 s7bBLkn6qtaMxAaB1bfcy90HB7VmVcyT7AW8AAEvAS9AwDsI0tXaNB/5jSS3Cb+SN5e350/pdEU7 YBADXgA4fXr07uU4vy4NRNOAbCbQvVESt3BTqRV8ToHQa6QyPh0cKXZwBLwEvAS8vTR2SXDnP62o 3S6cV4wL/z0T3V/FMQoEvCDgBRYKAS9AwEvACxDwEvD+XBI/Gs8Q69bM6hLJbct/rD5dHxJD7+Qq 0fG5aviThQi+LYqWig2KXCX8qat9VhMfMVcyF/ACBLwEvAAB76Aox4UNB7ng8Fa4otQuvHJdvHqt JbZEDNjf4g94ASBdFXK8lX/QTHB3iVwjSeZB8Wv+Y2msmAbZYreFgJeAl4C3e+mqusU4qOvf/Wr5 oiQAAS8IeH0ACHgBAl4CXoCAl4B3w5b7uBunDVtOFOuWJryxJLfh5vT2R2LonaFqeKa23R8k6bPv WP38I8UGSa7aeIerfbYWbhNzJXMBL0DAS8ALEPAOknIcPHHWX+rhCnn1eBycTMyLQQh4AaC8bXRl urqufFB+JwkWtd3/3633CxMHugsBAS8Bb+cIeNMFXIrt1acVW/nXKtz9FscXEPCCgNctgIAXIOAl 4AUIeAl4FbkVnY3RzTZx1jKxbgRbg5wmvL+W5IBawXPF0Bt6LBmuNSNtt72S9Nkvlk1GK8QGTa4S PtXZfvttMV8IeJFpBLwEvAAB7wAoxYWXdP0FH36cjt+61ugoMS8IeIHFhFV29fPUdPV5HUMukwSD qRwH3yu2849KXxNiQsBLwEvAexBp+J5e7Dezyu7VkgAEvCDgBUDACwLe20fAC4CA1wGFgBt9jVHj K2LdWtcujN3OJPinpQ8ce6gYOmf1aCRXDY8bqjUfpp//rnHeogns5lytcZa22fskWQB/TONzscG0 5WRnx7Yb0pjbHD0IeJFxBLwEvAAB7wBIw9OeRIe4vNQqbC1tz6+vT68cEcPgIeAFkGXrtuWP1c9X HCDQBC4rt/MPtcSWEPAeGAEvAW/p4hPuV27lX6x/7ipJAAJeEPACIOAFAW/nCHgBEPA6oNVTX+Bp fBSI/o9Yt8rt4Dm3OQnWF7piODibPO/wP8XdlfC92i5/kMSTXLWxSWxQWf38I29d9dgHm9x8NzEv CHiRfQS8BLwAAe8gSIPT9FbJPfviD78stvMXlduFKS7eHDAEvAAyZnw6OLLYDs7WseIrkgAH8Sn5 HQEvAS8B762r7ZZbo+PlOJieeQ0mAAEvCHgBEPDOHgh4CXgBEPA6oOj1nc7G6FyxbpXa+Q8d+LZj +R1iuH3pOUr70Ws0lr+T5FYOI2/8xNV2qW15kJgXBLzIPgJeAl6AgHdQTOxcsawYB5f2/EtA3Pin OLpdeGwpPvauYljMCHgBZENx2/F/k97e3V+MCfgPeAl4CXgndq45QnOnc0qt4AfseyDgBQEvAAJe gICXgBdwhIC3e4rcPutqjCqNklg36tP1IU12fyvJX9lbigsPFDswWBQtHa41nq5t8FtJ/Gp+3h4V LRcbdMO18GJfHx6EZ4p5QcCL7CPgJeAFCHgHbiXeOLhEEsxXBBB8S140Hgcnpyt2iWHxIOAF4F2x vfo0HRc+KHslAQh4CXg7R8A7dklw51KrEKV33JAEIOAFAS8AAl6AgJeAF4sIAS8Bb3iNq/GZjO4p 1o1yK8gfcPLbym8TOzBYbfM9NPa7JHHu6ltfHxiuNV/gLL6/QMwNAl5kHwEvAS9AwDtgxi4cW07E 2zfXFuPCfysCeEh6C3MxZBsBLwCv0lu863jwWUlmByDgJeAl4D1tx5q7zYS7v5EEIOAFAS8AAl6A gJeAF/CIgLd79U2H6DntlcSJG8xsiXX5KMfBEw88+c0HYvvDskrj/kO18AcZiHdvytW2PEgMMyrN x7r68KAWbhXzgoAXWUTAS8ALEPBibNfYcN9DRNwiH5Vz1+0o/J0YsoeAF4A72/PrdRz4qiSAfwS8 BLzuvFTh7lb9vEkSgIAXIgS8AAh4AQJeAl7AJQLe7qXxprPx+bZYt4px8Mb9J7+F94ntDyNT0d9r 3K6XxLtctfloMdxquNo41dcKvOF7xXzIbsALEPAS8AIEvLDElmhu8yK+yFwwl8mr0xUTg61BTsw9 EPC6AWC8lX+Qfn6M8ykyhYCXgBcAAS8IeAECXgJeEPAS8AIg4O2/dEXTxRQAllr5T//1xLe8PX+K GPZltc33yFXCn2Yg3pXmq8Swr+VT0TGutpM+1BDzIfsBL0DAS8ALEPCi3AqerjnNHkmwYK7Xdriw 2MpXSx849lAxp0DAC2CBlXfkV5Tj/A7OncgkAl4CXgAEvCDgBQh4CXhBwEvAC4CAt/+Gqo1/cjX5 qISvF+uGJbZEE93fSPIXPiWGfVkULVXw/KEsxLvyYRuLhsX+CjZuzGl8dvv58CD8oZgXBLxYJAh4 CXgBAl4i3jNKcfBrSbDgbizGwaWKsx5fnl57RzE/QMALYKGsnV57SKlViNLzhCQDAiDgJeD1DyDg BQEvAAJe/0DAS8ALEPAS8IaP8DU+jWeIdWNd+/j/568nvcV2/t/EsC+N9TmSeKfX52VWveBOYjiw XDX8CeHNgRHwYrEg4CXgBQh4Udx2/N9ofvNtSdzAzXJJOS48Yv0lwR3EsLAIeAEshJkLbX4sCZBp BLwEvAAIeEHACxDwEvCCgJeAFwABb/8N1xpPdzX5qDUfLtaNcmt0/K8mvb/ii9T9WW3zPTTWv5Fk FvbKrly1sWm4uuXkZdXob0emor8frjUfPFwJGwqovzQPr4ffjWwIV4nhtilS/byjfXhvuiqwmAcE vFhMCHgJeAECXpxx6aqj09Vf+XLTpV9o27yx2CqcZIktEes7EPD2FYDx6eDIUquwlXMgQMBLwOsY QMALAl4ABLz+gYCXgBcg4CXgbb7A1eRjqnG6WDeKreBxfznhLceF14lhXxrnl0vSueYncxvCNWK3 J912PXxTsHeo2qiJ4fYpoH6vq+Pb5Oa7iXlAwIvFhoCXgBcg4EUahxbbwdkzq78mDqEd/FQx74vS VZPF+gYEvP0GsOruVZIAIOAl4HUAIOAFAS8AAl6AgJeAtxsAAa8HQ7Vwq6exyVW2nCDWjVKcf95f TnjH4+BkMdzK6ucfqXH+7Swmg6+zsWhYrCP16DD9c9slmZNaMxLDweUqjYs87cMjU+FKMQ8IeLFI EfAS8BpAwIt1rdFRzXl+KIlfUMi7q9wuTI3tGhsWm1cg4J13ANLjeXqRhvbtvZIAIOAl4HUAIOAF AS8AAl6AgJeAt1sAAa8HuWr4Tk9js2wyWiHWDU1y3ybJjKujyJaK4Vba3o/peCJYCV8vNlsWRUv1 z1/afbwbttN/hxgOTpHqK1wd4zZsOVHMA/8BL0DA2z0CXoCAFxM71xxRivP/lYmICJenX8hOTK++ i9i8AAHvvAIwPh3cV/v0ZyUBQMBLwOsGQMALAl4ABLwAAS8Bb/cAAl4P9HxiV2OjFWLFupGubvT/ r3TUyr9WDPvSGO+U5OCan7WNG3NiXalERykWvnz2r4HGN2zyvMPF0BmN2RZXx7hKY0zMBf8BL0DA S8ALzBkBL4rtoKS50E/40jMTbi7HwXRp++iJYj0FAt75A6BdmND+/CtJABDwEvACyFLACwJe/wAC XoCAl4AXIOAl4L3UV8BbHxLrhia537x1sluYEMOtbCwa1hj/VpIO/KPYHMxqtd8Zv5j9CszIVRpn uzrGTTXLYg4Q8DoAAt7+IOAFCHgxueOkw0ut4A2aC+2RBJnw2XIr+Jf69MoRMcwZAe/8ANDOb5yJ ExMABLwEvACyFfCCgBcAAa9/IOAl4AUIeAl4K+GHHI3NbrFuaZJ7jSRy4/pLgjuI4VYj1eiBna6+ KzZXaYytf9+1knTgj8NTjXExzI5C6Se6+gBhQ3O9mAMEvA6AgLe/CHgBAl4oMgpKceEzfAGaIe3g p8V2cPba6bWHiHUNBLw9BWBs19hwqVXYyrkKIOAl4AWQ4YAXBLwACHj9AwEvAS9AwMsKvM2POxqb G8S6YYktSW9HKpro5j8khn0NVRu1jrZDLdws1gtDtfDCzrZ943wxzNqtKx07MVRrPETMgYwHvAAB LwEvQMCL7udG5bjwCM2NrpUEmXFtOQ7OJ+Ql4AWw8NLV0Uut/DbOTQABLwEvgKwHvCDg9Q8g4AUI eAl4AQJeAt7PLoYv7dNbxt460c0/Swz7ylUbT+loO1QaJbEe6MN/E5p0/KuvgDf8FzEHCHjdAgEv AW8/AAS8GGsff5TmRy+VGyVBZlxTjINzuKvMrBHw9gSA9Phbbgfv53wEEPAS8ALIfsALAl4ABLz+ gYCXgBcg4CXgrYRfdjQ214l147Qda+7254luuTU6LoZ9pavcdrIdRqaiY8V6oONVf7XfTol1AVrx 1tPxLVdtPlrMAQJeAQEvAS8BL0DAi4nWmnvP3AL8j5IgG8px8DNtt2h8OjhSDAdHwAtgzj5w7KHa bz8hCQACXgJeABkIeEHAC4CAF8h+wEvACxDwsgJv+FVJnLhmTl9Kx0EieyZ2rjlCDPtSwPuMjgLM WpQX64WhWvNhna3a2pgU6waaVWcB7+PFDo6AFyDgJeDtJ4CAF+VtoytLraCtOdNeSZClkDc4K9ga 5MRw2wh4AcxFfXrliH7u5NwDEPAS8AILgHnf+WIegIDXG4CAFyDgJeAFBiDgZQXe5hccjc3Puw54 28H9/zTRbQU/EMP+ctXwiZ3FtM0zxHohV21s6mjbVxpjYpi9NJL29QFC+AgxD/wHvAABLwEv0H8E vCjFhQcW2/mLNH/aLQky4/vFOKiL4UAIeLsHIL1IotQqXMy5BiDgJeBdCADKrcLDxXwAAS9AwEvA CwJeAl4ABLx9NVxrftrR2PxWrBvjcf4f0kluMS60xPaHNMxdgLiwJcnBLKs07i+G2UuDWWcB75li 3SPgBQh4CXgBAl70w/j2YFU5DqbTu5hIgmxQqLorXU1ZbB8g4O0KAEtsycyFLQkAAl4C3gUA4MbT p0fvLuYDCHgBAl4CXhDwEvACIODtKz2fj0rixM1i3ZjYvvoBM19mPltsf1g2Ga3ocDt828yW2Fwf pXMP1b/rN5IcxA0WRUvFMHu5avPxno5vCsWrYh4Q8CLzCHgJeAECXvTBeGv0GM2lXn2Q0MEfIplX j02vPExMBAS8XQHQKkScVwACXgLeBQTghWJ+gIAXIOAl4AUBLwEvAALevhquhO93NDZ7uw1HSxef cL90oluOC48Q2x/SsdUYX9dZhNl4iNhc6I3wBR1u90+IdQe5auMprj5AmGqcLuYBAS+yj4CXgBcg 4EX/TEyvvstMxHS9JMiEH45vy5fFkCfgBTBrxXb+37Sf7pUEAAEvAe8CAHDZxM41R4j5AQJeoN8I eAECXgJegICXFXh3uBqbR0XLxWbrtB1r7vanyW5r9f8Vw4HlKo13dTYJDH9olegosW4sX9+4n/49 v5LkoCphQ6xLqIbnSOLGVGNczAUCXmQfAS8BL0DAi76rT68cKcZBvdTOf4gvU7MhvfU7q/GyAi+A 2ca7o8drH71BEgAEvAS8CwDAz9ftKPydmC8g4AX6jYAXIOAl4AUIeAl43+NrbDbfQ2y2JnecdHg6 4R2fDu4rhgMbqjQqs9geO20sGhablcnzDh+uNr7W6X9nZEP0ALHuQJHq81wd4zaEp4i5QMCLzCHg JeAFCHh9QXHb6kK5FVzoPYIQtIIfrItXrxUbUAS8HQNQnl57Rx03f8T5AyDgXQgEvALgN6XtoyeK +QMCXoCAl4AXBLwEvAAIePsqV2lc5GlsRjaEq8Rma2zX2HA66Z3YuWKZGA7MJs5aNsuo6cNWveBO Yp1YPhUdM5t4Vz4h1j0MVcM3etqHc7VwVMwDAl5kDwEvAS9AwOsTxqeDI0vt/EbNuT4riWPEM61C VJ+uD4kNGALejgCIIluqffMDkgAg4F0ABLwArhrfVlgt5hMIeAECXgJeEPAS8AIg4O0rBW6vcjU+ lcaYWDfS282I3T4osD1/ltvlqlyt8QTbuDEndkClcw/VhHZzGl4w2ewvb6toL1/fuJ+YBwS8yB4C XgJegIDXP0xsX/2AUlx4ieYWl0viENr5D01Mr76L2AAh4O0IgHIreDrnCoCAdyEQ8AIot4Mvnzp9 3L3E/AIBL0DAS8ALAl4CXgAEvH01XGuEriYftcZDxLqhye9XxW4f0tg2Vw0v72L7/DxXbbwtV2mc PVQNz9Sb3X/VnztXE9m2fv5Okln6lBjmbJckXthEdISYBwS8yC4CXgJegIDXP6QrGI7HwcmaY7xa rpXEFVyxLl69VmwwEPAeHIDyttGV2i9vlAQAAW8fEfAC2F2MgxdxF9FsIOAFCHgJeEHAS8ALgIC3 rxRjPsnX7fcbTxDrRqkVtMUODmkovcDb+ubcVLhaDHOjsfy6JE7cYmZLzMmDgBfZR8BLwAsQ8CIb gq1BrhQXijMx72WSuICbS+3CY8UGAAHv7QEwc64KvioJAALefiHgBaBw91vjrfyDxJANBLwAAS8B Lwh4CXgBEPD21VAlfKir8amFzxXrhibCLxXrDIaqjf9euG3dOF8MvRD+ShInrhbzg4AX2UfAS8AL EPAii8Zbo8cU28HZpXb+Q5p73CLJgsKr0xWTxRYxAt7bBaDYym/mfAAQ8PYRAS+Ab5fjwiPGdo0N iyE7CHgBAl4CXhDwEvACIODtKwWAp7pagbcavlWsG+U4eKJYZ5CGVgsxCc1VGu+yKFoqhjmqn3+k s+Pb18V6j4AXIOAl4AUIeJFV5em1dyzGQb3Yzl9UioNfSbIg8J6102sPEVusCHgB3JaJdnB/7Y83 SNIR7JVr5NulVv7TOo9fOnMef3V6++/FIv19Sq3CVkWMby/HwbT++APyEfmifE0uk6vkl1yQRMDb IQJeAJeXWsEbynF+XXYvogQBL0DAS8ALAl4CXgAEvH01MhUd62x8PiXWjVK7MCHWOShyurPG7puS 9MmHbeKsZWKYu9xUuNrZ/rtLbF4R8AIEvAS8AAEvMiu9fXkxHv3Hclx4vuYjXyjFwR5J0DefmNi5 5gixRYiA9/YA2LnPfokb5dtyic7Hr9TPf1fIV0lv7z3RWnPv9Hwttj+MTwdHphcnpXcbWLej8Hel dj4otgonlVuj4+W4sKEUF87Un9tYbBfO0+vuecVW/rWKuHaU28GXNc7XEfAS8BLwunStfEMh/yfT Cxb0/9+Wxv0p/fEb9wn/te30952f0v6+Kd3f/6zczj9Uf08dA6hVmCy3CyecOn3cvcSQfQS8AAEv AS8IeAl4ARDw9tnmezgbnyvFulFsjx4vhtmxM555tELHT877tq2FbatvOkQMvTFUa1adraA9LeYF AS8yjYCXgBcg4MUAOC0+4U7pF54zq9/9lHigL740dklwZ7HFhoAXwIEU20FpgI/5e3Se/ZYi3Xcp JN2cBkali0+4nyW2RAz9d8alq45OL2YqtYKzZs5bVxPwEvAS8PbFbvmOwtt3pL9zuhjMeJz/hwPd oQIACHgBAl4CXhDwEvACIODtL7Mlek43SuLEnm5XaD19evTuYpi9dMxn3iDulaTH/jhca0YWRUvF 0Du5amOTs+PbS8W6xwq8AAEvAS9AwItBVooLD1RodE65Hbx/ZnXAZF5AtwU/9q5iiwsB774ARJEt 1X74VUkGQiv4famd/5DOpc9Ob92drhYr5hy2B6u03Z6lbXglAS8BLwFvD7WCH6Ur6K6L87Wx9vFH iXUCAAh4AQJeAl4Q8BLwAiDg7Ts9p+9J4sXIVHSs2GyN7RobFuseFDwWexyHfSZXi/Ji6L2hauPN rlbgrYVPFvOCgBfZRcBLwAsQ8ALrLwnuUNqeX6+o4E2lOLhcEvTUdxbZRbAEvPsBUG4VHj4Ax/Or 05Xsy63gjLELx5aLIaP02ba25UO0TX9IwNs1Al4C3l8X2/mLyq3R8W5XGwcAAl6g/wh4AQJeAl6A gJeAtxK+39UEpBL+m9jCgG3cmMtVm4/Wtvi2JF3R5Hao1qya2RLjMW8Pbx8i6Pg7IeYFAS8WDwJe Al6AgBcYb40eU2wHZ6crC5bi4BZJMGdfL0+vvaPYYkDAC+AAq+9+R5JF6A/ylvE4ODn9PcWweKQh drkdPEfbeA8Bb8cIeAl4ry/FhU269f0hYgAwFwS8AAEvAS8IeAl4ARDw9p3etLzJ1RjVwheLLTzk KltO+FMEWWl+QdtmtyS34Wb9fZ9M3/yObIgeIDa/YFG0VOP+O1erZ1cb/yDmBQEvFicCXgJegIAX OC0+4U7lVvAv5Th4R7rKliTdQuEzpQ8ce6hYxhHw7gNAMQ7qi3H19GKcfwq3gh8MM6vx3kjAe7sI eAl4byq1888am155mBgA9AIBL0DAS8ALAl4CXgAEvH2n5/RMSRx5n5gvsHo0MjIV/f3wVGM8XV03 nSgO15oPXjYZrbCxaFgM/ZOOu7P9dq+neE/8B7wAAS8BLzBnBLxAfXrliCLUogKE15fi4ApJMGsf TMdRLMMIePcBoNwOvryYwt30wpX6dH1IDIOjHBc2aPvvJeDdHwEvAW8xDr41vq2wWgwAeoiAdyEA BLwAAS8BL0DAywq84ZnOxugqMQC3bajaqDnbb68Rc4SA1xsQ8PYBAS9AwAuUt42uLLUKUSkOvjir 4AVvEcs2Al4RAMVW4aRFcmy+utwqPHyww12U4+DlBLz7IuAl4C23ggvHLhxbLgYAvUbACxDwEvCC gJeAFwABb9/lprYU3I3RZHRPMQAHpv3k+ZI48imx7hHwAgS8BLxAbxHwAuOt0WPKreDppTj47MFj XigQOl8sqwh4bwUgeJskGba32M5fVJ5ee0cxDLb1lwR30GvieiHgFQJeAt5iK//aKLKlYvMBAAh4 AQJeAl4Q8BLwAiDg7b/6pkP0vHY7m4TUxQAcmOLUj/vaZ8M3inniP+AFCHgJeIF+IeAFJlpr7l1s B2eX4uBTskeS/WCPQo6KWCYR8AqAsUuCO2vfu0mSTGoFPyptHz1R7M+AYisICXgDI+Al4C3HheeL zSMAIOAFCHgJeEHAS8ALgIB3Yeh5fVcSP5qvEtsfANu4Maf95A+SeJGrhU8W84SAFxlEwEvACxDw An1w6vRx91IgdZYigE8Q8+4Xjv1+PM7/g1jWEPCmAJTj4InZPQ7nP5YGyGJ/CUjfu7i+mwABLwFv HxTj4N2W2BKxeQQABLwLBiDgBQh4CXgBAl4C3vdI4kal+QUxAAdQDddK4suWk8V8IeBFphHwEvAC BLxAH5RbwT3KrfzTFAV8RRKBxmJi54plYllCwCsCIPioJFmjMO2NwdYgJwYciF4nXx/ggJeAl4D3 mjMuXXW02DwDAALeBQMQ8AIEvAS8AAEvAW9TEkf+aPXoMLF9AdD+ca4kjuy1SnSUmCcEvMg+Al4C XoCAF+inie2rH6CA6kUKBK6VZJCV4+DlYllCwAvg9OnRu2u/2y1JtuRfIXZ7gPTcPKgBLwEvAW85 zj9eDAD6gIB3YQAEvAABLwEvQMBLwDtUaVT8jVVjnRiAvxbulMSLXDX8iZg3BLzIHgJeAl6AgNcD oD5dHyq3RseL7fxFCgZukGQA7S23gjPEsoGAVwC0grMyeLx9C7eE7wQUFD16QANeAl4C3ivr0ytH xACgDwh4FwZAwAsQ8BLwAgS8BLzLp6Jj/L9hAWCPipbr5x8kcaMWXizmDgEvMoeAl4AXIOD1Bjgt PuFOxTg4R+HAjyUZJPq9f7J2eu0hYhlAwCsAgk9Ikhmt/Lb0ohGxgwFKrdX/d0ADXgJeAt4XigFA nxDwAgS89DAg4CXgBUDAu0DMlui5/VISR74v9hcATDXLDo9rzxbzh4AXWUPAS8ALEPB6BUSRLS1t z69XbPXpgQp52/lniWXAgAe8AE6dPu5e2uf2SJIRl03sXHOEWCeA9DU+kAEvAS8BbzsfiAFAnxDw AgS8BLwg4CXgBUDAu3CGK+F7vY3VsslohZgIAEWpr/J3XGsWxRwi4EXmEPAS8AIEvP4BaURQbOcv UlCwW5JF7obTW6v/j5hzAx7wAii2gsdl6Nj6x3Xx6rVinQLGLhxbPoABLwEvAe/Po8iWigFAnxDw LiCAgBcg4CXgBQh4CXhr4WZvY5WrhE8VEwGg/eK7kjiy2yaiI8S8IeBFlhHwEvACBLz+AeUd+RUK H16vsOAmSRav/DvFnBvwgBfAzIUViX/dx3tAHy4eIuAl4HUmv1OsnwCAgBdYOAS8AAEvAS9AwEvA Ww3/URJnPiKGELCRqejv3e2jlfDLYg5lMOAFCHgJeAEC3iwCSttH71NqFbYu5hV5y/Hq48Q8I+AF Blw7+GlGjqnfn9i5YpkYMFt6/fyWgJeAd5ACXnmpWB8BAAGvQwABb/aBgHcvAa9XAAGvO/VNh+j5 3SyJI3tsMrqnGDDotD88WxJPhmrha8X8cRzw1sIXiwFdIOAl4AUIeB0DJravfkA5DqYXZcDbCi4U 84yAFxhc463RY7JyPC22CpNiQDf0GrqOgJeAt6fi4FzXx8x2cLZY/wAAAa9HAAFv9oGA9xYCXq8A Al6PPE5KctXGU8SAQaf94dv+PjAIzxTzSAHvi1x+yFILt4oBXeg84CXgvYqAFyDgBRbKunj1WgUH n5BkEbllorXm3mJelVrBfxLwAoOpHOcfnYl4Nw6+FUW2VAzohl5H1xLwEvD2UrmVf5rzY+cjxfoJ APTd0icJeD0BCHizDwS8tfD3BLxeAQS8Hun5vVwSX5ofFwMG2chUdKzL41k9uq+YR8OV5nOcngda YkAXCHg7lKuEPyXgBQh4gYVkiS0pt/MPLcXBlZIsBgrPXiTmlQLeNxDwAoMqeIsk3ik0frwY0C0C XgLenmsFT/Z93CxsEOsnANCc/iPZCngBEPAC/lfg/SUBr1cAAa9HQ1ON0x2O2R6rb7mXGDCohmvN FzjcN78v5latETo9D3xMDCDgnT9DtfAHBLwAAa8HwOSOkw4vtQuvnAlbkoz75cTOFcvEPCrHwasI eIHBlK5sm4Fj6B8mdq45QgzoFgEvAW+vFVvB4zyP1bp2YUysnwBAc/n3EfD6AhDwZh8IeK+VxJ1K +GUxAD1HwDtX9U2H6DneIIkvjS1iwCCyen0oVw0vZ1IxW43znZ4HvikGEPDOH8eT1FvE+gAg4HUG KLeCvCKEr0uSae2gIuZSXHiJ03H7hbb/g8UA9F59uj6k/ewmSZzbLjZHAAEvAW9PlVuFh3seq4V4 DwUAmsPvkMSha2zDlvuIAZgdAl4sMAJep7FLanca44gB6C0C3rlTCP1+d1cV1sIfWRQtFQMGzdCG 5nqfx7PGOjGvctXGJq8fsogBBLzzR8eAr7gdp0p0lBiwUAh4gYUTbA1ypVYhUoywW5IsKsbBu8U8 KsX55zkeu0eKAei9iXZw/2xcAJHfKDYnAAEvAW+vtfIP8zxW6QrBYv0EAJq/v0cSj3IbwjViAGaH gBcLjhV4G99w++Sq0V3FAPQWAe/c5SqNs32OXbMoBgwYr1f73nBrrOdTrho+0esKnGa2xLp48OBB wNsZHTs/73WcRjZEDxADFgYBrwdAeXv+FAUJ10iSQTdM7jjpcDFvFPA+w2180i6cJwag98qt4Iws HD/HtwerxOYCIOAl4O21cpxf53qsWsELxPoJAIZqjf/0+tlyuuCPGIDZIeDFgiPgDT/m9ovbavRA MQA9RcA7d26/1FeMNy0GDBKrR3dPg09JnNkp5tlQJXyo49DxzmLALBHwdmi4En7I5zhJpXmaGLBA CHidAE6dPu5epVbwuSxGvOmtlsW8KcWFx/gNeIOXiQGYB3FwTgaOnTfXp1eOiM0FQMBLwNtr5Xbh BO7+sC8AGK6FL3a7Am+l+VgxALNBwOsBCHhbkgzOSpIACHh7Y6gaXuZw7G622uZ7iAGDQq/7ptOg /t/FPEsjOb/ngi0niwGzRMDboVyl8S63H7LWwseJAQuEgNcRYGLnimWlduFdmQt44+AdYv4UNjgO dd4uBmAexPk3ZeDY+VWxuQMIeAl4e2uiHdzf+fHzS2L9BADDlfA8v4tDhA0xALNFwIsFRcA7VG28 2e/VMY0niQHoLQLe3tA4vsbp+D1fDBgE9qhouX5eJ4k3yyajFWKe5SrR8X7fB4YbxYBZIuDt0FAl fL3XcUpXcBADFgQBrztAfbo+VIqDt0mSIddaYkvEPBmPg5Md3/75c2IA5kPh4gwcN98itg+AgJeA 14Gx9vFHOT9+/kasnwAgXeXW62fLQ7XwQjEAs0HA6wFYgfeFjq+OeaUYgN4i4O2N4Q3hKU7H75dW jw4TW+yAXK3xBJ/7YeNLYt5pDO+7qN4HAgS8HdMK3M/xOk4SiwELg4DXI2Bs19hwqZXflqWId2L7 6geIeTIe5//B8Zj9SgzAvPioJM5vAf9ssbkCCHgJeHvNElsys/0Sr06fHr27WL8AwFClUXH82fJn xADMEgEvFhYBb67SONtxuPFeMQAEvC5F0VI91yt93nq6cZbYYgbosUSv9287fQ9znph3aUzo+Fzw ATGgCwS8HcjVwqc53v+/J9ZPAAGvf8DYhWPLFSh8UZJMaAVPFvPkjEtXHe173I69qxiAXvN/7Cy3 gqeLzRVAwEvAOy/i4EpJvCq2CpNi/QIAudqWBzn+bPkXYgAIeDMFBLxDtcak2+Xtq+FlYgB6jIC3 Z4arzVd5PX5avT4ktlgBQ9XmBqfHsL3Lp6JjxLJAz/fnkniTq4aXiwGzpXPgDwl4D26o1nyY13GS vTYRHSEGLISRDeEqAl6fgPHW6DGKFH4piXflOJgW80bP7ddux2x7/hQxAD0WB9/zf8zMP15srgAC XgLeeREHn3J+4dgLxPoFAGxy891cdwb1C+4i1jkABLxYaKzAWw2Pc/3FbfWCO4kB6B0C3t4Z3rDl RMcXQTxCbLECFNB/3uX+p+cllh3hFxdTwAfkKuFPCXgPyvkqCbIhPEUMWAi5WjhKwOsXUIyDekZW 4P2BmDtx8DVJfCpsEgPQa8E1kvhWOFNs7gACXgLeefF258fRj4r1CwDM3CHzD5L41Fgn1jkABLxY YAS8Vj//yPT/DM7JFQABbw+ZLclVw584DXh/bPVoRGyRATyvvps6RyxDWpL41CyKAbMTXkPA24F6 dHfX7wdrjaeLAQuiuuVk3wEvgFKc35mBiHdP6QPHHirmSTnO7/Ab6xTeJQagx+Lgt5J4Vm4FZ4jN FUDAS8A7H8px4fnOLxz7/diusWGxfgEAzc2/I4lLChHFOgeAgBcLjIBX/5P61eCcXAEQ8PbWcKX5 Mq/jmKs2Hy+2mAAWRUv1+v6q21Vj69F9xbJCz/nlkjj1QjFgln5BwHtwM6sk3CCJU9vFgAUx1Rj3 HfACKO/Ir1CscJMknhW3rS6IeaLn9WpJnPqxGICe+40krrWDiticAQS8BLzzIr/R/YUQ8erjxPoF ADQ3f58kTu0U6xgAAl4nQMD7v5I49T4xAL1DwNtbIxvCVW4DXt1G3CbOWia2WABDlfChjo9fHxHL klytcZbfFTjDz4l1CpiJUm8h4O2MntN3JXHqFxZFS8X6DRiqNCoEvEAmVuF9k/+QIv9oMVfahad6 HrPTp0fvLgagd8px8LMMrMD7L2JzBRDwEvDOB722Huz+wrE4/xSxfgEA9QavcfzZ8s/5bBmYFQJe D0DAO1Rr/Kfjk+sNVt90iBiA3iDg7b00MvMb8TbOFlsMANu4Mef5tjzp8VUsS7SK+GmOzwd/tIno CLGOAJPnHT6r1xgB7yWSeJWrRXmxvgMq4Ub/AS+A0rbg7xUr7PUd8AYvF/OkGI/+o++Ir/BwMQC9 o33rqgxc8PB4sbkCCHgJeOdDeXrtHd0fR9vB+8X6BQDSu8C6/mx5aktBrCMACHg9AAFvGne5jvkq jZIYgN4g4O29XC18nOPx/KUinTuLZR2gfe1prq/ofVS0XCxT6hfcxfP5YGiqcbpYJwCrR/cl4O3c cK35Ar/jJbVGKNZ3QDVsZiPgBaCg4r3OY4r3iHky1j7+KM/hsyLjd4gB6B3tWz+WxLNiOzhbbK4A Al4C3nkTB1dL4tjNEzvXHCHWDwCQ2xCuWTSfLQMg4PUABLz64vbBvgPe8JViAHqDgHce1KPD9Lx/ 4zaAqzZfJ5ZlgNWjO6aRLO9X5kE1vNbvuDZfJtYJIFeJjifg7Zz794S6w4FYvwFDtfC12Qh4ARTj oO46pGjlPy3mThxcLolTv6hP14fEAPSGIt7vuQ94W/nNYnMFEPAS8M6bOPiA/1V48w8V6wcAsNK5 h2pevkcSpz4j1hEABLwegIDXqhfcyXnM930xAL1BwDs/hqqNNzse090jG8JVYlkFDFXDN3o+bo1M hSvFskjP/4OSOPVtsU4AOhf/EwFv50aq0QM9j5fsscnonmL9BCji3ZaNgBfA2PTKwxQr3Og34A1+ JOaM+5WLi63CSWIAeqPULnzBeXQmhZeIzR1AwEvAO0/i4KWSOPc2sX4BgJmOJ3Fqd3oHSrGDAkDA 6wEIeFO5avgTz1/e5qa2FMTmDgAB7/xIj1POVzP/kFgWASNT0bHpZFsSl2rNT4tlVjV8ue/3geFq sYMCKo0nEfDOwlg0rOd1k+v9v9rYJNZPwHC18Y3sBLwAFOu8z3FEcaOYN+V28BznK3G+VgxAb2if f7/7VSPjYFpsrgACXgLe+VJuBf+SgYD3l8HWICfWDwCQqzTe5fyz5aeIHRQAAl43QMBbCd+e/onF f1tqAAS880fP/X8l8Wqo1ny4WJYAVq8PpbdRZ9+aR9Vm3fd5ofkSsYMDwhcS8M6OntcXfc8Dm18Q 6w9g5n1HNbwxOwEvgGIcnOM5pBhrH3+UmCfj2/Jl5/HJ9cQnQO8oPHt7BqKzL4rNHUDAS8A7P05v rf4/7o+lUtxWOF2sHwAgV2uc5bw5+IzYQQEg4HUDBLy18MnOT67XpStEic0NAALe+TNUDc90PrY/ t2p0V7GsAHK18GnO96srrR6NiGXXlns5H+MrLIqWit0eIFcN303AOzt6X/ga7+8LR6bClWL9ACyf io5JX3fZCXgBlFvBg12vKrkjv0LMk4mda47Qc9tNfAIMBoVnr8nCqpFiQA9cT8BLwDtv4uAKSZzb LtYPAJCrRXnvny0vm2r8jdjtAkDA6wYIeKvhcd5PrkPVxj+JzREAAt75oxW7FPFe5vx2IW8TywJA cel99br9nSSOnSuWdTp2/dj3KpyNMbHbBVTDbxLwzo5W4X6Y+3mgImOxvgA2NNdnK+AFkK5wW4qD vZL4VHigmD/BVyRx7D1iAHqgnX+W9+CsVyuWA6VW8HsCXgLe+VKMg3dn4Hi6e3w6uK8YAMy3mTtZ /VYSt2rhc8UOAgABrw8g4E1XNdPPX/sON8IPic0NAALeeeV/tVAZmmqcLuYdoNfrTkkc+43Vzz9S LOvSuN/5hVxvFgNui23cmNNr5WYC3lnyvwJ36tdWOvdQMWC+DdeaL8hewAtAocLlkni0rjU6KuZN OS68znt8Urr4hPuJzRGAdn6j/+CsN8dLYJ5XmCfgZQXef5fEPV24IdYPAKA5+Qclcex6q286RAzA bSLgdQIEvCK18GLnJ9e9I9XogWIAukfAO88mzztcv8OvJHHsWpvcfDcxr4BcNXxiBqKyl4otBhkY 71+lx1exAwFGpsKVXbyuCHglVwl/6n3scrXwyWLAfNPr7WOZDHgBAt7PS+JReXv+FDF32oUp/wFK 4SVicwOg2A5KWQjOinH+KWJAt864dNXR8/kaJeAl4B3fHqzKwvFUrqhP14fEAGC+Kfq7wP1ny9Xw MWIAbhMBrycg4M1VGk9yv2pkNfwPMQBdI+Dtg+Fq80UZCA+3i3kELJuMVujn7yRx7BarR/cVWwyW r2/cLwMB39PEDgioNB9LwNudXLXxlgzMAy+zsWhYDJgvMyt5/yGTAS9AwHuJ4wi1KObNxM41R+j5 3SKJY78am155mBiA7p0Wn/C3WQjOynHwDjGgW2lcScBLwDvv4uDybBxTCxvEAGC+5SrR8f6/E298 w8yWyIEfPHjwIOD1BAS8tmHLfTIQnN2cBiZiALpCwNsPk9E99Xvc6D6Gq4QbxTwBFJOODFfCL2fg it3/EVtM9Ht9VxLHrkjjKrG/BgxVG/9NwNudoVrzYd7HLjVUC/9FDJgvwxvCU9LXWvYCXgDFuPDf bgOK7fn1Yh4V42CX+xU524XzxAB0b2LnimXan/ZI4lo7+KkY0K3itsLpBLx9CHgJeN8siXvtwhcs sSViADCvzJZoXn6l/8+WG5NiBwSAgNcTEPDO+GYGTq7/KQagSwS8/VqF91XuY5ha+Ptlk42/E/MC 0GvzpZI498d0lWCxxUTHrVdkYBXOM8X+GqDXx3cIeLt0xjOPTo9rkjj33fmM+IH0PJjNgBdAKc6/ iYC3C3H+GRkIUH451j7+KDEA3dO+dJUk7m0fvY8Y0JU4eCYBLwHvfCu28tVMHE+l3ArOEAOA+Zbe RTsTq/BG0VIxAPsh4HUHBLy18MWZiGaq0d+KAZg1At5+qV9wF/0uv5PEue/Y5HmHiwELbWhDc71e k3szEJH+x6IMICuNkvexly+KAQe4k8heAt7uKVz8pPv9X3KVxpPEgPmgc+Fl2Qx4AZRa+W1+44lC Ucyj8rbRlZkIUFqFSAxA98px4cNZ2N+L7cI/iwHdKMX5dxLwEvDOt8kdJx2u53izJBnwxX6swgsA /2979wHfVnX2D/wJsuyw9y47zJQQ68oJAQqGWFKcEFuSX3VRdptOSqGUECypt2V30x06aBkdqiU5 hKbQBW9LyyiUDWHvDQkzOz7/3xPk/8vIsB2Ne+796fP5IrNi3XvOHbrnd56DFd5SVqzwhowEyPsQ EQO8XkMM8Ia7cxOtGLhN5X4PQkTDxwBvXavwfsOSc+pvQYgaqaUnu3clmGI8btno6dk9QPxGOk9p wfa9DsbT0vkjQQYR4RzymfXsVwzwJrOzbNiH8HwtJh4R4TxykPYxawO8RKzAe713w6eth4N4VsmZ D8bjXp88Z+L2ICNDRImS820rqkWWnALISBChDz3JAC8DvPUQKzlX21KFN1aMdoEQEdWSPve2oahV KJ17SMfBQN6FiBjg9RpigFfphcuKwdtkfjIIEQ0PA7x1lJq1NbbnNTtCvNnTQBqBSOJnbKzL19gx Qzf3IxC/QgXCyywI8P5LREYJX3xVXugXVzPAu35aurL72hHghWT+6yBEVf6O9H17A7xEhNDOA14N TXQUIweDeFW8HPmqJQGUX4OMDBGhAu9xlhzrb7UXxm4CQjQcU+ZE961XP2WAlwHeRDF6rC0BXrjL dWUDkFoiIgonc1fa8Xw52wvyHkTEAK/3EAO8cB4YCzwoJ7ijQYaMiBjgrbOmdO4cS86py+EIkHoi wmuUVoG25DhZLJnenUH8KtSTnWrJUkc9IESSmbk5+sQiBnjXX1My919LzsWLpLt3F5CqIMqctiH6 1QI7A7xE1H5dexOCCcs8G+Dti7aCeFViTmSMJeGTAVRaPgqEiIYvUWo9yJ6wWfSjIMNEdBoDvAzw 1kvXnEM3xedcBMYSx4MQEdVSKJU92pZny6N73D1BiAgAGOAlL2KAtznlfhDvxgrpbA5k6IiIAd46 S7pbYJteAmOBl1tS7j4gRPWCaqquRVUfvwXiZzJjRljPBZ4P8KZyj3CpI0XhdPbTVetbDPCeacu+ xMSPX4MQVUUyf7L2KwZ4iewU6xu/t5cDExqQBfEyfM5bwXhdrOTcmymMbQYZNiJqxnG0FIznFZ0y yLAQ4VrGAC8DvHVVcv4AxhIvdxZatwUhIqoVybjN+I7+ih1jfbk/ghARADDASx7FCrzqLjAWWNLc nTsQZGiIiAHe+gunc58b3DYrQnEpdzsQolqrnI8GwFjgBQ3kg/hdKJ2bbUmbnAFCgXcDA7xVgqq2 Fp2TtRJ3J8j6IJJMJoT+dB8DvET2ihcjH/FyYEIrtIF4GYKxp9sTQImcCzICRFSM/MuSY33x5NKE rUGGggjVdz9Y737KAC8DvIlytMeiAC9EfgFCRFRLqMJ7iUXj4ceBKCJigJc8iwFeVKH5It6NJe6R E9zRIES0bgzw1l0lGJC906Lz6i21DhkRoZ8dAUvsqfaY/xRIEDSleg+zpF0Woi9tA0LBFE6646vX nxjgBasC0fjO+qRkZm4OMlJE+rBe+xMDvET2QiDhYjAetQTE69rnOttoYA6MBVbGSm1HgBDR8OD4 uQCMDWJFJwcyFEQaTGSAlwHeeqtUNn8ejCUGEkXnSJBaISIKJ3snWPSc7Y2WLncMCLlEDPCSVzHA qwOhTencmxZdYL8Jsm5ExABvY2Bp+sm6bdZI5/o0eAxSbURaPV/Dl2DskL09aMcDtvluG9pGqwWD UDAhwHk5A7zVhRD/iTbtU4QvfwZCNBIyY0YY7w8zwGs9YoD3NjAe9TSIFcrOldYEUIrOo53zJm4G MnRElChFplgUNHtxUmHShiBrQ4Sw0I46YYYBXgZ4G6LonG9TFd5YyblXg8cgRCPhurIByNoQ4Xv6 rWAscQPHwokAGOAlj2KAV+lgqEUX15VNPfkECNFISZe7k7juBiB+xgBv42Db+sFYVNnu19U+Joh0 Riv617NgLHIESJCEk7kvWNI2A7wHDCbp7t0F7b+MAd4qy5y2IT7rAjCWGMCDpTgI0fDlzvRWf2aA N9Y3fm8MLF8C82OlyC2xsnNq/NpxG4MQrU5nceIHtJoYGI+6HcQGHSXnMLwbi1wBQjRS7eXxW7QX xm4CEhRdcw7dVEOEFoX1PweydkTR2Q3rowzwMsB71YQ9dHUAMBa5AGSoiCaXJmyN8+05+PnJyvX5 IfT/WdPnOhuBEL1XOJ37pGXP2/IgRCMlmVnbSucpLSA2Y4CXPIwBXgQ3HMsurq+Mnp7dA2SoiDSc iL4+A/3naTDwkoaWLAgtMsBrodE97p7YviV2VbbL/xCkGogk7X4AE4QesyzIXgAJGuk6c1Ns/+tg LPCMpGZtDULBEUplf1mDvsQALyDU+F2rztPJ3BOScbcCGSqiyoSiRQzweoNW8Vk1SF9ylq0mvPNQ ohydAEK0Gl/wckAC1S7ngNgCn/kuMBb5IgjRcHT0RVvj5chfKuH/5XCFVvAECQJcV2+y6Bh/OFPI hECIVidein4Q/WQFA7wM8DZUKTLPsvunlR19kQTIuhDhPBurrCpiVvddvbO/9QCQdyKS+BkbV55h GUusDPVkp4IQDUdTKh/Daqa3VfrRYvz9d6TT3QzERgzwkocxwAuQv9GuAa3s7UMeGCfCbBj0m2vB rEa/3mCC+A0DvI3VlM6do9tomQtA1geRZNwd8P4gGIu8MXg+CiIEJC+xJ8CX/R0IBUNzT24s2n0F A7y10dzj7qeVbcFYI5m7ZsgT8IhERqHf/B0MA7yNt6rCbtn54zoGmZclitFjQd6JKF6O/sfbAV7n 2yC2iBWjn7YsgLIsXmw9HGRdiMTIKIRQTlvdZBF4NtbXGgXxO+yDXpuOcz0vgRC9l04Aw7Xrn43u owzwMsCLyRHT9DNb5oXYnNadQNaECH37y0NY7WTh6u6hiJAx+p5lz9wWtCSze4GsC5HMmBFeSxGU eywtOskAr9cRA7yhdD6Fd2NZpbzf6oAcrPHFF18tPdm9h1AF8t+ScTcB8RMGeBvsBHc0tvF+MFZJ 588HGQkiyfTujH50HxibICh4KkOS9oT49PoG4n+kYU1tcwZ4awef969gLHMeCNE6JXNneqPPMsA7 7eoDt0SQ6N9DHGQeSBQjXwIhUvH+tkM8H44oO58FsUX7pe2j8bmfB2OR56eUx+8OsiZEWsUVIZRL 19qXis6bCAUeCuJnlYqlxiIvt891tgF5JyKEd2d6oY8ywMsAr04QiZWce20L8eIzX8cq57Q6lT59 4XCu1R39zoEgg4h0nB/PfZaBsUf2bsnM3BxkzYjcTdBf/gZmLZ7VLBKIPRjg9TxigFerGNkYuIFv ghCtDqqKjcP7c2CG4K8auATxBwZ4vQDbOAlWgrEJJnX8eNjV7YhwPIfSuYfsu5fI3yyZTAgkyLAv 5to0S9r/FZMplMpn6tCXGODtyScs3McD2j9A1oSoch++jAHexksUJm2VKDv/HfFgPlHJKYHxskSx rQPEJti3syysIjd/cmnC1iBE79U5b0xLrBQtDrEvvdrRF20F8TNs54NgrFGMzgYZRNRRcg5D31jK AC8DvF4RK0dO0M9tnWLUBRlEpOFd9OkfjWDlkZfeew9FhCIxl1n47O1v0nlKCwjR+6Rmba1jx0Ms Ovm4dPfuAmIJBni9jhjgVTi5nGTj4FY4lT0N5J2IMGh7jC6JDmYYrvfRjCsGeD0CFaB/Yue5NXe5 tLtNIETr0tKV3Rf95ikwllkeTrrjQYKuqTv3IctmSd/px+r5FdTpboZ2fpoB3joQGYXj6XYL9/Pr zans/iBE7yXps3dEH3kGDAO8jQ/vYpDvNjAjUnTOAaHgmlJqnTS4nKuXTS227gZik855EzfTECMY y9wcv3bcxiCDiDoKzq7oGzeCGYaF8WLr4SB+FSs737Ls+F6ZKEcngBDFr5qwhwbFvNRHGeBlgNeZ 7YTx/oSF/RL305FjQIi0IjPef7Ee/WlhRzFyMAiR0me0NhazQvD4dyxmRe8VTuYcZDseGWam4nEU FtwPxAI2BHiJGOCVjNtsafhmZSiZ+wQIkWRO2zCUyl6yHv3pDh3wBbEcA7xegVC4rSEk/fLCGYi0 LvplBv3lBTDWSefOARlE+X9Z1obz/Fk9mXQSSZ36EAO8MHjPaBut+i4ZdweQQUR6/DUl8/9pfB9l gHfa1QduORjeXT/Rb4BQ4FQGlqP/tmHZd61gBWKbRDFykW6DheZmCmObQYimlCLp9QijL0YQKwni R7G+1qiFx/ft7Ze2jwah4Oqac+im6At3g2GAlwFezyk5Z4Cx0GKtag1CgVX5juX8Gsx6KTpvJorO kSBEoONLV1n5fDmZ/76IjAK++BqFXMSp6BdLwYzAy+Hu3EQQj7MhwEvEAK9C5dLPWzrAtQIzIY4D oeBqSbn7aAAXzPrAn/WYVpMEsRgDvN5aBrzb4gABKlO7W4EQvRcmTByNL+ZvWtq37393QJ1C6WyX fe2Y/waIf1Aonf9IffsQA7wahNcwrKX7+y5d0gqECK9RmADw28b3SwZ428vjt4iVIrdUa7A5VnJ+ MhiQpOBA1b2ZdoQhon8CsVFnoXVbbMPrYOwTmRfwkB9d196E68OFVajSvQLnm8+A+BG27y4wNtHr PggFk4bLEqXIHM/2UQZ4GeDVlQBKzgtgLPRKvM/ZD4SCRyfAxYuRvir2J5xfojEQokqhnwEwtsEY /k8DHuLlCytC4pny76vQn97C+NY0EA+zJcBLxACvzJgR1pLg9oZ488eDUBBl05WBTlMlrzR19x4C YikGeD0GffSXtoYINNTT0pPdG2QQUTid+yT6x3IwFlq++pmQhED2TfZVC8/NACH7VSZjvcoAb/2F k/mTrd3nOG9J15mbglCw4Z71B9onGOD1ROXdW8GMFEO8NKXY1oZ2XwLG84rOOSDWKkXOtTYkhfB0 MEO81FFwdkUfuLHK15kLQXzodBuP70QxeiwIBUul+v7lnu6fDPAywAu2nlsrHptaaNsBhIKjc96Y FrR9P5gqWxIrRrtAiPBMqGjxOPjsYIZ4+Qqn3QjycQ9XM7Om4+cgHmVLgJeIAV6llWwtHujCCTH7 aRAKBh2sR8XAn9eoP73R1JNPgFiIAV6vybibWFzdTr0QTvceDELBppUa0R++DcZiZ4HQauC6Z2F7 YkmbfAyE7KWznLUyNhgGeBtThdfy/X+DxM/YGISCqSmdP1/7gk+8ysq7a1B2rtSKiyD+RUcVDtoZ 7f00GCv0R6aD2EqPW2zHAjA2SpSda9oLYzcBoWCIlaMfQ9svrFXlVw0QgvhFvDRuO2zbMjBWwdLc nf2tB4BQMFSWdb8CjNcxwMsA76TCpA0H71ctdaveA4L4H3XOm7gZ2vxvYGpkSaIU7QahYGvudg/Q rI61Id5U9hJ9Rg5CAeC6G6Ddz4ClYKpsoCmZOxPEe6wK8BIxwKsXpsGNsdjF/p8lwxfaeVIdApHL UTL/JBDLMMDrQeGe3ii2exkYSy0JJ7OnglAw6TLl6AfXgrHYP9b+JZx0H4GxzFtwBAjZRzJuMx4c XNPA/sMALwzeO1ormfujZE7bEISCpSmZ/7r2AR95lZV31yZ6+WC4yn+oEt69D4wlVnYWWrcFsRmC KLMsD0vdqX0HxL9Ig0Z1qszZr8EsEL9IlJyCjcc2AtX3JgqTtgLxN9IJWjb1UwZ4GeCt+KzNfRWT oP47eB/rX5QoOjtqW9ehT62IlSOfAAk2Qj7h15Y/k7uWK70FAPIpaOvr6pJZQ1AYxEMY4LUJMcCr Qql8t+2DXuFU9lcyY0YYxGeo85QWVGr7Btp5JZg6GGhKZ78MYhMGeL0JbZOz/vyazF42GE4KDgr3 5FoxaeJRy/vvQsm4u4KsGTWlew+3tH1fb0r1HgZiD9JAPR7s/b7x/YcB3sqs8zvAWCudu0kys7YF CQASGYXw7rca3/cY4MVS5ptjwO5mMPWgAQ9nthMG8Q+KXzVhD1RcfMiucFnkFhDbxa8dtzG25xkw 1io6j06ZE90XxH8oXo52op2fBVMf0f/1U2XCeL8z0eJj+yZ/V9mmrjmHboq2ngvGJgzwMsCr30cG 710tds/UQtsOIP5Dib62sWjjJ8HUyYpEMXosSHCRJN3d8ZxoMRh75W+WlLsdiP9QOJk/WccS65ep yF2pBWxAvIEBXusQA7zKJ1WwbpD02TuC+AM1p9wPNqWytzfqojE4S8YGDPB6UqXKef6f1p9fk/n/ BKf9SCuRW/+lGzBBKQNC64b91W9peO9NfPmMg5DnVcK72V95pP8wwAtYKuxoH7TB/NHTs3uA+Bfp g09vnD8Y4NWAk4YY6x/oiV41fa6zEYj9aEpfZBza9TkLg2XngPiBVszyQWjqtVgxkgLxB6osUX4x DDQi1BTvb9sFxBdKzj/AWOpv7Ze2jwbxF+osO3vpsQaGAV4GeG2EJeO7re+zmASlE+lAfIT62w5B +74Mps4G8Hzg8yDBRRgDP9cHz+aeCnfnJoL4A2kou4Hjnn+TTnczEA9ggNdGxABvc09uLN6Xg7Hc M03dvYeA2IvkBHc02vJrsLSxlZ1zl9tS2ZkBXg9DBVBs/0tgLLcwlMp9FMSfSJLuFjjv/Vbb2wfh 3Z+CDA21dLljsN+WgLHQUoa1vU/vp7xXeZcBXoVt+BMYyz2P2e0OiP+QpGZtjTb+OxifepXh3SFD 1d9x24HYixLFtg605QIwtukoOYeB+IEYGYWqo//2QXBqJQL+ruvKBiD2oljZiaM9H2lslW3n8Xif sx+I7WwPmSVKkTnt17U3gfgDxYuth6NtXwTDAC8DvHaL/MUH/faxxJzIGBD7UbwY+QjadAmYBhlI lKNfAAkmkvgZG+OZ0dNgLLc4nMqfCGIvwmsUxruPa3guA4XRvFHZmQFeKxEDvBUXg/GBpVjy/VQ9 QYNlL75QcfcotOEDYDziT5JxNwHxMgZ4vQ03apOxD1aAsR0CWAWZdtaWIP5B4XTvwfhS84g/7gOw 5E3nKS0gQ0eoZnuRxe2+Es4CIe/RawZW+/iLN/sOA7zNqez+2I5lYCz3RiiZTYL4B2kwG/cnj2kb +9irDO8OyyOJohMBsQtpECteipyrgUswFnrZb2GyWF9rdLA9rFd2/thZaN0WxC40ec7E7dF+V3rp WO8oRg4GsZmG2rEt94GxVjHS1zlvTAuIvShTyIQSJWdmJehqrMcALwO8pegH/dCfcVy+FCu1HQFi J6pMyOv10P38GSDBRKF07uN+eU6HbZlt5/N+akm5+2j1WzAe8aAHVg5kgNdWxACvDq7j/UUwvpDM XSNd7k4gFiDMQkHw+jK03YAnw2CZWduCeBQDvBbQcJmPvsA82pTqPQzEbqRLUusSN34JmMML0t27 CwgNE5Z0wf57DoytdHl1reIPQt5QCYc+CIYBXu/C96bv+qU99PuED9qEREbppFxvVIdngLej4Gwe Lzo3eWjAeZkGQXTAEoS8T5elt3w5d63M+RMQv0Go+hc+ClE9j7D4NBDyvlUB03Jkhkcrcr/li75U jnzYB8f13/U+BMQ+FOsbvzeC2P/yVWCXAV4GeCFWjPzAJ/13qV6LQexCXXMO3TRWihZ5jJNX4DUK z49uAOMT93O1N3toQScNqXr0OfKz4aQ7HqRBGOC1GLECry5xe4zPBsNeRrCxB4S8SVx3g3A690m0 1StgPOwBSbq7g3gQA7wWqHyB+QMYnxjQmYga+gOxD6ENJ8E9YHxiBb6IxEFoZELp/LE+mMD135Zk di8QaixdckqrooJhgNfjku4WOgECjE/coeFxEPuQZNxddRUUMAHxqufDuyXnZjBekyg713SWnb1A yJMqAb3oyWivV8DYrKPkHAbiN5NLE7bW4CsYnxjAhIMfx68dtzEIedOUvsg4C0J9y2PlyAkgttKJ LrhW/tcHx/WDib62sSB2IO17lYD+G2D8hgFehvs6503cDNvzFBg/wDXjsvbC2E1AyPsScyJj0G53 e3ji44UgwUPN3e4BPpuIvwyrVp4tmUwIhLypsrL3fM8/+03njwRpAAZ4bUYM8FbMAeMzc3UgEIS8 Qy+qGrSxqB89NzhLxlMY4LVHxt1k8ALiI8+GUtk0iB1Iw2aounuhj6ruDjoDZL3RtWAstxCT0jIg VH+ScXcIp3K/t6i/MMALg/eSPrJIK7iCWIEqVXdzM9B2r4NhgJeVd4dokS4bOqkwaUMQ8o5Ef+RD aJ/bwPjAY36u+DxYpdNnnp5SiqRByDva5zrboG0uhhX2BMKjLoittJKwT47p1xLlaA8IeVtHv3Mg QjzX+T24ywAvq3MmStFun/Xl+xC8d0DIuyrX9YVgvCxRcr7NFXOCCc+S8mB85o5wd24iCHlHS8rd B2NQBYv60VIUUPoISF0xwGs/YoBXutydNPgAxmfeQmB0JmfKNN47L6oWQiW5fAzEQxjgtUhlOfFX wfjMH9jG3qehRpx/n/Rb/0Pw53ca/IH1ffGF49gvVVP1XkNSs7YGoTpod5s0MGnnNY4BXqWTHsH4 zLyWnuzeIORdTcn8ZHxXv32w3RjgZXh3BJ6FL7Zf2j4ahBonftWEPVB193cafAPjC0XnHBBfKzkl MD40N97ftgsINY5OskCQY6aGMMHYRpdK14riIDbCNtwAxg+wXPgvddlwEPKWqYW2HdBGl8AKMEHA AC+X18e1reC3/hwrO9+aPtfZCIS8I1PIhBDg/SraaCUYK5SdH1kb4hUZ1dzjjsMKpB/H86qvw7d0 NdKaSea/j+cwF4TT2U83dfceIhm3GcRKGB8YLNzmMyu5Iq1HZNytKgWqltq4sjGcDlJHDPDajhjg VeF07nP+HSDL3o0A0zF6EwFCdZSZtW0omfsR2mG57RW9mlPuB0E8ggFey+BmqX3w5tJnFumNs3Sd uSkIeUe4J9eKtvlfn17bb6lugI4qXyKNTzyDa2QPSO1QU3fuQ9jXd4GxFQO80N27C7bpNTA+swTL RZ0v8TM2BiHvCCd7J+DB/h+91V8Y4G0vj99iMLxroacxUPjZTGFsMwjVT7zfmYiKe7/3YXBn2VGF g3YG8bmdsa2vgvGh1xPFyEUaLgOh+tHQa6IYPdYPy4yj0uJ5IDbSiooa+PFPiNd5PN4fmQ5CjadB Pw1lom3eABMkDPAywFsJri8A4ytF51EEeeMg1HhTi627ISz+Tzv7U+RcEFtoOBPPRM7zQAGcl3Sc VTKnbQhiG2SM2ny4+ueg5/Ac80wGeRvgBHe07ns/FI/RnBpInfghwEvEAC9eo3ASvMbPA2WhVO4R 3IR9Rk/4IDVEmd6dcbP5naZ07k0/LZkgM2aEQTyAAV4LhVP5E318jn1Kb0DFdTcAoQbqOnv7UCp7 ic4Q9eW1PJ17CKGzbUCoirBaAa7bN/quCmcyuxcIVU9zd+5A3E//vjJ72DDAaz9UUf6sr+9PkrkP g1CjVJ41pLJT0B7XgSFvBXjj147bOFaK3OKDgefHUAX2ZAZ5ay0TwrL46cHqjv4UvRwkGCLH+Dxk tRiBlB9rlWiQ2iFnthPG/j4e7gfjEytQTfgQECsVo7N9eEyXEnMiY0Co/nS1hkpl7WfBBBADvAzw ApSiH/Vr/46VI5dNnjNxexBqjETR+bjlk+wGMPEmA+J1WrQLz0SeBeMd2dtszbBo5WKfP8tbiMzL OVq4DqSWyN0E+/sMeNZPz4KxXbuC1IEfArxEDPAqSZ+9I95fBONzL2pFJoYLq08rKiE49kutegXG bzCL7EsgHsAAr6UQkDvX5+fXexDkzWhQA/iq50uXEUnnXZ9WUhz0SktXdl8Qqr7RPe6e2Mevg/GR ZbrUkaTc7UBo5MJJdzyCnpf5bnIAA7yVcGVuHhjfSuf/FerJTuX9SZ1fWAFHlx/UiZBgyKMB3mKk z2cDz8/AWVpVGGT90aqKmv2RD+mSqNi3L4Dxs46+aCtIUGCbrwDjcyuglCi2dVR3WV/qLLRuGytH z9RJFGB86HY9B4LYpn2us40fq0TCslgx8oO6BswYJttRq5pj378GJvAY4GWAF3TCl2/7eNF5E9v3 Db3Gg1B96CQJH92Xv6LXDhCvqlTefQaM5yAIC2IbfQY4WCDG5xZpDibc0xsFoeoZPT27B/bvBfCy LzNGyezvQOrALwFeIgZ4VSid7QrQwNkK6A+l89PWo7IqodojAqWf05lhAegzL3tkCQsGeG0lMqoS gDI+d5cGeUFqi6TrzE1x/p2pM0DB+NhSBLCOBKkdCifzJ/u0/yzADOmzudTRMKGqelNPtgP7789g fIoBXtCQuy4JFoz7k9xxWnUcpDZIJ9vopCLs68e83R8Y4EWFpU/4eeA5Vor+sqPkHAZCw6OVjGOl tiNQae/bI18K38ol8/8KEiSVsMBjYALifixNfGq8NG47EBq+VdV2y9FOBJiuxP5cAsbfoh8FsVLZ +ayP22aRTixhhe3a0MkOeg+FkNOl7zvOiQFeBniDcv/0BlwwuTRha5DaIdyTd6Mi7OO+6j+4RoN4 FcJtszz8zOgZS59bjqBAjO3yN+vKuxxzWg8YZ0FO6yNaXCQAhWMGsLLlQSA15qcALxEDvAoDbT8J 4CDaS1je80cIdxw6hCXgKenujgvAZ7Df/gorwASFDvqDNBgDvDbrPKUF++fvYALgFl26mkGZGuhy d9LZiAEI7qqV+iUOpPYI+7vk56WO4Gsy3d0GhFav8rDtawzfBSjAC6gecLQ+SAITAPP1AWsVl6Wj pLtFOJ39NPbtv8GQ9wO8WlEQA2uPgAmA+Ymy8/VEqfUgEHo/DepM6YuMw8Dx6fFSZJ4GoAMYyBlI lKMTQIJGQ1papTZ4AazonxLF6LFdcw7dFGTNKH7tuI0R5JuGUP/PsO9eBhMcketBbKTn9ng58hef t9FK3UaEn46bVJi0IQiNXGxO6044zmdivz4IhhjgZYB3zXSFioDcP72O7wgXJuZExoBQ9UyZE91X 70d92m8W6/0jiBehIM7dXn5u1NzjjgOxkWYoAvicbxEyM4VQMpvU8X8QWgusJqvjvVqRFvvurYBl jH4CUlP+C/ASMcCrA5mD1VQD6nks9XmpVo/UgUiQwMv07ozqzP9TObHOBxNU4VT2NyANxgCv7RD+ wey8fwbopvQxrRIrmZmbg9DItfRk966cixeDCYABDQSBUH1ouBUPHJ70eb9arPd6XOqoArTdNdCI a9P/2h/iZIB3pHBc/CBoQUrco/ysKdV7mIiMgmG8+GrpcsfgunGKVkmw776EAd5YuW18QEMXDyOc +uN4Mfo/Qa0m1X5dexMGij+owUUEvL6DffJ3WAgm4P4AElSxcvTMALf9Eg0Argqw9zn7gQTd9LnO RvFi6+HYN2dpZeqAV+BcbnPIu7Ps7BWUSRkInr4E39MJKSBDQ0cVDto5Vox+Gvvwz7ASDDHAywDv kM0K0mQ33Ctdp6u4cMLE+tHvYrqSgf8D4NEYiNdo7sPrlT5RFOkTINZKZ38e2Gd+6dybeO/XMU3J uLuC0MzNm3ryCS0Yg7GnG6tQGNDqrAQwwEvEAO/waYVVvL8MJuBWwj2rQh7p3OeaunsPkcysbUH8 yW3GDKn9NLysy57iRqPvPSEeSub/A9JoDPD6wLSztkSo9faAHUOvNCVz323uyY0FGRrSc7OelyvL 2A8EbNLEaSBUZ8neCdj/S8AEwL16z6P3viCBgRUnwsmco5MrcF7+C/bDct7nMcArukpAOndTQB+g PaLngpZkdi8Qej/pOnt7rdSM7yHfx/fjh+xucwZ4O/oiCQYwnAGEmh7CUvC/WxVeLDvJjn7nwMFK QTbSkBmW9N1Vqw1PKUfbEdA9BoOUvdjWS+DPCDY9sNogHi1HuHkfkKASrdRZjPSt2h/0AszF8ZKP 9UWndhTb9tTgO4gfraq4WWzrSBQjX6pU2L0NloMBINsDodiGL4IJmLtjZedbEGfQ7N30fI+K2hFM XPgq9tOtMACGGOBlgHf49HjCdvaDCZiFOikyVmo7Ymj3SJQpjG3Gyhc9CEFfHZTzLrY1A+I14bQb 8X4OIXcmiJ0qhQI1S8HnfwbjL09o1ubtNs1P1lCvb4tIYLxJcyGhnuxU3V5U2L2sErBbCQaAZMaM MEgtMcBL/sMAL0AyG1/jLAhaWLn5KGHwcjYuvufgQnQqKpd9SkNWq6Tz05p6sh1eo4OuuGE4AYGN r2AbvoWA7uWVSqBPDekiSv8GaTQGeH0CEwIGLzABdCvORTMk424CQu/XknL3wfn5QuyrF8AETjqb A6HGwH3NZwM4aesfGmj14yQDPdc2pXsPR9t+WZd04kQ9BnjXKO1+YPC6E2APoGLEj/B9LqUTrkAC RR+44oGyPnDVa7FWjoCnwJB/ArxabY0BrbXQaoVl5wn8fDsCbf+sVOe8Gj8XVlVLKkZn4+9/Ahcq XW664jP4b2cAQCl6kg5crlYx2qWhOaXViQb/OcLEHxv8/zHI+4XBP1uDNm//rugP367YFJmHz3dj JZT7Ittz5LRiI0jQaQAc++M+MPQ+S/VYqxx3v8bP364clzMQhPu4HrtTSpG0Hs9eo+cX/YyrQpxF 5xwN9FeWa74fFoOhtesoRfYHsZXrygZ6HQtwGy5KlJ1rtMq2Blc1RAUSFBqui/W1RhFmPrVSbf45 MMQALwO81YHJc5tjWx8EE1CvQUnviaYWW3cDAaD2S9tHJ0qRKegnP8I+epn3T96AyftHWlBI7Osg NtPnitiWl8DQ+yyGu5AtugqZnV/i/SIds9HxchSY+GglZ9TtvYwRpLJTtEK0Fl7CsXS+FkDEtvwV n/thvC8FQ2u1TBjgFSIGeNcvxDsL72YQEeW/A9JoDPD6SKZ3Z636FuDjahHMxT44rg6hKCuCUzoh BPvkhkAvY49KzSDUWJVZsiagnsZDkys1yIzA60FaCRvE+zKh0T3unrosET73FysPUe7hpDwGeIcD 3wHbWZV5kB47+ZvxfoE+QG3udg8YfNBmuXBLlzvm7XNF9vP6HUcfHGM77wtGBXYGeJUGQQMfwiBC UPv/lseneJ+zXyWIYVYholf8UF1w8pyJ2zO4CQDL4A74lVae1or17eXxW4BYD2Gxjr5oqy5xr5N+ KsHtN8AQA7wM8NaOruKxagKgbjPdp5MdsT8+hwmLhwbsPntTvabo6i66mgO8BSaIdPIriBeFuvPT LXhu9G0Q6yHw+c4xCSLK3whScwzwkn8xwIvXqP8f3iCitzQUA9JoDPD6DJZuR8jq0aYUAw0Ikfwq lM52SfyMjUGCQAM04XTuS5ix+K/B0G6w5b/nkWVk+EJQEW1yCxjKLcMM4zs11KsrLyAce5LO2Ncw n2TcHWoe6ENFTK0EqrPXw925iatWVEjlT9TJdhp4r1TIvI8znRngrRa9LrG912gp3IXvyb/DeaEX lXqPxb15Z7inN6rHqAf6yEarwrmp3sM0dKxhfq2KoPdY+NzXalUEBrQZ4FVagQ6Da38GE1xEkaNB gCq0UhgrOg8iivaC+EGs3DoZ27QSDK3WArjr7eXNIz+NFZ0c/v543W8IwjqxvvF76woG064+cEsx MgqknqbPdTaaXJqwdWd/6wH6mRLF6LFaCRyf8WIE5cqVCqArwBADvAzw1h8mR3bzHLtaA/Aw/AHV 0L+OffVZXYkk3u9M7CxO/IAz2wmD2CB+7biNtcowVkmZEOuLTtXVV+DbCCxfhfcH2P4A8GD7XGcb EC/SsUcGeOsHz5c/9/Y2EVEomU2C1BoDvORjDPAqrTiG9+vBBBjRSgyAHwPiCQzw+tDZOyIEcjeP NQBYDjfocvYIzDm+CnRmTtvw7dmn+QuxjbeCoQrsExDvIA2nIvz1+JDaj96ABfCSVlZfH/gzXoAF 8BYYYoC3EbAk1o/Y5iP2Fu5fntDjuZ7we18HQwzwDpUOQiLU828OMgYSlaO/A6H300BC0PsHEYJG 12QKmRCIXyCc+jW2bdUsgpfhkRp5GhbAYjDEAC8DvN6Hc+zpI9pP9Dw84kHPwwKuTjEsD2swG8Sr GOBtiG+DIaoXrjrLAC/5GgO8lRDvVnifDyaAiAZ0CW0Qr2CA16dS7nbYd3eAofd5DuZqoFcrytmz nD10uputCuym8y5unv+C7VgMht4DXypAvIe0yizaaCGYoCBigBcymVClurMhIn8GeFVHwdkcA223 gQkQoqe1kiEIrR720TfBBBTRP3SSC4ifuK5sgG3rB0NEDPAywFsTP+JxEkhUdp6YUh6/O4iXMcBb f7qyIN6LYIKICEU3fqHHAUgdBCHAS8QAr2pJZvfC+/NgaoKI4V0GeKkyYSJ/8zr3Mb0B/9DqgKhw NwM/T5KuMzcFaSj0e13aXpe1f3tp7dz9MACG1naezX0BxLuoqSef4JLrAUMM8AJs5O/7EiIGeFVn oXVbDLrdDyYAiLC8beQokDUjDfqhEm8haP2DCBUUr5s+19kIxI/aC2M3wXbeCYaIGOBlgLe62q9r b8J91DweKwFDj00ttu4G4nUM8DZG5fnyjXwmSAzvMsBLxABvFTV35w7E+ytgAoEYKktnTwHxGgZ4 fU4rtqby/zuifc8g6BO677Dk/6+14m0olT8eVXuPau5xx0mXu5N0ntICMiJoF53MEu7OTQx156fr +QG/6zv4vSX8jtvx/hoYGpYV4VT+RBDvIwTmP4E2WwmGiAHeAMm4O2DbHwRDRP4M8Kr4VRP2wMDb C2CIfK3onANC65YpjG1GGOWPAeofRDdowBXEzzRkw2s+EQO8DPDWhk4CwSSof/J4CQh62gOVd1mB 1wKSmbk5xlFv43PBoCAt8qUrHILUUVACvEQM8A7S4BLeXwdTI0QM7zLASye4oxFCLdSkfegN7NvH MfPtkaZk7r/4+1t19id+/gt+/hvcWnGv/jd4fw6WgaEqSufe1CA0iD0onM59jv0XiAHeoOnu3QXX xMf827ZEDPCqWDF6KAbgloAh8qVy5C9aGQ1kaEhDKNh3/wBDfsfKu4Ph3SDoKEYORlD/TbY9EQO8 DPBWX+e8iZthH9wKhsjHFiXK0QkgtmCAt7Gk6+zt8f4AGCI/C6eyvxpheJcBXiIGeEcgnT8S74vB kD+xImTuJBCPCkqAl0RGaRVZHpPkQ8+Fe3qjIPYhhN2z7MPEAG/wtHS5Y7APngFDRP4M8KpEKXoc ByLJl4rOo+1znW1AaDgqIZRy9D/sR+RbxehVkwqTNgQJEizzfhQn7hAxwMsAb23ofScmh9zL44Z8 aiX6eRLEIgzweoCk3Q+E0rlH+XyQ/AorA/9QXHcDkEawP8BLxADvyPTkE3hfBIbIRxZZUBEyYAFe CifzJ7MCLPnIPfafHwjteAEYIgZ4g6W5JzcW++FFMETkzwAvaBjgAjBEPvJaoq9tLAiNzOTShK2x H28DQ+QzvwpyZW4N31RCiYaIGOBlgLe6jioctDP2xXwwRH6SKDpfBrELA7xe0ZLM7qWrpPIZIflQ HqSh7A/wEjHAO2Lp3sPx/joYIh94o6kn2wHicYEM8DIsl49hv74GxmJEf5OkuwWI/agplZ3JPk0M 8AYxxOvuh33xFBgi8meA13Vlg3gpejkG5haDsRzRkkSxrQOE1k9Hwdk8Xoz8i32K/CJWjPxAr3kg QRYrR07QSnpgiIgBXgZ4q6w0bjvsj7vAEPlC0fk5iHUY4PUUybi74v1BMEQ+MBBOZU8DaTC7A7xE DPBWQXfvIZVBKGMxoufDaTcCYoGABngpnHTHc2kRW1EolfuJZNxmEPKPpnTu7Br0F6KlDPB6XNLd Hef1h9lXifwZ4B3UUXIOwwDdq2AsRbQiVnIyIFQd7YWxm2DZ/est7xdEAwjvng0CQJi481Hsl2Vg iIgBXgZ4q6t9rrMN9sntYGxGlCg5v3FmO2EQ+zDA6zWSPnvHwRCWxYiWhVL5Y0A8wPoALxEDvFUQ 7umNcilVW5EGIlu63DEgdgh0gJc63c2wf/vBWIJoSTid+yQI+RPa+HQYAEO0vkLJ3I/wfr/3A7xU ech6Dxgi8meAVyWKTgQDdS+CsQzRQLwcPRmEqmv6XGcjhP3+ZGm/IFqRKEU+BULvFu+PTNeq5WCI iAFeBnira9rVB26JCqA32dr/iWJl51tiZBSIpRjg9SDJzNoWKz3eZuUzPqJ07k1kdjpBvMGOAC8R A7x1MLrH3RPv88FYhOgeSbsfALEGK/CSyKjK0vUrwXgVUTiVezKc7J0AQv6GmZ0ZtPliMEQjl71T MqdtaFGAl/Qhazr/Lw+2FdEiBnirp7O/9QAM2D0DxhJEK+PlyAyQ2qBMIRNCRd6fWNYviJawKvfa YeLOtAaHAoluhGcY4GWA14/aL20fjX3zBzAWIRqIlaNngliOAV6PkvgZG+P9ajAWIVqAAO+hIB5i QYCXiAHeOs+Syd9ox0mVKP+/knS3ALENA7ykQun8NL1BBONBRNdJyt0OJBgI4cuj0O4LwRCNwBst Xdl9QSwL8FLnKS3hZO5Kz7QTUTL336Z07+EM8FbXlPL43TFw9zAYjyNaDseD1B4lSk4e7wNgPI5o IcKpR4LQOpRaD8L+egoMUX1Fru+ac+im+PnPDPAywOtTtk2CIlrko8lPDPB6mLS7TaFU7meebx8g wljIE83d7gEgHmNVgJeIAd46qFTNKoHxKqJQKvtLybjNIDZigHcQtfRk9+byIh5DK5qS+a9LJhMC CRZq7s4diD7wFBiiYVgZSmaTIGBjgJd0dYB03vVAGxGr/1+ux6lO1GSAt/qOKhy0Mwbw7gDjUURv xfqiU0GofiqB6aVgPImo6DwU73P2AxkaqlzzbwdDVA8IVl09qTBpQ0CIPPrDAAR4GeClWR6fBEX0 JFbecEB8ggFeGyRzWbwPgPEmovyNknF3APEe6wK8RAzw1gGXd/cyGtBwAYjNGOCld8HMRO3XXjjn EmcdasU7kOAiSZ+9I5fUp2EG7r4IUmFxgJdCqfzx2E+LwBDV2ZJwMvtZEKX3xwzw1kZ7YewmiVJk DgczPYiejfc7E0Go/mLF6KHaBmC8hAhVov/ZWWjdFoSGp6PgbB4vRf9U6zYi0mqk7de1N4EohO5P CUSAlwFeKkWO1grxYDyFqBj519RC2w4gPsIAryVQhO3oyvMz4yVEeOb8Oy1mCeJR1gZ4iRjgrYNQ d366hy6wRK9pnwSxHgO8tBoIzB3JypfUQH+QjLsVCNHbwan8hevsN0TJ/LdA3sHyAC+Fe3KtoXTu 0Tq2C9GD4bQbAXkn/PO3GOCtDTEyKl6MuhzY9BC6HUGzXUGocWJzWnfSwX7P9AuiYnS2M9sJg9DI uK5skCg7X2eVyBqhFYli5Esg7xQrO/GgBHgZ4KWOUmR/7K/5YLyBKPLTTGFsM4jPMMBrkeZUdn+8 zwfjAUQooJbtFZFR4OWX1QFeIgZ466Al5e7jgR1IdIf2RRAfYIB3zSgzc/NwKvubOrY10euovDsD hOh9UrmT0EcWgyF6L71eietuAPJODPD6QKe7WVM6V65DmxAreBf0/hfkvfDvH2CAt7Yqy+YvAUPU QFcMLrlNjaeD/VpJkf2SGuytWDlyAghVBatE1gK9qv0K5L0ShUlbaWg8KAFeBnipc97EzbjKiQfQ 64mi83EQn7IswEv6fBnv/WCIGuhFhGLjIBawPsBLxABvHWgp8cpBaagBWM7+Mr+FLRjgpXWpLGH9 CpgaIvrr6B53T5A1IdJqnKsJZBLDu1dIJhMCeS8GeH0C4Wzss7NgGRiiKntN73dB1gT/TYkB3tqr LJv/DBiiOnvDuwE9SpSjPWijBWCI6ilRch6Y0hcZB0LV1VFs2xP7+EYwROvp9sScyBiQNcF/c1+Q ArwM8JIYGYXq06dygiQ1yG2xvvF7g/iYhQFewmuUFhBqzCpbRPmbJenuDmIJBng9gBjgtQZujP4H 7wvAENXB66FU7jgQn2GAd2io6+ztNcBeg/YlWqhfmoe4XAhffA15MhcxvMsAr/80d+cOxL67CwxR VSRzf5GMuyvI2qAK9DkM8NZH+1xnGyxTfhUHPamObp1cmrAPiHfRlPL43dFWN4AhqpMr2gtjNwGp EbquvQkh6ZnY18vAEA0XJnlcNn2usxHI2sSLzs+DGOBlgJc6+qKt2H/3gyGqgwFc17/XOW9MC4jP WRzgJazAdVAdA1tEK/Fc+SJpd5tA7MEArxcQA7xWke7eXfB+PZgaIvqHn6tCMsBLwxFK56chbPlE ldqWaK5kencGIRounI9S6EMvgwkmCqVzP1hX+J8BXh+qhPhhAAzRCKHaRnamVncGWYc6fmdigBdY MYrqZXGs6OQyhbHNIDagTChejny1EnoyNUL0SrwY+QgI1UdHMXIwApYP1axNicdpOXpyYAO8DPDS teM2RqjyZzVuI6LHEkXnSJCAsDzAS/p8GUXOflLL58tE6GOP4f0IEAsxwOtlxACvBeXuXwNDVEXL mtJ5d7Cqm18xwEvD1uluhuDcj3XWGBiiEXhKH3CAEK0HVgcPrhUavANZNwZ4/QrLTsXwEOyREex7 onmjp2f3ABkqrdLLAG/9JfraxmIg8G4wVGVcFv+fHaXI/iD2ISy/Pw5hrP/UoG8QXXtU4aCdQai+ JhUmbYgK/C7aYCkYorW4trM48QMgQ6XHtVaGDHaAlwFeVuONJGIl5/Eqtw3RAK7fs7vmHLopSJAw wOsT6d7D8f4AGKJqQqXngkw7a0sQSzHA6wHEAK+1RAfUkrk/VmdnEOVvbE65HwTxOwZ4aaTCaTei FarBDBHRUrhYus7cFISoWlZVB0/lnuQxFgivh1LZo0GGIAgBXlbjxYQ7nXgHhmgdnkPo+ziQkcCk gLsZ4K0/rRiFoN53MTC4AgzRenomUYqcqFWeQexFuvQ+2vMsWAyGaD0twLnhUzw3NN6qgH7RuWk1 bUS0EFXYZ4z0OMX/f3PQA7wM8JKGLGPFyA+wT1eCIVpPDyaKbR0gQcQAr39I/IyNkQv5jhYNAUO0 PnQV48HxK8sxwOsBxACv9UKp/DF4fw4M0QgsCKeznx5cStX/GOCl9Rfqzk+vLANhiNZi7uged0+Q WiCSzMzNddkjPmjxtTtaurL7ggxNUAK8VJlUdAsYotVYHkrnfqDXCZCRwsP8CxngbZxYuW38egQv iN5CxbELO+dN3AyE/GNyacI+aN+/gSEagYFYOXJZvDRuOxBvINeVDVAp/TNonxfBECF4eOXUQtsO ICOFP2MWA7wADPBSrBg9FPv1LjBEI7BIj8nOeWNaQIKKAV7/CXfnJmLy/u0j3NdEy+CbGggH8QEL ArxEDPBaQSv7NaVzF1Uq/ZkhIBrQJbgl5W4HEiQM8FJVoAKeLmeulRHBDCKqfOE9AoSoHppT2f2x KsM1PPZ8ZQAuls5TWkCGIUgBXsIEPEzmPB779hkwRBV/au52DwBZX03duQ8xwNtYmUImlChGvoQB w9fBDAERlmKP/DQ2p3UnEPKvKaVIGlU7H2Wfp2G4f0o52g7iTdRRcDaPl6LfQFstARNIND9Wbp0M sr7ifc5+DPACA7xUoasZxEqRz2P/vgJmKIiwYsGc+FUT9gAJOgZ4/UkymRAqqM7Azy+CGSKiG5q7 cweC+IgFAV4iBnit0tLljsFyyoW1bzhR/uamVO9hIEHEAC9Vl/sBLKtwCZeyJlS6exRfdE/QL7wg RPUWSuY+jPvAx3k82r/kEB4UtIOMQBADvJRxN8H9/bnYx4vABBbdg0lEU0CqBa9R+HPnM8DbePH+ tl1Qme83XPqV1hrcLUZnTy227gYSDJQpjG2OlZ1TGfKndXgF15CZ9lSNo45i256YjPHbQF336WX4 ojPbCYNUC/7MGxjgZYCX3m3a1QduiX18MSwHswZEt+JafBQIADHA62+SdLfQlbhYLJDWBuOPT2JV 0ONEZBT47WVBgJeIAV47pfNH4v3fYN6BGC57COHVHpAAY4C3Vmg3HGOzdcliMIFCT6Gi+amDlTKJ GqhSHTx3upUzpmmprqihYUyQkfL0l68T3NEgNUIZd9fgTSoiPDR9BI6r1QQiTCr4AgO83pEotR6E gcS5YIgq3ogVIz8IdnCXEkVnx0Qp+kMNcoMhqliMKu4XaVVXEPtQZ3/rAbFy5DK05Qow5EvL4OL2 8vgtQKoN14ePWxngZYAXor0gtUN6jo0XI33Y3wNgiJSucBErRz8mRkaBAFXopHHPPyfDs3UQGrmW lLsPQpq/xf5cCYaoYkFTOvtlv4+DY6XTrCf3fzL3XRCiqkhl72aAt0FC6fw0NMJ/eVFhJbdwOvc5 ybjNIEGnIWbPB3gz7g4g9qHmHnc/hDkvQzuuAEO+hoBkdqYGJkE8hSh+xsbaP/WLNRjPo7839+TG gqwv/Fm3gvGglSC1R5xUxAlEVaUVnhGc9VaAlzqKkYMxuPh3MIFFz6LirpsoTNoKhEhNKY/fPVaK /pIV5fyFFbkJQbMPxsvR3/HY9pWlsZLzEwS1dwWpFa3Ujt/1AgO8q/UqGO+KfAWk9ghB9wgq8/4x 2Ockwjn5cYR3P6fnTRB6v3C692DPPytD+A6E1h/Gusdhn84BE2j0OgpHni8ZdysQv8P2ngHGg84D IaqO/M1eLXIViAbAa1QlsHgrmIDhcu6p/KcY3H23UE92qucDvJ3uZiD2oubu3IGYpXg5q+D5D9r1 8XAqexqXgrcCTTtrS3zBdtF3XwbjNZS9LdSdnw5SLfhzrwfjQW+AUP3opCJcr37Fpc9850FM0JxR z4oHuoSeNwO8FCu3TtaKvFxiOzDQztE/TSlF0u3XtTeBEK3O5NKEfRBGuZQVeQNnCQJIPxoMBJL/ aEgfYbPvoK1fA2Mlwnk58tN6BuwTJSfPAO9qPeftMGHk8yBUR8XooRrkZUXegCk6D+E71knObCcM smbU0uWO8fzYXTp7CghVUXduogZ5WZE3cBbC1waDu0GB8f/PeHQcsReEqDpyfwPjQa8EcIAnexRm zVyDnwfAkG/dEUrlj5cZM8Ig9G5YAuJQj7ff8sElcMkP3B00PMcqmH6QvV2XqLby3EqEoJf2X/Tl B8BQo2XvxL1aRkRGQVVflckjxoMeAKG689u9CO9D2t0mkLrqOnNTfIanvRvgpVjf+L0x2Px9DEC+ DoZ8puw8gYpQXxtu2IfoqMJBO6MPfZNhP99bCN/U9gYh/+ucN3EzXBdOR7vPB2MFei1Wdr4V72/b BaSurh23MX7/UwzwvhuCzQ94OsBbjnwChOpPq56jDX4Ny8CQb90cK0c/lilkQiC0bniN0nANGO/K x0Co+ppT2f3xXPIXLBThe083JbOzJDNzc5Cg0WI73iwslj8RhKg6sr/y6vhXYFPV4aQ7vtIwi8CQ L6xEMLWMi2o7yJqRpM/e0dOVk1O5R0DIXzT4oMsco2LaE9adX+gGvWmvBO344svuF4JfOCd9VPs1 GKqrlTC3qSefAKkZPGDx6PbPA6HG0Qdv+C74FZwDHubxaI1luH/8XVOq9zCQhtLvmXhI7+0AL6E6 3+YIh5yKwcjbwFiNno8VIz/QSmBiZBQI0QhVzg3RM9GvHgFDvjFfl3rWcB5I8JBeHxL9kQ9VgmaL wHgOITgb+Yqeh0EaBVXZj3xfGJEVeK8F41n9bYeAUEPtohNkEPZ+yTfnJFqK9vxNvN+ZCELDh+cO /V5+9i4pdzuQGqJM786VlbpeAEN+kb9Rxw0DXsDKy5XGjwAhqopk7kxvBtWzvxH8JdB0WWVU6foi dsg9YKxET8F5o3vcPUFo3fAa5emlxNO5q0DIn/TmN5TM96Ct/8QlRzztxaZk/lu6/DgIkR+1dGX3 rTxseQlMzdALup9HT8/uAVJruqwVl/mhtRHX3eDtihS5P8AyMJ5DT2vVZJ14COIVqBx+jPYZewK8 rMobKzo5DFLeA8YCVHQexfvFsXLrZFaCqgVyXdkAIf94rBQtsqqctZYgeFLo6Isk3hnuJ2ovj98C 1/1PxsuRv6CfrABDDbMSrk2Uoz1eWpI9UYoeVwnRmlVYgffbHu5DKxKFSVuBUON1zhvTopVaEca/ Hm0zAMY69CAqK/diMsOOIDRyGDOb7OFnaX8HqRuu+NYcSuc/okuxc+Vva70WSmUvCSd7J4CESfAa hSDzYx5rpyVaJA6EqBpQbNDxZoA3d5LgL1SBYNmhoXRu9mCw0dNosSbQUQUprgPwIDQ86PO/9mr7 onT5p0DI9yozFbMzPXMzSCvhBty4zJDMaRuCBATRhnjYcqxOLGCYr0rSuTf1Xk2rd+vDLJC6ERnl wcl5K3WZLRBvIek6e3utygu3Nbyf0Fv4jnK5fseTTCYE4kUIFh+Jz/qcXQFeWrUMbNnJYuDy77AY jCfQkkoQ4CxtI5B6IdIAA8JLM9H/bgfjcVSO/idWinx+KIEuoslzJm6v/UWvMQzz1tUzCMmeF79q wh4gXpQotnVolX8GeFXkKK/2JVyf/wniPTRlTnRftNEFlYl3xtPoVbhEVzQBoerBs6uCJ1e37clO Bak/akm5++B54fm6wrDnn7/SSvhrKJn7hEx3NwKhd9HM3Dkea7N+EKLqyt7psX6+UFcQFfzlfSgT enuJztzFrMjmKYtgLm5+jtPOC0Ijp1U1NQgNxmMeDGJwkDIhzHI7GjeFfZVj3dQP6VLiekPOSuau EElq1tYaYq/MnF4BZsjodT2P61JDjX74UanC+4ZnzrPp3A9AvI1aerJ7Y/mcLL683123/kGLYY5+ x7NqJj2+j+JzfxvesC/AS5MKkzZcFVgoOufEi5F/MdBbV8vgRrgAAcrY9LnORiBEjTalPH73Spj3 PjDeQLGSc2+8GHU7SpH9QYhGQkPfuOZ8FC7nMvA1sRD3VD/Xeyutcg7idR0FZ3NUY/8WPvvrQQ7w ahVznGev82CfGtDVGEC8jRJ9bWP1Oo02ewSMJ9CCWDlyGY7tTPzacRuDUPXpGDZCvL/3WDGNi0Co 8Zp7cmN1VTEvhnlZvCp7qhYWA6G1wDkO4yO3e6Tt3tBjCoSomipVeF8H4wHLsXr5x0AEf6G1kM5T WirLq34b7gdTV/QUQn2/hHT1gyAUTrrjPVRt8DVta62CBhJghBtDrdiIG+nLtBIbGKpJGf4n8X6x TlgRkVHAF198vfeVmbWtzsTFjfyVnNS1elpBHUvK/1ArZup9M4hXtCSze+m1pMFB3vn4DJ+17zzL l1ZO0Id6CPRew8lFVfeynldD6ez/SPyMjUGs1eluVpn0MQdetTPAS+3XtTclSq0HJUqRE1E17ocI +PwbA59vgVlvDN89jpB0HyqdflkrP7Vf2j4axMuINCyKvnt6ZRn+JWDqht5KlJ1rEsXIl6YWW3cD IaqmTCETSpSjE7AU/JmozP/HEQc4CRVsI7/AfVO3Lq0PYqP2wthN3r7/cwrYpheCFuBVXXMO3RTb /238/CKYBluplXftC++Shvf13Ir2yyPQfxMrn9fd/Fgx8gOdIKnfbUHqgyr5kT/A4gaGEv/Myrve pCtIh9O5tqZ0Noe+ciOLxdTdQiiiDT6p43wgNBwI8aLwVwNXoVsGxeZu9wAQolrQwnaVVevfaGAB 0z/otQJE6V9oGCTp7o5G/IwOOMITVW8kehkXg6vC6ewpWiEWhGpPB561Uh0COMfoAHRlGeGZtYRl tU/T34WgfA+OqYNWv7w20czNtSIbzg1XMzxTnaAdgkjfxc+Thhkm44svvlApXK+V+sClEuh7DUwA PYtr+G/CqfynWrrcMSBep/cYuN8Zp/cclaDd6TW7v8E9LO5rTsLv6sTv3RWEfAATCbVNdVKnPnAd 9uQ3eguuxbnzTJ3ZrA+wQXxoA31e0NST7dD7Vz3fVP8ck/sSCNXeqkHoOZExCPckMRh6NkIqv8XA 6J0M863Rcxp2xKD99xCE+dSUUuukznkTNwOxGdGqymX9kenat7Ec/y2V8JWhqlkGN8MFWr2TIf96 Iw30Tim2tWloHP3wChzrD+B9AAy9y3IN5cE5GtIbrLTrN5hwtGNHyTkMAe+P4b5mBsJwp2l19mrB ee4rIF6kx8KqCSzFaJduOyoUn6qfudb0dyEIflyiP/KhyaUJW4PYj9rnOtvgePo4zh2XwD08r1bd 06u+n5ajJ6Oi+K4g1FgyY0a4uTt3oBYjq8Oz50/rWD6yFIdKxt0ExBKElR9XVVhM52ajj9wDK8FQ 1bwF1+vqeuF078E6ngey3ijUnMrur4U49Pymz/drdn7T3JBmlTAOW+fzG1GzXsdrPYaMseMvvp2P yyb19622KBb+sj4o7X5AlwnWKoZwPbwChoZ4IU3m/6NV20Lp/LFa5QpkdYiIdLaXBiIQnLkQ549b wdA6LYcbKje+DggRVYd+cdVQKMKsn181Qy+Z+y+OtyU+fOhxgwb/8WDp44OB3WAjqtyTdOc+hMrT s/DAvA/HyYPAh64AK2G+nhcRgvyc3n/oQAYIkR9oYEWX2tfKYAg4fBqDp99EmKWM9zvgZTB+VVl2 /FYoYbD4uwg3fzZWajsiSGELIg30IpByZKzo5CrH/iNDDqXQSnhYK11qhWNW5fYsKo/fQq/zWj0e x/nPK9UkXwMTIG/ADThWL8Q1v1OrtIIQEY1EojBpKwROj0ZY+zyttK8BVDBDQq/CDVopG+fkTLy/ bRcQ+xGRTDtrS+RjpmHM+9zKaslPgRkSWgb3/v/nzz25Vml3m0CsRkTEnVADmd6dm3ryCa1iigvv j3EBmQf3BrR65GJ4AP6KoPMvdFaG3oyMnp7dY30qLxER6dLoGpzD+aUfuLQ9wEq4C0G7H2C279F1 XpaaiPCQYNVs1GTuwwj2fbWy9Mb1eH9cA/VeDfq/vapE/p84p/5KA/+YTdulYV3OUiYaBlTpDff0 RlGd+kSdbBROZn9Xqdb7HBgfel4nY1YCzOetmh2fdiMabgYJKqLpc52N4n3Ofrp8qS7JjJBrFgOu F+P9Srz/De6G5zxWxfM1eAxu0yq6+OyXI6x0vgaUNbTT2d96gG4XyPsRkS7BHu93JiLU+0kN9WtA tVKt94WAhnSfwXnk3wiZ/F7PJQjsHIMgZGRSYdKGILYi0iqHGuDX6zsCaF+PlSOX6XL/lSD/W2As tAju0gkJqEJ8kVae1fuYWlfYJSLSUK9OBsQ90+d1pQOci/rhDlgIJmAWw3z4M1yiE0g6+iKJYIZ1 iRjqbUr3Hq6hVDxX/h6eu5YxXnM7nr0uCGKBKh1X03ErvF+u4214/pxp7smNZbEIIvIr7oB6S7nb NafcD+Kic4QupaDLD2vlJh3kVSjL/H0tna900BcXpILH/L7y+QDh5Mrn1m3QZRu0fDpuJI4KJ93x 0nX29iD1QEQ0usfdU5crriw/ci8MBGSW4a1wsX5x0SVYQDyIiHQGcHfvLhpww31TXJdLqkxCyA/e T+Ec9pO377GyP1+v+zXcQ+qfU/GDSuXyr+Gfn6qrHsC0pu7eQ3QlCYZ064DoBHe0huJ1+adQT3aq Hod6PCIA+/XK8f+NwWNWg/QjP/6re96oVIA4XUPJuM/o1qrDLV3ZfXV7QNYPEWno76jCQTsn+trG aiXKWF90qlZV0hDg28sJOzNjxcjZWv1OIVzz43gxOvtdSs6v4BL9Wf/94H+rwaL/W67Z+eLg8sRa +QqDQoe8HTIet137de1NIERUGxp+R+XefaaUWichjDHt7eMwehqOxXNXHa9l51vvOJ5/reFfr4mV or98x2f85tsVOSNfxTnnFA3n6rmroxg5OH7VhD0yhbHNIEFEpBW6O8vOXnqd1eMdx/pH9fqL4+Qr el3WY0cn9bzzOo5j7DdQqDZdWn3wd2gwV3+3fg6Ejk/Qz6aTDvQeBMRriIi0EnpHKbJ/R8k5DN+T ulZNjCw5Z8AFlcrg333HvckVXrx/gp+9/fkiP9XPrPS7Hf75Z/BzBv/8qFi5bbx+JwMhIloXyczc XIvHINR7qBZgWVVEIp39clM6f37lOe533vF8+QrPZYxAx70GP+P/ZYxyWQ0s63iZFkjEz22BHbci IvLlRhEREWHCBCYUTIGZ+mUF73dWAq/GUi/D33TWZTiZP1mr/HGWodcRERERERERERERERERERER EbECLxERUbi5xx2H2X0f1+U28H7pO5a3XwGmwd6AuzCD8iq8X4yZhl/SGYfS5e4EQkRERERERERE REREREREREREPoG/EBEREcK9o3vcPRHsbccy9h8NJ3NfWBXyTea/j5+vxDIe1yBUeyvcj3//CMK/ j+LnBRWLwVQshAXwvP53Cj/fATfAnFAq+0u8fxN/3pkIDp+kS1JrNV2Z7m4DQkRERERERERERERE RERERERE/vf/AF6Ji2e3/4NqAAAAAElFTkSuQmCC "
       preserveAspectRatio="none"
       height="18.287903"
       width="148.85504"
       x="37.297626"
       y="-132.82269"
       style="stroke-width:18.8103" />
  </g>
</svg>
