<?xml version="1.0" encoding="UTF-8" standalone="no"?>
<svg
   xmlns:dc="http://purl.org/dc/elements/1.1/"
   xmlns:cc="http://creativecommons.org/ns#"
   xmlns:rdf="http://www.w3.org/1999/02/22-rdf-syntax-ns#"
   xmlns:svg="http://www.w3.org/2000/svg"
   xmlns="http://www.w3.org/2000/svg"
   id="svg8"
   version="1.1"
   viewBox="0 0 317.5 317.5"
   height="1200"
   width="1200">
  <defs
     id="defs2">
    <clipPath
       clipPathUnits="userSpaceOnUse"
       id="clipPath1856">
      <path
         style="display:inline;opacity:1;fill:#ffffff;fill-opacity:1;stroke:none;stroke-width:5.29167;stroke-linejoin:round;stroke-miterlimit:4;stroke-dasharray:none;stroke-opacity:1;paint-order:markers fill stroke;stop-opacity:1"
         d="m 441.22256,-242.06429 a 59.841432,59.841432 0 0 1 -59.84144,59.84143 59.841432,59.841432 0 0 1 -59.84142,-59.84143 59.841432,59.841432 0 0 1 59.84142,-59.84142 59.841432,59.841432 0 0 1 59.84144,59.84142 z"
         id="path1858" />
    </clipPath>
    <clipPath
       clipPathUnits="userSpaceOnUse"
       id="clipPath1019-6">
      <path
         style="fill:#ffffff;fill-opacity:1;stroke:#37474f;stroke-width:1.59259;stroke-linejoin:round;stroke-miterlimit:4;stroke-dasharray:none;stroke-opacity:1;paint-order:markers fill stroke"
         d="M 174.4497,136.91569 A 38.940486,38.940486 0 0 1 135.5092,175.85618 38.940486,38.940486 0 0 1 96.568716,136.91569 38.940486,38.940486 0 0 1 135.5092,97.975203 38.940486,38.940486 0 0 1 174.4497,136.91569 Z"
         id="path1021-3" />
    </clipPath>
  </defs>
  <metadata
     id="metadata5">
    <rdf:RDF>
      <cc:Work
         rdf:about="">
        <dc:format>image/svg+xml</dc:format>
        <dc:type
           rdf:resource="http://purl.org/dc/dcmitype/StillImage" />
        <dc:title></dc:title>
      </cc:Work>
    </rdf:RDF>
  </metadata>
  <g
     id="g1700-3"
     style="display:inline;opacity:1;stop-opacity:1"
     transform="matrix(2.4558337,0,0,2.4558337,-417.21972,-406.74834)">
    <path
       style="fill:#ffffff;fill-opacity:1;stroke:none;stroke-width:2.4474;stroke-linejoin:round;stroke-miterlimit:4;stroke-dasharray:none;stroke-opacity:1;paint-order:markers fill stroke"
       d="m 294.37267,230.26736 a 59.841431,59.841431 0 0 1 -59.84143,59.84143 59.841431,59.841431 0 0 1 -59.84143,-59.84143 59.841431,59.841431 0 0 1 59.84143,-59.84143 59.841431,59.841431 0 0 1 59.84143,59.84143 z"
       id="path997-0" />
    <g
       clip-path="url(#clipPath1019-6)"
       id="g1015-7"
       transform="matrix(1.5367407,0,0,1.5367407,26.288734,19.863448)">
      <path
         id="path999-8"
         d="m 130.83874,117.38958 c 3.43283,8.66634 -2.92851,11.31419 -6.56147,16.75569 -1.51273,2.26578 -2.20577,4.85627 -2.21148,7.37757 3.2e-4,7.42749 6.03032,13.80724 13.44913,13.44838 20.91161,-1.01149 14.38951,-29.64435 0.91963,-41.10562 -3.04652,-2.59223 -6.82773,0.41396 -5.59581,3.52398 z"
         style="opacity:1;fill:#fee000;fill-opacity:1;stroke:none;stroke-width:2.46291;stroke-linecap:round;stroke-linejoin:round;stroke-miterlimit:4;stroke-dasharray:none;stroke-opacity:1" />
      <path
         id="path1001-6"
         d="m 124.56521,192.29734 c -13.28385,-49.57603 35.1076,-49.9599 21.72089,0 -2.51558,9.38823 -19.36064,8.80857 -21.72089,0 z"
         style="fill:#fee000;fill-opacity:1;stroke:none;stroke-width:2.46291;stroke-linecap:butt;stroke-linejoin:miter;stroke-miterlimit:4;stroke-dasharray:none;stroke-opacity:1" />
      <path
         style="opacity:1;fill:none;fill-opacity:1;stroke:#000000;stroke-width:0;stroke-linecap:round;stroke-linejoin:round;stroke-miterlimit:4;stroke-dasharray:none;stroke-opacity:1"
         d="m 130.83874,117.38958 c 3.43283,8.66634 -2.92851,11.31419 -6.56147,16.75569 -1.51273,2.26578 -2.20577,4.85627 -2.21148,7.37757 3.2e-4,7.42749 6.03032,13.80724 13.44913,13.44838 20.91161,-1.01149 14.38951,-29.64435 0.91963,-41.10562 -3.04652,-2.59223 -6.82773,0.41396 -5.59581,3.52398 z"
         id="path1003-8" />
      <path
         style="fill:#f6c00c;fill-opacity:1;stroke:none;stroke-width:2.36471;stroke-linejoin:round;stroke-miterlimit:4;stroke-dasharray:none;stroke-opacity:1"
         d="m 135.49291,154.97181 c -3.03516,0.012 -5.23505,1.44771 -5.60659,3.1442 -0.8495,3.87902 2.08178,5.8277 5.67013,5.8277 4.53055,0.0367 7.94036,5.44259 7.06222,9.44457 -1.95535,8.91108 -3.03379,15.25897 -0.7865,24.2811 2.12687,-1.12134 3.79045,-2.8975 4.45359,-5.37237 6.68601,-24.95251 -2.03847,-37.34583 -10.79285,-37.3252 z"
         id="path1005-8" />
      <path
         style="fill:none;stroke:#37474f;stroke-width:1.40214501;stroke-linecap:butt;stroke-linejoin:miter;stroke-miterlimit:4;stroke-dasharray:none;stroke-opacity:1"
         d="m 124.56521,192.29734 c -13.28385,-49.57603 35.1076,-49.9599 21.72089,0 -2.51558,9.38823 -19.36064,8.80857 -21.72089,0 z"
         id="path1007-4" />
      <path
         style="fill:#fff080;fill-opacity:1;stroke:none;stroke-width:1.95447;stroke-linejoin:round;stroke-miterlimit:4;stroke-dasharray:none;stroke-opacity:1"
         d="m 133.81731,112.88435 c -2.15993,0.0879 -3.86386,2.26958 -2.97842,4.50491 3.28495,8.29298 -2.39712,11.07663 -6.07629,16.06901 3.38172,-0.1617 6.49881,-2.3086 7.73266,-5.68825 1.64013,-4.49255 6.60793,-6.80687 11.10151,-5.17515 -1.9899,-3.36533 -4.42869,-6.40363 -7.16182,-8.7292 -0.85684,-0.72907 -1.77245,-1.0157 -2.61764,-0.98132 z"
         id="path1009-3" />
      <path
         style="opacity:1;fill:#f6c00c;fill-opacity:1;stroke:none;stroke-width:2.46291;stroke-linecap:round;stroke-linejoin:round;stroke-miterlimit:4;stroke-dasharray:none;stroke-opacity:1"
         d="m 147.81786,132.48738 a 23.183717,23.183717 0 0 1 -16.13154,22.05631 c 1.21412,0.33611 2.49808,0.49166 3.82824,0.42732 12.74301,-0.61638 15.299,-11.48946 12.3033,-22.48363 z"
         id="path1011-1" />
      <path
         id="path1013-4"
         d="m 130.83874,117.38958 c 3.43283,8.66634 -2.92851,11.31419 -6.56147,16.75569 -1.51273,2.26578 -2.20577,4.85627 -2.21148,7.37757 3.2e-4,7.42749 6.03032,13.80724 13.44913,13.44838 20.91161,-1.01149 14.38951,-29.64435 0.91963,-41.10562 -3.04652,-2.59223 -6.82773,0.41396 -5.59581,3.52398 z"
         style="opacity:1;fill:none;fill-opacity:1;stroke:#37474f;stroke-width:1.40214501;stroke-linecap:round;stroke-linejoin:round;stroke-miterlimit:4;stroke-dasharray:none;stroke-opacity:1" />
    </g>
    <path
       id="path1023-9"
       d="m 294.37267,230.26736 a 59.841431,59.841431 0 0 1 -59.84143,59.84143 59.841431,59.841431 0 0 1 -59.84143,-59.84143 59.841431,59.841431 0 0 1 59.84143,-59.84143 59.841431,59.841431 0 0 1 59.84143,59.84143 z"
       style="fill:none;fill-opacity:1;stroke:#37474f;stroke-width:2.58567997;stroke-linejoin:round;stroke-miterlimit:4;stroke-dasharray:none;stroke-opacity:1;paint-order:markers fill stroke" />
  </g>
</svg>
