<?xml version="1.0" encoding="UTF-8" standalone="no"?>
<svg
   xmlns:dc="http://purl.org/dc/elements/1.1/"
   xmlns:cc="http://creativecommons.org/ns#"
   xmlns:rdf="http://www.w3.org/1999/02/22-rdf-syntax-ns#"
   xmlns:svg="http://www.w3.org/2000/svg"
   xmlns="http://www.w3.org/2000/svg"
   xmlns:sodipodi="http://sodipodi.sourceforge.net/DTD/sodipodi-0.dtd"
   xmlns:inkscape="http://www.inkscape.org/namespaces/inkscape"
   version="1.1"
   id="svg2"
   width="162"
   height="70"
   viewBox="0 0 162 69.999997"
   sodipodi:docname="vectorstock.svg"
   inkscape:version="1.0alpha (c15df26511, 2019-01-24, custom)"
   inkscape:export-filename="/home/doctormo/Desktop/vectorstock.png"
   inkscape:export-xdpi="96"
   inkscape:export-ydpi="96">
  <metadata
     id="metadata8">
    <rdf:RDF>
      <cc:Work
         rdf:about="">
        <dc:format>image/svg+xml</dc:format>
        <dc:type
           rdf:resource="http://purl.org/dc/dcmitype/StillImage" />
        <dc:title></dc:title>
      </cc:Work>
    </rdf:RDF>
  </metadata>
  <defs
     id="defs6" />
  <sodipodi:namedview
     pagecolor="#ffffff"
     bordercolor="#666666"
     inkscape:document-rotation="0"
     borderopacity="1"
     objecttolerance="10"
     gridtolerance="10"
     guidetolerance="10"
     inkscape:pageopacity="1"
     inkscape:pageshadow="2"
     inkscape:window-width="640"
     inkscape:window-height="480"
     id="namedview4"
     showgrid="false"
     inkscape:zoom="1.0475803"
     inkscape:cx="108.17308"
     inkscape:cy="-50.320571"
     inkscape:current-layer="g10" />
  <g
     inkscape:groupmode="layer"
     inkscape:label="Image"
     id="g10"
     transform="translate(-32.303028,157.368)">
    <g
       transform="matrix(0.3101263,0,0,0.3101263,24.436337,-142.72779)"
       id="g652"
       style="opacity:1;stop-opacity:1">
      <path
         inkscape:connector-curvature="0"
         d="M 87.1,97.6 64.5,36.6 H 69.6 L 90.3,93.7 H 91 L 111.7,36.6 H 116.1 L 93.9,97.6 Z"
         id="path612" />
      <path
         inkscape:connector-curvature="0"
         d="M 152.3,94.1 C 147.7,97.6 141.7,98.4 136.1,98.4 129.6,98.3 123.4,96 119.3,90.9 115.8,86.7 114,81.4 114,75.2 114,69.5 115.4,63.1 119.1,58.4 122.5,53.8 127.6,50.7 134,50.7 140.2,50.7 145.1,53.4 148.4,58.4 151.2,62.7 152.4,68.8 152.4,74.7 V 76.8 H 118.8 C 119.1,81.8 120.4,85.6 123,88.6 126.2,92.7 131.2,94.5 136.3,94.5 141.7,94.5 147,93.3 151.2,90 Z M 147.8,73 C 147.7,68.8 146.9,64.3 144.6,60.4 142.4,56.7 138.5,54.5 134,54.5 129.3,54.5 125.4,56.5 122.8,60.6 120.3,63.7 119.1,68 118.7,72.9 H 147.8 Z"
         id="path614" />
      <path
         inkscape:connector-curvature="0"
         d="M 195.5,96 C 191.5,97.5 186.9,98.4 181.7,98.4 175.2,98.4 168.7,96 164.6,90.7 161.3,86 159.5,80.9 159.5,74.8 159.5,68.9 160.9,62.8 164.9,58.2 168.6,53.4 174.8,50.6 181.6,50.6 185.9,50.6 190.5,51.6 194.7,53.2 L 193.4,57.1 C 189.3,55.5 185.4,54.6 181.6,54.6 176.2,54.6 171.2,56.4 168.2,60.7 165.1,64.8 164.1,69.8 164.1,74.7 164.1,79.4 165.2,84.2 167.8,87.8 171.2,92.3 175.7,94.4 181.5,94.4 185.7,94.4 189.8,93.6 194.2,91.8 Z"
         id="path616" />
      <path
         inkscape:connector-curvature="0"
         d="M 216.5,98.4 C 207,96.6 203.8,90.2 203.8,80 V 41.2 H 208.5 V 51.4 H 217.8 V 55.6 H 208.5 V 80.2 C 208.5,87.7 209.9,92.9 217.7,94.8 Z"
         id="path618" />
      <path
         inkscape:connector-curvature="0"
         d="M 221.7,74.6 C 221.7,60.2 230.7,50.6 243.5,50.6 256.5,50.5 265.6,60.2 265.6,74.6 265.6,89 256.5,98.4 243.5,98.4 230.7,98.4 221.7,89 221.7,74.6 Z M 261,74.6 C 261,62.7 254.4,54.6 243.6,54.6 232.9,54.6 226.4,62.7 226.4,74.6 226.4,86.6 232.9,94.5 243.6,94.5 254.4,94.5 261,86.6 261,74.6 Z"
         id="path620" />
      <path
         inkscape:connector-curvature="0"
         d="M 273.1,97.6 V 51.4 H 277.2 L 277.5,58.4 C 281,54.9 286,51.3 291.4,50.7 L 293,55.3 C 287.1,55.3 281.8,58.8 277.5,62.9 V 97.6 Z"
         id="path622" />
      <path
         inkscape:connector-curvature="0"
         d="M 299.3,86.8 299.9,86.4 C 306,88.9 312.2,90.6 319,90.6 322.5,90.6 326.8,89.9 330.3,88.1 333.7,86.4 336.2,83.5 336.2,78.8 336.2,73.4 330.1,70.9 325.3,69.5 320.9,68.3 316.5,67.2 312,65.5 305.2,62.9 298.9,58.6 298.9,50.3 298.9,44 301.7,39.6 305.8,36.7 309.9,34 315.4,32.7 320.9,32.7 328.2,32.7 335.5,34.7 342.6,38.1 L 340,45.5 339.4,45.9 C 334.2,42.3 327.6,40.4 320.8,40.4 317.2,40.4 314,40.9 311.6,42.4 309.2,43.8 307.7,46 307.7,48.9 307.7,53.5 311.9,55.6 316.1,57 321.1,58.6 326.5,59.6 331.9,61.8 335.4,63.2 338.7,65 341.2,67.7 343.7,70.5 345.1,74.4 345.1,78.5 345.1,84.6 342,90.2 336.6,93.6 331.6,96.8 325.2,98.2 319.1,98.2 311.7,98.2 304.3,96.7 296.7,94.1 Z"
         id="path624" />
      <path
         inkscape:connector-curvature="0"
         d="M 370,98.6 C 364.5,98.4 358.8,97 355.2,92.1 353.2,89.2 352,85.8 352,82 V 41.2 H 360.3 V 50.8 H 371.6 V 58.2 H 360.3 V 82 C 360.3,84.3 360.9,86.6 362.6,88.4 364.9,90.7 368.3,91.3 371.7,91.2 L 372.4,91.6 Z"
         id="path626" />
      <path
         inkscape:connector-curvature="0"
         d="M 376.1,74.2 C 376.1,60.4 384.7,50.1 398.2,50.1 411.8,50.1 420.3,60.4 420.3,74.2 420.3,88 411.7,98.2 398.2,98.2 384.7,98.2 376.1,88 376.1,74.2 Z M 411.9,74.2 C 411.9,63.8 406.6,57.3 398.2,57.3 389.8,57.3 384.5,63.7 384.5,74.2 384.5,84.6 389.8,91 398.2,91 406.6,91 411.9,84.6 411.9,74.2 Z"
         id="path628" />
      <path
         inkscape:connector-curvature="0"
         d="M 461.7,95.7 C 457.7,97.3 453.4,98.5 448.7,98.5 443,98.5 437.5,96.6 433.3,92.6 428.5,88 426.2,81.3 426.2,74.2 426.2,68.3 427.9,61.9 432.2,57.1 436.3,52.6 442.3,50.2 448.7,50.2 453.6,50.2 457.5,51.4 461.8,52.7 L 459.6,59.5 459.2,59.9 C 455.6,58.6 452.5,57.6 449.1,57.7 445.2,57.8 441.3,59.1 438.6,62.3 435.9,65.4 434.8,69.9 434.8,74.4 434.8,78.6 436,83.4 438.7,86.8 441.2,89.7 444.7,91.2 449.1,91.4 452.9,91.5 455.8,90.2 459.1,89 L 459.6,89.3 Z"
         id="path630" />
      <path
         inkscape:connector-curvature="0"
         d="M 497.9,97.6 481.6,74.6 477.8,78.1 V 97.7 H 469.5 V 32.7 H 477.8 V 67.7 L 495.7,50.8 H 506.9 L 487.3,69.2 508.6,97.7 H 497.9 Z"
         id="path632" />
    </g>
  </g>
  <style
     type="text/css"
     id="style9976">
	.st0{fill:#349334;}
	.st1{fill:#4CB749;}
	.st2{fill:#118011;}
	.st3{fill:url(#SVGID_1_);}
	.st4{fill:#FFFFFF;}
	.st5{fill:url(#SVGID_2_);}
	.st6{fill:url(#SVGID_3_);}
	.st7{fill:url(#SVGID_4_);}
</style>
  <style
     id="style9976-3"
     type="text/css">
	.st0{fill:#349334;}
	.st1{fill:#4CB749;}
	.st2{fill:#118011;}
	.st3{fill:url(#SVGID_1_);}
	.st4{fill:#FFFFFF;}
	.st5{fill:url(#SVGID_2_);}
	.st6{fill:url(#SVGID_3_);}
	.st7{fill:url(#SVGID_4_);}
</style>
</svg>
