<?xml version="1.0" encoding="UTF-8" standalone="no"?>
<svg
   version="1.0"
   width="390"
   height="390"
   id="svg9"
   sodipodi:docname="inkscape-flat.svg"
   inkscape:export-filename="/home/doctormo/Desktop/inkscape-flat.png"
   inkscape:export-xdpi="172.31"
   inkscape:export-ydpi="172.31"
   inkscape:version="1.1-alpha (cd9e90ee8a, 2021-02-11, custom)"
   xmlns:inkscape="http://www.inkscape.org/namespaces/inkscape"
   xmlns:sodipodi="http://sodipodi.sourceforge.net/DTD/sodipodi-0.dtd"
   xmlns="http://www.w3.org/2000/svg"
   xmlns:svg="http://www.w3.org/2000/svg">
  <defs
     id="defs13" />
  <sodipodi:namedview
     id="namedview11"
     pagecolor="#505050"
     bordercolor="#ffffff"
     borderopacity="1"
     objecttolerance="10.0"
     gridtolerance="10.0"
     guidetolerance="10.0"
     inkscape:pageshadow="0"
     inkscape:pageopacity="0"
     inkscape:pagecheckerboard="1"
     showgrid="false"
     inkscape:zoom="1.6820513"
     inkscape:cx="87.393293"
     inkscape:cy="195.29726"
     inkscape:window-width="1534"
     inkscape:window-height="843"
     inkscape:window-x="66"
     inkscape:window-y="20"
     inkscape:window-maximized="1"
     inkscape:current-layer="svg9" />
  <g
     id="inkscape-logo">
    <path
       d="M163.15,27.83L28.81,165.3C-16.58,221.51 59.7,214.97 92.4,231.16C104.13,243.15 47.44,252 59.17,264C70.9,275.99 130.1,287.1 141.85,299.09C153.58,311.08 117.84,323.8 129.57,335.79C141.3,347.78 168.43,336.42 173.51,364.1C177.13,383.88 222.4,372.6 244.54,356.4C256.27,344.4 222.1,345.53 233.83,333.54C263,303.71 290.16,322.7 300.14,292.81C305.07,278.04 257.2,270.04 268.95,258.05C302.7,238.34 419.35,225.51 364,170.16L224.75,27.83C207.72,11.48 179.3,11.3 163.15,27.83 zM317.46,292.81C317.46,299.63 367.71,304.1 367.71,291.2C360.55,270.48 323.4,271.88 317.46,292.81 zM91.1,329.05C103,339.34 121.38,326.49 126.89,312.13C115.36,296.81 72.2,312.68 91.1,329.05 zM311.16,306.82C295.82,320.58 312.88,334.54 328,325.65C331.37,322.23 327.91,310.24 311.16,306.82z"
       id="path2" />
    <path
       fill="white"
       d="M131,238.6C134.59,240.83 188.89,251.86 202.16,254.06C206.76,255.03 203.5,259.77 197.16,262.97C182.86,266.77 113.5,238.6 131,238.6z"
       id="path4" />
    <path
       fill="white"
       d="M216.63,37.47L269.78,91.45C274.82,96.6 274.75,106.58 271.93,109.45L245.54,88.34L240.35,119.6L218.3,107.96L182.99,130.27L171.3,83.24L152.33,116.06L123.33,116.06C111.51,116.06 110.12,101.06 120.86,90.32C139.62,70.07 161.15,49.43 172.85,37.47C184.61,25.45 205.1,25.79 216.63,37.47z"
       id="path6" />
  </g>
</svg>
