<?xml version="1.0" encoding="UTF-8" standalone="no"?>
<svg
   xmlns:dc="http://purl.org/dc/elements/1.1/"
   xmlns:cc="http://creativecommons.org/ns#"
   xmlns:rdf="http://www.w3.org/1999/02/22-rdf-syntax-ns#"
   xmlns:svg="http://www.w3.org/2000/svg"
   xmlns="http://www.w3.org/2000/svg"
   xmlns:xlink="http://www.w3.org/1999/xlink"
   xmlns:sodipodi="http://sodipodi.sourceforge.net/DTD/sodipodi-0.dtd"
   xmlns:inkscape="http://www.inkscape.org/namespaces/inkscape"
   inkscape:export-ydpi="90"
   inkscape:export-xdpi="90"
   inkscape:export-filename="/home/doctormo/Desktop/inkscape38.png"
   sodipodi:docname="0.38.svg"
   viewBox="0 0 1024 320"
   height="320"
   width="1024"
   inkscape:version="1.1-dev (80a9b86afe, 2020-05-28)"
   id="svg6648"
   version="1.1">
  <metadata
     id="metadata6654">
    <rdf:RDF>
      <cc:Work
         rdf:about="">
        <dc:format>image/svg+xml</dc:format>
        <dc:type
           rdf:resource="http://purl.org/dc/dcmitype/StillImage" />
      </cc:Work>
    </rdf:RDF>
  </metadata>
  <defs
     id="defs6652">
    <linearGradient
       id="linearGradient1762">
      <stop
         id="stop1763"
         offset="0.00000000"
         style="stop-color:#ffffff;stop-opacity:0.552941;" />
      <stop
         id="stop1764"
         offset="1.00000000"
         style="stop-color:#ffffff;stop-opacity:0;" />
    </linearGradient>
    <linearGradient
       id="linearGradient676">
      <stop
         id="stop677"
         offset="0.00000000"
         style="stop-color:#150000;stop-opacity:0.102362;" />
      <stop
         id="stop678"
         offset="1.00000000"
         style="stop-color:#000000;stop-opacity:0;" />
    </linearGradient>
    <linearGradient
       id="linearGradient666">
      <stop
         id="stop667"
         offset="0.00000000"
         style="stop-color:#ffffff;stop-opacity:0.336;" />
      <stop
         id="stop668"
         offset="1.00000000"
         style="stop-color:#ffffff;stop-opacity:0;" />
    </linearGradient>
    <linearGradient
       id="linearGradient583">
      <stop
         id="stop584"
         offset="0.00000000"
         style="stop-color:#ffffff;stop-opacity:0.72;" />
      <stop
         id="stop585"
         offset="1.00000000"
         style="stop-color:#ffffff;stop-opacity:0;" />
    </linearGradient>
    <linearGradient
       y2="0.972727"
       x2="0.485597"
       y1="0.009092"
       x1="0.497940"
       id="linearGradient586"
       xlink:href="#linearGradient583" />
    <radialGradient
       id="radialGradient664"
       xlink:href="#linearGradient583"
       gradientTransform="matrix(5.3923984,0,0,0.83785628,-947.50687,-583.68276)"
       cx="233.92318"
       cy="1036.4888"
       fx="233.92318"
       fy="1036.4888"
       r="98.260411"
       gradientUnits="userSpaceOnUse" />
    <radialGradient
       fy="1036.4888"
       fx="233.92318"
       r="98.260411"
       cy="1036.4888"
       cx="233.92318"
       id="radialGradient669"
       xlink:href="#linearGradient666"
       gradientTransform="matrix(0.58947495,0,0,0.60434924,483.34489,-493.56819)"
       gradientUnits="userSpaceOnUse" />
    <radialGradient
       fy="1036.4888"
       fx="233.92318"
       r="98.260411"
       cy="1036.4888"
       cx="233.92318"
       id="radialGradient679"
       xlink:href="#linearGradient676"
       gradientTransform="matrix(2.0940745,0,0,0.43758256,-197.93181,-311.64113)"
       gradientUnits="userSpaceOnUse" />
    <radialGradient
       fy="1036.4888"
       fx="233.92318"
       r="98.260411"
       cy="1036.4888"
       cx="233.92318"
       id="radialGradient1765"
       xlink:href="#linearGradient1762"
       gradientTransform="matrix(5.3923984,0,0,0.83785628,-575.12581,-738.12981)"
       gradientUnits="userSpaceOnUse" />
    <radialGradient
       inkscape:collect="always"
       xlink:href="#linearGradient666"
       id="radialGradient4646"
       cx="233.92318"
       cy="1036.4888"
       fx="233.92318"
       fy="1036.4888"
       r="98.260411"
       gradientTransform="matrix(0.58947495,0,0,0.60434924,602.10913,-416.46424)"
       gradientUnits="userSpaceOnUse" />
    <radialGradient
       inkscape:collect="always"
       xlink:href="#linearGradient666"
       id="radialGradient4648"
       cx="233.92318"
       cy="1036.4888"
       fx="233.92318"
       fy="1036.4888"
       r="98.260411"
       gradientTransform="matrix(0.58947495,0,0,0.60434924,570.53811,-403.83628)"
       gradientUnits="userSpaceOnUse" />
    <radialGradient
       inkscape:collect="always"
       xlink:href="#linearGradient666"
       id="radialGradient4650"
       cx="233.92318"
       cy="1036.4888"
       fx="233.92318"
       fy="1036.4888"
       r="98.260411"
       gradientTransform="matrix(0.58947495,0,0,0.60434924,515.81468,-445.93123)"
       gradientUnits="userSpaceOnUse" />
    <radialGradient
       inkscape:collect="always"
       xlink:href="#linearGradient666"
       id="radialGradient4652"
       cx="233.92318"
       cy="1036.4888"
       fx="233.92318"
       fy="1036.4888"
       r="98.260411"
       gradientTransform="matrix(0.58947495,0,0,0.60434924,631.57631,-441.72166)"
       gradientUnits="userSpaceOnUse" />
    <radialGradient
       inkscape:collect="always"
       xlink:href="#linearGradient676"
       id="radialGradient4654"
       cx="233.92318"
       cy="1036.4888"
       fx="233.92318"
       fy="1036.4888"
       r="98.260411"
       gradientTransform="matrix(1.0089463,0,0,0.70143244,630.55783,-679.88083)"
       gradientUnits="userSpaceOnUse" />
    <radialGradient
       inkscape:collect="always"
       xlink:href="#linearGradient666"
       id="radialGradient4656"
       cx="233.92318"
       cy="1036.4888"
       fx="233.92318"
       fy="1036.4888"
       r="98.260411"
       gradientTransform="matrix(0.58947495,0,0,0.60434924,671.56647,-490.13095)"
       gradientUnits="userSpaceOnUse" />
    <radialGradient
       inkscape:collect="always"
       xlink:href="#linearGradient666"
       id="radialGradient4658"
       cx="233.92318"
       cy="1036.4888"
       fx="233.92318"
       fy="1036.4888"
       r="98.260411"
       gradientTransform="matrix(0.58947495,0,0,0.60434924,649.62003,-539.87258)"
       gradientUnits="userSpaceOnUse" />
    <radialGradient
       inkscape:collect="always"
       xlink:href="#linearGradient666"
       id="radialGradient4660"
       cx="233.92318"
       cy="1036.4888"
       fx="233.92318"
       fy="1036.4888"
       r="98.260411"
       gradientTransform="matrix(0.58947495,0,0,0.60434924,603.31552,-573.54859)"
       gradientUnits="userSpaceOnUse" />
    <radialGradient
       inkscape:collect="always"
       xlink:href="#linearGradient666"
       id="radialGradient4662"
       cx="233.92318"
       cy="1036.4888"
       fx="233.92318"
       fy="1036.4888"
       r="98.260411"
       gradientTransform="matrix(0.58947495,0,0,0.60434924,552.80162,-567.23417)"
       gradientUnits="userSpaceOnUse" />
    <radialGradient
       inkscape:collect="always"
       xlink:href="#linearGradient666"
       id="radialGradient4664"
       cx="233.92318"
       cy="1036.4888"
       fx="233.92318"
       fy="1036.4888"
       r="98.260411"
       gradientTransform="matrix(0.58947495,0,0,0.60434924,510.70664,-520.92964)"
       gradientUnits="userSpaceOnUse" />
  </defs>
  <sodipodi:namedview
     inkscape:snap-global="false"
     inkscape:current-layer="svg6648"
     inkscape:window-maximized="1"
     inkscape:window-y="20"
     inkscape:window-x="67"
     inkscape:cy="187.31575"
     inkscape:cx="753.03689"
     inkscape:zoom="0.57412996"
     borderlayer="true"
     showgrid="false"
     id="namedview6650"
     inkscape:document-units="px"
     inkscape:window-height="852"
     inkscape:window-width="1533"
     inkscape:pageshadow="2"
     inkscape:pageopacity="0"
     guidetolerance="10"
     gridtolerance="10"
     objecttolerance="10"
     borderopacity="1"
     bordercolor="#666666"
     pagecolor="#ffffff" />
  <style
     id="style26"
     type="text/css">
	.specularity {opacity:0.5;}
	.low-specularity {opacity:0.25;}
	.full-specularity {opacity:1;}
	.black {fill:#000000;}
	.white {fill:#ffffff;}
	.outline-big {stroke-width:16;stroke:none;opacity:0.1;fill:none;}
	.outline-small {stroke-width:8;stroke:none;opacity:0.2;fill:none;}
	.stroke-highlight {fill:none;stroke:none;opacity:0.2;}
       	.base-shadow 	{fill:black;opacity:75;}
	</style>
  <style
     type="text/css"
     id="style26-3">
	.specularity {opacity:0.5}
	.low-specularity {opacity:0.25}
	.full-specularity {opacity:1}
	.black {fill:#000}
	.white {fill:#fff}
	.outline-big {opacity:0.1;fill:none}
	.outline-small {opacity:0.2;fill:none}
	.stroke-highlight {fill:none;opacity:0.2}
       	.bs 	{fill:#000;opacity:75}
	</style>
  <style
     id="style26-9"
     type="text/css">
	.specularity {opacity:0.5;}
	.low-specularity {opacity:0.25;}
	.full-specularity {opacity:1;}
	.black {fill:#000000;}
	.white {fill:#ffffff;}
	.outline-big {stroke-width:16;stroke:none;opacity:0.1;fill:none;}
	.outline-small {stroke-width:8;stroke:none;opacity:0.2;fill:none;}
	.stroke-highlight {fill:none;stroke:none;opacity:0.2;}
       	.base-shadow 	{fill:black;opacity:75;}
	</style>
  <style
     type="text/css"
     id="style26-3-2">
	.specularity {opacity:0.5}
	.low-specularity {opacity:0.25}
	.full-specularity {opacity:1}
	.black {fill:#000}
	.white {fill:#fff}
	.outline-big {opacity:0.1;fill:none}
	.outline-small {opacity:0.2;fill:none}
	.stroke-highlight {fill:none;opacity:0.2}
       	.bs 	{fill:#000;opacity:75}
	</style>
  <rect
     style="font-size:12px;fill:#0082ab;fill-rule:evenodd;stroke:none;stroke-width:1.99406pt"
     id="rect3983"
     width="1128.3903"
     height="400.12732"
     x="-75.882408"
     y="0.9841646" />
  <ellipse
     ry="59.383606"
     rx="57.922047"
     cy="209.937"
     cx="740.00098"
     style="fill:url(#radialGradient4646);fill-opacity:0.75;fill-rule:evenodd;stroke:none;stroke-width:0.596866pt"
     id="path691" />
  <ellipse
     ry="59.383606"
     rx="57.922047"
     cy="222.56496"
     cx="708.42993"
     style="fill:url(#radialGradient4648);fill-opacity:0.75;fill-rule:evenodd;stroke:none;stroke-width:0.596866pt"
     id="path690" />
  <ellipse
     ry="59.383606"
     rx="57.922047"
     cy="180.47003"
     cx="653.70654"
     style="fill:url(#radialGradient4650);fill-opacity:0.75;fill-rule:evenodd;stroke:none;stroke-width:0.596866pt"
     id="path689" />
  <ellipse
     ry="59.383606"
     rx="57.922047"
     cy="184.6796"
     cx="769.46814"
     style="fill:url(#radialGradient4652);fill-opacity:0.75;fill-rule:evenodd;stroke:none;stroke-width:0.596866pt"
     id="path688" />
  <ellipse
     ry="82.328094"
     rx="529.85931"
     cy="130.29886"
     cx="686.28119"
     style="fill:url(#radialGradient1765);fill-opacity:0.75;fill-rule:evenodd;stroke:none;stroke-width:2.12557pt"
     id="path1761" />
  <path
     style="font-weight:normal;font-size:40px;fill:#050000;stroke:#000000;stroke-width:0.936442"
     d="M 467.14324,125.04306 H 438.546 v 1.82927 h 0.85685 c 3.85386,0 4.2823,0.19469 4.2823,1.82986 v 1.12879 18.53118 1.12883 c 0,1.63515 -0.42844,1.82989 -4.2823,1.82989 H 438.546 v 1.82923 h 29.21549 l 0.95177,-10.39377 h -2.09338 c -0.61891,2.725 -1.71305,5.13846 -2.8553,6.26734 -1.47511,1.55726 -4.18737,2.2972 -8.18429,2.2972 h -3.14005 c -1.42762,0 -2.61733,-0.2337 -3.04515,-0.58422 -0.33348,-0.23365 -0.38094,-0.46731 -0.38094,-1.28461 v -9.92706 h 0.95175 c 2.90277,0 4.09182,0.23373 5.04361,1.05098 1.23716,1.01199 1.71303,2.25763 1.80796,4.55485 h 2.2364 v -12.76891 h -2.2364 c -0.23794,3.81492 -2.14085,5.3332 -6.66107,5.3332 h -1.14225 v -8.87608 c 0,-1.67409 0.42842,-1.9467 2.99765,-1.9467 h 2.47436 c 4.18736,0 6.23327,0.35053 7.85078,1.44037 1.57066,1.01259 2.71226,3.1924 3.4261,6.69637 h 2.04591 z m -63.1417,15.61083 h 5.37708 c 4.2823,0 6.51867,-0.27267 8.42159,-1.01204 3.37864,-1.32359 5.28154,-3.81554 5.28154,-6.89108 0,-2.95871 -1.66496,-5.21635 -4.80566,-6.501 -1.85544,-0.77896 -4.80564,-1.20671 -8.08872,-1.20671 h -16.65398 v 1.82927 h 0.85685 c 3.85388,0 4.28231,0.19469 4.28231,1.82986 v 1.12879 18.53118 1.12883 c 0,1.63515 -0.42843,1.82989 -4.28231,1.82989 h -0.85685 v 1.82923 h 15.98764 v -1.82923 h -1.23719 c -3.8539,0 -4.2823,-0.19474 -4.2823,-1.82989 v -1.12883 z m 0,-1.82992 v -9.966 c 0,-1.79095 0.2854,-1.98564 2.90275,-1.98564 h 3.04514 c 4.94866,0 7.27997,1.90778 7.27997,6.03422 0,4.00964 -2.42687,5.91742 -7.47045,5.91742 z M 362.6055,124.49782 h -1.99845 l -10.94404,22.69594 c -0.95175,2.02459 -1.14221,2.29723 -1.85604,2.92039 -0.76129,0.73938 -2.09338,1.20673 -3.37801,1.20673 h -0.19049 v 1.82923 h 12.60899 v -1.82923 h -0.95115 c -2.56988,0 -3.8545,-0.73994 -3.8545,-2.21933 0,-0.46678 0.14301,-1.01199 0.42841,-1.63513 l 1.57004,-3.42546 h 12.60961 l 2.56925,5.21637 c 0.2854,0.58418 0.38032,0.85682 0.38032,1.05092 0,0.62319 -1.18907,1.01263 -2.94957,1.01263 h -1.99846 v 1.82923 h 14.75042 v -1.82923 h -0.66633 c -2.37879,0 -2.90276,-0.31156 -3.99691,-2.49199 z m -2.33195,6.38473 5.37708,11.05591 h -10.65861 z m -32.83141,-6.11208 h -1.80799 l -1.90352,2.29655 c -3.37864,-2.02396 -5.23407,-2.60813 -8.42221,-2.60813 -4.6152,0 -8.42164,1.51829 -11.65723,4.67173 -3.04578,2.95865 -4.47281,6.22897 -4.47281,10.23861 0,8.36982 6.70919,14.36511 16.08256,14.36511 7.61347,0 12.4666,-3.65912 13.56072,-10.1997 l -2.23635,-0.31159 c -0.47591,2.06359 -1.0467,3.46503 -1.90291,4.63282 -1.951,2.68609 -4.99615,4.04859 -8.85065,4.04859 -7.04206,0 -10.37261,-4.00966 -10.37261,-12.37947 0,-4.39908 0.7138,-7.3578 2.33133,-9.69401 1.47511,-2.17974 4.42528,-3.54223 7.47047,-3.54223 3.33055,0 6.28077,1.44034 8.08873,3.93171 0.9043,1.28464 1.61812,2.80293 2.71228,5.80058 h 2.09401 z m -47.63002,0.0389 h -1.76046 l -1.90294,2.33553 c -2.23637,-1.75198 -5.28215,-2.68605 -8.66014,-2.68605 -6.23328,0 -10.42064,3.27021 -10.42064,8.13608 0,4.24395 2.56988,6.34583 9.56444,7.82518 l 4.52024,0.93409 c 3.52102,0.74 3.85386,0.81791 4.85313,1.44044 1.42762,0.89575 2.18889,2.18041 2.18889,3.69869 0,1.55723 -0.71381,2.84188 -2.14142,3.89277 -1.57005,1.12949 -3.14011,1.55724 -5.75747,1.55724 -3.52098,0 -6.04276,-0.89515 -8.27917,-2.9197 -1.99847,-1.82991 -2.99765,-3.65913 -3.71147,-6.65683 h -2.04592 l 0.19045,11.09485 h 1.85547 l 2.14143,-2.64713 c 3.18819,2.14142 5.85235,2.91978 9.99226,2.91978 6.99457,0 11.46738,-3.34821 11.46738,-8.56458 0,-2.41343 -0.99926,-4.47697 -2.85533,-5.95637 -1.28462,-1.01192 -3.14005,-1.67403 -6.94711,-2.45238 l -5.09102,-1.05156 c -4.23486,-0.89514 -6.23332,-2.41347 -6.23332,-4.78795 0,-2.72562 2.7123,-4.59381 6.75664,-4.59381 3.33053,0 6.0428,1.16777 7.94635,3.3865 1.37956,1.59617 2.23638,3.23129 2.85464,5.21695 h 2.04655 z m -64.33071,15.61077 v -10.58917 -1.12879 c 0,-1.63516 0.42842,-1.82986 4.28228,-1.82986 h 0.90433 v -1.82927 h -15.65478 v 1.82927 h 0.85622 c 3.8545,0 4.28291,0.1947 4.28291,1.82986 v 1.12879 18.53119 1.12883 c 0,1.63514 -0.42841,1.82988 -4.28291,1.82988 h -0.85622 v 1.82924 h 15.65478 v -1.82924 h -0.90433 c -3.85386,0 -4.28228,-0.19474 -4.28228,-1.82988 v -1.12883 -4.94432 l 5.51947,-4.55497 8.27919,9.92706 c 0.76127,0.93477 0.95178,1.24636 0.95178,1.63516 0,0.62313 -0.9043,0.89578 -3.2356,0.89578 h -1.47513 v 1.82924 h 16.273 v -1.82924 h -0.90367 c -2.61736,0 -3.28371,-0.27265 -4.66327,-1.94669 l -11.51483,-13.58684 7.08954,-5.80052 c 2.28384,-1.98507 5.18659,-3.1145 8.04128,-3.1145 v -1.82927 h -14.65494 v 1.82927 h 1.18971 c 2.18832,0 3.09261,0.35053 3.09261,1.16835 0,0.54463 -0.95175,1.67352 -2.33134,2.80292 z m -53.19698,-15.37708 h -9.80183 v 1.82927 h 1.18975 c 2.42621,0 3.52098,0.31157 4.37718,1.2846 v 16.54552 c 0,5.33385 -0.95168,6.46265 -5.51947,6.61843 v 1.82923 h 13.56085 v -1.82923 c -4.52032,-0.15578 -5.47204,-1.28458 -5.47204,-6.61843 v -14.44302 l 21.22167,23.43599 h 1.99848 v -20.20464 c 0,-5.33385 0.95181,-6.4627 5.51947,-6.61845 v -1.82927 h -13.56074 v 1.82927 c 4.52027,0.15575 5.47201,1.2846 5.47201,6.61845 v 12.22362 z m -30.92851,4.78792 v -1.12879 c 0,-1.63517 0.4284,-1.82986 4.23477,-1.82986 h 0.95181 v -1.82927 h -15.74968 v 1.82927 h 0.95175 c 3.8539,0 4.28232,0.19469 4.28232,1.82986 v 1.12879 18.53118 1.12883 c 0,1.63515 -0.42842,1.82989 -4.28232,1.82989 h -0.95175 v 1.82923 h 15.74968 v -1.82923 h -0.95181 c -3.80637,0 -4.23477,-0.19474 -4.23477,-1.82989 v -1.12883 z"
     id="path682" />
  <ellipse
     ry="82.328094"
     rx="529.85931"
     cy="284.74591"
     cx="313.90005"
     style="fill:url(#radialGradient664);fill-opacity:0.75;fill-rule:evenodd;stroke:none;stroke-width:2.12557pt"
     id="path663" />
  <ellipse
     ry="68.923035"
     rx="99.139481"
     cy="47.146038"
     cx="866.57373"
     style="fill:url(#radialGradient4654);fill-opacity:0.75;fill-rule:evenodd;stroke:none;stroke-width:0.841251pt"
     id="path680" />
  <ellipse
     ry="59.383606"
     rx="57.922047"
     cy="136.27028"
     cx="809.45831"
     style="fill:url(#radialGradient4656);fill-opacity:0.75;fill-rule:evenodd;stroke:none;stroke-width:0.596866pt"
     id="path674" />
  <ellipse
     ry="59.383606"
     rx="57.922047"
     cy="86.528679"
     cx="787.5119"
     style="fill:url(#radialGradient4658);fill-opacity:0.75;fill-rule:evenodd;stroke:none;stroke-width:0.596866pt"
     id="path673" />
  <ellipse
     ry="59.383606"
     rx="57.922047"
     cy="52.852695"
     cx="741.20734"
     style="fill:url(#radialGradient4660);fill-opacity:0.75;fill-rule:evenodd;stroke:none;stroke-width:0.596866pt"
     id="path672" />
  <ellipse
     ry="59.383606"
     rx="57.922047"
     cy="59.16711"
     cx="690.69348"
     style="fill:url(#radialGradient4662);fill-opacity:0.75;fill-rule:evenodd;stroke:none;stroke-width:0.596866pt"
     id="path671" />
  <ellipse
     ry="59.383606"
     rx="57.922047"
     cy="105.47159"
     cx="648.59845"
     style="fill:url(#radialGradient4664);fill-opacity:0.75;fill-rule:evenodd;stroke:none;stroke-width:0.596866pt"
     id="path670" />
  <ellipse
     ry="59.383606"
     rx="57.922047"
     cy="132.83305"
     cx="621.23676"
     style="fill:url(#radialGradient669);fill-opacity:0.75;fill-rule:evenodd;stroke:none;stroke-width:0.596866pt"
     id="path665" />
  <path
     style="font-size:12px;fill:#ffffff;fill-opacity:0.28125;fill-rule:evenodd;stroke-width:0.630987pt"
     d="m 428.94181,494.45223 c -8.193,0 -10.59826,78.03506 -2.40526,78.03506 H 959.1701 l -1.2026,-77.00518 z"
     id="path4024"
     sodipodi:nodetypes="ccccc" />
  <path
     style="font-size:12px;fill:#ffffff;fill-opacity:0.28125;fill-rule:evenodd;stroke-width:0.630987pt"
     d="m 471.74369,-159.20686 c -9.06959,0.12626 -10.0725,-7.83106 -1.00291,-7.95732 l 497.99623,-3.11606 2.23401,13.4223 z"
     id="path4266"
     sodipodi:nodetypes="ccccc" />
  <path
     style="font-size:12px;fill:#ffffff;fill-opacity:0.28125;fill-rule:evenodd;stroke-width:0.630987pt"
     d="m 470.77333,-140.20864 c -8.33189,0.11604 -8.50735,-10.00911 -0.17547,-10.12508 l 495.64668,-1.7024 0.527,4.7165 z"
     id="path4267"
     sodipodi:nodetypes="ccccc" />
  <path
     style="font-size:12px;fill:#ffffff;fill-opacity:0.144;fill-rule:evenodd;stroke-width:0.630987pt"
     d="m 469.80316,-163.85856 c -8.193,0 -13.00354,17.93664 -4.81054,17.93664 l 492.94668,0.8642 2.40526,-20.75349 z"
     id="path836"
     sodipodi:nodetypes="ccccc" />
  <g
     id="g839"
     transform="matrix(0.59400657,0,0,0.59400657,501.97325,13.001692)">
    <path
       style="font-size:12px;fill:#ffffff;fill-rule:evenodd;stroke:#000000;stroke-width:0.936193pt"
       d="M 397.64309,320.25301 280.39197,282.517 l -29.6497,-157.68253 94.33998,-95.687687 48.51771,17.520281 90.29683,88.949126 z"
       id="path805" />
    <path
       style="font-size:12px;fill:#000000;fill-opacity:1;fill-rule:evenodd;stroke-width:1pt"
       d="m 476.95792,339.17168 c 18.82405,3.76439 22.5905,16.94193 18.82405,20.70634 -3.76341,3.76538 -13.17547,7.52979 -20.70534,1.88212 -7.53185,-5.64653 -7.53185,-18.82407 1.88129,-22.58846 z"
       id="path580" />
    <path
       style="font-size:12px;fill:#000000;fill-opacity:1;fill-rule:evenodd;stroke-width:1pt"
       d="m 286.46194,340.42914 c -1.83424,0.48921 -17.15789,-12.71577 -29.29285,-6.59534 -12.13187,6.11956 -20.27633,19.82286 -8.94233,25.44602 11.33508,5.62316 19.43757,-0.86115 29.37437,-7.83863 9.9379,-6.97642 9.57933,-8.32059 8.86081,-11.01205 z"
       id="path582" />
    <path
       style="font-size:12px;fill:#000000;fill-opacity:1;fill-rule:evenodd;stroke-width:1pt"
       d="m 510.35756,306.92856 c 10.23738,-2.55977 33.88577,0 30.11932,15.05778 -3.76334,15.06172 -35.76391,9.41193 -56.47317,1.88522 -1.8823,-15.06073 21.52866,-15.73733 26.35385,-16.943 z"
       id="path583" />
    <path
       style="font-size:12px;fill:#000000;fill-opacity:1;fill-rule:evenodd;stroke-width:1pt"
       d="m 359.2403,21.362537 c -11.31337,0 -22.6056,4.320558 -31.27474,12.989693 L 173.87387,188.41466 c -8.4969,8.49674 -12.76227,19.54347 -12.93118,30.63111 h -0.0585 c 0,0.0395 0.0566,0.0774 0.0585,0.11702 -0.002,0.18609 -0.0585,0.36977 -0.0585,0.55586 h 0.2633 c 2.94912,11.22052 79.14951,25.52333 87.65118,34.02481 12.83905,12.83917 -49.23346,22.26805 -36.39456,35.10728 12.83906,12.83905 77.59023,24.84256 90.4305,37.6818 12.83908,12.83907 -26.2385,26.51035 -13.39928,39.34942 12.83907,12.83922 55.96669,-3.20939 48.15548,30.28002 17.33829,17.33828 53.51222,9.05882 77.73337,-8.27946 12.83906,-12.83907 -24.62937,-11.70675 -11.7902,-24.54584 12.83907,-12.83923 45.24731,-12.90848 72.55505,-43.62079 -10.99163,-17.09473 -46.98101,-24.37453 -34.14183,-37.21372 12.83906,-12.83906 37.79989,-6.31794 91.65925,-30.77738 26.29193,-11.94081 24.11992,-21.0102 24.01923,-32.00614 -0.002,-0.23138 0,-0.43973 0,-0.67288 h -0.0585 C 557.3983,207.95812 553.10345,196.9114 544.60673,188.41466 L 390.54428,34.35223 C 381.87515,25.683095 370.55366,21.362537 359.2403,21.362537 Z m -1.31652,20.040402 c 5.02949,0.131024 9.09163,3.965079 17.05628,9.127893 l 72.78909,53.977438 c 0.79681,0.51671 1.55569,1.05573 2.25272,1.60908 0.69703,0.55327 1.33373,1.1401 1.9309,1.72612 0.5972,0.58495 1.14004,1.17206 1.63834,1.78461 0.49726,0.61244 0.94845,1.23853 1.34577,1.8724 0.39844,0.6349 0.75476,1.27981 1.05322,1.93089 0.29867,0.65226 0.53281,1.32502 0.7314,1.98941 0.19976,0.66341 0.36832,1.31895 0.46811,1.98941 0.0999,0.67165 0.14627,1.34516 0.14627,2.01867 l -43.12343,-20.830311 -4.30065,32.562001 -23.72668,-11.11731 -36.62858,24.45807 -14.01366,-48.33101 -18.05098,42.275 -50.40821,5.03205 0.55587,-22.4394 c 0,-5.38972 29.05729,-43.122051 46.75119,-52.105048 l 32.38646,-23.258575 c 4.77873,-3.097693 8.12887,-4.35 11.14657,-4.271388 z m -66.9964,220.210391 c 22.94411,5.95032 48.47561,13.75705 68.95655,13.89664 l 0.87768,9.21566 c -17.53811,-1.80778 -54.64815,-10.27551 -63.39789,-14.74506 z"
       id="path831" />
  </g>
  <text
     xml:space="preserve"
     style="font-style:normal;font-weight:normal;font-stretch:normal;font-size:8.1287px;line-height:0%;font-family:'Bitstream Vera Serif';writing-mode:lr-tb;text-anchor:middle;fill:#000000;fill-opacity:1;stroke:none;stroke-width:0.67739pt;stroke-linecap:butt;stroke-linejoin:miter;stroke-opacity:1"
     x="297.40665"
     y="181.22026"
     id="text624"><tspan
       x="297.40665"
       y="181.22026"
       sodipodi:role="line"
       id="tspan985"
       style="font-size:8.1287px;line-height:1.28;stroke-width:0.67739pt">Contributors:  Alexander Clausen  John Bintz  Daniel Borgmann  Hans Breuer  Bulia Byak  Chema Celorio  </tspan><tspan
       sodipodi:role="line"
       id="tspan1757"
       x="297.40665"
       y="191.62498"
       style="font-size:8.1287px;line-height:1.28;stroke-width:0.67739pt">Johan Ceuppens  Zbigniew Chyla  John Cliff  Kees Cook  Robert Crosbie  Jon Cruz  Danilo Egan  Frank Felfe  </tspan><tspan
       sodipodi:role="line"
       id="tspan1759"
       x="297.40665"
       y="202.02974"
       style="font-size:8.1287px;line-height:1.28;stroke-width:0.67739pt">Fred  Ted Gould  Bryce Harrington  Nathan Hurst  Thomas Ingham  Bob Jamison  Lauris Kaplinski  Lynn Kerby  </tspan><tspan
       sodipodi:role="line"
       id="tspan1746"
       x="297.40665"
       y="212.43446"
       style="font-size:8.1287px;line-height:1.28;stroke-width:0.67739pt">Petr Kovar  Raph Levien  Vitaly Lipatov  Dmitry G. Mastrukov  Michael Meeks  Federico Mena  MenTaLguY  </tspan><tspan
       sodipodi:role="line"
       id="tspan1748"
       x="297.40665"
       y="222.83922"
       style="font-size:8.1287px;line-height:1.28;stroke-width:0.67739pt">Peter Moulder  Yukihiro Nakai  Christian Neumair  Mitsuru Oka  Jon Phillips  Christian Schaller  </tspan><tspan
       sodipodi:role="line"
       id="tspan1752"
       x="297.40665"
       y="233.24394"
       style="font-size:8.1287px;line-height:1.28;stroke-width:0.67739pt">Tom von Schwerdtner  Daniel Yacob  Masatake Yamato</tspan></text>
  <path
     style="font-weight:normal;font-size:40px;fill:#ffffff;fill-opacity:1;stroke-width:0.630987pt"
     d="m 467.85069,125.75054 h -28.59721 v 1.82923 h 0.85685 c 3.85388,0 4.28232,0.1948 4.28232,1.8299 v 1.12885 18.53114 1.12885 c 0,1.63516 -0.42844,1.82984 -4.28232,1.82984 h -0.85685 v 1.82928 h 29.2155 l 0.95176,-10.39378 h -2.09337 c -0.61893,2.72501 -1.71306,5.13845 -2.85532,6.26725 -1.47508,1.55727 -4.18736,2.29725 -8.18426,2.29725 h -3.14006 c -1.42764,0 -2.61736,-0.23364 -3.04515,-0.58417 -0.3335,-0.23369 -0.38096,-0.46738 -0.38096,-1.28465 v -9.92704 h 0.95178 c 2.90275,0 4.09182,0.23366 5.04358,1.05094 1.23716,1.01199 1.71304,2.25766 1.808,4.55491 h 2.23637 V 133.0694 h -2.23637 c -0.23798,3.81492 -2.14086,5.33323 -6.66111,5.33323 h -1.14225 v -8.87616 c 0,-1.67405 0.42843,-1.9467 2.99769,-1.9467 h 2.47432 c 4.18738,0 6.2333,0.35052 7.85081,1.44045 1.57064,1.01261 2.71225,3.19237 3.42608,6.69631 h 2.04592 z m -63.14168,15.61076 h 5.3771 c 4.28229,0 6.51868,-0.2726 8.42157,-1.01194 3.37866,-1.32359 5.28156,-3.81553 5.28156,-6.89112 0,-2.95868 -1.66497,-5.21636 -4.80567,-6.50097 -1.85544,-0.77892 -4.80564,-1.20673 -8.08873,-1.20673 h -16.65397 v 1.82923 h 0.85685 c 3.85389,0 4.2823,0.1948 4.2823,1.8299 v 1.12885 18.53114 1.12885 c 0,1.63516 -0.42841,1.82984 -4.2823,1.82984 h -0.85685 v 1.82928 h 15.98762 v -1.82928 h -1.23717 c -3.85388,0 -4.28231,-0.19468 -4.28231,-1.82984 v -1.12885 z m 0,-1.82984 v -9.96602 c 0,-1.79087 0.28541,-1.98567 2.90277,-1.98567 h 3.04513 c 4.94866,0 7.27997,1.90776 7.27997,6.03426 0,4.00965 -2.42686,5.91743 -7.47045,5.91743 z m -41.39604,-14.32619 h -1.99845 l -10.94402,22.69597 c -0.95176,2.02463 -1.14222,2.29727 -1.85605,2.92039 -0.76129,0.73937 -2.09337,1.20672 -3.37801,1.20672 h -0.19047 v 1.82928 h 12.60896 v -1.82928 h -0.95114 c -2.56987,0 -3.8545,-0.73998 -3.8545,-2.21932 0,-0.46673 0.14303,-1.012 0.42842,-1.63517 l 1.57003,-3.42542 h 12.60962 l 2.56925,5.21638 c 0.2854,0.58421 0.38032,0.85681 0.38032,1.05092 0,0.62313 -1.18907,1.01261 -2.94957,1.01261 h -1.99847 v 1.82928 h 14.75042 v -1.82928 h -0.66633 c -2.3788,0 -2.90276,-0.31156 -3.99691,-2.49194 z m -2.33194,6.38481 5.37708,11.05586 H 355.6995 Z m -32.83143,-6.11219 h -1.80796 l -1.90352,2.29668 c -3.37864,-2.02403 -5.23407,-2.60827 -8.42223,-2.60827 -4.61519,0 -8.42162,1.51833 -11.65724,4.67175 -3.04577,2.95875 -4.47277,6.229 -4.47277,10.23865 0,8.36981 6.70919,14.36508 16.08253,14.36508 7.61349,0 12.46662,-3.65912 13.56075,-10.19964 l -2.23637,-0.31158 c -0.4759,2.06354 -1.04672,3.46502 -1.90292,4.63279 -1.951,2.68606 -4.99612,4.04861 -8.85062,4.04861 -7.04206,0 -10.37261,-4.00966 -10.37261,-12.37947 0,-4.39912 0.7138,-7.35781 2.33131,-9.69397 1.47509,-2.17981 4.4253,-3.5423 7.47046,-3.5423 3.33057,0 6.28077,1.44041 8.08876,3.93178 0.90428,1.28459 1.6181,2.8029 2.71227,5.80051 h 2.09398 z m -47.62997,0.0389 h -1.76053 l -1.90288,2.3356 c -2.23639,-1.752 -5.28214,-2.68612 -8.66014,-2.68612 -6.23326,0 -10.42068,3.27032 -10.42068,8.13617 0,4.24395 2.5699,6.34584 9.56448,7.82517 l 4.5202,0.93412 c 3.52106,0.73998 3.85391,0.81784 4.85312,1.44037 1.42768,0.89578 2.18895,2.1804 2.18895,3.69871 0,1.55722 -0.71382,2.84184 -2.14148,3.89282 -1.57004,1.12944 -3.14008,1.55724 -5.75741,1.55724 -3.52099,0 -6.04281,-0.89517 -8.27916,-2.9198 -1.99847,-1.82986 -2.9977,-3.65913 -3.71155,-6.65673 h -2.04592 l 0.19052,11.09481 h 1.8554 l 2.14149,-2.64712 c 3.18815,2.14144 5.85232,2.91972 9.9922,2.91972 6.99464,0 11.46738,-3.34812 11.46738,-8.56449 0,-2.41345 -0.99919,-4.47705 -2.85526,-5.95637 -1.28464,-1.01203 -3.14008,-1.67412 -6.94713,-2.4524 l -5.09106,-1.05158 c -4.23481,-0.89513 -6.23327,-2.41343 -6.23327,-4.78792 0,-2.72567 2.71228,-4.5939 6.75664,-4.5939 3.33054,0 6.04281,1.16782 7.94635,3.38651 1.37954,1.5962 2.23636,3.23136 2.85465,5.21703 h 2.04652 z m -64.33077,15.61085 v -10.58913 -1.12885 c 0,-1.6351 0.42841,-1.8299 4.28235,-1.8299 h 0.90425 v -1.82923 h -15.65473 v 1.82923 h 0.8562 c 3.85453,0 4.28297,0.1948 4.28297,1.8299 v 1.12885 18.53114 1.12886 c 0,1.63515 -0.42844,1.82983 -4.28297,1.82983 h -0.8562 v 1.82928 h 15.65473 v -1.82928 h -0.90425 c -3.85394,0 -4.28235,-0.19468 -4.28235,-1.82983 v -1.12886 -4.94438 l 5.51949,-4.55488 8.27924,9.92704 c 0.76129,0.93472 0.95171,1.24629 0.95171,1.63518 0,0.62312 -0.90425,0.89573 -3.23561,0.89573 h -1.47511 v 1.82928 h 16.27303 v -1.82928 h -0.90366 c -2.61734,0 -3.28369,-0.27261 -4.66326,-1.94672 l -11.51486,-13.58675 7.0895,-5.80062 c 2.2839,-1.98502 5.18663,-3.11449 8.0413,-3.11449 v -1.82923 h -14.65487 v 1.82923 h 1.18969 c 2.1883,0 3.09258,0.35052 3.09258,1.16843 0,0.54463 -0.95175,1.67344 -2.33128,2.80291 z m -53.19697,-15.3771 h -9.80173 v 1.82923 h 1.18969 c 2.42627,0 3.52103,0.31159 4.37725,1.28462 v 16.54551 c 0,5.33382 -0.95182,6.4627 -5.51948,6.61845 v 1.82928 h 13.56078 v -1.82928 c -4.5203,-0.15575 -5.47209,-1.28463 -5.47209,-6.61845 v -14.44297 l 21.2218,23.43594 h 1.99844 V 134.1982 c 0,-5.33381 0.95171,-6.4626 5.51948,-6.61843 v -1.82923 h -13.56077 v 1.82923 c 4.52024,0.15583 5.47198,1.28462 5.47198,6.61843 v 12.22372 z m -30.92851,4.78798 v -1.12885 c 0,-1.6351 0.4284,-1.8299 4.23486,-1.8299 h 0.9517 v -1.82923 h -15.74963 v 1.82923 h 0.95175 c 3.85388,0 4.28233,0.1948 4.28233,1.8299 v 1.12885 18.53114 1.12885 c 0,1.63516 -0.42845,1.82984 -4.28233,1.82984 h -0.95175 v 1.82928 h 15.74963 v -1.82928 h -0.9517 c -3.80646,0 -4.23486,-0.19468 -4.23486,-1.82984 v -1.12885 z"
     id="path4235" />
  <text
     xml:space="preserve"
     style="font-style:normal;font-weight:normal;font-stretch:normal;font-size:7.8127px;line-height:0%;font-family:'Bitstream Vera Sans Mono';writing-mode:lr-tb;text-anchor:start;fill:#ffffff;fill-opacity:1;stroke:none;stroke-width:0.651059pt;stroke-linecap:butt;stroke-linejoin:miter;stroke-opacity:1"
     x="120.24313"
     y="166.75142"
     id="text683"><tspan
       x="120.24313"
       y="166.75142"
       sodipodi:role="line"
       id="tspan684"
       style="font-size:7.8127px;line-height:1;letter-spacing:0.96225;stroke-width:0.651059pt">Open Source Scalable Vector Graphics Editor . www.inkscape.org</tspan></text>
  <text
     xml:space="preserve"
     style="font-style:normal;font-weight:normal;font-stretch:normal;font-size:7.8127px;line-height:0%;font-family:'Bitstream Vera Sans Mono';writing-mode:lr-tb;text-anchor:start;fill:#ffffff;fill-opacity:1;stroke:none;stroke-width:0.651059pt;stroke-linecap:butt;stroke-linejoin:miter;stroke-opacity:1"
     x="120.24313"
     y="166.75142"
     id="text4185"><tspan
       x="120.24313"
       y="166.75142"
       sodipodi:role="line"
       id="tspan4186"
       style="font-size:7.8127px;line-height:1;letter-spacing:0.96225;stroke-width:0.651059pt">Open Source Scalable Vector Graphics Editor . www.inkscape.org</tspan></text>
</svg>
