<?xml version="1.0" encoding="UTF-8" standalone="no"?>
<svg
   xmlns:dc="http://purl.org/dc/elements/1.1/"
   xmlns:cc="http://creativecommons.org/ns#"
   xmlns:rdf="http://www.w3.org/1999/02/22-rdf-syntax-ns#"
   xmlns:svg="http://www.w3.org/2000/svg"
   xmlns="http://www.w3.org/2000/svg"
   xmlns:xlink="http://www.w3.org/1999/xlink"
   xmlns:sodipodi="http://sodipodi.sourceforge.net/DTD/sodipodi-0.dtd"
   xmlns:inkscape="http://www.inkscape.org/namespaces/inkscape"
   version="1.1"
   id="svg6648"
   inkscape:version="1.1-dev (80a9b86afe, 2020-05-28)"
   width="1024"
   height="320"
   viewBox="0 0 1024 320"
   sodipodi:docname="0.39.svg"
   inkscape:export-filename="/home/doctormo/Desktop/inkscape39.png"
   inkscape:export-xdpi="90"
   inkscape:export-ydpi="90">
  <metadata
     id="metadata6654">
    <rdf:RDF>
      <cc:Work
         rdf:about="">
        <dc:format>image/svg+xml</dc:format>
        <dc:type
           rdf:resource="http://purl.org/dc/dcmitype/StillImage" />
      </cc:Work>
    </rdf:RDF>
  </metadata>
  <defs
     id="defs6652">
    <linearGradient
       id="linearGradient2482">
      <stop
         style="stop-color:#0f61ff;stop-opacity:0.85490197;"
         offset="0.00000000"
         id="stop2483" />
      <stop
         style="stop-color:#0057ff;stop-opacity:0.30578512;"
         offset="0.26069766"
         id="stop2487" />
      <stop
         style="stop-color:#0094ff;stop-opacity:0.00000000;"
         offset="1.0000000"
         id="stop2486" />
    </linearGradient>
    <linearGradient
       id="linearGradient2475">
      <stop
         style="stop-color:#1e3e62;stop-opacity:0.85490197;"
         offset="0.00000000"
         id="stop2476" />
      <stop
         style="stop-color:#020d27;stop-opacity:0.41568628;"
         offset="0.31421188"
         id="stop2477" />
      <stop
         style="stop-color:#000000;stop-opacity:0.25000000;"
         offset="0.47107276"
         id="stop2478" />
      <stop
         style="stop-color:#ffffff;stop-opacity:0.00000000;"
         offset="1.0000000"
         id="stop2479" />
    </linearGradient>
    <linearGradient
       id="linearGradient929">
      <stop
         style="stop-color:#a50000;stop-opacity:0.00000000;"
         offset="0.00000000"
         id="stop930" />
      <stop
         style="stop-color:#aa0000;stop-opacity:0.00000000;"
         offset="0.67945540"
         id="stop931" />
      <stop
         style="stop-color:#a40000;stop-opacity:0.19008264;"
         offset="0.80444026"
         id="stop934" />
      <stop
         style="stop-color:#9f0000;stop-opacity:0.38842976;"
         offset="0.85118532"
         id="stop932" />
      <stop
         style="stop-color:#922323;stop-opacity:0.00000000;"
         offset="1.0000000"
         id="stop933" />
    </linearGradient>
    <linearGradient
       id="linearGradient1075">
      <stop
         style="stop-color:#ffffff;stop-opacity:0.00000000;"
         offset="0.00000000"
         id="stop1076" />
      <stop
         style="stop-color:#ffffff;stop-opacity:0.00000000;"
         offset="0.35945737"
         id="stop1077" />
      <stop
         style="stop-color:#ffffff;stop-opacity:1.0000000;"
         offset="1.0000000"
         id="stop1079" />
    </linearGradient>
    <linearGradient
       id="linearGradient975">
      <stop
         style="stop-color:#ffffff;stop-opacity:0.61960787;"
         offset="0.00000000"
         id="stop976" />
      <stop
         style="stop-color:#ffffff;stop-opacity:0.00000000;"
         offset="1.0000000"
         id="stop977" />
    </linearGradient>
    <linearGradient
       id="linearGradient1028">
      <stop
         style="stop-color:#ffffff;stop-opacity:1.0000000;"
         offset="0.00000000"
         id="stop1029" />
      <stop
         style="stop-color:#000000;stop-opacity:1.0000000;"
         offset="1.0000000"
         id="stop1031" />
    </linearGradient>
    <linearGradient
       id="linearGradient1024">
      <stop
         style="stop-color:#000000;stop-opacity:0.00000000;"
         offset="0.00000000"
         id="stop1025" />
      <stop
         style="stop-color:#000000;stop-opacity:0.10588235;"
         offset="0.00000000"
         id="stop1026" />
      <stop
         style="stop-color:#000000;stop-opacity:0.21568628;"
         offset="1.0000000"
         id="stop1027" />
    </linearGradient>
    <linearGradient
       id="linearGradient909">
      <stop
         style="stop-color:#000000;stop-opacity:0.00000000;"
         offset="0.00000000"
         id="stop910" />
      <stop
         style="stop-color:#000000;stop-opacity:0.17000000;"
         offset="1.0000000"
         id="stop913" />
    </linearGradient>
    <linearGradient
       id="shade">
      <stop
         style="stop-color:#000000;stop-opacity:0.00000000;"
         offset="0.00000000"
         id="stop842" />
      <stop
         style="stop-color:#000000;stop-opacity:0.12156863;"
         offset="0.68551469"
         id="stop846" />
      <stop
         style="stop-color:#000000;stop-opacity:0.38842976;"
         offset="0.86672705"
         id="stop852" />
      <stop
         style="stop-color:#000000;stop-opacity:0.70247936;"
         offset="1.0000000"
         id="stop845" />
    </linearGradient>
    <linearGradient
       id="linearGradient833">
      <stop
         style="stop-color:#ffffff;stop-opacity:1.0000000;"
         offset="0.00000000"
         id="stop834" />
      <stop
         style="stop-color:#88bdee;stop-opacity:1.0000000;"
         offset="0.32656416"
         id="stop835" />
      <stop
         style="stop-color:#004c92;stop-opacity:1.0000000;"
         offset="0.68945539"
         id="stop837" />
      <stop
         style="stop-color:#85c5ff;stop-opacity:1.0000000;"
         offset="1.0000000"
         id="stop836" />
    </linearGradient>
    <linearGradient
       id="linearGradient826">
      <stop
         style="stop-color:#000000;stop-opacity:0.78431374;"
         offset="0.00000000"
         id="stop827" />
      <stop
         style="stop-color:#000000;stop-opacity:0.35294119;"
         offset="0.36585677"
         id="stop830" />
      <stop
         style="stop-color:#000000;stop-opacity:0.24793388;"
         offset="0.47107276"
         id="stop847" />
      <stop
         style="stop-color:#ffffff;stop-opacity:0.00000000;"
         offset="1.0000000"
         id="stop828" />
    </linearGradient>
    <radialGradient
       gradientUnits="userSpaceOnUse"
       gradientTransform="scale(2.1981903,0.45491968)"
       xlink:href="#linearGradient826"
       id="radialGradient829"
       cx="181.20782"
       cy="351.20953"
       r="98.083126"
       fx="184.13267"
       fy="277.17425" />
    <radialGradient
       gradientUnits="userSpaceOnUse"
       xlink:href="#linearGradient833"
       id="radialGradient832"
       cx="357.0126"
       cy="223.89144"
       r="166.09021"
       fx="357.0126"
       fy="223.89144" />
    <linearGradient
       xlink:href="#linearGradient909"
       id="linearGradient839" />
    <radialGradient
       gradientUnits="userSpaceOnUse"
       gradientTransform="scale(1.0019363,0.99806743)"
       xlink:href="#shade"
       id="radialGradient840"
       cx="388.40023"
       cy="169.48596"
       r="89.819173"
       fx="388.83119"
       fy="222.21677" />
    <radialGradient
       gradientUnits="userSpaceOnUse"
       gradientTransform="scale(1.4902133,0.67104489)"
       xlink:href="#linearGradient2475"
       id="radialGradient987"
       cx="259.00521"
       cy="304.05862"
       r="103.04182"
       fx="262.07792"
       fy="226.28041" />
    <linearGradient
       gradientUnits="userSpaceOnUse"
       gradientTransform="scale(4.5598894,0.21930356)"
       xlink:href="#linearGradient909"
       id="linearGradient907"
       x1="70.988528"
       y1="133.87927"
       x2="70.988528"
       y2="-810.38507" />
    <linearGradient
       gradientUnits="userSpaceOnUse"
       gradientTransform="scale(1.017434,0.9828647)"
       xlink:href="#linearGradient975"
       id="linearGradient908"
       x1="56.123408"
       y1="444.26044"
       x2="60.098259"
       y2="375.4238" />
    <linearGradient
       xlink:href="#linearGradient909"
       id="linearGradient1089"
       x1="0.49295777"
       y1="0.93336648"
       x2="0.49891651"
       y2="-1.9999946" />
    <linearGradient
       gradientUnits="userSpaceOnUse"
       gradientTransform="scale(0.8734779,1.1448487)"
       xlink:href="#linearGradient975"
       id="linearGradient977"
       x1="500.78319"
       y1="98.766192"
       x2="488.01302"
       y2="125.29365" />
    <radialGradient
       gradientTransform="matrix(2,0,0,2,-577.30625,369.36523)"
       gradientUnits="userSpaceOnUse"
       xlink:href="#linearGradient826"
       id="radialGradient978"
       cx="467.1655"
       cy="-47.657896"
       r="307.5"
       fx="300.42254"
       fy="168.13156" />
    <radialGradient
       gradientUnits="userSpaceOnUse"
       xlink:href="#linearGradient2482"
       id="radialGradient1096"
       cx="678.82251"
       cy="91.134377"
       r="83.085045"
       fx="677.6523"
       fy="8.0493418" />
    <radialGradient
       xlink:href="#shade"
       id="radialGradient1106"
       cx="0.49374998"
       cy="0.41874999"
       r="0.56874990"
       fx="0.54225355"
       fy="1.1908127" />
    <linearGradient
       xlink:href="#linearGradient909"
       id="linearGradient1181"
       x1="0.45051429"
       y1="-6.0592088e-006"
       x2="0.44106123"
       y2="2.6728370"
       gradientTransform="scale(1.225053,0.816291)" />
    <linearGradient
       xlink:href="#linearGradient2482"
       id="linearGradient1384" />
    <radialGradient
       gradientTransform="matrix(1.398374,0,0,1.398374,-1808.51,707.13427)"
       gradientUnits="userSpaceOnUse"
       r="307.5"
       fy="168.13156"
       fx="300.42254"
       cy="-47.657896"
       cx="467.1655"
       id="radialGradient4369"
       xlink:href="#linearGradient826"
       inkscape:collect="always" />
    <linearGradient
       gradientUnits="userSpaceOnUse"
       gradientTransform="scale(4.5598894,0.21930356)"
       y2="-810.38507"
       x2="70.988528"
       y1="133.87927"
       x1="70.988528"
       id="linearGradient4371"
       xlink:href="#linearGradient909"
       inkscape:collect="always" />
    <linearGradient
       gradientUnits="userSpaceOnUse"
       gradientTransform="scale(4.6852518,0.2134357)"
       y2="-780.89955"
       x2="69.217859"
       y1="129.19561"
       x1="69.217859"
       id="linearGradient4373"
       xlink:href="#linearGradient909"
       inkscape:collect="always" />
    <linearGradient
       gradientUnits="userSpaceOnUse"
       gradientTransform="scale(4.8189518,0.20751401)"
       y2="-751.38989"
       x2="67.407793"
       y1="125.11568"
       x1="67.407793"
       id="linearGradient4375"
       xlink:href="#linearGradient909"
       inkscape:collect="always" />
    <linearGradient
       gradientUnits="userSpaceOnUse"
       gradientTransform="scale(4.9281462,0.20291606)"
       y2="-728.48341"
       x2="66.00302"
       y1="122.70557"
       x1="66.00302"
       id="linearGradient4377"
       xlink:href="#linearGradient909"
       inkscape:collect="always" />
    <linearGradient
       gradientUnits="userSpaceOnUse"
       gradientTransform="scale(5.0533417,0.19788885)"
       y2="-703.76123"
       x2="64.337901"
       y1="119.41606"
       x1="64.337901"
       id="linearGradient4379"
       xlink:href="#linearGradient909"
       inkscape:collect="always" />
  </defs>
  <sodipodi:namedview
     pagecolor="#ffffff"
     bordercolor="#666666"
     borderopacity="1"
     objecttolerance="10"
     gridtolerance="10"
     guidetolerance="10"
     inkscape:pageopacity="0"
     inkscape:pageshadow="2"
     inkscape:window-width="1533"
     inkscape:window-height="852"
     inkscape:document-units="px"
     id="namedview6650"
     showgrid="false"
     borderlayer="true"
     inkscape:zoom="0.3439611"
     inkscape:cx="782.0251"
     inkscape:cy="-57.443072"
     inkscape:window-x="67"
     inkscape:window-y="20"
     inkscape:window-maximized="1"
     inkscape:current-layer="svg6648"
     inkscape:snap-global="false" />
  <style
     type="text/css"
     id="style26">
	.specularity {opacity:0.5;}
	.low-specularity {opacity:0.25;}
	.full-specularity {opacity:1;}
	.black {fill:#000000;}
	.white {fill:#ffffff;}
	.outline-big {stroke-width:16;stroke:none;opacity:0.1;fill:none;}
	.outline-small {stroke-width:8;stroke:none;opacity:0.2;fill:none;}
	.stroke-highlight {fill:none;stroke:none;opacity:0.2;}
       	.base-shadow 	{fill:black;opacity:75;}
	</style>
  <style
     id="style26-3"
     type="text/css">
	.specularity {opacity:0.5}
	.low-specularity {opacity:0.25}
	.full-specularity {opacity:1}
	.black {fill:#000}
	.white {fill:#fff}
	.outline-big {opacity:0.1;fill:none}
	.outline-small {opacity:0.2;fill:none}
	.stroke-highlight {fill:none;opacity:0.2}
       	.bs 	{fill:#000;opacity:75}
	</style>
  <style
     type="text/css"
     id="style26-9">
	.specularity {opacity:0.5;}
	.low-specularity {opacity:0.25;}
	.full-specularity {opacity:1;}
	.black {fill:#000000;}
	.white {fill:#ffffff;}
	.outline-big {stroke-width:16;stroke:none;opacity:0.1;fill:none;}
	.outline-small {stroke-width:8;stroke:none;opacity:0.2;fill:none;}
	.stroke-highlight {fill:none;stroke:none;opacity:0.2;}
       	.base-shadow 	{fill:black;opacity:75;}
	</style>
  <style
     id="style26-3-2"
     type="text/css">
	.specularity {opacity:0.5}
	.low-specularity {opacity:0.25}
	.full-specularity {opacity:1}
	.black {fill:#000}
	.white {fill:#fff}
	.outline-big {opacity:0.1;fill:none}
	.outline-small {opacity:0.2;fill:none}
	.stroke-highlight {fill:none;opacity:0.2}
       	.bs 	{fill:#000;opacity:75}
	</style>
  <circle
     transform="scale(-1,1)"
     id="path1184"
     style="fill:url(#radialGradient4369);fill-opacity:0.75;fill-rule:evenodd;stroke-width:1.74797"
     cx="-1158.2661"
     cy="672.17493"
     r="430" />
  <circle
     transform="scale(1,-1)"
     id="path1185"
     style="fill:url(#radialGradient978);fill-opacity:0.75;fill-rule:evenodd;stroke-width:2.5"
     cx="352.69376"
     cy="319.36523"
     r="615" />
  <g
     transform="translate(337.01178,51.078769)"
     id="g972">
    <path
       id="path924"
       d="m 141.15417,163.14014 c 0,-29.74627 116.65464,-53.88817 260.38978,-53.88817 143.73517,0 260.3898,24.1419 260.3898,53.88817 0,29.74627 -116.65463,53.88816 -260.3898,53.88816 -143.73514,0 -260.38978,-24.14189 -260.38978,-53.88816 z"
       style="opacity:0.693989;fill:url(#radialGradient829);stroke-width:4.43096;stroke-dasharray:17.7238, 17.7238;stroke-dashoffset:0" />
    <path
       id="path923"
       d="m 202.81271,209.25624 c 0,-46.09657 83.0815,-83.50826 185.44975,-83.50826 102.36826,0 185.44982,37.41169 185.44982,83.50826 0,46.09658 -83.08156,83.50828 -185.44982,83.50828 -102.36825,0 -185.44975,-37.4117 -185.44975,-83.50828 z"
       style="fill:url(#radialGradient987);stroke-width:4.43096;stroke-dasharray:17.7238, 17.7238;stroke-dashoffset:0" />
    <circle
       transform="matrix(1.184354,0,0,0.393617,-407.5445,124.2053)"
       id="path2481"
       style="fill:url(#radialGradient1096);fill-opacity:0.75;fill-rule:evenodd;stroke:none;stroke-width:1pt"
       cx="678.82251"
       cy="91.134377"
       r="83.085045" />
    <g
       transform="translate(8.838835,-95.45942)"
       id="g968">
      <circle
         transform="matrix(-0.618165,0,0,0.618165,610.9251,-0.50095)"
         id="path925"
         style="fill:url(#radialGradient832);fill-opacity:0.75"
         cx="357.0126"
         cy="295.14999"
         r="126.68188" />
      <path
         sodipodi:nodetypes="ccccc"
         id="path1620"
         d="m 383.3364,103.45007 c -47.18271,2.36632 -82.63447,53.36645 -69.57638,98.95801 8.97249,38.297 52.96067,66.1669 93.16232,56.40187 49.98557,-10.15737 77.67582,-68.53311 53.41554,-111.97458 -13.87319,-28.13827 -45.70022,-46.23591 -77.00148,-43.3853 z"
         style="fill:url(#radialGradient840);fill-opacity:0.75;fill-rule:evenodd;stroke-width:3.625;stroke-dasharray:14.5, 14.5;stroke-dashoffset:0" />
      <path
         transform="translate(-1.767771,8.838832)"
         sodipodi:nodetypes="ccs"
         id="path927"
         d="m 418.25565,122.78552 c -0.23037,-13.45909 43.03392,0.7896 27.31523,35.29548 -18.23505,-31.03599 -27.1199,-23.18194 -27.31523,-35.29548 z"
         style="fill:url(#linearGradient977);fill-opacity:0.302083;fill-rule:evenodd;stroke-width:1pt" />
    </g>
  </g>
  <g
     transform="matrix(0.9659972,0,0,0.9659972,-301.35399,-432.15073)"
     id="g1051">
    <text
       id="versionno"
       y="491.92953"
       x="565.284"
       style="font-size:26px;line-height:0%;font-family:'Bitstream Vera Sans';stroke-width:1pt"
       xml:space="preserve"><tspan
         style="fill:#000000;fill-opacity:1"
         id="versiontext"> Version 0.39</tspan></text>
    <text
       id="website"
       y="509.98325"
       x="624.69238"
       style="font-size:16px;line-height:0%;font-family:'Bitstream Vera Sans';stroke-width:1pt"
       xml:space="preserve"><tspan
         style="letter-spacing:0.684848"
         id="inkscapeorg">Inkscape.org</tspan></text>
    <g
       transform="matrix(0.481619,0,0,0.481619,505.8507,313.7123)"
       id="g1343">
      <path
         id="path1072"
         d="m 112.47768,397.54463 c 4.27518,0.85494 5.13059,3.84773 4.27518,4.70267 -0.8547,0.85517 -2.9923,1.71012 -4.70244,0.42746 -1.71058,-1.2824 -1.71058,-4.27519 0.42726,-5.13013 z"
         style="fill-rule:evenodd;stroke-width:1pt" />
      <path
         id="path1074"
         d="m 120.06318,390.2218 c 2.32503,-0.58136 7.69588,0 6.84047,3.41981 -0.8547,3.42072 -8.12244,2.13758 -12.82577,0.42817 -0.4275,-3.42048 4.88943,-3.57415 5.9853,-3.84798 z"
         style="fill-rule:evenodd;stroke-width:1pt" />
      <path
         id="path1077"
         d="m 112.47768,397.54463 c 4.27518,0.85494 5.13059,3.84773 4.27518,4.70267 -0.8547,0.85517 -2.9923,1.71012 -4.70244,0.42746 -1.71058,-1.2824 -1.71058,-4.27519 0.42726,-5.13013 z"
         style="fill-rule:evenodd;stroke-width:1pt" />
      <path
         id="path1079"
         d="m 120.06318,390.2218 c 2.32503,-0.58136 7.69588,0 6.84047,3.41981 -0.8547,3.42072 -8.12244,2.13758 -12.82577,0.42817 -0.4275,-3.42048 4.88943,-3.57415 5.9853,-3.84798 z"
         style="fill-rule:evenodd;stroke-width:1pt" />
      <path
         transform="matrix(0.427996,0,0,0.427996,-73.85429,282.814)"
         id="path1071"
         d="m 385.96513,260.18054 -63.91241,-20.56952 -16.16176,-85.95117 51.42378,-52.1584 26.44652,9.55013 49.2199,48.48528 z"
         style="fill:#ffffff;fill-rule:evenodd;stroke:#000000;stroke-width:0.510309pt" />
      <path
         transform="matrix(0.427996,0,0,0.427996,-73.85429,282.814)"
         id="path1073"
         d="m 325.3614,271.17834 c -0.99983,0.26667 -9.3526,-6.93124 -15.96724,-3.59505 -6.61296,3.33571 -11.05243,10.80524 -4.87438,13.87037 6.17864,3.06513 10.59523,-0.4694 16.01168,-4.27276 5.41705,-3.80277 5.2216,-4.53547 4.82994,-6.00256 z"
         style="fill-rule:evenodd;stroke-width:1pt" />
      <path
         transform="matrix(0.427996,0,0,0.427996,-73.85429,282.814)"
         id="path1075"
         d="m 365.03216,97.258342 c -6.16681,0 -12.32209,2.35509 -17.04755,7.080548 l -83.99384,83.97789 c -4.63158,4.63149 -6.95659,10.65294 -7.04866,16.6967 h -0.0319 c 0,0.0215 0.0308,0.0422 0.0319,0.0638 -0.001,0.10143 -0.0319,0.20156 -0.0319,0.30299 h 0.14352 c 1.60754,6.1162 43.14361,13.91251 47.77778,18.54659 6.99844,6.9985 -26.83666,12.13809 -19.83831,19.13662 6.99844,6.99844 42.29366,13.54143 49.29276,20.53998 6.99846,6.99844 -14.30234,14.45052 -7.30381,21.44897 6.99845,6.99853 30.50688,-1.74941 26.24907,16.50534 9.45093,9.45092 29.16898,4.93787 42.37168,-4.51305 6.99845,-6.99845 -13.42522,-6.38124 -6.42672,-13.3797 6.99845,-6.99853 24.66386,-7.03628 39.54903,-23.77725 -5.99142,-9.31817 -25.60887,-13.28631 -18.61037,-20.28483 6.99845,-6.99844 20.60435,-3.44384 49.96254,-16.77644 14.33147,-6.50882 13.14753,-11.45245 13.09265,-17.44623 -10e-4,-0.12612 0,-0.23969 0,-0.36678 h -0.0319 c -0.092,-6.04376 -2.43312,-12.06521 -7.0646,-16.6967 l -83.9779,-83.97789 c -4.72545,-4.725458 -10.89669,-7.080548 -17.06348,-7.080548 z m -0.71763,10.923818 c 2.74153,0.0714 4.95576,2.16133 9.29721,4.97552 l 39.67661,29.42257 c 0.43433,0.28165 0.84799,0.57546 1.22793,0.87709 0.37995,0.30158 0.727,0.62146 1.05252,0.94089 0.32552,0.31885 0.62142,0.63888 0.89304,0.97277 0.27105,0.33384 0.51699,0.67511 0.73356,1.02063 0.21719,0.34608 0.41142,0.69761 0.5741,1.05251 0.16281,0.35554 0.29043,0.72225 0.39868,1.08441 0.10889,0.36161 0.20077,0.71894 0.25516,1.0844 0.0545,0.36611 0.0797,0.73324 0.0797,1.10036 l -23.50616,-11.35439 -2.34424,17.74922 -12.93317,-6.05994 -19.96588,13.33185 -7.6387,-26.34475 -9.83941,23.04368 -27.47701,2.74292 0.303,-12.23149 c 0,-2.93788 15.83884,-23.5054 25.4836,-28.40194 l 17.65354,-12.67802 c 2.60484,-1.68852 4.43097,-2.37114 6.07588,-2.32829 z m -36.51906,120.03447 c 12.5066,3.24346 26.42357,7.49883 37.58752,7.57492 l 0.47842,5.02337 c -9.55985,-0.98541 -29.78816,-5.60108 -34.55756,-8.03739 z"
         style="fill-rule:evenodd;stroke-width:1pt" />
      <path
         id="path1100"
         d="m 81.26638,325.57011 c -5.354426,2.41116 -9.038295,7.19502 -13.208697,11.14506 -9.343936,9.50117 -18.708158,18.98784 -28.039417,28.49807 -0.582199,1.13348 -1.026741,2.3051 -1.270613,3.55771 5.02745,2.53898 10.516341,3.89896 15.757456,5.88866 1.239973,0.65516 2.843811,0.8919 3.877044,1.78472 1.494733,1.7408 0.406695,4.49673 -1.585288,5.29913 -1.850569,0.99577 -3.652891,2.0742 -5.436705,3.18434 4.609033,2.74899 9.986957,3.68414 14.822931,5.94621 1.704793,0.63507 3.278792,1.65147 4.811385,2.57358 1.401058,1.76231 0.999431,4.33904 -0.46812,5.9117 -0.787984,0.93489 -1.533852,1.89938 -2.153355,2.95585 2.848275,1.56384 6.492031,0.88146 9.214685,2.77475 1.68773,1.03561 2.14515,2.97529 2.581955,4.76868 1.913232,1.51349 4.554228,0.98803 6.793366,0.71912 2.424704,-0.32713 4.571348,-1.54713 6.768757,-2.53811 -1.078212,-1.10969 -3.097471,-1.93745 -2.627005,-3.83499 0.301099,-2.69273 3.2607,-3.73771 5.348803,-4.82717 3.685808,-1.82541 7.453638,-3.56672 10.653078,-6.19732 -0.61494,-1.5894 -2.60569,-2.05956 -3.78485,-3.20281 -1.33962,-0.95541 -2.88654,-2.09201 -3.407885,-3.67033 -0.128339,-2.72494 2.498905,-4.64 4.909255,-5.23613 6.75561,-2.02142 13.76053,-3.505 19.99097,-6.93062 2.39665,-0.988 2.64151,-4.06214 1.93684,-6.24293 -1.34426,-3.52276 -4.14216,-6.2352 -6.69645,-8.92302 -10.79979,-10.64664 -21.595001,-21.30349 -32.408324,-31.93292 -1.918261,-1.15512 -4.154266,-1.62675 -6.379816,-1.47123 z m -14.511739,51.98813 c 5.607158,1.32078 11.252486,2.45186 16.932592,3.4106 1.515927,1.03887 1.635291,3.16474 1.029865,4.7347 -1.89271,1.85718 -4.697444,0.46017 -6.887735,0.0928 -3.637658,-0.85045 -7.387793,-1.51614 -10.780475,-3.10213 -0.8264,-1.29864 -2.133389,-2.71058 -1.859107,-4.32008 0.429699,-0.5558 0.873689,-0.74441 1.56486,-0.81587 z"
         style="fill:url(#linearGradient908);fill-rule:evenodd;stroke-width:1pt" />
      <path
         transform="matrix(0.427996,0,0,0.427996,-73.85429,282.814)"
         id="path1078"
         d="m 325.3614,271.17834 c -0.99983,0.26667 -9.3526,-6.93124 -15.96724,-3.59505 -6.61296,3.33571 -11.05243,10.80524 -4.87438,13.87037 6.17864,3.06513 10.59523,-0.4694 16.01168,-4.27276 5.41705,-3.80277 5.2216,-4.53547 4.82994,-6.00256 z"
         style="fill-rule:evenodd;stroke-width:1pt" />
    </g>
  </g>
  <text
     id="text1653"
     y="191.83899"
     x="291.00342"
     style="font-size:6.98171px;line-height:0%;font-family:'Bitstream Vera Sans';text-anchor:middle;stroke-width:0.58181pt"
     xml:space="preserve"><tspan
       style="font-size:6.98171px;line-height:1.68358;letter-spacing:0.43095;stroke-width:0.58181pt"
       id="tspan1656"
       sodipodi:role="line"
       y="191.83899"
       x="291.00339">Alexander Clausen  John Bintz  Arpad Biro  Daniel Borgmann  Hans Breuer  Bulia Byak  Chema Celorio  Johan Ceuppens </tspan><tspan
       style="font-size:6.98171px;line-height:1.68358;letter-spacing:0.253151;stroke-width:0.58181pt"
       id="tspan1658"
       sodipodi:role="line"
       y="203.59328"
       x="291.00342">Zbigniew Chyla  John Cliff  Kees Cook  Robert Crosbie  Jon Cruz  Danilo Egan  Frank Felfe  Fred  Ted Gould  Bryce Harrington</tspan><tspan
       style="font-size:6.98171px;line-height:1.68358;letter-spacing:0.479133;stroke-width:0.58181pt"
       id="tspan1660"
       sodipodi:role="line"
       y="215.34753"
       x="291.00342">Carl Hetherington  Nathan Hurst  Thomas Ingham  Bob Jamison  Lauris Kaplinski  Lynn Kerby  Petr Kovar  Raph Levien </tspan><tspan
       style="font-size:6.98171px;line-height:1.68358;letter-spacing:0.0732381;stroke-width:0.58181pt"
       id="tspan1662"
       sodipodi:role="line"
       y="227.10182"
       x="291.00342">Vitaly Lipatov  Dmitry G. Mastrukov  Michael Meeks  Federico Mena  MenTaLguY  Peter Moulder  Yukihiro Nakai  Christian Neumair</tspan><tspan
       style="font-size:6.98171px;line-height:1.68358;letter-spacing:0.150662;stroke-width:0.58181pt"
       id="tspan1664"
       sodipodi:role="line"
       y="238.85609"
       x="291.07874">Mitsuru Oka  Jon Phillips  Christian Schaller  Tom von Schwerdtner  Pat Suwalski  Adib Taraben  Daniel Yacob  Masatake Yamato</tspan></text>
  <path
     id="inkscapetext"
     d="M 520.74975,109.80048 H 483.6896 v 2.37056 h 1.11047 c 4.99438,0 5.5496,0.25243 5.5496,2.37138 v 1.4629 24.01516 1.4629 c 0,2.11912 -0.55522,2.37138 -5.5496,2.37138 h -1.11047 v 2.37065 h 37.86143 l 1.23336,-13.4697 h -2.71286 c -0.8021,3.53148 -2.22003,6.65909 -3.70034,8.12198 -1.91158,2.01813 -5.42646,2.97707 -10.60622,2.97707 h -4.06929 c -1.85017,0 -3.39197,-0.3028 -3.94631,-0.75705 -0.43225,-0.30288 -0.49374,-0.60567 -0.49374,-1.66478 v -12.86484 h 1.23345 c 3.76175,0 5.30273,0.3028 6.53618,1.36199 1.60322,1.31146 2.21995,2.92572 2.34301,5.90286 h 2.89825 v -16.54775 h -2.89825 c -0.30836,4.94392 -2.77444,6.91151 -8.63232,6.91151 h -1.48032 v -11.50292 c 0,-2.16941 0.55523,-2.52274 3.88482,-2.52274 h 3.20652 c 5.42662,0 8.07799,0.45424 10.17422,1.86669 2.03538,1.31227 3.51488,4.13708 4.43996,8.67795 h 2.65136 z m -81.82749,20.23051 h 6.96836 c 5.54957,0 8.44779,-0.35325 10.91381,-1.31146 4.37852,-1.71525 6.84455,-4.94466 6.84455,-8.93038 0,-3.83428 -2.15768,-6.76008 -6.22783,-8.42487 -2.40452,-1.0094 -6.2278,-1.5638 -10.48247,-1.5638 h -21.58244 v 2.37056 h 1.11041 c 4.9944,0 5.54959,0.25243 5.54959,2.37138 v 1.4629 24.01516 1.4629 c 0,2.11912 -0.55519,2.37138 -5.54959,2.37138 h -1.11041 v 2.37065 h 20.7189 v -2.37065 h -1.6033 c -4.99438,0 -5.54958,-0.25226 -5.54958,-2.37138 v -1.4629 z m 0,-2.37138 v -12.9153 c 0,-2.32084 0.36986,-2.57327 3.76179,-2.57327 h 3.94629 c 6.41314,0 9.43437,2.47228 9.43437,7.82 0,5.19619 -3.14506,7.66857 -9.68122,7.66857 z M 385.27571,109.0938 h -2.58986 l -14.18274,29.41251 c -1.23342,2.62381 -1.48025,2.97707 -2.40531,3.78465 -0.98659,0.95812 -2.71287,1.5638 -4.37769,1.5638 h -0.24684 v 2.37065 h 16.34039 v -2.37065 h -1.23262 c -3.33038,0 -4.99517,-0.95894 -4.99517,-2.87608 0,-0.60486 0.18535,-1.31153 0.5552,-2.11911 l 2.03465,-4.43907 h 16.34124 l 3.32958,6.76007 c 0.36986,0.75713 0.49288,1.11039 0.49288,1.36192 0,0.8075 -1.54096,1.31227 -3.82246,1.31227 h -2.58987 v 2.37065 h 19.11557 v -2.37065 h -0.86352 c -3.08277,0 -3.76179,-0.40379 -5.17973,-3.22941 z m -3.02205,8.27433 6.96835,14.32765 h -13.81287 z m -42.54738,-7.921 h -2.34299 l -2.46684,2.97634 c -4.3785,-2.62299 -6.78302,-3.38012 -10.91467,-3.38012 -5.98097,0 -10.91386,1.96759 -15.10702,6.05422 -3.9471,3.83436 -5.7964,8.07243 -5.7964,13.26862 0,10.84671 8.69467,18.61626 20.8419,18.61626 9.86658,0 16.15593,-4.74202 17.57384,-13.21809 l -2.89819,-0.40379 c -0.61673,2.67419 -1.35647,4.49042 -2.46605,6.00378 -2.52837,3.48094 -6.47465,5.24672 -11.46983,5.24672 -9.12605,0 -13.44222,-5.19627 -13.44222,-16.04298 0,-5.70097 0.92504,-9.53525 3.02123,-12.56277 1.91162,-2.82489 5.73489,-4.59059 9.68122,-4.59059 4.3162,0 8.13946,1.86669 10.48251,5.09536 1.17188,1.66472 2.09694,3.63239 3.51492,7.51713 h 2.71366 z m -61.72531,0.0504 h -2.28154 l -2.466,3.02678 c -2.89821,-2.27047 -6.84532,-3.48102 -11.22297,-3.48102 -8.0779,0 -13.50452,4.23807 -13.50452,10.5439 0,5.49989 3.33042,8.2238 12.39494,10.14094 l 5.85788,1.21055 c 4.56306,0.95894 4.99442,1.05984 6.28932,1.8666 1.85018,1.16092 2.83673,2.82563 2.83673,4.79331 0,2.01804 -0.92506,3.68284 -2.77521,5.04483 -2.03466,1.46372 -4.06933,2.01804 -7.46122,2.01804 -4.56297,0 -7.83109,-1.16001 -10.72926,-3.78383 -2.58988,-2.37137 -3.88482,-4.74203 -4.80991,-8.62668 h -2.65138 l 0.24689,14.37811 h 2.40449 l 2.77523,-3.43049 c 4.13163,2.77516 7.58421,3.78382 12.94923,3.78382 9.06459,0 14.86098,-4.33897 14.86098,-11.09905 0,-3.12769 -1.29489,-5.80196 -3.70025,-7.7191 -1.66479,-1.31145 -4.06933,-2.16949 -9.00301,-3.17814 l -6.59768,-1.36273 c -5.48803,-1.16002 -8.07792,-3.1277 -8.07792,-6.20485 0,-3.53229 3.51494,-5.9534 8.75617,-5.9534 4.31615,0 7.83109,1.51344 10.29795,4.3887 1.7878,2.06858 2.89818,4.18762 3.69944,6.7609 h 2.65216 z m -83.36846,20.2306 v -13.72287 -1.4629 c 0,-2.11895 0.55519,-2.37138 5.54964,-2.37138 h 1.17186 v -2.37056 H 181.0465 v 2.37056 h 1.10958 c 4.99522,0 5.55044,0.25243 5.55044,2.37138 v 1.4629 24.01516 1.4629 c 0,2.11912 -0.55522,2.37138 -5.55044,2.37138 h -1.10958 v 2.37065 h 20.28751 v -2.37065 h -1.17186 c -4.99445,0 -5.54964,-0.25226 -5.54964,-2.37138 v -1.4629 -6.40756 l 7.1529,-5.90286 10.72934,12.86484 c 0.98659,1.21128 1.23336,1.61507 1.23336,2.11903 0,0.80758 -1.17184,1.16083 -4.19314,1.16083 h -1.91164 v 2.37065 h 21.08878 v -2.37065 h -1.17108 c -3.39191,0 -4.25545,-0.35325 -6.04329,-2.52282 l -14.9225,-17.60752 9.18753,-7.51721 c 2.95979,-2.57246 6.72153,-4.03617 10.42099,-4.03617 v -2.37056 h -18.99175 v 2.37056 h 1.54177 c 2.83589,0 4.00778,0.45424 4.00778,1.51416 0,0.70586 -1.23341,2.16868 -3.02119,3.63239 z m -68.93978,-19.92771 h -12.70241 v 2.37056 h 1.54177 c 3.14428,0 4.56302,0.40378 5.67262,1.6648 v 21.44187 c 0,6.91226 -1.23348,8.37524 -7.15287,8.57705 v 2.37065 h 17.57388 v -2.37065 c -5.85801,-0.20181 -7.09147,-1.66479 -7.09147,-8.57705 v -18.7171 L 151.0163,146.932 h 2.58986 v -26.18391 c 0,-6.91226 1.23334,-8.37516 7.15288,-8.57705 v -2.37056 h -17.57387 v 2.37056 c 5.85793,0.20189 7.09132,1.66479 7.09132,8.57705 v 15.84108 z m -40.081316,6.20484 v -1.4629 c 0,-2.11895 0.55517,-2.37138 5.4881,-2.37138 h 1.233339 v -2.37056 H 71.902368 v 2.37056 h 1.233412 c 4.994369,0 5.549612,0.25243 5.549612,2.37138 v 1.4629 24.01516 1.4629 c 0,2.11912 -0.555243,2.37138 -5.549612,2.37138 h -1.233412 v 2.37065 h 20.410485 v -2.37065 h -1.233339 c -4.93293,0 -5.4881,-0.25226 -5.4881,-2.37138 v -1.4629 z"
     style="font-size:40px;stroke-width:0.907261pt" />
  <g
     style="fill:url(#linearGradient907);fill-opacity:1;stroke:none;stroke-width:0.818645;stroke-opacity:1"
     transform="matrix(0.71093473,0,0,1.1564386,71.78447,147.81512)"
     id="g831">
    <path
       style="fill:url(#linearGradient4371);fill-opacity:1;stroke:none;stroke-opacity:1"
       stroke-width="1"
       stroke="black"
       d="m 456.94,32.18 c 1.95,-3.52 3.78,-6.98 5.62,-10.36 3.53,-5.85 5.09,-12.09 12.08,-16.53 4.01,-1.31 3.18,-4.21 0.79,-6.46 -5.07,0 -10.13,0.01 -15.2,0.02 -5.43,0.19 -11.53,-0.4 -16.45,0.45 -4.02,0.48 -5.14,3.37 -1.51,4.97 1.05,1.01 6.01,1.09 4.78,2.25 -3.46,0.68 -8.14,0.38 -12.25,0.22 -2.62,0.32 -5.35,-1 -1.98,-1.44 4.27,-1.28 3.75,-4.22 1.63,-6.47 -7.71,-0.01 -15.42,-0.03 -23.12,-0.04 -4.78,-0.16 -8.96,1.44 -9.06,3.75 0.5,2.17 5.3,3.11 9.01,3.9 6.81,4.97 13.6,10.17 21.07,15.38 4.77,3.46 10.21,7.03 15.94,10.21 2.88,0.05 5.77,0.11 8.65,0.15 z m -83.31,-1.92 c 4.29,1.76 9.64,1.31 14.5,1.52 -0.56,-4.66 -0.22,-9.21 -1.65,-13.63 -0.43,-1.89 -3.96,-3.36 -7.58,-3.46 -4.78,-0.43 -6.91,1.93 -8.86,3.61 -2.68,2.76 -7.57,5.66 -14.61,5.05 -7.06,-0.24 -10.77,-4.09 -11.22,-7.2 -0.39,-2.89 -0.78,-6.02 2.3,-8.43 5.69,-3.4 18.25,-2.13 22.99,1.74 2.03,2.07 6.7,4.11 11.42,3.35 4.36,-0.22 5.9,-2.81 4.04,-4.68 -3.76,-2.91 -7.42,-6.31 -14.26,-7.57 -4.6,-1.17 -9.57,-1.56 -14.54,-1.79 -5.78,-0.01 -11.48,0.43 -16.83,1.4 -9.34,1.47 -16.17,5.74 -18.25,10.51 -2.98,5.92 2.44,12.67 12.55,16.55 5.69,2.13 12.2,3.89 19.17,4.59 7.33,0.59 14.1,-0.56 20.83,-1.56 z m -81.08,1.19 c 0.67,-3 1.29,-5.95 1.92,-8.85 0.91,-2.41 0.33,-5.55 -4.61,-6.51 5.14,-2.01 8.44,-5.18 7.68,-8.31 -0.43,-3.51 -5.29,-6.53 -11.73,-7.77 -9.56,-2.33 -20.93,-1.1 -31.36,-0.24 -3.29,-1.42 -8.22,-0.91 -12.47,-0.93 -0.89,3.75 -2.21,7.61 -2.93,11.53 -0.4,2.09 3.58,3.82 7.79,3.49 -3.96,1.39 -7.29,3.58 -7.92,5.98 -0.8,2.02 -0.29,3.93 1.06,5.77 2.58,3.05 8.6,4.9 14.71,5.95 6.79,0.23 13.94,0.23 20.72,-0.84 3.28,-0.98 6.39,0.14 9.22,0.87 2.67,0.29 5.23,0.2 7.92,-0.14 z m -330.8,0.14 c 7.9,-0.01 15.81,-0.04 23.71,-0.05 5.42,-0.28 10.2,0.59 16.16,-0.66 4.61,-1.09 8.26,-3.57 8.79,-5.59 C 8.85,24.24 6.15,23.56 3.2,23.22 8.03,17.92 12.7,12.79 17.23,7.81 17.92,6.19 21.68,5.88 24.37,5.3 30.26,4 33.4,1.08 34.19,-1.17 24.16,-1.17 14.14,-1.16 4.11,-1.16 -0.42,-1.3 -6.83,0.58 -8.88,2.91 c -0.99,2.05 2.94,2.61 6.22,3.06 -4.84,4.97 -9.83,10.09 -14.98,15.37 -0.96,1.75 -4.99,1.97 -7.76,2.5 -6.45,1.57 -9.35,4.82 -12.58,7.48 0,0 -0.27,0.27 -0.27,0.27 z m 63.91,0 c 9.2,0 18.4,0 27.6,0 11.7,-4.38 23.05,-9.05 34.13,-13.35 1.69,-0.42 7.31,-3.49 5.48,-1.45 -1.56,2.53 -3.73,5.88 -10.1,7.02 -6.12,1.55 -9.34,4.98 -9.89,7.78 9.48,0 18.96,0 28.43,0 4.79,0.24 11.06,-1.79 12.46,-4.46 1.67,-2.75 -3.36,-3.76 -6.66,-4.78 4.03,-7.16 8.15,-14.05 11.7,-20.61 0.53,-2.36 -3.89,-3.61 -8.68,-3.39 -13.94,5.32 -28.29,10.88 -43.19,16.6 -0.37,-0.52 2.17,-2.9 2.89,-4.11 1.14,-2.13 4.23,-4.54 9.19,-5.42 5.71,-1.35 8.5,-4.3 8.84,-6.59 -8.54,0.03 -17.06,0.03 -25.61,0.08 -4.23,-0.16 -10.16,1.32 -12.06,3.58 -1.86,2.35 2.4,3.21 5.25,4.18 -3.4,4.64 -6.89,9.42 -10.49,14.34 -0.49,1.75 -4.42,2.06 -7.17,2.69 -6.44,1.32 -10.51,4.79 -11.95,7.64 0,0 -0.17,0.25 -0.17,0.25 z m 573.74,0 c 15.62,-0.02 31.23,-0.04 46.84,-0.05 6.43,-0.32 14.82,0.81 19.44,-0.86 -0.79,-3.04 -4.19,-6.53 -7.08,-9.71 -1.31,-2.26 -6.53,-5.09 -11.65,-5.3 -5.24,-0.5 -6.23,1.79 -6.19,3.71 -3.87,-4.02 -6.66,-8.2 -13.62,-11.75 3.25,0.92 6.04,2.29 8.6,3.65 6.17,2.49 12.71,2.38 18.74,2.81 -6.23,-5.25 -12.32,-10.33 -18.18,-15.26 -18.39,0 -36.78,0.01 -55.16,0.01 -4.71,-0.11 -7.38,1.89 -5.11,4.12 2.81,1.97 7.51,2.51 11.55,3 4.27,4.96 8.68,10.08 13.22,15.36 2.26,1.74 -1.28,1.94 -2.87,2.59 -3.72,1.45 -1.76,4.72 1.23,7.43 0,0 0.24,0.25 0.24,0.25 z m -64.43,-0.22 c 9.93,-0.41 21.17,0.33 29.27,-1.81 6.24,-1 9.41,-4.13 7.76,-7.75 -1.76,-2.91 -6.06,-5.95 -11.65,-7.88 -9.16,-3.14 -19.05,-3.25 -28.06,-3.65 -3.27,0.28 -5.4,-1.11 -5.51,-2.58 -1.53,-1.56 1.58,-1.96 3.66,-2.33 3.92,-1.31 2.57,-4.25 -0.26,-6.54 -10.28,0 -20.56,0.01 -30.84,0.01 -4.68,-0.11 -7.87,1.89 -6.18,4.12 2.31,1.97 6.86,2.51 10.78,3 2.99,5.02 6.08,10.21 9.27,15.56 1.72,2.2 -4.06,1.64 -5.15,3.02 -2.9,1.68 -0.84,5.25 3.98,6.84 7.63,-0.01 15.33,0.06 22.93,-0.01 z M 258.08,22.23 c 3.74,-0.98 7.61,-1.68 11.6,-2.18 1.93,-0.01 7.95,-1.56 7.27,-0.59 -2.92,2.02 -7.43,3.75 -12.4,4 -2.46,0.06 -5.28,-0.03 -6.47,-1.23 z m 278.82,0.75 c -0.71,-1.76 -3.52,-3.78 -2.48,-5.28 4.03,0.05 9.79,0.07 12.81,2.41 1.66,2.49 -3.87,3.12 -7.83,3.21 -0.84,-0.09 -1.75,0.09 -2.5,-0.34 z m 85.61,-2.87 c 0.09,-1.08 5.18,1.58 7.15,2.24 4.75,1.1 -0.45,0.81 -2.17,0.95 -2.75,0.28 -4.22,-2.22 -4.98,-3.19 z M 256.32,9.76 c 3.6,-2.55 9.94,-4.3 15.97,-3.85 2.83,-0.18 7.55,0.79 5.35,2.46 -7.89,1.23 -16.07,2.06 -23.91,3.61 -3.19,0.87 2.03,-1.68 2.59,-2.22 z m 357.43,0.35 c -1.67,0.18 -2.43,-2.65 -3.72,-3.65 1.28,-0.54 5.67,0.04 8.09,-0.09 -3.31,0.34 -3.12,2.14 -3.78,3.49 -0.1,0.04 -0.49,0.21 -0.59,0.25 z"
       fill="none"
       id="path963" />
    <path
       style="fill:url(#linearGradient4373);fill-opacity:1;stroke:none;stroke-opacity:1"
       stroke-width="1"
       stroke="black"
       d="m 454.98,30.22 c 2.72,-4.8 5.3,-9.48 7.86,-14.03 2.81,-4.2 2.95,-9.17 9.3,-12.07 4.38,-0.53 4.06,-3.24 1.88,-5.13 -5.07,0 -10.15,0 -15.22,-0.01 -4.81,0.14 -10.14,-0.28 -14.65,0.22 -3.89,0.56 -3.55,3.74 0.94,4.61 2.78,0.09 6.04,0.61 4.1,2.05 0.07,1.88 -4.27,1.08 -7.04,1.24 -4.02,-0.2 -8.41,0.51 -12.21,-0.58 -2.92,-0.75 -2.83,-2.56 0.51,-2.42 4.47,-0.52 4.51,-3.22 2.56,-5.11 -7.15,-0.01 -14.3,-0.03 -21.45,-0.04 -3.92,-0.28 -8.3,0.93 -7.54,3 0.15,1.98 5.24,2.43 8.37,3.02 5.72,4.29 11.6,8.69 17.64,13.22 5.7,3.82 11.48,8.06 17.61,11.88 2.44,0.05 4.9,0.11 7.34,0.15 z m -81.17,-1.97 c 3.23,1.88 8,1.59 12.11,1.56 -0.35,-4.24 -0.73,-8.38 -1.08,-12.42 -0.55,-2.31 -6.53,-3.38 -9.91,-2.22 -2.26,1.1 -2.84,3.05 -4.85,4.39 -2.53,3.24 -9.8,4.98 -16.75,4.01 -7.46,-0.85 -11.02,-4.88 -11.33,-8.3 -0.84,-2.48 -0.18,-5 1.04,-7.29 1.04,-1.94 4.22,-3.27 8.09,-3.77 4.47,-0.43 9.65,-0.27 13.72,1.06 4.36,0.89 6.03,3.09 8.65,4.81 2.7,2.01 10.44,1.71 10.45,-0.8 -0.29,-1.89 -2.67,-3.8 -5.33,-5.26 -3.67,-2.73 -9.99,-4.06 -16.04,-4.82 -6.67,-0.59 -13.72,-0.63 -19.98,0.53 -12.25,1.36 -20.9,7.45 -20.53,13.81 -0.09,3.64 3.03,7.2 7.99,9.98 4.05,2.22 9.04,4 14.56,5.17 3.8,0.86 7.64,1.59 11.77,1.32 6.26,0.39 11.81,-0.8 17.42,-1.76 z m -116.21,1.7 c 7.38,0.03 15.01,-0.22 21.99,-1.85 3.23,1.19 7.03,2.43 11.28,1.56 0.73,-3.31 1.44,-6.56 2.1,-9.74 1.13,-2.29 -2.63,-4.62 -7.3,-4.19 2.77,-0.68 5.13,-1.84 7.27,-2.98 2.13,-1.55 3.29,-3.38 3.16,-5.2 -0.32,-2.25 -2.03,-4.58 -5.55,-6.03 -6.21,-2.58 -15.18,-3.09 -23.32,-2.61 -4.44,0.02 -8.9,1.4 -13.21,1.06 -2.34,-1.36 -6.58,-1.35 -10.17,-0.99 -1.28,3.31 -2.23,6.7 -2.72,10.17 -1.3,1.98 2.92,3.57 6.65,3.11 3.53,-0.08 4.26,-2.04 6.2,-3.19 3.57,-3.35 11.26,-5.36 18.51,-5.12 3.14,0.34 8.11,0.56 8.42,2.52 0.53,1.63 -2.79,2.38 -5.61,2.52 -8.79,1.36 -18.38,1.87 -26.55,4.43 -5.54,1.59 -8.8,4.92 -8.35,7.97 0.3,3.98 6.37,6.87 13.37,8.09 1.28,0.15 2.55,0.31 3.83,0.47 z m -92.09,-0.17 c 4.31,0.37 9.27,-1.89 9.21,-4.15 -0.41,-1.98 -5.43,-2.11 -8.75,-2.4 0.93,-2.26 1.84,-4.5 2.74,-6.7 2.7,1.39 5.42,2.8 8.17,4.22 1.1,1.03 5.25,1.73 4.45,2.98 -5.09,0.69 -7.14,3.72 -6.75,5.91 5.12,0 10.24,0 15.37,0 6.88,-0.24 14.66,1.07 21.03,-1.64 3.14,-1.93 0.53,-4.42 -3.41,-4.73 -8.2,-1.15 -13.84,-4.15 -19.61,-6.8 4.03,-1.93 8.01,-3.84 11.94,-5.72 5.69,-2.49 10.75,-5.89 18.18,-6.65 4.74,-0.6 6.54,-3.22 5.77,-5.11 -8.93,0 -17.85,0 -26.78,0 -3.41,-0.17 -8.73,0.05 -10.22,2.1 -2.05,1.75 1.09,3.14 4.44,3.17 -2.93,1.42 -5.89,2.85 -8.87,4.29 -2.02,0.7 -4.14,2.87 -6.58,2.01 -2.92,-0.96 -2.85,-2.92 -2.26,-4.68 -0.22,-1.44 3.28,-1.54 5.41,-1.76 4.86,-0.58 6.93,-3.24 6.47,-5.13 -9.57,0 -19.15,0 -28.72,0 -3.58,-0.35 -7.97,1.33 -8.43,3.15 0.55,1.8 4.75,2.06 8.08,2.37 -2.65,5.53 -5.4,11.24 -8.25,17.16 -0.36,1.91 -4.65,1.6 -7.17,2.22 -4.5,0.71 -7.18,3.83 -4.58,5.3 5.65,0.51 12.02,0.46 18.14,0.43 3.66,0.05 7.32,0.11 10.98,0.16 z m 497.46,-0.94 c -2.2,-3.4 -4.58,-6.95 -8.65,-10.32 -1.52,-2.06 -7.6,-3.48 -10.37,-2.69 -3.84,1.08 0.09,4.61 -2.56,6.18 -2.23,-2.33 -4.43,-4.63 -6.59,-6.9 -2.77,-2.49 -3.92,-5.2 -8.36,-7.41 -3.52,-2.03 -9.25,-1.83 -10.11,-0.26 0.43,1.66 0.03,3.88 -4.68,3.43 -2.2,-2.16 -3.88,-4.27 -5.02,-6.34 3.91,-0.06 7.84,-0.08 11.96,0.11 6.09,-0.06 12.98,2.53 17.31,5.24 4.53,2.35 9.99,2.08 14.62,2.3 -5.36,-4.52 -10.62,-8.91 -15.7,-13.19 -17.71,0 -35.41,0 -53.12,0 -4.08,-0.35 -6.67,1.2 -4.57,3.1 2.73,1.96 7.47,2.14 11.2,2.4 4.63,5.39 9.43,10.97 14.39,16.73 2.33,1.59 -0.02,2.54 -2.93,2.33 -4.41,0.7 -2.83,3.78 0,6.09 18.99,-0.02 37.98,-0.04 56.96,-0.06 2.53,0.13 5.42,0.27 6.22,-0.74 z m -697.11,0.8 C -22.83,29.63 -11.51,29.61 -0.2,29.6 4.49,29.4 9.34,26.61 9.06,24.65 7.1,23.88 4.12,23.49 1.28,23.21 6.64,17.37 11.81,11.73 16.82,6.27 17.36,4.8 20.94,4.15 23.43,4.14 c 5.14,-0.54 8.66,-3.25 9.11,-5.15 -9.5,0 -19,0 -28.5,0 -3.47,-0.35 -9.05,1.23 -10.26,3.17 -0.76,1.94 3.8,2.05 7,2.33 -5.36,5.53 -10.92,11.26 -16.67,17.18 -1.09,1.74 -4.9,1.67 -7.45,1.92 -5.52,0.8 -8.03,3.66 -10.53,5.78 0,0 -0.27,0.27 -0.27,0.27 z m 63.4,0 c 8.44,0 16.88,0 25.33,0 14.91,-5.92 29.3,-11.65 43.23,-17.18 -1.23,1.78 -2.47,3.57 -3.72,5.39 -1.06,2.18 -3.71,5.04 -9.1,5.7 -5.37,0.7 -8.79,3.81 -8.94,6.09 9.19,0 18.38,0 27.57,0 3.93,0.32 8.86,-1.75 9.13,-3.85 1.03,-2.61 -5.77,-2.03 -7.45,-3.64 4.19,-7.12 8.2,-13.94 12.05,-20.48 1.45,-2.12 -2.18,-3.51 -6.47,-3.15 -15.32,5.89 -31.21,12.02 -47.73,18.39 1.98,-2.52 3.94,-4.99 5.86,-7.43 1.13,-2.05 3.95,-4.68 8.97,-5.26 5.05,-0.63 8.18,-3.3 8.24,-5.23 -8.32,0.03 -16.65,0.06 -24.98,0.09 -3.58,-0.3 -8.96,1.52 -9.1,3.37 -0.6,1.98 4.81,1.66 6.31,2.93 -3.76,5.13 -7.64,10.43 -11.65,15.9 -0.63,1.81 -4.69,1.95 -7.37,2.26 -5.34,0.62 -9.12,3.58 -10.02,5.85 0,0 -0.16,0.25 -0.16,0.25 z m 482.27,-0.08 c 7.8,-0.04 15.65,-0.01 23.41,-0.11 10.7,-0.38 23.33,0.65 30.92,-2.46 4.78,-1.65 5.65,-5.25 1.74,-8.61 -3.05,-2.34 -7.36,-4.93 -12.75,-5.9 -9.81,-2.19 -19.17,-1.94 -28.4,-2.24 -0.88,-1.47 -1.75,-2.93 -2.61,-4.38 -1.59,-1.58 2.22,-1.49 4.13,-1.81 4.18,-0.57 3.3,-3.2 0.82,-5.06 -9.64,0 -19.29,0 -28.93,0 -3.98,-0.35 -6.98,1.2 -5.37,3.1 2.22,1.96 6.92,2.14 10.57,2.4 3.15,5.28 6.4,10.74 9.76,16.38 1.6,1.49 0.6,2.83 -2.59,2.67 -5.14,0.12 -5.52,3.95 -0.93,5.9 0,0 0.23,0.12 0.23,0.12 z M 255.71,20.93 c 7.84,-2.54 17.11,-2.85 25.52,-4.24 3.83,-1.06 -1.49,0.99 -1.64,1.91 -3.17,3.29 -10.25,5.3 -17.26,5.25 -3.11,-0.18 -7.03,-1.01 -6.62,-2.92 z m 279.42,2.34 c -1.95,-2.47 -3.47,-4.9 -4.59,-7.3 2.88,-0.14 5.86,-0.12 8.98,0.15 4.3,-0.03 9.2,1.84 10.34,4.07 0.84,2.84 -5.59,3.26 -10.29,3.32 -1.48,-0.07 -2.96,-0.16 -4.44,-0.24 z m 88.27,-0.06 c -1.94,-2.06 -3.86,-4.1 -5.75,-6.11 2.57,0.09 5.65,0.82 7.9,1.94 2.59,1.41 5.88,2.8 9.33,2.97 1.88,0.59 7.89,-0.48 5.51,0.43 -3.59,0.76 -8.13,1.06 -12.76,1.05 -1.4,-0.08 -2.82,-0.18 -4.23,-0.28 z m -180.13,-7.3 c -0.63,2.01 -3.3,-1.67 -4.91,-2.4 -1.85,-1.38 4.92,-0.33 6.8,-0.66 -0.62,1.01 -1.25,2.03 -1.89,3.06 z"
       fill="none"
       id="path964" />
    <path
       style="fill:url(#linearGradient4375);fill-opacity:1;stroke:none;stroke-opacity:1"
       stroke-width="1"
       stroke="black"
       d="m 453.09,28.44 c 3.78,-6.64 7.35,-13.04 10.82,-19.19 1.82,-2.29 1.16,-5.62 6.54,-6.49 3.87,0.16 3.97,-2.07 2.2,-3.47 -8.75,0 -17.51,-0.01 -26.26,-0.01 -3.61,-0.41 -4.68,1.87 -2.02,3.04 2.39,0.52 5.38,0.16 7.95,0.72 -0.83,1.44 -1.67,2.9 -2.52,4.37 -5.85,0 -11.7,0 -17.55,0 -3.16,0.38 -5.14,-1.19 -6.41,-2.43 -2.05,-1.24 0.22,-2.51 2.96,-2.24 3.92,0.2 4.44,-2.03 2.81,-3.45 -7.26,-0.01 -14.51,-0.03 -21.76,-0.05 -3.58,-0.35 -5.39,1.56 -3.85,3.03 2.08,0.75 5.43,0.49 7.6,1.41 4.68,3.11 8.78,6.57 13.39,9.92 6.53,4.74 12.65,10.02 20.2,14.69 1.97,0.05 3.94,0.12 5.9,0.15 z m -91.74,-0.19 c 4.9,0.27 8.2,-1.79 12.85,-1.89 2.08,1.66 6.26,2.16 9.57,1.73 -0.57,-3.93 -0.02,-7.77 -0.88,-11.52 -0.07,-1.87 -5.48,-2.13 -7.5,-1.06 -2.37,2.34 -3.15,5.35 -7.88,6.94 -3.83,1.99 -10.21,2.23 -15.46,1.41 -5,-0.74 -8.83,-2.81 -10.69,-5.2 -2.05,-3.73 -2.91,-7.71 -0.69,-11.22 0.95,-2.67 5.6,-4.64 10.99,-4.97 5.52,-0.4 11.9,0.03 16.56,1.87 3.46,1.27 4.97,3.17 6.89,4.99 2.11,0.86 5.69,0.79 7.21,-0.21 0.18,-1.82 -2.68,-3.44 -4.35,-5.01 -3.7,-2.62 -9.7,-4.12 -15.72,-4.8 -8.61,-0.77 -17.92,-0.39 -25.31,1.73 -5.31,1.3 -8.77,3.75 -11.14,6.41 -3.3,3.7 -2.53,8.41 1.64,12.13 4.98,4.37 13.95,7.39 23.64,8.59 3.45,0.13 6.86,0.29 10.27,0.08 z m -95.81,-0.02 c 5.11,-0.12 9.98,-0.87 14.67,-2.01 2.22,1.32 5.28,2.48 8.97,1.83 0.52,-2.41 0.99,-4.79 1.48,-7.13 -0.09,-1.61 2.3,-4.2 -1.74,-4.84 -3.26,-0.4 -5.84,-0.09 -6.63,1.78 -3.34,4.33 -13.32,7.33 -22.12,6.2 -4.25,-0.1 -8.19,-2.06 -6.24,-4.33 4.75,-2.28 11.27,-2.54 17.07,-3.31 7.13,-0.87 15.54,-1.42 20.3,-4.53 3.04,-1.73 3.75,-3.99 3.12,-6.09 -0.76,-1.21 -1.49,-2.6 -3.36,-3.49 -1.86,-1.38 -4.81,-2.01 -7.9,-2.55 -6.4,-1.13 -13.72,-1.13 -20.55,-0.22 -3.06,0 -5.38,1.22 -8.32,1.23 -1.49,-1.52 -5.33,-2.11 -8.85,-1.7 -0.81,3.09 -1.67,6.25 -2.53,9.46 -1.64,2.21 5.79,3.44 7.65,1.21 2.16,-2.48 5.59,-4.78 10.4,-6.16 6.39,-1.56 14.92,-2.07 20.42,0.11 3.32,1.16 2.74,3.83 -0.82,4.97 -10.06,1.86 -21.18,1.91 -30.86,4.71 -4.69,1.31 -7.57,4.12 -7.39,6.68 -0.56,3.78 5.34,6.56 11.81,7.69 3.57,0.72 7.52,0.68 11.42,0.49 z m -98.17,-0.22 c 3.45,0.44 6.26,-1.69 5.74,-3.23 -1.78,-1.46 -6.38,-0.6 -9.16,-1.36 1.4,-3.28 2.77,-6.51 4.11,-9.67 4.8,2.46 9.66,4.96 14.6,7.5 1.83,0.59 5.57,2.78 0.52,2.59 -4.13,-0.32 -6.62,2.32 -6.08,4.03 6.05,0 12.1,0 18.15,0 4.34,-0.27 8.95,0.69 13.14,-0.49 3.57,-0.78 3.34,-3.47 -0.15,-3.59 -10.16,-0.73 -16.22,-4.72 -22.73,-7.83 5.47,-2.62 10.87,-5.21 16.17,-7.76 4.81,-2.02 9.01,-5.32 15.54,-5.43 3.79,0.13 5.71,-2.05 5.03,-3.48 -9.65,0 -19.3,0 -28.96,0 -2.92,-0.3 -5.67,1.3 -5.02,2.59 0.98,1.43 4.98,0.43 6.98,1.14 -5.19,2.52 -10.46,5.09 -15.81,7.69 -2.55,2.13 -4.13,-0.03 -6.03,-0.73 -3.58,-1.07 -1.95,-3.58 -1.18,-5.5 -0.1,-1.67 3.72,-1.68 6.11,-1.72 3.79,0.19 5.99,-2.05 5.48,-3.47 -9.22,0 -18.44,0 -27.66,0 -2.55,-0.57 -5.67,1.03 -5.6,2.28 1.08,1.59 5.71,0.97 8.48,1.55 -2.91,6.11 -5.93,12.44 -9.07,19.03 -0.67,1.97 -5.07,1.4 -7.66,1.78 -3.6,0.04 -6.64,3.15 -3.56,3.88 5.29,0.31 11.18,-0.04 16.68,0.04 3.98,0.05 7.96,0.11 11.94,0.16 z M 660.31,27.4 c -2.06,-3.02 -5.15,-6.12 -7.71,-9.08 -0.6,-1.86 -6.19,-3.07 -8.36,-2.25 -1.6,0.83 0.08,2.73 -0.04,4.03 1.29,2.94 -4.91,3.46 -9.96,3.57 -4.09,-0.07 -7.91,0.84 -12.55,-0.29 -3.16,-2.73 -5.68,-5.41 -7.5,-8.06 4,-0.03 9.34,0.72 12.7,2.84 2.24,2.29 7.95,2.67 11.04,2.25 -2.23,-2.34 -4.43,-4.65 -6.61,-6.93 -2.43,-2.08 -3.1,-4.4 -6.79,-6.25 -2.26,-1.26 -5.44,-0.94 -6.75,-0.32 -0.76,1.16 1.93,3.15 -0.75,3.85 -1.52,0.5 -4.98,1.24 -7.15,0.21 -1.78,-2.69 -6.2,-5.51 -6.16,-7.97 5.16,-0.24 10.55,-0.22 16.23,0.12 6.26,0.31 12.63,2.96 16.58,5.67 2.73,2.02 7.08,1.6 10.27,1.72 -4.52,-3.83 -9,-7.57 -13.33,-11.22 -17.47,0 -34.93,0 -52.39,0 -3.67,-0.5 -4.31,1.29 -2.03,2.63 3.3,1.26 6.6,0.51 10.07,1.2 5.29,6.12 10.79,12.47 16.5,19.07 1.99,1.9 -2.91,1.38 -5.01,1.67 -3.83,0.04 -2.12,2.5 -0.32,4.01 18.25,-0.05 36.65,0.08 54.79,-0.07 1.82,0.05 4.81,0.46 5.23,-0.4 z m -553.1,0.49 c 3.82,-0.49 5.51,-3.31 2.83,-4.09 -2.56,-0.35 -6.54,-0.21 -6.45,-1.98 3.8,-7.12 7.87,-13.95 12.22,-20.51 1.89,-1.66 -0.8,-3 -4.37,-2.5 -16.56,6.27 -33.73,13.11 -51.67,20.05 3.06,-3.9 6.04,-7.71 8.96,-11.43 0.99,-1.87 4.16,-4.34 8.8,-4.52 3.76,0.12 7.15,-2.1 6.98,-3.62 -8.51,0.05 -16.94,-0.1 -25.5,0.07 -3.78,0.15 -5.97,2.77 -3.45,3.43 2.45,0.08 5.73,0.19 5.71,1.56 -3.26,5.56 -8.06,11.46 -12.82,17.49 -1.35,1.97 -5.65,1.82 -8.45,1.98 -4.01,-0.03 -6.76,2.44 -7.32,4.05 7.46,0 14.92,0 22.38,0 16.24,-6.42 31.87,-12.62 46.95,-18.59 -2.1,3.07 -4.24,6.21 -6.41,9.4 -0.84,2.06 -4.11,4.74 -9.05,4.98 -4,-0.12 -7.62,2.43 -7.46,4.21 8.9,0 17.81,0 26.72,0 0.47,0 0.93,0.01 1.4,0.02 z M -30.23,27.87 c 10.42,0 20.84,0 31.26,0 C 4.61,28.2 8.29,25.67 7.55,24.3 5.43,23.69 1.39,24.07 -0.83,23.4 5.23,16.85 11.05,10.55 16.65,4.48 c 0.77,-1.62 4.49,-1.7 6.87,-1.72 3.69,0.18 7.07,-2.03 7.24,-3.47 -9.29,0 -18.59,0 -27.88,0 -2.57,-0.49 -6.54,1.16 -6.75,2.48 0.25,1.53 5.83,0.6 7.95,1.35 -5.88,6.11 -12,12.44 -18.36,19.03 -1.7,1.94 -5.67,1.55 -8.32,1.67 -3.9,0.15 -5.95,2.28 -7.37,3.78 0,0 -0.26,0.27 -0.26,0.27 z m 545.16,0 c 12.12,-0.1 24.53,0.18 36.33,-0.32 7.49,-0.25 15.71,-1.38 16.45,-5.21 1.12,-3.75 -6.61,-8.62 -15.04,-10.13 -9.74,-1.95 -18.84,-1.54 -27.91,-1.68 -1.27,-2.14 -2.53,-4.24 -3.77,-6.31 -1.62,-1.66 2.37,-1.44 4.62,-1.48 4.08,0.24 3.98,-2 1.87,-3.45 -9.44,0 -18.87,0 -28.31,0 -3.54,-0.5 -4.65,1.29 -2.72,2.63 2.98,1.26 6.48,0.51 9.77,1.2 3.6,5.96 7.35,12.14 11.23,18.56 1.99,1.87 -1.52,2.22 -4.38,2.12 -4.06,-0.16 -4.06,2.17 -2.25,3.82 0.68,0.56 2.9,0.09 4.11,0.25 z m 18.24,-4.39 c -1.04,-1.59 -2.08,-3.17 -3.1,-4.73 -0.45,-1.41 -3.04,-3.2 -2.12,-4.33 3.75,-0.7 9.05,0.01 13.59,0.22 6.54,0.4 11.82,4.47 10.37,7.03 -2.38,2.57 -9.86,2.06 -15.59,2.27 -1.07,-0.03 -2.07,-0.18 -3.15,-0.46 z m -89.72,-4.97 c -3.25,-2.46 -6.45,-4.88 -9.61,-7.27 4.63,0 9.26,0 13.89,0 -1.41,2.39 -2.84,4.81 -4.28,7.27 z"
       fill="none"
       id="path965" />
    <path
       style="fill:url(#linearGradient4377);fill-opacity:1;stroke:none;stroke-opacity:1"
       stroke-width="1"
       stroke="black"
       d="m 355.42,27.12 c 6.88,0.62 12.82,-1.09 18.56,-2.47 2.04,1.34 4.84,2.77 8.27,2.3 -0.14,-2.36 -0.33,-4.68 -0.48,-6.97 -0.57,-1.53 0.86,-3.68 -2.05,-4.7 -4.47,-0.49 -4.28,2.33 -5.62,3.72 -3.55,5.62 -19.21,7.72 -28.66,3.64 -5.83,-2.65 -7.11,-6.77 -7.52,-10.32 0.23,-2.11 0.3,-4.3 1.68,-6.25 2.32,-3.85 11.52,-5.36 19.21,-4.71 6.59,0.31 12.87,2.44 15.84,5.46 0.54,1.4 3.58,2.67 6.28,1.84 -0.63,-2.82 -4.46,-5.3 -8.95,-7.04 -7.99,-2.59 -18.2,-2.94 -26.9,-1.85 -5.88,1.05 -12.38,2.37 -15.52,5.24 -2.53,1.87 -4.13,4.11 -4.32,6.43 -0.29,2.06 0.58,4.04 2.19,5.99 2.09,2.41 5.7,4.46 9.77,6.19 5.16,1.81 11.27,3.36 17.6,3.49 0.04,0 0.45,0.01 0.62,0.01 z m 96.33,0.11 c 3.85,-6.72 7.54,-13.19 11.05,-19.43 1.47,-2.16 1.38,-5.26 6.26,-6.04 2.6,0.09 4.21,-0.92 2.6,-2.15 -7.64,0.03 -15.34,-0.04 -22.94,0.04 -1.99,-0.09 -6.24,0.3 -3.45,1.58 2.32,0.91 6.04,-0.01 8.6,1.12 -0.92,1.78 -1.85,3.58 -2.79,5.4 -6.53,0 -13.06,0 -19.59,0 -3.65,0.47 -5.53,-1.57 -6.95,-2.9 -2.51,-1.49 -0.48,-3.3 3.08,-3.15 2.65,0.18 4.42,-0.85 2.95,-2.09 -6.37,0 -12.74,-0.01 -19.11,-0.01 -2.53,-0.36 -5.78,0.44 -4.03,1.85 2.43,0.67 6.24,0.56 8.27,1.96 6.84,4.89 13.38,10.12 20.46,15.4 4.09,2.7 6.79,6.18 12.22,8.4 1.12,0.01 2.24,0.02 3.37,0.02 z M 280.42,24.57 c 1.66,1.33 3.99,2.79 7.56,2.34 0.39,-1.88 0.73,-3.73 1.09,-5.56 -0.25,-1.67 2.38,-4.07 -1.15,-5.07 -3.01,-0.55 -3.79,1.21 -5.03,2.23 -4.07,4.75 -15.88,7.46 -25.05,5.7 -5.02,-0.41 -8.01,-3.73 -3.91,-5.84 4.12,-1.53 9.19,-2.24 14.03,-2.75 7.24,-0.79 15.3,-1.16 21,-3.75 3.38,-1.48 4.6,-3.66 4.36,-5.74 -0.4,-2.36 -3.33,-4.64 -7.67,-5.64 -9.65,-2.13 -21.64,-1.54 -31.38,1.09 -1.61,-1.24 -3.71,-2.66 -7.39,-2.24 -0.69,2.74 -1.44,5.52 -2.18,8.36 -0.96,1.25 0.88,2.63 3.72,2 1.84,-0.93 2.72,-2.39 4.14,-3.51 3.15,-2.16 7.68,-3.86 12.76,-4.62 6.87,-0.7 15.42,-0.66 19.54,2.36 1.89,1.95 -0.63,4.42 -4.78,5.31 -10.28,1.53 -21.49,1.85 -31.12,4.79 -3.6,1.68 -5.51,4.1 -5.09,6.45 1.05,3.71 7.72,6.15 14.89,6.63 7.4,0.39 15.17,-0.36 21.66,-2.54 z M -1.77,26.78 C 0.72,27.02 4.55,26.84 6.36,25.05 4.84,23.6 -0.82,24.8 -2.14,23.32 4.15,16.54 10.19,10.03 16,3.77 16.57,2.32 20.17,1.54 22.61,1.78 25.08,2.06 29.2,1.08 29.31,-0.39 21.53,-0.41 13.64,-0.32 5.95,-0.44 3.6,-0.62 0.23,-0.34 -2,0.79 -0.81,2.24 4.49,1.28 6.31,2.4 0.16,8.8 -6.12,15.45 -12.86,22.39 c -1.54,1.84 -5.45,1.68 -8,1.77 -2.73,-0.3 -6.13,1.01 -6.49,2.5 4.96,0 9.92,-0.01 14.87,-0.02 3.57,0.05 7.14,0.1 10.71,0.14 z m 110.68,-2.53 c -3.21,-0.14 -6.67,-0.84 -6.52,-2.65 3.37,-6.91 7.76,-13.63 11.84,-20.03 1.59,-1.25 0.95,-3.03 -2.57,-2.44 C 94.2,5.81 76.14,13.06 57.16,20.46 60.78,15.85 64.32,11.35 67.75,6.98 69,4.92 72.14,2.3 77.28,1.88 c 2.55,0.2 5.98,-0.95 5.84,-2.27 -7.76,-0.07 -15.8,0.16 -23.36,-0.12 -2.61,0.17 -4.39,1.73 -2.36,2.2 3,0.13 6.13,0.73 5.82,2.35 -3.4,5.59 -8.18,11.49 -12.95,17.54 -0.61,2.07 -6.07,2.7 -9.05,2.59 -2.88,-0.29 -5.62,0.99 -5.95,2.49 6.7,0 13.41,0 20.12,0 17.19,-6.77 33.7,-13.3 49.6,-19.57 -2.29,3.37 -4.64,6.82 -7.03,10.34 -1.43,2.35 -3.52,5.77 -9.68,6.52 -2.85,-0.18 -7.01,1 -6.89,2.71 8.57,0.09 17.39,-0.16 25.82,0.13 2.77,-0.4 3.91,-2 1.7,-2.54 z m 99.88,1.74 c 2.63,-1.58 -0.72,-2.08 -3.4,-2 -9.59,-1.2 -15.16,-5.31 -21.75,-8.3 5.65,-2.69 11.2,-5.35 16.67,-7.96 5.18,-2.22 9.46,-5.59 16.43,-6 2.53,0.13 4.89,-0.9 4.26,-2.12 -8.6,-0.01 -17.23,0.04 -25.81,-0.02 -2.07,-0.31 -5.71,0.39 -5.26,1.47 1.87,1.15 6.18,0.05 7.82,1.27 -6.5,3.41 -13.35,6.78 -20.55,10.13 -2.46,-1.22 -4.9,-2.44 -7.32,-3.65 -0.49,-1.52 0.75,-3.4 1.36,-5.04 -0.14,-1.55 3.08,-2.07 5.7,-1.98 2.61,0.25 6.17,-0.73 5.59,-2.18 -8.21,0 -16.42,0 -24.63,0 -2.22,-0.25 -5.26,0.22 -5.78,1.57 2.44,0.91 6.85,0.08 8.74,1.33 -2.94,6.23 -5.99,12.7 -9.18,19.44 -0.22,1.88 -4.66,2.34 -7.42,2.29 -2.81,-0.37 -5.48,0.98 -5.09,2.42 7.44,0 14.87,0 22.3,0 3.6,-0.18 8,0.77 10.83,-1.35 -2.04,-1.68 -7.02,-0.66 -9.75,-1.79 1.72,-4 3.4,-7.9 5.04,-11.71 6.74,3.32 13.48,6.78 20,10.48 2.57,1.11 -1.38,2.08 -3.67,1.92 -2.69,-0.16 -5.37,1.04 -4.86,2.45 8.17,0.01 16.35,0.02 24.52,0.02 1.67,0.09 3.9,0.16 5.21,-0.69 z m 392.14,0.67 c 19.17,0 38.34,0 57.51,0 -2.22,-2.59 -4.45,-5.15 -6.62,-7.67 -0.31,-1.27 -3.78,-3.29 -6.47,-2.77 -1.77,0.43 0.82,2.46 0.27,3.44 0.82,1.96 -0.76,3.44 -4.16,3.96 -5.72,0.41 -11.57,0.98 -18.15,0.53 -4.21,-0.3 -4.52,-2.35 -6.17,-3.78 -1.47,-2.06 -5.08,-4.32 -5.06,-6.19 4.47,-0.01 11.02,0.37 14.96,2.86 1.69,1.58 5.91,2.91 8.42,2.22 -2.5,-2.63 -4.96,-5.23 -7.39,-7.78 -1.99,-1.56 -2.2,-3.91 -6.63,-4.74 -3.58,-0.5 -2.43,1.21 -1.71,2.28 0.72,2.65 -5.29,3.01 -10.25,2.92 -1.41,-1.58 -2.81,-3.14 -4.19,-4.69 -0.96,-1.74 -5.23,-4.06 -2.98,-5.25 5.41,-0.36 11.2,-0.33 17.33,0.12 5.91,0.15 12.36,2.64 16.35,5.21 1.7,1.53 5.75,2.53 8.23,2.06 -3.94,-3.33 -7.83,-6.58 -11.62,-9.78 -16.54,-0.05 -32.91,0.11 -49.56,-0.08 -1.89,-0.18 -4.79,0.64 -3.7,1.31 3.58,1.46 6.99,0.42 10.67,1.55 5.58,6.39 11.42,13.04 17.45,19.98 1.64,1.67 -1.81,1.76 -4.23,1.74 -3.01,-0.22 -4.96,0.68 -2.52,2.29 0,0 0.22,0.26 0.22,0.26 z m -87.35,-0.02 c 12.65,-0.11 25.63,0.24 37.97,-0.29 7.22,-0.22 15.06,-1.68 14.49,-5.64 -0.31,-3.23 -6.36,-6.82 -13.24,-8.2 -10.14,-2.05 -19.72,-1.5 -29.16,-1.64 -1.61,-2.54 -3.2,-5.05 -4.76,-7.52 -1.53,-1.71 2.53,-1.53 4.85,-1.59 2.79,0.23 4.79,-0.82 2.85,-2.15 -8.51,-0.03 -16.94,0.08 -25.52,-0.08 -1.84,-0.18 -4.95,0.64 -4.03,1.31 3.2,1.46 6.87,0.42 10.26,1.55 3.86,6.34 7.87,12.94 12.05,19.82 1.81,2.13 -3.15,1.88 -5.85,1.98 -3.38,-0.57 -3.06,1.76 -0.11,2.37 0,0 0.2,0.08 0.2,0.08 z m 18.28,-3.14 c -1.5,-2.24 -2.97,-4.45 -4.43,-6.63 -0.27,-1.2 -3.6,-3.39 -0.8,-3.79 6.12,0.06 12.52,-0.34 19.13,1.24 4.85,1.3 7.87,4.29 7.77,6.48 0.43,2.32 -4.01,3.06 -7.96,3.37 -4.44,-0.25 -9.14,0.86 -13.71,-0.67 z m -87.78,-3.6 c -4.37,-3.31 -8.66,-6.56 -12.86,-9.74 6.17,0 12.35,0 18.52,0 -1.85,3.18 -3.73,6.43 -5.66,9.74 z"
       fill="none"
       id="path966" />
    <path
       style="fill:url(#linearGradient4379);fill-opacity:1;stroke:none;stroke-opacity:1"
       stroke-width="1"
       stroke="black"
       d="m 450.1,25.8 c 3.69,-6.42 7.25,-12.61 10.68,-18.57 1.59,-1.99 1.56,-4.48 4.38,-6.01 0.77,-1.11 6.01,-0.08 5.09,-1.48 -6,0 -12,0 -17.99,0 -1.63,0.23 -7.76,-0.52 -6.12,0.69 2.98,0.07 6.51,-0.19 8.98,1.19 -0.77,2.12 -1.8,4.22 -3.21,6.26 -8.04,0 -16.09,0 -24.14,0 -1.81,-0.78 -3.31,-2.07 -4.55,-3.14 -2.19,-1.33 -2.49,-3.43 0.8,-3.93 1.38,-0.66 5.9,0.28 5.13,-1.07 -4.7,0 -9.39,0 -14.08,0 -2.01,0.29 -7.19,-0.74 -6.69,0.74 3.19,0.11 6.32,0.94 8.55,2.18 9.78,7.1 19.45,14.73 29.89,22.6 1.12,0.59 1.95,0.66 3.28,0.54 z m -95.53,-0.12 c 6.9,0.67 13.03,-0.83 18.61,-2.42 2.35,-0.33 3.43,2.32 6.28,2.26 2.21,-0.49 0.21,-3.06 0.71,-4.38 -0.53,-1.93 0.49,-4 -0.96,-5.78 -3.18,-0.24 -2.15,2.08 -3.64,3 -1.36,2.41 -4.66,4.27 -9,5.46 -4.06,0.98 -8.97,1.52 -13.64,0.9 -6.8,-0.63 -12.56,-3.37 -14.52,-6.68 -2.32,-3.74 -2.89,-7.76 -1.17,-11.37 0.63,-2.41 3.53,-4.46 7.83,-5.55 3.9,-1.06 8.7,-1.29 13.24,-1.02 6.18,0.2 12.56,1.89 15.89,4.62 2.05,0.83 1.74,3.33 5.14,2.77 -1.16,-1.77 -3.05,-3.43 -5.69,-4.77 -3.92,-2.04 -9.39,-2.92 -14.74,-3.26 -5.88,-0.37 -12.07,-0.09 -17.36,1.07 -7.12,1.34 -12.91,4.32 -14.44,8.13 -2.1,3.95 0.39,8.45 6.26,11.59 4.56,2.72 11.03,4.4 17.8,5.29 1.13,0.05 2.27,0.09 3.4,0.14 z m -74.14,-2.61 c 2.12,0.26 2.81,2.81 6.16,2.41 0.35,-1.86 0.7,-3.71 1.05,-5.53 -0.32,-1.12 2.36,-3.83 -1.48,-3.49 -2.34,2.88 -6.28,5.58 -11.85,7.17 -6.43,1.51 -14.51,1.99 -20.19,-0.01 -4.63,-1.15 -5.22,-4.75 -0.94,-6.59 8.14,-2.89 18.13,-2.68 27,-4.14 6.25,-0.76 12.23,-3.46 11.79,-6.72 -0.26,-2.55 -3.15,-5.17 -8.31,-5.9 -5.24,-0.86 -10.94,-1.28 -16.57,-0.75 -4.63,0.21 -8.78,1.26 -12.98,2.31 -2.07,-0.38 -2.6,-2.66 -5.96,-2.36 -0.48,1.89 -0.97,3.8 -1.47,5.74 0.22,1.05 -2.45,3.61 1.37,3.27 1.38,-1.4 2.29,-2.97 4.65,-4.07 4.23,-2.62 10.68,-4.33 17.24,-4.41 5.51,-0.1 12.28,0.11 15.31,2.58 3.83,1.98 1.1,5.41 -3.86,6.59 -9.14,1.64 -19.15,1.72 -28.24,3.88 -6.87,1.1 -9.79,5.8 -6.61,8.63 2.42,2.35 7.34,3.58 12.5,4 7.35,0.42 15.06,-0.36 21.39,-2.61 z M 4.9,24.66 C 2.53,23.86 -3.35,25 -3.39,23.05 2.19,16.78 8.15,10.65 13.54,4.79 c 1.52,-1.44 2.47,-3.81 6.85,-4.16 2.29,-0.29 5.94,0.48 7.34,-0.89 -6.14,0 -12.28,0 -18.42,0 C 6.28,0.02 3.68,-0.81 0.53,0.1 2.25,1.02 7.61,-0.03 8.37,1.43 3.39,7.29 -3.06,13.56 -9.13,19.96 c -1.33,1.38 -2.96,3.74 -6.73,4.11 -2.76,0.51 -7.29,-0.57 -8.7,1.17 8.52,0 17.03,0 25.55,0 0.99,0.13 3.11,0.29 3.91,-0.58 z m 165.37,0.16 c -2.3,-1.06 -7.31,0.1 -9.07,-1.46 1.37,-4.56 3.81,-9.23 5.79,-13.64 6.77,3.62 14.63,6.91 21.2,10.9 1.85,0.74 3.38,2.56 -0.06,3.42 -2.24,0.53 -6.48,-0.35 -7.13,1.2 6.58,0 13.17,0 19.76,0 2.32,-0.27 6.71,0.83 7.31,-0.88 -2.83,-0.15 -5.61,-0.36 -7.99,-1.04 -7.41,-2.01 -12.41,-5.44 -18.42,-8.11 6.57,-3.12 12.99,-6.2 19.31,-9.2 4.26,-1.72 7.42,-4.35 12.66,-5.17 1.85,-0.58 5.62,0.23 5.86,-1.1 -6.5,0 -12.99,0 -19.49,0 -2.7,0.24 -6.46,-0.5 -8.45,0.41 2.31,0.79 7.73,-0.33 8.05,1.61 -6.76,3.84 -14.74,7.37 -22.46,11.12 -2.99,-1.47 -5.92,-2.94 -8.85,-4.39 -0.89,-1.05 1,-2.68 1.12,-3.93 0.61,-1.41 0.75,-3.67 4.81,-3.94 2.13,-0.23 6.09,0.46 6.79,-0.88 -6.7,0 -13.41,0 -20.11,0 -2.22,0.32 -5.15,-0.64 -6.76,0.48 2.5,0.7 7.44,-0.26 8.34,1.42 -2.31,5.87 -5.55,12.07 -8.54,18.44 -0.55,1.54 -1.69,4.14 -5.89,4.03 -2.27,0.67 -6.49,-0.56 -6.78,1.13 8.12,0 16.23,0 24.35,0 1.36,0.13 3.4,0.27 4.65,-0.42 z m 343.77,0.45 c 12.19,-0.2 25,0.36 36.8,-0.38 6.15,-0.16 12.49,-1.27 13.07,-4.34 0.64,-2.99 -5.13,-6.67 -11.78,-8 -10.43,-2.09 -20.22,-1.36 -29.96,-1.54 -1.67,-2.65 -3.3,-5.26 -4.92,-7.83 -1.42,-1.29 -0.72,-2.72 2.38,-2.59 1.79,-0.23 6.24,0.45 5.52,-0.85 -6.28,0 -12.56,0 -18.85,0 -2.61,0.27 -6.38,-0.52 -8.23,0.33 3.01,1 6.78,-0.11 9.78,1.36 4.16,5.78 7.53,11.97 11.44,18.28 0.8,1.43 3.12,3.8 0.08,4.35 -1.76,0.43 -8.94,-0.41 -6.29,1.16 0.15,0.01 0.79,0.04 0.96,0.05 z M 37.84,25.24 c 5.94,0 11.88,0 17.82,0 18.13,-7.12 35.48,-13.98 52.2,-20.52 -2.76,4.26 -5.48,8.65 -8.83,13.15 -1.12,2.06 -3.28,4.61 -7.94,5.79 -2.36,0.95 -6.45,-0.12 -7.36,1.58 7.9,0 15.79,0 23.68,0 3.81,-0.68 -1.59,-1.3 -3.22,-1.24 -2.26,-0.69 -3.36,-1.77 -3.27,-3.24 3.62,-6.42 7.47,-12.61 11.4,-18.58 0.29,-1.02 3.49,-3.3 -0.35,-2.92 -18.29,7.19 -37.43,14.72 -57.5,22.6 3.66,-4.74 7.12,-9.34 10.85,-13.82 2.11,-2.42 3.54,-5.78 9.84,-6.99 2.1,-0.71 5.59,0.04 6.39,-1.31 -6.83,0 -13.67,0 -20.51,0 -4.77,-0.19 -1.62,1.38 1.32,1.03 2.15,0.56 3.08,1.59 2.84,2.92 -4.26,6.06 -9.12,12.37 -14.35,18.92 -3.75,1.76 -8.44,1.69 -12.33,1.79 -0.23,0.28 -0.45,0.56 -0.68,0.84 z m 563.31,0 c 18.12,0 36.24,0 54.36,0 -1.56,-1.81 -3.1,-3.6 -4.63,-5.37 -1.47,-1.13 -1.72,-3.83 -5.21,-3.49 0.43,1.86 2.2,4.13 0.51,5.54 -1.73,2.36 -8.36,2.24 -13.78,2.43 -4.38,-0.08 -8.92,0.77 -13.89,-1.03 -2.37,-2.01 -4.28,-4.25 -6.11,-6.3 -0.64,-1.4 -4.83,-3.62 -1.83,-4.23 4.31,0.12 9.57,0.15 14.1,2.01 3.15,0.82 4.54,3.61 7.98,3.17 -2.5,-2.64 -4.95,-5.23 -7.37,-7.79 -1.48,-1.06 -1.9,-3.43 -5.08,-3.32 -0.84,0.62 1.55,2.3 0.44,3.09 -0.98,2.4 -7.61,2.06 -12.6,2.13 -2.04,-2.3 -4.05,-4.56 -6.03,-6.79 -0.93,-1.51 -4.83,-3.92 -1.46,-4.5 5.03,-0.37 10.53,-0.51 16.4,-0.02 5.5,-0.05 12.22,1.69 16.72,4.17 2.56,1.04 4.27,3.48 7.63,3.18 -3.38,-2.84 -6.71,-5.63 -9.97,-8.38 -14.33,0 -28.67,0 -43,0 -2.54,0.27 -6.51,-0.52 -8.14,0.33 3.27,1 6.75,-0.11 10.13,1.36 4.89,4.99 9.28,10.33 13.97,15.73 1.32,2.2 5.69,4.86 4.23,6.76 -2.29,0.38 -5.46,0.27 -8.07,0.48 0.24,0.28 0.47,0.56 0.7,0.84 z m -70.86,-1.92 c -2.03,-2.52 -3.62,-5.15 -5.22,-7.65 -0.22,-1.28 -3.3,-3.14 -0.98,-3.87 3.25,-0.2 6.97,0 10.47,0.05 5.2,-0.05 11.95,0.61 16.12,3.28 3.59,2.33 5.3,5.41 3.19,7.4 -3.79,2.32 -11.79,1.79 -18.31,1.91 -1.94,-0.03 -3.56,-0.34 -5.27,-1.12 z m -85.87,-2.24 c -5.52,-4.17 -10.86,-8.24 -16.09,-12.22 7.7,0 15.4,0 23.11,0 -2.18,3.83 -4.42,7.74 -6.74,11.75 -0.09,0.15 -0.19,0.31 -0.28,0.47 z"
       fill="none"
       id="path967" />
  </g>
</svg>
