<?xml version="1.0" encoding="UTF-8" standalone="no"?>
<!-- Created with Inkscape (http://www.inkscape.org/) -->

<svg
   xmlns:dc="http://purl.org/dc/elements/1.1/"
   xmlns:cc="http://creativecommons.org/ns#"
   xmlns:rdf="http://www.w3.org/1999/02/22-rdf-syntax-ns#"
   xmlns:svg="http://www.w3.org/2000/svg"
   xmlns="http://www.w3.org/2000/svg"
   xmlns:sodipodi="http://sodipodi.sourceforge.net/DTD/sodipodi-0.dtd"
   xmlns:inkscape="http://www.inkscape.org/namespaces/inkscape"
   id="svg2"
   version="1.1"
   inkscape:version="0.91 r13725"
   width="960"
   height="360"
   sodipodi:docname="inkscape_0.92_banner.svg"
   inkscape:export-filename="/home/doctormo/Desktop/inkscape92.png"
   inkscape:export-xdpi="90"
   inkscape:export-ydpi="90"
   viewBox="0 0 960 360">
  <title
     id="title4154">Eisvogel</title>
  <sodipodi:namedview
     pagecolor="#f2f2f2"
     bordercolor="#666666"
     borderopacity="1"
     objecttolerance="10"
     gridtolerance="10"
     guidetolerance="10"
     inkscape:pageopacity="1"
     inkscape:pageshadow="2"
     inkscape:window-width="1855"
     inkscape:window-height="1056"
     id="namedview4"
     showgrid="false"
     inkscape:zoom="0.70710678"
     inkscape:cx="298.46554"
     inkscape:cy="23.748334"
     inkscape:window-x="65"
     inkscape:window-y="24"
     inkscape:window-maximized="1"
     inkscape:current-layer="svg2"
     showguides="false"
     inkscape:guide-bbox="true"
     borderlayer="true"
     inkscape:document-units="px"
     inkscape:snap-global="false">
    <inkscape:grid
       type="xygrid"
       id="grid4251"
       empspacing="5"
       visible="true"
       enabled="true"
       snapvisiblegridlinesonly="true" />
    <sodipodi:guide
       orientation="1,0"
       position="50,510"
       id="guide4255"
       inkscape:locked="false" />
    <sodipodi:guide
       orientation="1,0"
       position="700,470"
       id="guide4257"
       inkscape:locked="false" />
    <sodipodi:guide
       orientation="0,1"
       position="-15,575"
       id="guide4259"
       inkscape:locked="false" />
    <sodipodi:guide
       orientation="0,1"
       position="130,50"
       id="guide4261"
       inkscape:locked="false" />
  </sodipodi:namedview>
  <metadata
     id="metadata8">
    <rdf:RDF>
      <cc:Work
         rdf:about="">
        <dc:format>image/svg+xml</dc:format>
        <dc:type
           rdf:resource="http://purl.org/dc/dcmitype/StillImage" />
        <dc:title>Eisvogel</dc:title>
        <cc:license
           rdf:resource="http://creativecommons.org/licenses/by-sa/3.0/" />
        <dc:date>2014-09-30</dc:date>
        <dc:creator>
          <cc:Agent>
            <dc:title>Pascal Wagler</dc:title>
          </cc:Agent>
        </dc:creator>
        <dc:source>http://pasal-wagler.de</dc:source>
      </cc:Work>
      <cc:License
         rdf:about="http://creativecommons.org/licenses/by-sa/3.0/">
        <cc:permits
           rdf:resource="http://creativecommons.org/ns#Reproduction" />
        <cc:permits
           rdf:resource="http://creativecommons.org/ns#Distribution" />
        <cc:requires
           rdf:resource="http://creativecommons.org/ns#Notice" />
        <cc:requires
           rdf:resource="http://creativecommons.org/ns#Attribution" />
        <cc:permits
           rdf:resource="http://creativecommons.org/ns#DerivativeWorks" />
        <cc:requires
           rdf:resource="http://creativecommons.org/ns#ShareAlike" />
      </cc:License>
    </rdf:RDF>
  </metadata>
  <defs
     id="defs6" />
  <rect
     style="opacity:1;fill:#f2f2f2;fill-opacity:1;stroke:none;stroke-width:0.93513429"
     id="rect6857"
     width="960"
     height="360"
     x="0"
     y="-360"
     transform="scale(1,-1)"
     inkscape:export-xdpi="90"
     inkscape:export-ydpi="90" />
  <path
     inkscape:connector-curvature="0"
     style="fill:#fcfcfc;fill-opacity:1;stroke:none"
     d="m -66.701442,-201.13563 1090.825442,0 0,909.02125 -1090.825442,0 z"
     id="rect5342" />
  <g
     id="g5232"
     transform="matrix(1.454434,0,0,1.454434,-325.50252,-822.57173)">
    <g
       transform="translate(0,0.88019)"
       id="text5368"
       style="font-style:normal;font-variant:normal;font-weight:normal;font-stretch:normal;font-size:33.66514969px;line-height:125%;font-family:Montserrat;-inkscape-font-specification:Montserrat;text-align:start;letter-spacing:0px;word-spacing:0px;writing-mode:lr-tb;text-anchor:start;display:inline;opacity:0.12999998;fill:#ff9955;fill-opacity:1;stroke:none">
      <path
         id="path3762"
         d="m 243.22934,557.05157 8.55087,0 0,23.53211 -3.77048,0 0,-19.9969 -4.78039,0 z"
         inkscape:connector-curvature="0" />
      <path
         id="path3764"
         d="m 263.89404,562.30353 c -0.9315,1.61574 -1.39724,3.73659 -1.39724,6.36255 0,2.62599 0.46574,4.74702 1.39724,6.36308 0.93148,1.61607 2.38471,2.4241 4.35968,2.4241 1.97495,0 3.41688,-0.80238 4.32578,-2.40715 0.90887,-1.60476 1.36331,-3.73126 1.36333,-6.37951 -2e-5,-2.64823 -0.45446,-4.77473 -1.36333,-6.37951 -0.9089,-1.60475 -2.35083,-2.40713 -4.32578,-2.40715 -1.97497,2e-5 -3.4282,0.80788 -4.35968,2.42359 z m -2.84482,15.23397 c -1.59312,-2.21091 -2.38968,-5.16805 -2.38968,-8.87142 0,-3.70334 0.79673,-6.6603 2.3902,-8.8709 1.59346,-2.21055 3.99478,-3.31584 7.20398,-3.31586 3.20917,2e-5 5.6105,1.10531 7.20398,3.31586 1.59344,2.2106 2.39018,5.16756 2.3902,8.8709 -2e-5,3.70337 -0.79676,6.66034 -2.3902,8.87091 -1.59348,2.21057 -3.99481,3.31586 -7.20398,3.31586 -3.2092,0 -5.61069,-1.10511 -7.2045,-3.31535 z"
         inkscape:connector-curvature="0" />
      <path
         id="path3766"
         d="m 284.60599,562.30353 c -0.93149,1.61574 -1.39724,3.73659 -1.39723,6.36255 -10e-6,2.62599 0.46574,4.74702 1.39723,6.36308 0.93149,1.61607 2.38471,2.4241 4.35969,2.4241 1.97495,0 3.41687,-0.80238 4.32577,-2.40715 0.90888,-1.60476 1.36332,-3.73126 1.36334,-6.37951 -2e-5,-2.64823 -0.45446,-4.77473 -1.36334,-6.37951 -0.9089,-1.60475 -2.35082,-2.40713 -4.32577,-2.40715 -1.97498,2e-5 -3.4282,0.80788 -4.35969,2.42359 z m -2.84481,15.23397 c -1.59312,-2.21091 -2.38968,-5.16805 -2.38968,-8.87142 0,-3.70334 0.79673,-6.6603 2.3902,-8.8709 1.59346,-2.21055 3.99478,-3.31584 7.20398,-3.31586 3.20917,2e-5 5.6105,1.10531 7.20398,3.31586 1.59344,2.2106 2.39017,5.16756 2.39019,8.8709 -2e-5,3.70337 -0.79675,6.66034 -2.39019,8.87091 -1.59348,2.21057 -3.99481,3.31586 -7.20398,3.31586 -3.2092,0 -5.6107,-1.10511 -7.2045,-3.31535 z"
         inkscape:connector-curvature="0" />
      <path
         id="path3768"
         d="m 302.40636,557.05157 8.55088,0 0,23.53211 -3.77048,0 0,-19.9969 -4.7804,0 z"
         inkscape:connector-curvature="0" />
      <path
         id="path3770"
         d="m 323.07106,562.30353 c -0.9315,1.61574 -1.39724,3.73659 -1.39724,6.36255 0,2.62599 0.46574,4.74702 1.39724,6.36308 0.93148,1.61607 2.38471,2.4241 4.35968,2.4241 1.97495,0 3.41688,-0.80238 4.32578,-2.40715 0.90887,-1.60476 1.36332,-3.73126 1.36333,-6.37951 -10e-6,-2.64823 -0.45446,-4.77473 -1.36333,-6.37951 -0.9089,-1.60475 -2.35083,-2.40713 -4.32578,-2.40715 -1.97497,2e-5 -3.4282,0.80788 -4.35968,2.42359 z m -2.84481,15.23397 c -1.59313,-2.21091 -2.38969,-5.16805 -2.38969,-8.87142 0,-3.70334 0.79673,-6.6603 2.3902,-8.8709 1.59346,-2.21055 3.99478,-3.31584 7.20398,-3.31586 3.20918,2e-5 5.6105,1.10531 7.20398,3.31586 1.59345,2.2106 2.39018,5.16756 2.3902,8.8709 -2e-5,3.70337 -0.79675,6.66034 -2.3902,8.87091 -1.59348,2.21057 -3.9948,3.31586 -7.20398,3.31586 -3.2092,0 -5.61069,-1.10511 -7.20449,-3.31535 z"
         inkscape:connector-curvature="0" />
      <path
         id="path3772"
         d="m 343.78302,562.30353 c -0.9315,1.61574 -1.39724,3.73659 -1.39724,6.36255 0,2.62599 0.46574,4.74702 1.39724,6.36308 0.93148,1.61607 2.38471,2.4241 4.35968,2.4241 1.97495,0 3.41688,-0.80238 4.32578,-2.40715 0.90887,-1.60476 1.36332,-3.73126 1.36333,-6.37951 -1e-5,-2.64823 -0.45446,-4.77473 -1.36333,-6.37951 -0.9089,-1.60475 -2.35083,-2.40713 -4.32578,-2.40715 -1.97497,2e-5 -3.4282,0.80788 -4.35968,2.42359 z m -2.84481,15.23397 c -1.59313,-2.21091 -2.38969,-5.16805 -2.38969,-8.87142 0,-3.70334 0.79673,-6.6603 2.3902,-8.8709 1.59346,-2.21055 3.99478,-3.31584 7.20398,-3.31586 3.20918,2e-5 5.6105,1.10531 7.20398,3.31586 1.59345,2.2106 2.39018,5.16756 2.3902,8.8709 -2e-5,3.70337 -0.79675,6.66034 -2.3902,8.87091 -1.59348,2.21057 -3.9948,3.31586 -7.20398,3.31586 -3.2092,0 -5.61069,-1.10511 -7.20449,-3.31535 z"
         inkscape:connector-curvature="0" />
      <path
         id="path3774"
         d="m 361.58339,557.05157 8.55087,0 0,23.53211 -3.77048,0 0,-19.9969 -4.78039,0 z"
         inkscape:connector-curvature="0" />
      <path
         id="path3776"
         d="m 382.24808,562.30353 c -0.9315,1.61574 -1.39724,3.73659 -1.39724,6.36255 0,2.62599 0.46574,4.74702 1.39724,6.36308 0.93148,1.61607 2.38471,2.4241 4.35968,2.4241 1.97495,0 3.41688,-0.80238 4.32578,-2.40715 0.90887,-1.60476 1.36331,-3.73126 1.36333,-6.37951 -2e-5,-2.64823 -0.45446,-4.77473 -1.36333,-6.37951 -0.9089,-1.60475 -2.35083,-2.40713 -4.32578,-2.40715 -1.97497,2e-5 -3.4282,0.80788 -4.35968,2.42359 z m -2.84482,15.23397 c -1.59312,-2.21091 -2.38968,-5.16805 -2.38968,-8.87142 0,-3.70334 0.79673,-6.6603 2.3902,-8.8709 1.59346,-2.21055 3.99478,-3.31584 7.20398,-3.31586 3.20917,2e-5 5.6105,1.10531 7.20398,3.31586 1.59344,2.2106 2.39018,5.16756 2.3902,8.8709 -2e-5,3.70337 -0.79676,6.66034 -2.3902,8.87091 -1.59348,2.21057 -3.99481,3.31586 -7.20398,3.31586 -3.2092,0 -5.61069,-1.10511 -7.2045,-3.31535 z"
         inkscape:connector-curvature="0" />
      <path
         id="path3778"
         d="m 400.04844,557.05157 8.55088,0 0,23.53211 -3.77048,0 0,-19.9969 -4.7804,0 z"
         inkscape:connector-curvature="0" />
      <path
         id="path3780"
         d="m 420.71315,562.30353 c -0.9315,1.61574 -1.39724,3.73659 -1.39724,6.36255 0,2.62599 0.46574,4.74702 1.39724,6.36308 0.93148,1.61607 2.38471,2.4241 4.35968,2.4241 1.97495,0 3.41688,-0.80238 4.32578,-2.40715 0.90887,-1.60476 1.36332,-3.73126 1.36333,-6.37951 -10e-6,-2.64823 -0.45446,-4.77473 -1.36333,-6.37951 -0.9089,-1.60475 -2.35083,-2.40713 -4.32578,-2.40715 -1.97497,2e-5 -3.4282,0.80788 -4.35968,2.42359 z m -2.84481,15.23397 c -1.59313,-2.21091 -2.38969,-5.16805 -2.38969,-8.87142 0,-3.70334 0.79673,-6.6603 2.3902,-8.8709 1.59346,-2.21055 3.99478,-3.31584 7.20398,-3.31586 3.20918,2e-5 5.6105,1.10531 7.20398,3.31586 1.59345,2.2106 2.39018,5.16756 2.3902,8.8709 -2e-5,3.70337 -0.79675,6.66034 -2.3902,8.87091 -1.59348,2.21057 -3.9948,3.31586 -7.20398,3.31586 -3.2092,0 -5.61069,-1.10511 -7.20449,-3.31535 z"
         inkscape:connector-curvature="0" />
      <path
         id="path3782"
         d="m 438.51352,557.05157 8.55087,0 0,23.53211 -3.77048,0 0,-19.9969 -4.78039,0 z"
         inkscape:connector-curvature="0" />
      <path
         id="path3784"
         d="m 459.17821,562.30353 c -0.9315,1.61574 -1.39724,3.73659 -1.39724,6.36255 0,2.62599 0.46574,4.74702 1.39724,6.36308 0.93148,1.61607 2.38471,2.4241 4.35968,2.4241 1.97495,0 3.41688,-0.80238 4.32578,-2.40715 0.90887,-1.60476 1.36331,-3.73126 1.36333,-6.37951 -2e-5,-2.64823 -0.45446,-4.77473 -1.36333,-6.37951 -0.9089,-1.60475 -2.35083,-2.40713 -4.32578,-2.40715 -1.97497,2e-5 -3.4282,0.80788 -4.35968,2.42359 z m -2.84482,15.23397 c -1.59312,-2.21091 -2.38968,-5.16805 -2.38968,-8.87142 0,-3.70334 0.79673,-6.6603 2.3902,-8.8709 1.59346,-2.21055 3.99478,-3.31584 7.20398,-3.31586 3.20917,2e-5 5.6105,1.10531 7.20398,3.31586 1.59344,2.2106 2.39018,5.16756 2.3902,8.8709 -2e-5,3.70337 -0.79676,6.66034 -2.3902,8.87091 -1.59348,2.21057 -3.99481,3.31586 -7.20398,3.31586 -3.2092,0 -5.61069,-1.10511 -7.2045,-3.31535 z"
         inkscape:connector-curvature="0" />
      <path
         id="path3786"
         d="m 476.97857,557.05157 8.55088,0 0,23.53211 -3.77048,0 0,-19.9969 -4.7804,0 z"
         inkscape:connector-curvature="0" />
      <path
         id="path3788"
         d="m 494.73169,557.05157 8.55087,0 0,23.53211 -3.77048,0 0,-19.9969 -4.78039,0 z"
         inkscape:connector-curvature="0" />
      <path
         id="path3790"
         d="m 246.14093,604.38496 c -0.9315,1.61575 -1.39724,3.7366 -1.39724,6.36256 0,2.62599 0.46574,4.74701 1.39724,6.36307 0.93148,1.61607 2.38471,2.42411 4.35968,2.4241 1.97495,1e-5 3.41688,-0.80238 4.32578,-2.40715 0.90887,-1.60475 1.36332,-3.73126 1.36333,-6.3795 -1e-5,-2.64823 -0.45446,-4.77473 -1.36333,-6.37951 -0.9089,-1.60475 -2.35083,-2.40713 -4.32578,-2.40715 -1.97497,2e-5 -3.4282,0.80788 -4.35968,2.42358 z m -2.84481,15.23398 c -1.59313,-2.21092 -2.38969,-5.16805 -2.38969,-8.87142 0,-3.70334 0.79673,-6.66031 2.3902,-8.8709 1.59346,-2.21055 3.99478,-3.31584 7.20398,-3.31587 3.20918,3e-5 5.6105,1.10532 7.20398,3.31587 1.59345,2.21059 2.39018,5.16756 2.3902,8.8709 -2e-5,3.70337 -0.79675,6.66033 -2.3902,8.8709 -1.59348,2.21058 -3.9948,3.31587 -7.20398,3.31587 -3.2092,0 -5.61069,-1.10512 -7.20449,-3.31535 z"
         inkscape:connector-curvature="0" />
      <path
         id="path3792"
         d="m 266.85289,604.38496 c -0.9315,1.61575 -1.39724,3.7366 -1.39724,6.36256 0,2.62599 0.46574,4.74701 1.39724,6.36307 0.93148,1.61607 2.38471,2.42411 4.35968,2.4241 1.97495,1e-5 3.41688,-0.80238 4.32578,-2.40715 0.90887,-1.60475 1.36331,-3.73126 1.36333,-6.3795 -2e-5,-2.64823 -0.45446,-4.77473 -1.36333,-6.37951 -0.9089,-1.60475 -2.35083,-2.40713 -4.32578,-2.40715 -1.97497,2e-5 -3.4282,0.80788 -4.35968,2.42358 z m -2.84482,15.23398 c -1.59312,-2.21092 -2.38968,-5.16805 -2.38968,-8.87142 0,-3.70334 0.79673,-6.66031 2.3902,-8.8709 1.59346,-2.21055 3.99478,-3.31584 7.20398,-3.31587 3.20917,3e-5 5.6105,1.10532 7.20398,3.31587 1.59344,2.21059 2.39018,5.16756 2.3902,8.8709 -2e-5,3.70337 -0.79676,6.66033 -2.3902,8.8709 -1.59348,2.21058 -3.99481,3.31587 -7.20398,3.31587 -3.2092,0 -5.61069,-1.10512 -7.2045,-3.31535 z"
         inkscape:connector-curvature="0" />
      <path
         id="path3794"
         d="m 284.65325,599.133 8.55088,0 0,23.53212 -3.77048,0 0,-19.99691 -4.7804,0 z"
         inkscape:connector-curvature="0" />
      <path
         id="path3796"
         d="m 302.40636,599.133 8.55088,0 0,23.53212 -3.77048,0 0,-19.99691 -4.7804,0 z"
         inkscape:connector-curvature="0" />
      <path
         id="path3798"
         d="m 323.07106,604.38496 c -0.9315,1.61575 -1.39724,3.7366 -1.39724,6.36256 0,2.62599 0.46574,4.74701 1.39724,6.36307 0.93148,1.61607 2.38471,2.42411 4.35968,2.4241 1.97495,1e-5 3.41688,-0.80238 4.32578,-2.40715 0.90887,-1.60475 1.36332,-3.73126 1.36333,-6.3795 -10e-6,-2.64823 -0.45446,-4.77473 -1.36333,-6.37951 -0.9089,-1.60475 -2.35083,-2.40713 -4.32578,-2.40715 -1.97497,2e-5 -3.4282,0.80788 -4.35968,2.42358 z m -2.84481,15.23398 c -1.59313,-2.21092 -2.38969,-5.16805 -2.38969,-8.87142 0,-3.70334 0.79673,-6.66031 2.3902,-8.8709 1.59346,-2.21055 3.99478,-3.31584 7.20398,-3.31587 3.20918,3e-5 5.6105,1.10532 7.20398,3.31587 1.59345,2.21059 2.39018,5.16756 2.3902,8.8709 -2e-5,3.70337 -0.79675,6.66033 -2.3902,8.8709 -1.59348,2.21058 -3.9948,3.31587 -7.20398,3.31587 -3.2092,0 -5.61069,-1.10512 -7.20449,-3.31535 z"
         inkscape:connector-curvature="0" />
      <path
         id="path3800"
         d="m 340.87143,599.133 8.55087,0 0,23.53212 -3.77048,0 0,-19.99691 -4.78039,0 z"
         inkscape:connector-curvature="0" />
      <path
         id="path3802"
         d="m 361.53612,604.38496 c -0.93149,1.61575 -1.39724,3.7366 -1.39723,6.36256 -1e-5,2.62599 0.46574,4.74701 1.39723,6.36307 0.93149,1.61607 2.38471,2.42411 4.35969,2.4241 1.97495,1e-5 3.41687,-0.80238 4.32577,-2.40715 0.90888,-1.60475 1.36332,-3.73126 1.36334,-6.3795 -2e-5,-2.64823 -0.45446,-4.77473 -1.36334,-6.37951 -0.9089,-1.60475 -2.35082,-2.40713 -4.32577,-2.40715 -1.97498,2e-5 -3.4282,0.80788 -4.35969,2.42358 z m -2.84481,15.23398 c -1.59312,-2.21092 -2.38968,-5.16805 -2.38968,-8.87142 0,-3.70334 0.79673,-6.66031 2.3902,-8.8709 1.59346,-2.21055 3.99478,-3.31584 7.20398,-3.31587 3.20917,3e-5 5.6105,1.10532 7.20398,3.31587 1.59344,2.21059 2.39017,5.16756 2.39019,8.8709 -2e-5,3.70337 -0.79675,6.66033 -2.39019,8.8709 -1.59348,2.21058 -3.99481,3.31587 -7.20398,3.31587 -3.2092,0 -5.6107,-1.10512 -7.2045,-3.31535 z"
         inkscape:connector-curvature="0" />
      <path
         id="path3804"
         d="m 379.33648,599.133 8.55088,0 0,23.53212 -3.77048,0 0,-19.99691 -4.7804,0 z"
         inkscape:connector-curvature="0" />
      <path
         id="path3806"
         d="m 400.00119,604.38496 c -0.9315,1.61575 -1.39724,3.7366 -1.39724,6.36256 0,2.62599 0.46574,4.74701 1.39724,6.36307 0.93148,1.61607 2.38471,2.42411 4.35968,2.4241 1.97495,1e-5 3.41688,-0.80238 4.32578,-2.40715 0.90887,-1.60475 1.36332,-3.73126 1.36333,-6.3795 -1e-5,-2.64823 -0.45446,-4.77473 -1.36333,-6.37951 -0.9089,-1.60475 -2.35083,-2.40713 -4.32578,-2.40715 -1.97497,2e-5 -3.4282,0.80788 -4.35968,2.42358 z m -2.84481,15.23398 c -1.59313,-2.21092 -2.38969,-5.16805 -2.38969,-8.87142 0,-3.70334 0.79673,-6.66031 2.3902,-8.8709 1.59346,-2.21055 3.99478,-3.31584 7.20398,-3.31587 3.20918,3e-5 5.6105,1.10532 7.20398,3.31587 1.59345,2.21059 2.39018,5.16756 2.3902,8.8709 -2e-5,3.70337 -0.79675,6.66033 -2.3902,8.8709 -1.59348,2.21058 -3.9948,3.31587 -7.20398,3.31587 -3.2092,0 -5.61069,-1.10512 -7.20449,-3.31535 z"
         inkscape:connector-curvature="0" />
      <path
         id="path3808"
         d="m 417.80156,599.133 8.55087,0 0,23.53212 -3.77048,0 0,-19.99691 -4.78039,0 z"
         inkscape:connector-curvature="0" />
      <path
         id="path3810"
         d="m 435.55465,599.133 8.55088,0 0,23.53212 -3.77048,0 0,-19.99691 -4.7804,0 z"
         inkscape:connector-curvature="0" />
      <path
         id="path3812"
         d="m 453.30777,599.133 8.55087,0 0,23.53212 -3.77048,0 0,-19.99691 -4.78039,0 z"
         inkscape:connector-curvature="0" />
      <path
         id="path3814"
         d="m 473.97247,604.38496 c -0.93149,1.61575 -1.39724,3.7366 -1.39723,6.36256 -1e-5,2.62599 0.46574,4.74701 1.39723,6.36307 0.93149,1.61607 2.38471,2.42411 4.35968,2.4241 1.97496,1e-5 3.41688,-0.80238 4.32578,-2.40715 0.90887,-1.60475 1.36332,-3.73126 1.36333,-6.3795 -10e-6,-2.64823 -0.45446,-4.77473 -1.36333,-6.37951 -0.9089,-1.60475 -2.35082,-2.40713 -4.32578,-2.40715 -1.97497,2e-5 -3.42819,0.80788 -4.35968,2.42358 z m -2.84481,15.23398 c -1.59312,-2.21092 -2.38968,-5.16805 -2.38968,-8.87142 0,-3.70334 0.79673,-6.66031 2.39019,-8.8709 1.59346,-2.21055 3.99479,-3.31584 7.20398,-3.31587 3.20918,3e-5 5.6105,1.10532 7.20398,3.31587 1.59345,2.21059 2.39018,5.16756 2.3902,8.8709 -2e-5,3.70337 -0.79675,6.66033 -2.3902,8.8709 -1.59348,2.21058 -3.9948,3.31587 -7.20398,3.31587 -3.20919,0 -5.61069,-1.10512 -7.20449,-3.31535 z"
         inkscape:connector-curvature="0" />
      <path
         id="path3816"
         d="m 494.68443,604.38496 c -0.93149,1.61575 -1.39724,3.7366 -1.39723,6.36256 -10e-6,2.62599 0.46574,4.74701 1.39723,6.36307 0.93148,1.61607 2.38471,2.42411 4.35968,2.4241 1.97496,1e-5 3.41688,-0.80238 4.32578,-2.40715 0.90887,-1.60475 1.36332,-3.73126 1.36333,-6.3795 -1e-5,-2.64823 -0.45446,-4.77473 -1.36333,-6.37951 -0.9089,-1.60475 -2.35082,-2.40713 -4.32578,-2.40715 -1.97497,2e-5 -3.4282,0.80788 -4.35968,2.42358 z m -2.84481,15.23398 c -1.59312,-2.21092 -2.38968,-5.16805 -2.38968,-8.87142 0,-3.70334 0.79673,-6.66031 2.39019,-8.8709 1.59346,-2.21055 3.99479,-3.31584 7.20398,-3.31587 3.20918,3e-5 5.6105,1.10532 7.20398,3.31587 1.59345,2.21059 2.39018,5.16756 2.3902,8.8709 -2e-5,3.70337 -0.79675,6.66033 -2.3902,8.8709 -1.59348,2.21058 -3.9948,3.31587 -7.20398,3.31587 -3.20919,0 -5.61069,-1.10512 -7.20449,-3.31535 z"
         inkscape:connector-curvature="0" />
      <path
         id="path3818"
         d="m 243.22934,641.21444 8.55087,0 0,23.53211 -3.77048,0 0,-19.9969 -4.78039,0 z"
         inkscape:connector-curvature="0" />
      <path
         id="path3820"
         d="m 260.98244,641.21444 8.55088,0 0,23.53211 -3.77048,0 0,-19.9969 -4.7804,0 z"
         inkscape:connector-curvature="0" />
      <path
         id="path3822"
         d="m 281.64714,646.4664 c -0.93149,1.61574 -1.39724,3.73659 -1.39723,6.36256 -10e-6,2.62599 0.46574,4.74701 1.39723,6.36307 0.93149,1.61607 2.38471,2.4241 4.35969,2.4241 1.97495,0 3.41687,-0.80238 4.32577,-2.40715 0.90888,-1.60476 1.36332,-3.73126 1.36334,-6.37951 -2e-5,-2.64822 -0.45446,-4.77472 -1.36334,-6.37951 -0.9089,-1.60474 -2.35082,-2.40712 -4.32577,-2.40714 -1.97498,2e-5 -3.4282,0.80788 -4.35969,2.42358 z m -2.84481,15.23398 c -1.59312,-2.21092 -2.38968,-5.16805 -2.38968,-8.87142 0,-3.70334 0.79673,-6.66031 2.39019,-8.8709 1.59346,-2.21056 3.99479,-3.31584 7.20399,-3.31587 3.20917,3e-5 5.6105,1.10531 7.20398,3.31587 1.59344,2.21059 2.39017,5.16756 2.39019,8.8709 -2e-5,3.70337 -0.79675,6.66033 -2.39019,8.8709 -1.59348,2.21058 -3.99481,3.31587 -7.20398,3.31587 -3.2092,0 -5.6107,-1.10512 -7.2045,-3.31535 z"
         inkscape:connector-curvature="0" />
      <path
         id="path3824"
         d="m 299.44751,641.21444 8.55087,0 0,23.53211 -3.77048,0 0,-19.9969 -4.78039,0 z"
         inkscape:connector-curvature="0" />
      <path
         id="path3826"
         d="m 317.20062,641.21444 8.55087,0 0,23.53211 -3.77048,0 0,-19.9969 -4.78039,0 z"
         inkscape:connector-curvature="0" />
      <path
         id="path3828"
         d="m 337.86532,646.4664 c -0.9315,1.61574 -1.39724,3.73659 -1.39724,6.36256 0,2.62599 0.46574,4.74701 1.39724,6.36307 0.93148,1.61607 2.38471,2.4241 4.35968,2.4241 1.97495,0 3.41688,-0.80238 4.32578,-2.40715 0.90887,-1.60476 1.36331,-3.73126 1.36333,-6.37951 -2e-5,-2.64822 -0.45446,-4.77472 -1.36333,-6.37951 -0.9089,-1.60474 -2.35083,-2.40712 -4.32578,-2.40714 -1.97497,2e-5 -3.4282,0.80788 -4.35968,2.42358 z m -2.84481,15.23398 c -1.59313,-2.21092 -2.38969,-5.16805 -2.38969,-8.87142 0,-3.70334 0.79673,-6.66031 2.3902,-8.8709 1.59346,-2.21056 3.99478,-3.31584 7.20398,-3.31587 3.20917,3e-5 5.6105,1.10531 7.20398,3.31587 1.59344,2.21059 2.39018,5.16756 2.3902,8.8709 -2e-5,3.70337 -0.79676,6.66033 -2.3902,8.8709 -1.59348,2.21058 -3.99481,3.31587 -7.20398,3.31587 -3.2092,0 -5.61069,-1.10512 -7.20449,-3.31535 z"
         inkscape:connector-curvature="0" />
      <path
         id="path3830"
         d="m 358.57727,646.4664 c -0.9315,1.61574 -1.39724,3.73659 -1.39724,6.36256 0,2.62599 0.46574,4.74701 1.39724,6.36307 0.93148,1.61607 2.38471,2.4241 4.35968,2.4241 1.97495,0 3.41688,-0.80238 4.32578,-2.40715 0.90887,-1.60476 1.36332,-3.73126 1.36333,-6.37951 -10e-6,-2.64822 -0.45446,-4.77472 -1.36333,-6.37951 -0.9089,-1.60474 -2.35083,-2.40712 -4.32578,-2.40714 -1.97497,2e-5 -3.4282,0.80788 -4.35968,2.42358 z m -2.84481,15.23398 c -1.59313,-2.21092 -2.38969,-5.16805 -2.38969,-8.87142 0,-3.70334 0.79673,-6.66031 2.3902,-8.8709 1.59346,-2.21056 3.99479,-3.31584 7.20398,-3.31587 3.20918,3e-5 5.6105,1.10531 7.20398,3.31587 1.59345,2.21059 2.39018,5.16756 2.3902,8.8709 -2e-5,3.70337 -0.79675,6.66033 -2.3902,8.8709 -1.59348,2.21058 -3.9948,3.31587 -7.20398,3.31587 -3.20919,0 -5.61069,-1.10512 -7.20449,-3.31535 z"
         inkscape:connector-curvature="0" />
      <path
         id="path3832"
         d="m 376.37764,641.21444 8.55087,0 0,23.53211 -3.77048,0 0,-19.9969 -4.78039,0 z"
         inkscape:connector-curvature="0" />
      <path
         id="path3834"
         d="m 397.04234,646.4664 c -0.93149,1.61574 -1.39724,3.73659 -1.39723,6.36256 -10e-6,2.62599 0.46574,4.74701 1.39723,6.36307 0.93149,1.61607 2.38471,2.4241 4.35968,2.4241 1.97496,0 3.41688,-0.80238 4.32578,-2.40715 0.90887,-1.60476 1.36332,-3.73126 1.36333,-6.37951 -1e-5,-2.64822 -0.45446,-4.77472 -1.36333,-6.37951 -0.9089,-1.60474 -2.35082,-2.40712 -4.32578,-2.40714 -1.97497,2e-5 -3.42819,0.80788 -4.35968,2.42358 z m -2.84481,15.23398 c -1.59312,-2.21092 -2.38968,-5.16805 -2.38968,-8.87142 0,-3.70334 0.79673,-6.66031 2.39019,-8.8709 1.59346,-2.21056 3.99479,-3.31584 7.20398,-3.31587 3.20918,3e-5 5.6105,1.10531 7.20398,3.31587 1.59345,2.21059 2.39018,5.16756 2.3902,8.8709 -2e-5,3.70337 -0.79675,6.66033 -2.3902,8.8709 -1.59348,2.21058 -3.9948,3.31587 -7.20398,3.31587 -3.20919,0 -5.61069,-1.10512 -7.20449,-3.31535 z"
         inkscape:connector-curvature="0" />
      <path
         id="path3836"
         d="m 414.84271,641.21444 8.55087,0 0,23.53211 -3.77048,0 0,-19.9969 -4.78039,0 z"
         inkscape:connector-curvature="0" />
      <path
         id="path3838"
         d="m 435.5074,646.4664 c -0.9315,1.61574 -1.39724,3.73659 -1.39724,6.36256 0,2.62599 0.46574,4.74701 1.39724,6.36307 0.93148,1.61607 2.38471,2.4241 4.35968,2.4241 1.97495,0 3.41688,-0.80238 4.32578,-2.40715 0.90887,-1.60476 1.36332,-3.73126 1.36333,-6.37951 -1e-5,-2.64822 -0.45446,-4.77472 -1.36333,-6.37951 -0.9089,-1.60474 -2.35083,-2.40712 -4.32578,-2.40714 -1.97497,2e-5 -3.4282,0.80788 -4.35968,2.42358 z m -2.84481,15.23398 c -1.59313,-2.21092 -2.38969,-5.16805 -2.38969,-8.87142 0,-3.70334 0.79673,-6.66031 2.3902,-8.8709 1.59346,-2.21056 3.99479,-3.31584 7.20398,-3.31587 3.20918,3e-5 5.6105,1.10531 7.20398,3.31587 1.59345,2.21059 2.39018,5.16756 2.3902,8.8709 -2e-5,3.70337 -0.79675,6.66033 -2.3902,8.8709 -1.59348,2.21058 -3.9948,3.31587 -7.20398,3.31587 -3.20919,0 -5.61069,-1.10512 -7.20449,-3.31535 z"
         inkscape:connector-curvature="0" />
      <path
         id="path3840"
         d="m 453.30777,641.21444 8.55087,0 0,23.53211 -3.77048,0 0,-19.9969 -4.78039,0 z"
         inkscape:connector-curvature="0" />
      <path
         id="path3842"
         d="m 473.97247,646.4664 c -0.93149,1.61574 -1.39724,3.73659 -1.39723,6.36256 -1e-5,2.62599 0.46574,4.74701 1.39723,6.36307 0.93149,1.61607 2.38471,2.4241 4.35968,2.4241 1.97496,0 3.41688,-0.80238 4.32578,-2.40715 0.90887,-1.60476 1.36332,-3.73126 1.36333,-6.37951 -10e-6,-2.64822 -0.45446,-4.77472 -1.36333,-6.37951 -0.9089,-1.60474 -2.35082,-2.40712 -4.32578,-2.40714 -1.97497,2e-5 -3.42819,0.80788 -4.35968,2.42358 z m -2.84481,15.23398 c -1.59312,-2.21092 -2.38968,-5.16805 -2.38968,-8.87142 0,-3.70334 0.79673,-6.66031 2.39019,-8.8709 1.59346,-2.21056 3.99479,-3.31584 7.20398,-3.31587 3.20918,3e-5 5.6105,1.10531 7.20398,3.31587 1.59345,2.21059 2.39018,5.16756 2.3902,8.8709 -2e-5,3.70337 -0.79675,6.66033 -2.3902,8.8709 -1.59348,2.21058 -3.9948,3.31587 -7.20398,3.31587 -3.20919,0 -5.61069,-1.10512 -7.20449,-3.31535 z"
         inkscape:connector-curvature="0" />
      <path
         id="path3844"
         d="m 491.77284,641.21444 8.55087,0 0,23.53211 -3.77048,0 0,-19.9969 -4.78039,0 z"
         inkscape:connector-curvature="0" />
      <path
         id="path3846"
         d="m 246.14093,688.54784 c -0.9315,1.61574 -1.39724,3.73659 -1.39724,6.36256 0,2.62599 0.46574,4.74701 1.39724,6.36307 0.93148,1.61607 2.38471,2.4241 4.35968,2.4241 1.97495,0 3.41688,-0.80238 4.32578,-2.40715 0.90887,-1.60476 1.36332,-3.73126 1.36333,-6.37951 -1e-5,-2.64823 -0.45446,-4.77473 -1.36333,-6.37951 -0.9089,-1.60474 -2.35083,-2.40713 -4.32578,-2.40715 -1.97497,2e-5 -3.4282,0.80788 -4.35968,2.42359 z m -2.84481,15.23397 c -1.59313,-2.21091 -2.38969,-5.16805 -2.38969,-8.87141 0,-3.70335 0.79673,-6.66031 2.3902,-8.87091 1.59346,-2.21055 3.99478,-3.31584 7.20398,-3.31586 3.20918,2e-5 5.6105,1.10531 7.20398,3.31586 1.59345,2.2106 2.39018,5.16756 2.3902,8.87091 -2e-5,3.70336 -0.79675,6.66033 -2.3902,8.8709 -1.59348,2.21058 -3.9948,3.31586 -7.20398,3.31586 -3.2092,0 -5.61069,-1.10511 -7.20449,-3.31535 z"
         inkscape:connector-curvature="0" />
      <path
         id="path3848"
         d="m 263.9413,683.29588 8.55087,0 0,23.53211 -3.77048,0 0,-19.9969 -4.78039,0 z"
         inkscape:connector-curvature="0" />
      <path
         id="path3850"
         d="m 281.6944,683.29588 8.55088,0 0,23.53211 -3.77048,0 0,-19.9969 -4.7804,0 z"
         inkscape:connector-curvature="0" />
      <path
         id="path3852"
         d="m 302.3591,688.54784 c -0.9315,1.61574 -1.39724,3.73659 -1.39724,6.36256 0,2.62599 0.46574,4.74701 1.39724,6.36307 0.93148,1.61607 2.38471,2.4241 4.35968,2.4241 1.97495,0 3.41688,-0.80238 4.32578,-2.40715 0.90887,-1.60476 1.36332,-3.73126 1.36333,-6.37951 -1e-5,-2.64823 -0.45446,-4.77473 -1.36333,-6.37951 -0.9089,-1.60474 -2.35083,-2.40713 -4.32578,-2.40715 -1.97497,2e-5 -3.4282,0.80788 -4.35968,2.42359 z m -2.84481,15.23397 c -1.59313,-2.21091 -2.38969,-5.16805 -2.38969,-8.87141 0,-3.70335 0.79673,-6.66031 2.3902,-8.87091 1.59346,-2.21055 3.99479,-3.31584 7.20398,-3.31586 3.20918,2e-5 5.6105,1.10531 7.20398,3.31586 1.59345,2.2106 2.39018,5.16756 2.3902,8.87091 -2e-5,3.70336 -0.79675,6.66033 -2.3902,8.8709 -1.59348,2.21058 -3.9948,3.31586 -7.20398,3.31586 -3.20919,0 -5.61069,-1.10511 -7.20449,-3.31535 z"
         inkscape:connector-curvature="0" />
      <path
         id="path3854"
         d="m 323.07106,688.54784 c -0.9315,1.61574 -1.39724,3.73659 -1.39724,6.36256 0,2.62599 0.46574,4.74701 1.39724,6.36307 0.93148,1.61607 2.38471,2.4241 4.35968,2.4241 1.97495,0 3.41688,-0.80238 4.32578,-2.40715 0.90887,-1.60476 1.36332,-3.73126 1.36333,-6.37951 -10e-6,-2.64823 -0.45446,-4.77473 -1.36333,-6.37951 -0.9089,-1.60474 -2.35083,-2.40713 -4.32578,-2.40715 -1.97497,2e-5 -3.4282,0.80788 -4.35968,2.42359 z m -2.84481,15.23397 c -1.59313,-2.21091 -2.38969,-5.16805 -2.38969,-8.87141 0,-3.70335 0.79673,-6.66031 2.3902,-8.87091 1.59346,-2.21055 3.99478,-3.31584 7.20398,-3.31586 3.20918,2e-5 5.6105,1.10531 7.20398,3.31586 1.59345,2.2106 2.39018,5.16756 2.3902,8.87091 -2e-5,3.70336 -0.79675,6.66033 -2.3902,8.8709 -1.59348,2.21058 -3.9948,3.31586 -7.20398,3.31586 -3.2092,0 -5.61069,-1.10511 -7.20449,-3.31535 z"
         inkscape:connector-curvature="0" />
      <path
         id="path3856"
         d="m 340.87143,683.29588 8.55087,0 0,23.53211 -3.77048,0 0,-19.9969 -4.78039,0 z"
         inkscape:connector-curvature="0" />
      <path
         id="path3858"
         d="m 361.53612,688.54784 c -0.93149,1.61574 -1.39724,3.73659 -1.39723,6.36256 -1e-5,2.62599 0.46574,4.74701 1.39723,6.36307 0.93149,1.61607 2.38471,2.4241 4.35969,2.4241 1.97495,0 3.41687,-0.80238 4.32577,-2.40715 0.90888,-1.60476 1.36332,-3.73126 1.36334,-6.37951 -2e-5,-2.64823 -0.45446,-4.77473 -1.36334,-6.37951 -0.9089,-1.60474 -2.35082,-2.40713 -4.32577,-2.40715 -1.97498,2e-5 -3.4282,0.80788 -4.35969,2.42359 z m -2.84481,15.23397 c -1.59312,-2.21091 -2.38968,-5.16805 -2.38968,-8.87141 0,-3.70335 0.79673,-6.66031 2.3902,-8.87091 1.59346,-2.21055 3.99478,-3.31584 7.20398,-3.31586 3.20917,2e-5 5.6105,1.10531 7.20398,3.31586 1.59344,2.2106 2.39017,5.16756 2.39019,8.87091 -2e-5,3.70336 -0.79675,6.66033 -2.39019,8.8709 -1.59348,2.21058 -3.99481,3.31586 -7.20398,3.31586 -3.2092,0 -5.6107,-1.10511 -7.2045,-3.31535 z"
         inkscape:connector-curvature="0" />
      <path
         id="path3860"
         d="m 379.33648,683.29588 8.55088,0 0,23.53211 -3.77048,0 0,-19.9969 -4.7804,0 z"
         inkscape:connector-curvature="0" />
      <path
         id="path3862"
         d="m 397.0896,683.29588 8.55087,0 0,23.53211 -3.77048,0 0,-19.9969 -4.78039,0 z"
         inkscape:connector-curvature="0" />
      <path
         id="path3864"
         d="m 414.84271,683.29588 8.55087,0 0,23.53211 -3.77048,0 0,-19.9969 -4.78039,0 z"
         inkscape:connector-curvature="0" />
      <path
         id="path3866"
         d="m 435.5074,688.54784 c -0.9315,1.61574 -1.39724,3.73659 -1.39724,6.36256 0,2.62599 0.46574,4.74701 1.39724,6.36307 0.93148,1.61607 2.38471,2.4241 4.35968,2.4241 1.97495,0 3.41688,-0.80238 4.32578,-2.40715 0.90887,-1.60476 1.36332,-3.73126 1.36333,-6.37951 -1e-5,-2.64823 -0.45446,-4.77473 -1.36333,-6.37951 -0.9089,-1.60474 -2.35083,-2.40713 -4.32578,-2.40715 -1.97497,2e-5 -3.4282,0.80788 -4.35968,2.42359 z m -2.84481,15.23397 c -1.59313,-2.21091 -2.38969,-5.16805 -2.38969,-8.87141 0,-3.70335 0.79673,-6.66031 2.3902,-8.87091 1.59346,-2.21055 3.99479,-3.31584 7.20398,-3.31586 3.20918,2e-5 5.6105,1.10531 7.20398,3.31586 1.59345,2.2106 2.39018,5.16756 2.3902,8.87091 -2e-5,3.70336 -0.79675,6.66033 -2.3902,8.8709 -1.59348,2.21058 -3.9948,3.31586 -7.20398,3.31586 -3.20919,0 -5.61069,-1.10511 -7.20449,-3.31535 z"
         inkscape:connector-curvature="0" />
      <path
         id="path3868"
         d="m 453.30777,683.29588 8.55087,0 0,23.53211 -3.77048,0 0,-19.9969 -4.78039,0 z"
         inkscape:connector-curvature="0" />
      <path
         id="path3870"
         d="m 471.06088,683.29588 8.55087,0 0,23.53211 -3.77048,0 0,-19.9969 -4.78039,0 z"
         inkscape:connector-curvature="0" />
      <path
         id="path3872"
         d="m 491.72557,688.54784 c -0.9315,1.61574 -1.39724,3.73659 -1.39724,6.36256 0,2.62599 0.46574,4.74701 1.39724,6.36307 0.93148,1.61607 2.38471,2.4241 4.35968,2.4241 1.97495,0 3.41688,-0.80238 4.32578,-2.40715 0.90887,-1.60476 1.36332,-3.73126 1.36333,-6.37951 -10e-6,-2.64823 -0.45446,-4.77473 -1.36333,-6.37951 -0.9089,-1.60474 -2.35083,-2.40713 -4.32578,-2.40715 -1.97497,2e-5 -3.4282,0.80788 -4.35968,2.42359 z m -2.84481,15.23397 c -1.59313,-2.21091 -2.38969,-5.16805 -2.38969,-8.87141 0,-3.70335 0.79674,-6.66031 2.3902,-8.87091 1.59346,-2.21055 3.99479,-3.31584 7.20398,-3.31586 3.20918,2e-5 5.6105,1.10531 7.20398,3.31586 1.59345,2.2106 2.39018,5.16756 2.3902,8.87091 -2e-5,3.70336 -0.79675,6.66033 -2.3902,8.8709 -1.59348,2.21058 -3.9948,3.31586 -7.20398,3.31586 -3.20919,0 -5.61069,-1.10511 -7.20449,-3.31535 z"
         inkscape:connector-curvature="0" />
      <path
         id="path3874"
         d="m 246.14093,730.62928 c -0.9315,1.61574 -1.39724,3.73659 -1.39724,6.36255 0,2.62599 0.46574,4.74701 1.39724,6.36307 0.93148,1.61607 2.38471,2.42411 4.35968,2.4241 1.97495,10e-6 3.41688,-0.80237 4.32578,-2.40714 0.90887,-1.60476 1.36332,-3.73126 1.36333,-6.37951 -1e-5,-2.64823 -0.45446,-4.77473 -1.36333,-6.37951 -0.9089,-1.60475 -2.35083,-2.40713 -4.32578,-2.40715 -1.97497,2e-5 -3.4282,0.80788 -4.35968,2.42359 z m -2.84481,15.23397 c -1.59313,-2.21091 -2.38969,-5.16805 -2.38969,-8.87142 0,-3.70334 0.79673,-6.6603 2.3902,-8.8709 1.59346,-2.21055 3.99478,-3.31584 7.20398,-3.31586 3.20918,2e-5 5.6105,1.10531 7.20398,3.31586 1.59345,2.2106 2.39018,5.16756 2.3902,8.8709 -2e-5,3.70337 -0.79675,6.66033 -2.3902,8.87091 -1.59348,2.21057 -3.9948,3.31586 -7.20398,3.31586 -3.2092,0 -5.61069,-1.10512 -7.20449,-3.31535 z"
         inkscape:connector-curvature="0" />
      <path
         id="path3876"
         d="m 266.85289,730.62928 c -0.9315,1.61574 -1.39724,3.73659 -1.39724,6.36255 0,2.62599 0.46574,4.74701 1.39724,6.36307 0.93148,1.61607 2.38471,2.42411 4.35968,2.4241 1.97495,10e-6 3.41688,-0.80237 4.32578,-2.40714 0.90887,-1.60476 1.36331,-3.73126 1.36333,-6.37951 -2e-5,-2.64823 -0.45446,-4.77473 -1.36333,-6.37951 -0.9089,-1.60475 -2.35083,-2.40713 -4.32578,-2.40715 -1.97497,2e-5 -3.4282,0.80788 -4.35968,2.42359 z m -2.84482,15.23397 c -1.59312,-2.21091 -2.38968,-5.16805 -2.38968,-8.87142 0,-3.70334 0.79673,-6.6603 2.3902,-8.8709 1.59346,-2.21055 3.99478,-3.31584 7.20398,-3.31586 3.20917,2e-5 5.6105,1.10531 7.20398,3.31586 1.59344,2.2106 2.39018,5.16756 2.3902,8.8709 -2e-5,3.70337 -0.79676,6.66033 -2.3902,8.87091 -1.59348,2.21057 -3.99481,3.31586 -7.20398,3.31586 -3.2092,0 -5.61069,-1.10512 -7.2045,-3.31535 z"
         inkscape:connector-curvature="0" />
      <path
         id="path3878"
         d="m 287.56484,730.62928 c -0.93149,1.61574 -1.39723,3.73659 -1.39723,6.36255 0,2.62599 0.46574,4.74701 1.39723,6.36307 0.93149,1.61607 2.38471,2.42411 4.35969,2.4241 1.97495,10e-6 3.41687,-0.80237 4.32578,-2.40714 0.90887,-1.60476 1.36331,-3.73126 1.36333,-6.37951 -2e-5,-2.64823 -0.45446,-4.77473 -1.36333,-6.37951 -0.90891,-1.60475 -2.35083,-2.40713 -4.32578,-2.40715 -1.97498,2e-5 -3.4282,0.80788 -4.35969,2.42359 z m -2.84481,15.23397 c -1.59312,-2.21091 -2.38968,-5.16805 -2.38968,-8.87142 0,-3.70334 0.79673,-6.6603 2.3902,-8.8709 1.59346,-2.21055 3.99478,-3.31584 7.20398,-3.31586 3.20917,2e-5 5.6105,1.10531 7.20398,3.31586 1.59344,2.2106 2.39017,5.16756 2.39019,8.8709 -2e-5,3.70337 -0.79675,6.66033 -2.39019,8.87091 -1.59348,2.21057 -3.99481,3.31586 -7.20398,3.31586 -3.2092,0 -5.61069,-1.10512 -7.2045,-3.31535 z"
         inkscape:connector-curvature="0" />
      <path
         id="path3880"
         d="m 305.36521,725.37732 8.55087,0 0,23.53211 -3.77048,0 0,-19.9969 -4.78039,0 z"
         inkscape:connector-curvature="0" />
      <path
         id="path3882"
         d="m 326.02991,730.62928 c -0.9315,1.61574 -1.39724,3.73659 -1.39724,6.36255 0,2.62599 0.46574,4.74701 1.39724,6.36307 0.93148,1.61607 2.38471,2.42411 4.35968,2.4241 1.97495,10e-6 3.41688,-0.80237 4.32578,-2.40714 0.90887,-1.60476 1.36331,-3.73126 1.36333,-6.37951 -2e-5,-2.64823 -0.45446,-4.77473 -1.36333,-6.37951 -0.9089,-1.60475 -2.35083,-2.40713 -4.32578,-2.40715 -1.97497,2e-5 -3.4282,0.80788 -4.35968,2.42359 z m -2.84482,15.23397 c -1.59312,-2.21091 -2.38968,-5.16805 -2.38968,-8.87142 0,-3.70334 0.79673,-6.6603 2.3902,-8.8709 1.59346,-2.21055 3.99478,-3.31584 7.20398,-3.31586 3.20917,2e-5 5.6105,1.10531 7.20398,3.31586 1.59344,2.2106 2.39018,5.16756 2.3902,8.8709 -2e-5,3.70337 -0.79676,6.66033 -2.3902,8.87091 -1.59348,2.21057 -3.99481,3.31586 -7.20398,3.31586 -3.2092,0 -5.61069,-1.10512 -7.2045,-3.31535 z"
         inkscape:connector-curvature="0" />
      <path
         id="path3884"
         d="m 346.74187,730.62928 c -0.9315,1.61574 -1.39724,3.73659 -1.39724,6.36255 0,2.62599 0.46574,4.74701 1.39724,6.36307 0.93148,1.61607 2.3847,2.42411 4.35968,2.4241 1.97495,10e-6 3.41687,-0.80237 4.32578,-2.40714 0.90887,-1.60476 1.36331,-3.73126 1.36333,-6.37951 -2e-5,-2.64823 -0.45446,-4.77473 -1.36333,-6.37951 -0.90891,-1.60475 -2.35083,-2.40713 -4.32578,-2.40715 -1.97498,2e-5 -3.4282,0.80788 -4.35968,2.42359 z m -2.84482,15.23397 c -1.59312,-2.21091 -2.38968,-5.16805 -2.38968,-8.87142 0,-3.70334 0.79673,-6.6603 2.3902,-8.8709 1.59346,-2.21055 3.99478,-3.31584 7.20398,-3.31586 3.20917,2e-5 5.6105,1.10531 7.20398,3.31586 1.59344,2.2106 2.39018,5.16756 2.3902,8.8709 -2e-5,3.70337 -0.79676,6.66033 -2.3902,8.87091 -1.59348,2.21057 -3.99481,3.31586 -7.20398,3.31586 -3.2092,0 -5.61069,-1.10512 -7.2045,-3.31535 z"
         inkscape:connector-curvature="0" />
      <path
         id="path3886"
         d="m 364.54223,725.37732 8.55088,0 0,23.53211 -3.77048,0 0,-19.9969 -4.7804,0 z"
         inkscape:connector-curvature="0" />
      <path
         id="path3888"
         d="m 382.29535,725.37732 8.55087,0 0,23.53211 -3.77048,0 0,-19.9969 -4.78039,0 z"
         inkscape:connector-curvature="0" />
      <path
         id="path3890"
         d="m 400.04844,725.37732 8.55088,0 0,23.53211 -3.77048,0 0,-19.9969 -4.7804,0 z"
         inkscape:connector-curvature="0" />
      <path
         id="path3892"
         d="m 420.71315,730.62928 c -0.9315,1.61574 -1.39724,3.73659 -1.39724,6.36255 0,2.62599 0.46574,4.74701 1.39724,6.36307 0.93148,1.61607 2.38471,2.42411 4.35968,2.4241 1.97495,10e-6 3.41688,-0.80237 4.32578,-2.40714 0.90887,-1.60476 1.36332,-3.73126 1.36333,-6.37951 -10e-6,-2.64823 -0.45446,-4.77473 -1.36333,-6.37951 -0.9089,-1.60475 -2.35083,-2.40713 -4.32578,-2.40715 -1.97497,2e-5 -3.4282,0.80788 -4.35968,2.42359 z m -2.84481,15.23397 c -1.59313,-2.21091 -2.38969,-5.16805 -2.38969,-8.87142 0,-3.70334 0.79673,-6.6603 2.3902,-8.8709 1.59346,-2.21055 3.99478,-3.31584 7.20398,-3.31586 3.20918,2e-5 5.6105,1.10531 7.20398,3.31586 1.59345,2.2106 2.39018,5.16756 2.3902,8.8709 -2e-5,3.70337 -0.79675,6.66033 -2.3902,8.87091 -1.59348,2.21057 -3.9948,3.31586 -7.20398,3.31586 -3.2092,0 -5.61069,-1.10512 -7.20449,-3.31535 z"
         inkscape:connector-curvature="0" />
      <path
         id="path3894"
         d="m 438.51352,725.37732 8.55087,0 0,23.53211 -3.77048,0 0,-19.9969 -4.78039,0 z"
         inkscape:connector-curvature="0" />
      <path
         id="path3896"
         d="m 459.17821,730.62928 c -0.9315,1.61574 -1.39724,3.73659 -1.39724,6.36255 0,2.62599 0.46574,4.74701 1.39724,6.36307 0.93148,1.61607 2.38471,2.42411 4.35968,2.4241 1.97495,10e-6 3.41688,-0.80237 4.32578,-2.40714 0.90887,-1.60476 1.36331,-3.73126 1.36333,-6.37951 -2e-5,-2.64823 -0.45446,-4.77473 -1.36333,-6.37951 -0.9089,-1.60475 -2.35083,-2.40713 -4.32578,-2.40715 -1.97497,2e-5 -3.4282,0.80788 -4.35968,2.42359 z m -2.84482,15.23397 c -1.59312,-2.21091 -2.38968,-5.16805 -2.38968,-8.87142 0,-3.70334 0.79673,-6.6603 2.3902,-8.8709 1.59346,-2.21055 3.99478,-3.31584 7.20398,-3.31586 3.20917,2e-5 5.6105,1.10531 7.20398,3.31586 1.59344,2.2106 2.39018,5.16756 2.3902,8.8709 -2e-5,3.70337 -0.79676,6.66033 -2.3902,8.87091 -1.59348,2.21057 -3.99481,3.31586 -7.20398,3.31586 -3.2092,0 -5.61069,-1.10512 -7.2045,-3.31535 z"
         inkscape:connector-curvature="0" />
      <path
         id="path3898"
         d="m 476.97857,725.37732 8.55088,0 0,23.53211 -3.77048,0 0,-19.9969 -4.7804,0 z"
         inkscape:connector-curvature="0" />
      <path
         id="path3900"
         d="m 494.73169,725.37732 8.55087,0 0,23.53211 -3.77048,0 0,-19.9969 -4.78039,0 z"
         inkscape:connector-curvature="0" />
      <path
         id="path3902"
         d="m 243.22934,767.45875 8.55087,0 0,23.53211 -3.77048,0 0,-19.9969 -4.78039,0 z"
         inkscape:connector-curvature="0" />
      <path
         id="path3904"
         d="m 263.89404,772.71071 c -0.9315,1.61574 -1.39724,3.73659 -1.39724,6.36256 0,2.62599 0.46574,4.74701 1.39724,6.36307 0.93148,1.61607 2.38471,2.4241 4.35968,2.4241 1.97495,0 3.41688,-0.80238 4.32578,-2.40715 0.90887,-1.60476 1.36331,-3.73126 1.36333,-6.37951 -2e-5,-2.64822 -0.45446,-4.77472 -1.36333,-6.3795 -0.9089,-1.60475 -2.35083,-2.40713 -4.32578,-2.40715 -1.97497,2e-5 -3.4282,0.80788 -4.35968,2.42358 z m -2.84482,15.23398 c -1.59312,-2.21092 -2.38968,-5.16805 -2.38968,-8.87142 0,-3.70334 0.79673,-6.66031 2.3902,-8.8709 1.59346,-2.21056 3.99478,-3.31584 7.20398,-3.31587 3.20917,3e-5 5.6105,1.10531 7.20398,3.31587 1.59344,2.21059 2.39018,5.16756 2.3902,8.8709 -2e-5,3.70337 -0.79676,6.66033 -2.3902,8.8709 -1.59348,2.21058 -3.99481,3.31587 -7.20398,3.31587 -3.2092,0 -5.61069,-1.10512 -7.2045,-3.31535 z"
         inkscape:connector-curvature="0" />
      <path
         id="path3906"
         d="m 284.60599,772.71071 c -0.93149,1.61574 -1.39724,3.73659 -1.39723,6.36256 -10e-6,2.62599 0.46574,4.74701 1.39723,6.36307 0.93149,1.61607 2.38471,2.4241 4.35969,2.4241 1.97495,0 3.41687,-0.80238 4.32577,-2.40715 0.90888,-1.60476 1.36332,-3.73126 1.36334,-6.37951 -2e-5,-2.64822 -0.45446,-4.77472 -1.36334,-6.3795 -0.9089,-1.60475 -2.35082,-2.40713 -4.32577,-2.40715 -1.97498,2e-5 -3.4282,0.80788 -4.35969,2.42358 z m -2.84481,15.23398 c -1.59312,-2.21092 -2.38968,-5.16805 -2.38968,-8.87142 0,-3.70334 0.79673,-6.66031 2.3902,-8.8709 1.59346,-2.21056 3.99478,-3.31584 7.20398,-3.31587 3.20917,3e-5 5.6105,1.10531 7.20398,3.31587 1.59344,2.21059 2.39017,5.16756 2.39019,8.8709 -2e-5,3.70337 -0.79675,6.66033 -2.39019,8.8709 -1.59348,2.21058 -3.99481,3.31587 -7.20398,3.31587 -3.2092,0 -5.6107,-1.10512 -7.2045,-3.31535 z"
         inkscape:connector-curvature="0" />
      <path
         id="path3908"
         d="m 302.40636,767.45875 8.55088,0 0,23.53211 -3.77048,0 0,-19.9969 -4.7804,0 z"
         inkscape:connector-curvature="0" />
      <path
         id="path3910"
         d="m 323.07106,772.71071 c -0.9315,1.61574 -1.39724,3.73659 -1.39724,6.36256 0,2.62599 0.46574,4.74701 1.39724,6.36307 0.93148,1.61607 2.38471,2.4241 4.35968,2.4241 1.97495,0 3.41688,-0.80238 4.32578,-2.40715 0.90887,-1.60476 1.36332,-3.73126 1.36333,-6.37951 -10e-6,-2.64822 -0.45446,-4.77472 -1.36333,-6.3795 -0.9089,-1.60475 -2.35083,-2.40713 -4.32578,-2.40715 -1.97497,2e-5 -3.4282,0.80788 -4.35968,2.42358 z m -2.84481,15.23398 c -1.59313,-2.21092 -2.38969,-5.16805 -2.38969,-8.87142 0,-3.70334 0.79673,-6.66031 2.3902,-8.8709 1.59346,-2.21056 3.99478,-3.31584 7.20398,-3.31587 3.20918,3e-5 5.6105,1.10531 7.20398,3.31587 1.59345,2.21059 2.39018,5.16756 2.3902,8.8709 -2e-5,3.70337 -0.79675,6.66033 -2.3902,8.8709 -1.59348,2.21058 -3.9948,3.31587 -7.20398,3.31587 -3.2092,0 -5.61069,-1.10512 -7.20449,-3.31535 z"
         inkscape:connector-curvature="0" />
      <path
         id="path3912"
         d="m 340.87143,767.45875 8.55087,0 0,23.53211 -3.77048,0 0,-19.9969 -4.78039,0 z"
         inkscape:connector-curvature="0" />
      <path
         id="path3914"
         d="m 361.53612,772.71071 c -0.93149,1.61574 -1.39724,3.73659 -1.39723,6.36256 -1e-5,2.62599 0.46574,4.74701 1.39723,6.36307 0.93149,1.61607 2.38471,2.4241 4.35969,2.4241 1.97495,0 3.41687,-0.80238 4.32577,-2.40715 0.90888,-1.60476 1.36332,-3.73126 1.36334,-6.37951 -2e-5,-2.64822 -0.45446,-4.77472 -1.36334,-6.3795 -0.9089,-1.60475 -2.35082,-2.40713 -4.32577,-2.40715 -1.97498,2e-5 -3.4282,0.80788 -4.35969,2.42358 z m -2.84481,15.23398 c -1.59312,-2.21092 -2.38968,-5.16805 -2.38968,-8.87142 0,-3.70334 0.79673,-6.66031 2.3902,-8.8709 1.59346,-2.21056 3.99478,-3.31584 7.20398,-3.31587 3.20917,3e-5 5.6105,1.10531 7.20398,3.31587 1.59344,2.21059 2.39017,5.16756 2.39019,8.8709 -2e-5,3.70337 -0.79675,6.66033 -2.39019,8.8709 -1.59348,2.21058 -3.99481,3.31587 -7.20398,3.31587 -3.2092,0 -5.6107,-1.10512 -7.2045,-3.31535 z"
         inkscape:connector-curvature="0" />
      <path
         id="path3916"
         d="m 379.33648,767.45875 8.55088,0 0,23.53211 -3.77048,0 0,-19.9969 -4.7804,0 z"
         inkscape:connector-curvature="0" />
      <path
         id="path3918"
         d="m 400.00119,772.71071 c -0.9315,1.61574 -1.39724,3.73659 -1.39724,6.36256 0,2.62599 0.46574,4.74701 1.39724,6.36307 0.93148,1.61607 2.38471,2.4241 4.35968,2.4241 1.97495,0 3.41688,-0.80238 4.32578,-2.40715 0.90887,-1.60476 1.36332,-3.73126 1.36333,-6.37951 -1e-5,-2.64822 -0.45446,-4.77472 -1.36333,-6.3795 -0.9089,-1.60475 -2.35083,-2.40713 -4.32578,-2.40715 -1.97497,2e-5 -3.4282,0.80788 -4.35968,2.42358 z m -2.84481,15.23398 c -1.59313,-2.21092 -2.38969,-5.16805 -2.38969,-8.87142 0,-3.70334 0.79673,-6.66031 2.3902,-8.8709 1.59346,-2.21056 3.99478,-3.31584 7.20398,-3.31587 3.20918,3e-5 5.6105,1.10531 7.20398,3.31587 1.59345,2.21059 2.39018,5.16756 2.3902,8.8709 -2e-5,3.70337 -0.79675,6.66033 -2.3902,8.8709 -1.59348,2.21058 -3.9948,3.31587 -7.20398,3.31587 -3.2092,0 -5.61069,-1.10512 -7.20449,-3.31535 z"
         inkscape:connector-curvature="0" />
      <path
         id="path3920"
         d="m 420.71315,772.71071 c -0.9315,1.61574 -1.39724,3.73659 -1.39724,6.36256 0,2.62599 0.46574,4.74701 1.39724,6.36307 0.93148,1.61607 2.38471,2.4241 4.35968,2.4241 1.97495,0 3.41688,-0.80238 4.32578,-2.40715 0.90887,-1.60476 1.36332,-3.73126 1.36333,-6.37951 -10e-6,-2.64822 -0.45446,-4.77472 -1.36333,-6.3795 -0.9089,-1.60475 -2.35083,-2.40713 -4.32578,-2.40715 -1.97497,2e-5 -3.4282,0.80788 -4.35968,2.42358 z m -2.84481,15.23398 c -1.59313,-2.21092 -2.38969,-5.16805 -2.38969,-8.87142 0,-3.70334 0.79673,-6.66031 2.3902,-8.8709 1.59346,-2.21056 3.99478,-3.31584 7.20398,-3.31587 3.20918,3e-5 5.6105,1.10531 7.20398,3.31587 1.59345,2.21059 2.39018,5.16756 2.3902,8.8709 -2e-5,3.70337 -0.79675,6.66033 -2.3902,8.8709 -1.59348,2.21058 -3.9948,3.31587 -7.20398,3.31587 -3.2092,0 -5.61069,-1.10512 -7.20449,-3.31535 z"
         inkscape:connector-curvature="0" />
      <path
         id="path3922"
         d="m 441.42511,772.71071 c -0.9315,1.61574 -1.39724,3.73659 -1.39724,6.36256 0,2.62599 0.46574,4.74701 1.39724,6.36307 0.93148,1.61607 2.38471,2.4241 4.35968,2.4241 1.97495,0 3.41688,-0.80238 4.32578,-2.40715 0.90887,-1.60476 1.36331,-3.73126 1.36333,-6.37951 -2e-5,-2.64822 -0.45446,-4.77472 -1.36333,-6.3795 -0.9089,-1.60475 -2.35083,-2.40713 -4.32578,-2.40715 -1.97497,2e-5 -3.4282,0.80788 -4.35968,2.42358 z m -2.84481,15.23398 c -1.59313,-2.21092 -2.38969,-5.16805 -2.38969,-8.87142 0,-3.70334 0.79673,-6.66031 2.3902,-8.8709 1.59346,-2.21056 3.99478,-3.31584 7.20398,-3.31587 3.20918,3e-5 5.6105,1.10531 7.20398,3.31587 1.59345,2.21059 2.39018,5.16756 2.3902,8.8709 -2e-5,3.70337 -0.79675,6.66033 -2.3902,8.8709 -1.59348,2.21058 -3.9948,3.31587 -7.20398,3.31587 -3.2092,0 -5.61069,-1.10512 -7.20449,-3.31535 z"
         inkscape:connector-curvature="0" />
      <path
         id="path3924"
         d="m 459.22548,767.45875 8.55087,0 0,23.53211 -3.77048,0 0,-19.9969 -4.78039,0 z"
         inkscape:connector-curvature="0" />
      <path
         id="path3926"
         d="m 479.89017,772.71071 c -0.9315,1.61574 -1.39724,3.73659 -1.39724,6.36256 0,2.62599 0.46574,4.74701 1.39724,6.36307 0.93148,1.61607 2.38471,2.4241 4.35968,2.4241 1.97495,0 3.41688,-0.80238 4.32578,-2.40715 0.90887,-1.60476 1.36331,-3.73126 1.36333,-6.37951 -2e-5,-2.64822 -0.45446,-4.77472 -1.36333,-6.3795 -0.9089,-1.60475 -2.35083,-2.40713 -4.32578,-2.40715 -1.97497,2e-5 -3.4282,0.80788 -4.35968,2.42358 z m -2.84482,15.23398 c -1.59312,-2.21092 -2.38968,-5.16805 -2.38968,-8.87142 0,-3.70334 0.79673,-6.66031 2.3902,-8.8709 1.59346,-2.21056 3.99478,-3.31584 7.20398,-3.31587 3.20917,3e-5 5.6105,1.10531 7.20398,3.31587 1.59344,2.21059 2.39018,5.16756 2.3902,8.8709 -2e-5,3.70337 -0.79676,6.66033 -2.3902,8.8709 -1.59348,2.21058 -3.99481,3.31587 -7.20398,3.31587 -3.2092,0 -5.61069,-1.10512 -7.2045,-3.31535 z"
         inkscape:connector-curvature="0" />
      <path
         id="path3928"
         d="m 497.69053,767.45875 8.55088,0 0,23.53211 -3.77048,0 0,-19.9969 -4.7804,0 z"
         inkscape:connector-curvature="0" />
      <path
         id="path3930"
         d="m 246.14093,814.79215 c -0.9315,1.61574 -1.39724,3.73659 -1.39724,6.36256 0,2.62599 0.46574,4.74701 1.39724,6.36307 0.93148,1.61607 2.38471,2.4241 4.35968,2.4241 1.97495,0 3.41688,-0.80238 4.32578,-2.40715 0.90887,-1.60476 1.36332,-3.73126 1.36333,-6.37951 -1e-5,-2.64822 -0.45446,-4.77473 -1.36333,-6.37951 -0.9089,-1.60474 -2.35083,-2.40713 -4.32578,-2.40715 -1.97497,2e-5 -3.4282,0.80789 -4.35968,2.42359 z m -2.84481,15.23397 c -1.59313,-2.21091 -2.38969,-5.16805 -2.38969,-8.87141 0,-3.70335 0.79673,-6.66031 2.3902,-8.87091 1.59346,-2.21055 3.99478,-3.31584 7.20398,-3.31586 3.20918,2e-5 5.6105,1.10531 7.20398,3.31586 1.59345,2.2106 2.39018,5.16756 2.3902,8.87091 -2e-5,3.70336 -0.79675,6.66033 -2.3902,8.8709 -1.59348,2.21058 -3.9948,3.31586 -7.20398,3.31587 -3.2092,-1e-5 -5.61069,-1.10512 -7.20449,-3.31536 z"
         inkscape:connector-curvature="0" />
      <path
         id="path3932"
         d="m 263.9413,809.54019 8.55087,0 0,23.53211 -3.77048,0 0,-19.9969 -4.78039,0 z"
         inkscape:connector-curvature="0" />
      <path
         id="path3934"
         d="m 284.60599,814.79215 c -0.93149,1.61574 -1.39724,3.73659 -1.39723,6.36256 -10e-6,2.62599 0.46574,4.74701 1.39723,6.36307 0.93149,1.61607 2.38471,2.4241 4.35969,2.4241 1.97495,0 3.41687,-0.80238 4.32577,-2.40715 0.90888,-1.60476 1.36332,-3.73126 1.36334,-6.37951 -2e-5,-2.64822 -0.45446,-4.77473 -1.36334,-6.37951 -0.9089,-1.60474 -2.35082,-2.40713 -4.32577,-2.40715 -1.97498,2e-5 -3.4282,0.80789 -4.35969,2.42359 z m -2.84481,15.23397 c -1.59312,-2.21091 -2.38968,-5.16805 -2.38968,-8.87141 0,-3.70335 0.79673,-6.66031 2.3902,-8.87091 1.59346,-2.21055 3.99478,-3.31584 7.20398,-3.31586 3.20917,2e-5 5.6105,1.10531 7.20398,3.31586 1.59344,2.2106 2.39017,5.16756 2.39019,8.87091 -2e-5,3.70336 -0.79675,6.66033 -2.39019,8.8709 -1.59348,2.21058 -3.99481,3.31586 -7.20398,3.31587 -3.2092,-1e-5 -5.6107,-1.10512 -7.2045,-3.31536 z"
         inkscape:connector-curvature="0" />
      <path
         id="path3936"
         d="m 302.40636,809.54019 8.55088,0 0,23.53211 -3.77048,0 0,-19.9969 -4.7804,0 z"
         inkscape:connector-curvature="0" />
      <path
         id="path3938"
         d="m 323.07106,814.79215 c -0.9315,1.61574 -1.39724,3.73659 -1.39724,6.36256 0,2.62599 0.46574,4.74701 1.39724,6.36307 0.93148,1.61607 2.38471,2.4241 4.35968,2.4241 1.97495,0 3.41688,-0.80238 4.32578,-2.40715 0.90887,-1.60476 1.36332,-3.73126 1.36333,-6.37951 -10e-6,-2.64822 -0.45446,-4.77473 -1.36333,-6.37951 -0.9089,-1.60474 -2.35083,-2.40713 -4.32578,-2.40715 -1.97497,2e-5 -3.4282,0.80789 -4.35968,2.42359 z m -2.84481,15.23397 c -1.59313,-2.21091 -2.38969,-5.16805 -2.38969,-8.87141 0,-3.70335 0.79673,-6.66031 2.3902,-8.87091 1.59346,-2.21055 3.99478,-3.31584 7.20398,-3.31586 3.20918,2e-5 5.6105,1.10531 7.20398,3.31586 1.59345,2.2106 2.39018,5.16756 2.3902,8.87091 -2e-5,3.70336 -0.79675,6.66033 -2.3902,8.8709 -1.59348,2.21058 -3.9948,3.31586 -7.20398,3.31587 -3.2092,-1e-5 -5.61069,-1.10512 -7.20449,-3.31536 z"
         inkscape:connector-curvature="0" />
      <path
         id="path3940"
         d="m 340.87143,809.54019 8.55087,0 0,23.53211 -3.77048,0 0,-19.9969 -4.78039,0 z"
         inkscape:connector-curvature="0" />
      <path
         id="path3942"
         d="m 358.62453,809.54019 8.55088,0 0,23.53211 -3.77048,0 0,-19.9969 -4.7804,0 z"
         inkscape:connector-curvature="0" />
      <path
         id="path3944"
         d="m 379.28923,814.79215 c -0.9315,1.61574 -1.39724,3.73659 -1.39724,6.36256 0,2.62599 0.46574,4.74701 1.39724,6.36307 0.93148,1.61607 2.38471,2.4241 4.35968,2.4241 1.97495,0 3.41688,-0.80238 4.32578,-2.40715 0.90887,-1.60476 1.36332,-3.73126 1.36333,-6.37951 -10e-6,-2.64822 -0.45446,-4.77473 -1.36333,-6.37951 -0.9089,-1.60474 -2.35083,-2.40713 -4.32578,-2.40715 -1.97497,2e-5 -3.4282,0.80789 -4.35968,2.42359 z m -2.84481,15.23397 c -1.59313,-2.21091 -2.38969,-5.16805 -2.38969,-8.87141 0,-3.70335 0.79673,-6.66031 2.3902,-8.87091 1.59346,-2.21055 3.99479,-3.31584 7.20398,-3.31586 3.20918,2e-5 5.6105,1.10531 7.20398,3.31586 1.59345,2.2106 2.39018,5.16756 2.3902,8.87091 -2e-5,3.70336 -0.79675,6.66033 -2.3902,8.8709 -1.59348,2.21058 -3.9948,3.31586 -7.20398,3.31587 -3.20919,-1e-5 -5.61069,-1.10512 -7.20449,-3.31536 z"
         inkscape:connector-curvature="0" />
      <path
         id="path3946"
         d="m 397.0896,809.54019 8.55087,0 0,23.53211 -3.77048,0 0,-19.9969 -4.78039,0 z"
         inkscape:connector-curvature="0" />
      <path
         id="path3948"
         d="m 417.7543,814.79215 c -0.93149,1.61574 -1.39724,3.73659 -1.39723,6.36256 -1e-5,2.62599 0.46574,4.74701 1.39723,6.36307 0.93148,1.61607 2.38471,2.4241 4.35968,2.4241 1.97496,0 3.41688,-0.80238 4.32578,-2.40715 0.90887,-1.60476 1.36332,-3.73126 1.36333,-6.37951 -10e-6,-2.64822 -0.45446,-4.77473 -1.36333,-6.37951 -0.9089,-1.60474 -2.35082,-2.40713 -4.32578,-2.40715 -1.97497,2e-5 -3.4282,0.80789 -4.35968,2.42359 z m -2.84481,15.23397 c -1.59312,-2.21091 -2.38968,-5.16805 -2.38968,-8.87141 0,-3.70335 0.79673,-6.66031 2.39019,-8.87091 1.59346,-2.21055 3.99479,-3.31584 7.20398,-3.31586 3.20918,2e-5 5.6105,1.10531 7.20398,3.31586 1.59345,2.2106 2.39018,5.16756 2.3902,8.87091 -2e-5,3.70336 -0.79675,6.66033 -2.3902,8.8709 -1.59348,2.21058 -3.9948,3.31586 -7.20398,3.31587 -3.20919,-1e-5 -5.61069,-1.10512 -7.20449,-3.31536 z"
         inkscape:connector-curvature="0" />
      <path
         id="path3950"
         d="m 435.55465,809.54019 8.55088,0 0,23.53211 -3.77048,0 0,-19.9969 -4.7804,0 z"
         inkscape:connector-curvature="0" />
      <path
         id="path3952"
         d="m 456.21936,814.79215 c -0.9315,1.61574 -1.39724,3.73659 -1.39724,6.36256 0,2.62599 0.46574,4.74701 1.39724,6.36307 0.93148,1.61607 2.38471,2.4241 4.35968,2.4241 1.97495,0 3.41688,-0.80238 4.32578,-2.40715 0.90887,-1.60476 1.36332,-3.73126 1.36333,-6.37951 -10e-6,-2.64822 -0.45446,-4.77473 -1.36333,-6.37951 -0.9089,-1.60474 -2.35083,-2.40713 -4.32578,-2.40715 -1.97497,2e-5 -3.4282,0.80789 -4.35968,2.42359 z m -2.84481,15.23397 c -1.59313,-2.21091 -2.38969,-5.16805 -2.38969,-8.87141 0,-3.70335 0.79673,-6.66031 2.3902,-8.87091 1.59346,-2.21055 3.99479,-3.31584 7.20398,-3.31586 3.20918,2e-5 5.6105,1.10531 7.20398,3.31586 1.59345,2.2106 2.39018,5.16756 2.3902,8.87091 -2e-5,3.70336 -0.79675,6.66033 -2.3902,8.8709 -1.59348,2.21058 -3.9948,3.31586 -7.20398,3.31587 -3.20919,-1e-5 -5.61069,-1.10512 -7.20449,-3.31536 z"
         inkscape:connector-curvature="0" />
      <path
         id="path3954"
         d="m 474.01973,809.54019 8.55087,0 0,23.53211 -3.77048,0 0,-19.9969 -4.78039,0 z"
         inkscape:connector-curvature="0" />
      <path
         id="path3956"
         d="m 494.68443,814.79215 c -0.93149,1.61574 -1.39724,3.73659 -1.39723,6.36256 -10e-6,2.62599 0.46574,4.74701 1.39723,6.36307 0.93148,1.61607 2.38471,2.4241 4.35968,2.4241 1.97496,0 3.41688,-0.80238 4.32578,-2.40715 0.90887,-1.60476 1.36332,-3.73126 1.36333,-6.37951 -1e-5,-2.64822 -0.45446,-4.77473 -1.36333,-6.37951 -0.9089,-1.60474 -2.35082,-2.40713 -4.32578,-2.40715 -1.97497,2e-5 -3.4282,0.80789 -4.35968,2.42359 z m -2.84481,15.23397 c -1.59312,-2.21091 -2.38968,-5.16805 -2.38968,-8.87141 0,-3.70335 0.79673,-6.66031 2.39019,-8.87091 1.59346,-2.21055 3.99479,-3.31584 7.20398,-3.31586 3.20918,2e-5 5.6105,1.10531 7.20398,3.31586 1.59345,2.2106 2.39018,5.16756 2.3902,8.87091 -2e-5,3.70336 -0.79675,6.66033 -2.3902,8.8709 -1.59348,2.21058 -3.9948,3.31586 -7.20398,3.31587 -3.20919,-1e-5 -5.61069,-1.10512 -7.20449,-3.31536 z"
         inkscape:connector-curvature="0" />
    </g>
    <g
       id="g5384"
       transform="matrix(1.0619263,0,0,1.0619263,-22.89519,412.12102)"
       style="display:inline;opacity:0.81000001">
      <g
         transform="translate(-8.2253518,51.295774)"
         style="stroke:#ff7f2a"
         id="g5386">
        <path
           style="fill:none;stroke:#ff7f2a;stroke-width:0.85214859;stroke-opacity:1"
           d="m 440.46671,245.83627 3.37292,8.91347 0.32072,1.28852 -0.40578,11.63568 -9.86092,2.64222 -6.16924,-9.87391 -0.36651,-1.27624 -1.5357,-9.40576 -14.586,0.95645 -0.29371,9.52537 -0.19658,1.31426 -4.82945,10.59431 -10.11956,-1.33256 -1.92122,-11.48325 0.14934,-1.31923 2.18096,-9.27767 -13.84109,-4.69875 -3.91811,8.68803 -0.68324,1.13762 -8.51539,7.94018 -8.83984,-5.10369 2.61871,-11.34463 0.64358,-1.16051 5.565,-7.7372 -10.98978,-9.63736 -6.94421,6.5276 -1.06782,0.78895 -10.90541,4.0778 -6.2138,-8.09752 6.76021,-9.47958 1.0399,-0.82737 8.10236,-5.01703 -6.4647,-13.11008 -8.91347,3.37291 -1.28852,0.32072 -11.63567,-0.40577 -2.64223,-9.86091 9.87391,-6.16925 1.27625,-0.3665 9.40575,-1.53571 -0.95645,-14.58601 -9.52536,-0.2937 -1.31426,-0.19657 -10.59432,-4.82945 1.33257,-10.11956 11.48325,-1.92123 1.31923,0.14935 9.27767,2.18095 4.69874,-13.84108 -8.68802,-3.91811 -1.13762,-0.68325 -7.94018,-8.51538 5.10368,-8.83984 11.34463,2.6187 1.16052,0.64359 7.73719,5.565 9.63736,-10.98978 -6.5276,-6.94423 -0.78895,-1.0678 -4.07779,-10.90542 8.09751,-6.213798 9.47958,6.760208 0.82737,1.0399 5.01705,8.10236 13.11007,-6.46469 -3.37292,-8.913475 -0.32072,-1.288517 0.40577,-11.635677 9.86092,-2.642224 6.16925,9.873904 0.36651,1.276248 1.5357,9.405754 14.58601,-0.956447 0.2937,-9.525375 0.19658,-1.314261 4.82945,-10.594304 10.11955,1.332562 1.92123,11.483252 -0.14935,1.319225 -2.18095,9.277675 13.84109,4.69875 3.91811,-8.688033 0.68324,-1.13762 8.51539,-7.940178 8.83985,5.103682 -2.61871,11.344629 -0.64359,1.16052 -5.565,7.73719 10.98979,9.63736 6.94421,-6.52759 1.06782,-0.78896 10.90539,-4.07779 6.21381,8.09751 -6.76021,9.47959 -1.0399,0.82736 -8.10235,5.01704 6.46469,13.11008 8.91347,-3.37292 1.28851,-0.32072 11.63568,0.40577 2.64223,9.86092 -9.87392,6.16925 -1.27624,0.3665 -9.40574,1.5357 0.95644,14.58601 9.52537,0.2937 1.31426,0.19658 10.5943,4.82945 -1.33256,10.11956 -11.48324,1.92122 -1.31923,-0.14934 -9.27767,-2.18096 -4.69876,13.84109 8.68803,3.91811 1.13763,0.68324 7.94017,8.51539 -5.10368,8.83984 -11.34463,-2.61871 -1.16052,-0.64358 -7.73719,-5.565 -9.63736,10.98978 6.52759,6.94422 0.78896,1.06781 4.07779,10.90541 -8.09751,6.2138 -9.47957,-6.76021 -0.82738,-1.03989 -5.01704,-8.10237 z"
           id="path5388"
           inkscape:connector-curvature="0" />
        <path
           sodipodi:nodetypes="sssssccccccccccsccccccccccccccccccccccccccccccccccccccccc"
           inkscape:connector-curvature="0"
           style="fill:none;stroke:#ff7f2a;stroke-width:0.83006102"
           d="m 476.0305,158.06094 c -9.23516,-34.46611 -44.64938,-54.91251 -79.11549,-45.67734 -34.4661,9.23516 -54.91251,44.64937 -45.67734,79.11548 9.23516,34.4661 44.6576,54.94318 79.1237,45.70802 34.46611,-9.23517 54.9043,-44.68005 45.66913,-79.14616 z m -7.24554,-6.017 c -3.39003,2.3988 -6.69996,6.7234 -10.49213,8.05244 -0.70302,0.24635 -1.43791,0.46004 -2.14908,0.67285 -7.09635,-21.60701 -29.37026,-34.46686 -51.63065,-29.80897 -0.17319,-0.72903 -0.35235,-1.45871 -0.49184,-2.19758 -0.74509,-3.94863 1.34516,-8.97742 1.72755,-13.11268 26.77887,-3.6057 52.76929,11.39987 63.03609,36.39389 z m 3.97935,14.85111 c 3.60384,26.76116 -11.37695,52.732 -36.33354,63.01991 -2.39978,-3.39154 -6.78266,-6.68068 -8.11281,-10.47596 -0.25193,-0.71882 -0.45602,-1.42138 -0.67285,-2.14908 21.60701,-7.09635 34.46686,-29.37026 29.80897,-51.63065 0.72222,-0.17157 1.46558,-0.35367 2.19758,-0.49184 3.94864,-0.7451 8.97742,1.34515 13.11268,1.72756 z m -25.41903,-4.18881 c -5.69937,0.88237 -11.51376,1.24401 -17.27316,1.94309 -3.40178,-5.52168 -9.40202,-8.97553 -15.88341,-9.17029 -2.27228,-5.32942 -4.87023,-10.56065 -6.95382,-15.93054 17.21086,-3.14444 34.22812,6.68048 40.11039,23.15774 z m 1.52056,5.67482 c 3.14513,17.21345 -6.67308,34.25573 -23.14966,40.14058 -0.88118,-5.69437 -1.24779,-11.52649 -1.94308,-17.27316 5.51566,-3.40937 8.98511,-9.40061 9.17029,-15.88341 5.33733,-2.27429 10.54768,-4.89022 15.92245,-6.98401 z m -49.24273,-36.11048 c -21.60701,7.09635 -34.46686,29.37026 -29.80897,51.63065 -0.72764,0.17261 -1.46014,0.35263 -2.19759,0.49184 -3.94268,0.74397 -8.96708,-1.40618 -13.09866,-1.79601 -3.57271,-26.75594 11.40608,-52.70914 36.37989,-62.96763 2.3988,3.39003 6.7234,6.69997 8.05244,10.49213 0.24873,0.70958 0.45842,1.43112 0.67286,2.14909 z m 23.13195,86.32962 c 0.17587,0.73787 0.35071,1.4499 0.49184,2.19759 0.74573,3.95188 -1.40541,8.99181 -1.78793,13.12885 -26.73532,3.56581 -52.65269,-11.41635 -62.92935,-36.3578 3.38315,-2.40339 6.65932,-6.77768 10.44577,-8.10472 0.70823,-0.24826 1.43252,-0.4589 2.14908,-0.67285 7.09635,21.60701 29.37026,34.46686 51.63065,29.80897 z m -21.19499,-77.53114 c 0.88052,5.69232 1.24626,11.52173 1.94309,17.27316 -5.56588,3.4064 -9.04588,9.40781 -9.22258,15.92977 -5.31828,2.26985 -10.5483,4.84368 -15.90844,6.91555 -3.14185,-17.21156 6.70808,-34.23551 23.18793,-40.11848 z m 18.4813,68.97314 c -17.21415,3.14255 -34.26312,-6.70068 -40.14867,-23.17984 5.68037,-0.8776 11.50208,-1.24158 17.24298,-1.935 3.41546,5.56221 9.43345,9.05014 15.95996,9.21449 2.26652,5.31048 4.86496,10.54245 6.94573,15.90035 z"
           id="path5390" />
        <path
           inkscape:connector-curvature="0"
           id="path5392"
           d="m 416.33638,184.87925 c -5.5721,1.49304 -11.29952,-1.81369 -12.79256,-7.38579 -1.49304,-5.5721 1.81369,-11.29952 7.38579,-12.79256 5.57209,-1.49304 11.29952,1.81369 12.79256,7.38579 1.49304,5.5721 -1.81369,11.29952 -7.38579,12.79256 z"
           style="fill:none;stroke:#ff7f2a;stroke-width:0.99999994" />
      </g>
      <g
         style="stroke:#ff7f2a"
         transform="matrix(0.9650628,0.03456326,-0.03456326,0.9650628,-275.99881,408.09436)"
         id="g5394">
        <g
           style="stroke:#ff7f2a"
           id="g5396"
           transform="matrix(1.0497697,0,0,1.0497697,102.43707,-478.86637)">
          <g
             id="g5398"
             transform="matrix(1.7503002,0,0,1.7503002,-209.0027,454.94758)"
             style="stroke:#ff7f2a">
            <g
               style="stroke:#ff7f2a;stroke-width:1.11560357;stroke-opacity:1"
               inkscape:label="Gear10"
               transform="matrix(0.89637576,0,0,0.89637576,375,-73.144023)"
               id="g5400" />
            <path
               style="fill:none;stroke:#ff7f2a;stroke-width:0.61719465"
               d="m 388.50499,-73.144023 c 0,7.458592 -6.04641,13.504977 -13.50499,13.504977 -7.45859,0 -13.50499,-6.046385 -13.50499,-13.504977 0,-7.458591 6.0464,-13.504976 13.50499,-13.504976 7.45858,0 13.50499,6.046385 13.50499,13.504976 z"
               id="path5402"
               inkscape:connector-curvature="0" />
          </g>
          <path
             inkscape:connector-curvature="0"
             style="fill:none;stroke:#ff7f2a;stroke-width:0.98313022;stroke-opacity:1"
             d="m 486.14346,320.70901 8.96015,-1.43449 0.74964,-0.0309 6.52978,3.7764 0,7.80702 -6.52978,3.7764 -0.74964,-0.0309 -8.96015,-1.43449 -3.75433,11.55457 8.09173,4.10448 0.62624,0.41646 3.06311,6.89453 -4.58948,6.31523 -7.50319,-0.78217 -0.58922,-0.46582 -6.40429,-6.42743 -9.83009,7.14159 4.13533,8.07632 0.26068,0.7049 -1.5739,7.37675 -7.42576,2.41316 -5.61051,-5.04376 -0.20206,-0.72342 -1.40365,-8.96477 -12.1484,0 -1.40365,8.96477 -0.20206,0.72342 -5.61051,5.04376 -7.42576,-2.41316 -1.5739,-7.37675 0.26068,-0.7049 4.13533,-8.07632 -9.83009,-7.14159 -6.40429,6.42743 -0.58922,0.46582 -7.50319,0.78217 -4.58948,-6.31523 3.06311,-6.89453 0.62624,-0.41646 8.09173,-4.10448 -3.75433,-11.55457 -8.96015,1.43449 -0.74964,0.0309 -6.52978,-3.7764 0,-7.80702 6.52978,-3.7764 0.74964,0.0309 8.96015,1.43449 3.75433,-11.55457 -8.09173,-4.10448 -0.62624,-0.41646 -3.06311,-6.89453 4.58948,-6.31523 7.50319,0.78217 0.58922,0.46582 6.40429,6.42743 9.83009,-7.14159 -4.13533,-8.07632 -0.26068,-0.7049 1.5739,-7.37675 7.42576,-2.41316 5.61051,5.04376 0.20206,0.72342 1.40365,8.96477 12.1484,0 1.40365,-8.96477 0.20206,-0.72342 5.61051,-5.04376 7.42576,2.41316 1.5739,7.37675 -0.26068,0.7049 -4.13533,8.07632 9.83009,7.14159 6.40429,-6.42743 0.58922,-0.46582 7.50319,-0.78217 4.58948,6.31523 -3.06311,6.89453 -0.62624,0.41646 -8.09173,4.10448 z"
             id="path5404"
             sodipodi:nodetypes="ccccccccccccccccccccccccccccccccccccccccccccccccccccccccccccccccccccccccccccccccc" />
        </g>
        <circle
           style="fill:none;stroke:#ff7f2a;stroke-width:1.26352942;stroke-opacity:1"
           id="path5406"
           transform="matrix(0.81741543,0,0,0.81741543,189.04437,-62.104536)"
           cx="468.57141"
           cy="-89.999992"
           r="37.857143" />
        <circle
           transform="matrix(0.24582221,0,0,0.24582221,456.87655,-113.54795)"
           id="path5408"
           style="fill:none;stroke:#ff7f2a;stroke-width:4.06798077;stroke-opacity:1"
           cx="468.57141"
           cy="-89.999992"
           r="37.857143" />
      </g>
      <g
         style="stroke:#ff7f2a"
         id="g5410"
         transform="matrix(0.77163281,-0.09073844,0.09073844,0.77163281,40.595832,503.90075)">
        <g
           style="stroke:#ff7f2a"
           transform="matrix(1.0497697,0,0,1.0497697,102.43707,-478.86637)"
           id="g5412">
          <g
             style="stroke:#ff7f2a"
             transform="matrix(1.7503002,0,0,1.7503002,-209.0027,454.94758)"
             id="g5414">
            <g
               id="g5416"
               transform="matrix(0.89637576,0,0,0.89637576,375,-73.144023)"
               inkscape:label="Gear10"
               style="stroke:#ff7f2a;stroke-width:1.11560357;stroke-opacity:1" />
            <path
               inkscape:connector-curvature="0"
               id="path5418"
               d="m 388.50499,-73.144023 c 0,7.458592 -6.04641,13.504977 -13.50499,13.504977 -7.45859,0 -13.50499,-6.046385 -13.50499,-13.504977 0,-7.458591 6.0464,-13.504976 13.50499,-13.504976 7.45858,0 13.50499,6.046385 13.50499,13.504976 z"
               style="fill:none;stroke:#ff7f2a;stroke-width:0.61719465" />
          </g>
          <path
             sodipodi:nodetypes="ccccccccccccccccccccccccccccccccccccccccccccccccccccccccccccccccccccccccccccccccc"
             id="path5420"
             d="m 486.14346,320.70901 8.96015,-1.43449 0.74964,-0.0309 6.52978,3.7764 0,7.80702 -6.52978,3.7764 -0.74964,-0.0309 -8.96015,-1.43449 -3.75433,11.55457 8.09173,4.10448 0.62624,0.41646 3.06311,6.89453 -4.58948,6.31523 -7.50319,-0.78217 -0.58922,-0.46582 -6.40429,-6.42743 -9.83009,7.14159 4.13533,8.07632 0.26068,0.7049 -1.5739,7.37675 -7.42576,2.41316 -5.61051,-5.04376 -0.20206,-0.72342 -1.40365,-8.96477 -12.1484,0 -1.40365,8.96477 -0.20206,0.72342 -5.61051,5.04376 -7.42576,-2.41316 -1.5739,-7.37675 0.26068,-0.7049 4.13533,-8.07632 -9.83009,-7.14159 -6.40429,6.42743 -0.58922,0.46582 -7.50319,0.78217 -4.58948,-6.31523 3.06311,-6.89453 0.62624,-0.41646 8.09173,-4.10448 -3.75433,-11.55457 -8.96015,1.43449 -0.74964,0.0309 -6.52978,-3.7764 0,-7.80702 6.52978,-3.7764 0.74964,0.0309 8.96015,1.43449 3.75433,-11.55457 -8.09173,-4.10448 -0.62624,-0.41646 -3.06311,-6.89453 4.58948,-6.31523 7.50319,0.78217 0.58922,0.46582 6.40429,6.42743 9.83009,-7.14159 -4.13533,-8.07632 -0.26068,-0.7049 1.5739,-7.37675 7.42576,-2.41316 5.61051,5.04376 0.20206,0.72342 1.40365,8.96477 12.1484,0 1.40365,-8.96477 0.20206,-0.72342 5.61051,-5.04376 7.42576,2.41316 1.5739,7.37675 -0.26068,0.7049 -4.13533,8.07632 9.83009,7.14159 6.40429,-6.42743 0.58922,-0.46582 7.50319,-0.78217 4.58948,6.31523 -3.06311,6.89453 -0.62624,0.41646 -8.09173,4.10448 z"
             style="fill:none;stroke:#ff7f2a;stroke-width:0.98313022;stroke-opacity:1"
             inkscape:connector-curvature="0" />
        </g>
        <circle
           transform="matrix(0.81741543,0,0,0.81741543,189.04437,-62.104536)"
           id="path5422"
           style="fill:none;stroke:#ff7f2a;stroke-width:1.26352942;stroke-opacity:1"
           cx="468.57141"
           cy="-89.999992"
           r="37.857143" />
        <circle
           style="fill:none;stroke:#ff7f2a;stroke-width:4.06798077;stroke-opacity:1"
           id="path5424"
           transform="matrix(0.24582221,0,0,0.24582221,456.87655,-113.54795)"
           cx="468.57141"
           cy="-89.999992"
           r="37.857143" />
      </g>
    </g>
  </g>
  <path
     inkscape:connector-curvature="0"
     id="path5578"
     d="m 482.67546,324.01803 -31.63024,-3.43412 c 2.56891,-17.82501 -1.60071,-34.69529 -10.81042,-49.23954 l 29.6868,-25.22724 c 14.61765,23.21618 19.97514,51.08731 12.74469,77.89161 z m -2.99635,9.12822 c -7.25062,18.85975 -20.28448,34.08489 -36.65647,44.6984 l -16.66586,-10.33246 c 9.9967,-9.32373 17.70166,-21.13982 21.99692,-34.99914 0.27214,-0.86906 0.49967,-1.74778 0.73254,-2.61584 l 30.59765,3.25044 z m -45.84971,50.01696 c -24.02774,12.18872 -53.59568,15.25811 -82.77692,6.33042 24.76545,4.01026 49.13252,-2.05629 67.73132,-15.66622 l 15.04617,9.33775 z m 30.37122,-145.32415 -29.81385,25.3356 C 425.69974,252.53808 414.135,243.50301 400.48696,236.76704 l 11.52966,-37.20012 c 21.53959,7.95892 39.41117,21.59493 52.1848,38.27499 z"
     style="display:inline;opacity:0.5;fill:#ff9955;stroke:none" />
  <g
     transform="matrix(0.54655121,0,0,0.48447406,-171.01634,424.71884)"
     id="g5844-2" />
  <style
     id="style26"
     type="text/css" />
  <text
     xml:space="preserve"
     style="font-style:normal;font-variant:normal;font-weight:normal;font-stretch:normal;font-size:74.74133301px;line-height:125%;font-family:'Libre Baskerville';-inkscape-font-specification:'Libre Baskerville';text-align:start;letter-spacing:0px;word-spacing:0px;text-anchor:start;fill:#000000;fill-opacity:0.70588235;stroke:none;stroke-width:5.09600019px;stroke-linecap:butt;stroke-linejoin:miter;stroke-opacity:1"
     x="682.06665"
     y="142.11801"
     id="text17056"
     sodipodi:linespacing="125%"><tspan
       sodipodi:role="line"
       id="tspan17054"
       x="682.06665"
       y="142.11801"
       style="font-style:normal;font-variant:normal;font-weight:normal;font-stretch:normal;font-family:Junkyard;-inkscape-font-specification:Junkyard;fill:#000000;fill-opacity:0.70588235;stroke-width:5.09600019px">0.92</tspan></text>
  <text
     xml:space="preserve"
     style="font-style:normal;font-variant:normal;font-weight:normal;font-stretch:normal;font-size:33.61561203px;line-height:100%;font-family:'Rothenburg Decorative';-inkscape-font-specification:'Rothenburg Decorative';text-align:center;letter-spacing:0px;word-spacing:0px;text-anchor:middle;fill:#555753;fill-opacity:1;stroke:none;stroke-width:1px;stroke-linecap:butt;stroke-linejoin:miter;stroke-opacity:1"
     x="736.23413"
     y="202.45282"
     id="text7041"
     sodipodi:linespacing="100%"><tspan
       sodipodi:role="line"
       id="tspan7043"
       x="736.23413"
       y="202.45282"
       style="font-style:normal;font-variant:normal;font-weight:normal;font-stretch:normal;line-height:100%;font-family:Saab;-inkscape-font-specification:Saab;text-align:center;text-anchor:middle;fill:#555753">UNDER</tspan><tspan
       sodipodi:role="line"
       x="736.23413"
       y="236.06844"
       id="tspan7045"
       style="font-style:normal;font-variant:normal;font-weight:normal;font-stretch:normal;line-height:100%;font-family:Saab;-inkscape-font-specification:Saab;text-align:center;text-anchor:middle;fill:#555753">CONSTRUCTION</tspan></text>
</svg>
