<?xml version="1.0" encoding="UTF-8" standalone="no"?>
<!-- Created with Inkscape (http://www.inkscape.org/) -->

<svg
   xmlns:dc="http://purl.org/dc/elements/1.1/"
   xmlns:cc="http://creativecommons.org/ns#"
   xmlns:rdf="http://www.w3.org/1999/02/22-rdf-syntax-ns#"
   xmlns:svg="http://www.w3.org/2000/svg"
   xmlns="http://www.w3.org/2000/svg"
   xmlns:sodipodi="http://sodipodi.sourceforge.net/DTD/sodipodi-0.dtd"
   xmlns:inkscape="http://www.inkscape.org/namespaces/inkscape"
   version="1.1"
   id="svg2"
   inkscape:version="0.91+devel r"
   width="1024"
   height="320"
   viewBox="0 0 1024 320"
   sodipodi:docname="not_real.svg"
   inkscape:export-filename="/home/doctormo/Projects/inkscape/banners/not_real.png"
   inkscape:export-xdpi="90"
   inkscape:export-ydpi="90">
  <metadata
     id="metadata8">
    <rdf:RDF>
      <cc:Work
         rdf:about="">
        <dc:format>image/svg+xml</dc:format>
        <dc:type
           rdf:resource="http://purl.org/dc/dcmitype/StillImage" />
        <dc:title></dc:title>
      </cc:Work>
    </rdf:RDF>
  </metadata>
  <defs
     id="defs6">
    <clipPath
       clipPathUnits="userSpaceOnUse"
       id="clipPath4319">
      <rect
         y="0.79851151"
         x="1.4210855e-14"
         height="320"
         width="1024"
         id="rect4321"
         style="color:#000000;clip-rule:nonzero;display:inline;overflow:visible;visibility:visible;opacity:1;isolation:auto;mix-blend-mode:normal;color-interpolation:sRGB;color-interpolation-filters:linearRGB;solid-color:#000000;solid-opacity:1;fill:#edd400;fill-opacity:1;fill-rule:nonzero;stroke:none;stroke-width:2.22838736px;stroke-linecap:round;stroke-linejoin:round;stroke-miterlimit:4;stroke-dasharray:none;stroke-dashoffset:0;stroke-opacity:1;marker:none;color-rendering:auto;image-rendering:auto;shape-rendering:auto;text-rendering:auto;enable-background:accumulate" />
    </clipPath>
    <clipPath
       clipPathUnits="userSpaceOnUse"
       id="clipPath4360">
      <path
         id="path4362"
         d="m 428.15039,84.949219 c -2.89976,-0.11547 -6.27875,0.332024 -9.10937,0.583984 -5.24976,0.46728 -10.51382,0.991285 -15.79102,0.958985 -1.12363,-0.007 -5.49522,-0.222777 -6.86133,-0.373047 -3.67748,-0.40452 -6.48163,-1.223264 -10.29297,-1.064453 -4.88528,0.20355 -9.7676,0.714365 -14.60937,1.384765 -5.19518,0.71933 -10.34855,1.764901 -15.55664,2.394531 -4.12086,0.4982 -7.78903,0.296925 -11.88867,0.265625 -3.14985,-0.024 -6.12691,0.124163 -9.28711,0.320313 -9.69831,0.60196 -19.358,1.660549 -29.04102,2.449219 -5.54432,0.45157 -11.06818,0.683102 -16.62109,0.851562 -5.01599,0.15217 -9.82203,1.531644 -14.60938,2.927735 -5.91592,1.7252 -11.72573,3.766741 -17.62695,5.537112 -4.21208,1.26362 -8.94417,2.95064 -13.42774,2.87304 -3.89475,-0.0674 -6.53063,-2.75666 -9.93554,-4.15234 -2.47635,-1.01505 -4.4063,-1.315207 -7.09961,-1.435547 -4.78895,-0.21397 -9.37201,0.620068 -14.07617,1.330078 -3.92693,0.592689 -5.32053,0.722499 -9.22852,1.064449 -3.83139,0.3352 -7.57585,0.26552 -11.41406,0.32032 -4.28279,0.0612 -8.48308,0.34379 -12.71875,1.00976 -6.57471,1.03374 -13.17697,2.98696 -19.87305,3.03516 -2.10792,0.0152 -3.42979,-0.12506 -5.20508,-1.17188 -2.13288,-1.25766 -2.50849,-3.29047 -5.38281,-3.5664 -3.77207,-0.36212 -7.84686,1.06057 -11.41602,1.9707 -7.26727,1.85316 -14.92221,4.45897 -22.53515,3.83203 -2.9941,-0.24658 -4.70265,-0.83777 -7.1582,-2.44922 -4.15792,-2.72864 -5.31086,-5.796932 -10.882817,-6.759762 -6.193667,-1.07027 -13.541488,0.710969 -19.636719,1.755859 -7.569195,1.297573 -15.257309,2.578293 -22.949218,2.769533 -4.817762,0.11977 -10.818257,-5.9e-4 -15.203125,-2.343752 -3.432503,-1.83425 -2.794151,-4.745115 -7.689453,-4.791016 -4.558435,-0.0427 -9.041988,1.231714 -13.367188,2.501954 C 11.65217,98.741823 5.6538573,100.73339 0,103.44531 v 96.51758 c 1.6853282,-0.0307 3.3730416,0.0799 5.0585938,0.34375 1.842259,0.28835 3.4296797,0.76209 5.3222652,0.63867 1.335964,-0.0871 4.121849,-0.58356 5.265625,-0.74609 4.177787,-0.59369 8.312635,-1.03539 12.539063,-0.63867 5.706633,0.53565 11.304296,2.03446 16.857422,3.35547 7.465957,1.77604 15.026182,3.59404 22.71289,4.09765 7.104698,0.46548 13.483089,-0.49506 20.40625,-1.80859 3.231804,-0.61317 8.308504,-1.94248 11.652344,-1.86328 6.036137,0.14296 -0.310637,8.80854 4.968747,8.99609 2.09718,0.0745 5.05568,-1.01961 6.86133,-1.59766 4.71132,-1.50826 9.35526,-3.2096 14.07813,-4.68359 1.01792,-0.31769 3.4901,-1.23296 4.84961,-1.11914 0.27496,0.023 0.58597,0.1788 0.70898,0.42578 0.16637,0.33402 0.0606,0.74598 0.0606,1.11914 0,1.87296 -0.34246,4.98171 2.42382,5.10938 3.08903,0.14258 10.84253,-3.06842 13.48633,-4.09766 6.30593,-2.45491 12.55762,-5.1287 18.69141,-7.98633 1.26864,-0.59103 8.42806,-4.37651 9.99609,-4.57812 2.48684,-0.31973 2.71549,3.06313 3.19336,4.63086 1.56266,5.12654 2.99831,9.63425 9.52344,8.94336 3.97496,-0.42088 9.74944,-2.79317 13.18945,-4.25782 8.11007,-3.45302 15.97658,-7.47595 24.07422,-10.96679 4.38295,-1.88945 6.74651,-2.84276 11.00196,-4.41797 0.87906,-0.32539 2.9659,-1.2353 4.19921,-1.17188 0.22378,0.0115 0.45649,0.14171 0.5918,0.32032 0.18149,0.23956 0.1948,0.56889 0.29688,0.85156 0.28286,0.78332 0.73883,2.09129 1.18164,2.76758 0.95939,1.46525 1.78534,2.05465 3.43164,2.82226 3.82895,1.78531 8.3361,2.0921 12.48047,2.44922 1.83918,0.15849 3.93009,-0.006 5.73632,0.47852 2.63685,0.7069 4.95826,3.08914 7.57227,4.15234 7.46183,3.03495 14.85228,1.65164 22.53516,0.63867 3.57411,-0.47124 7.4835,-1.22734 11.00195,0.0527 5.99676,2.1818 9.05171,9.45474 14.8457,12.50976 4.96674,2.61882 10.85601,2.11686 16.26563,2.50196 1.82437,0.12987 9.19483,0.93369 10.94336,1.17187 6.51647,0.88765 4.2264,0.88251 10.76562,1.49023 1.82994,0.17007 3.66218,0.37305 5.5,0.37305 10.60418,0 20.57904,-4.21222 30.28516,-7.98437 10.07691,-3.91626 20.08393,-7.91607 30.34375,-11.33985 5.8996,-1.96875 13.18463,-4.58961 19.45898,-4.36523 11.13376,0.39816 16.14444,9.83582 23.66016,16.34375 4.40331,3.81286 8.67934,5.77002 14.43164,6.75976 7.3006,1.25613 14.72683,0.70454 22.0625,0.21289 8.3672,-0.56078 16.69892,-1.39941 24.96094,-2.875 3.98608,-0.71191 9.73885,-2.0382 13.72265,-3.0332 8.33273,-2.08119 17.1653,-5.64258 25.84766,-5.64258 3.70659,0 7.14853,0.83779 10.05664,3.19336 1.56121,1.26458 2.6718,2.69655 3.96289,4.20508 0.53188,0.62146 0.97542,1.33002 1.5957,1.86328 2.80966,2.41547 6.93324,2.92838 10.47071,3.14063 7.71082,0.46265 16.87285,-0.67236 24.36914,-2.50196 4.25552,-1.03864 8.39928,-2.57998 12.53906,-3.99218 3.05583,-1.04243 4.59726,-1.45934 7.63086,-2.71485 1.42856,-0.59124 6.88604,-3.13242 8.28125,-3.77929 2.89434,-1.34192 5.74997,-2.769 8.93164,-3.30079 2.29542,-0.38367 4.7875,-0.23678 7.03711,0.31836 2.33646,0.57658 4.49611,1.41261 6.92187,1.65039 5.51917,0.54099 11.17416,-0.9029 16.50196,-2.1289 1.79707,-0.41353 3.60362,-0.79264 5.38281,-1.27735 7.40608,-2.01765 13.88034,-4.92315 20.70117,-8.35742 2.68126,-1.35 8.13927,-4.70885 11.29883,-4.52539 2.09488,0.12164 3.34253,1.91973 4.61328,3.30078 1.1025,1.19818 2.42626,2.65323 3.78516,3.56641 3.50971,2.35853 7.86581,2.60002 11.88867,3.30078 2.42772,0.42289 5.08812,1.01052 7.45312,1.70313 4.0471,1.18522 7.94768,2.88351 12.06641,3.83398 5.3816,1.24191 10.76401,1.09793 16.20703,0.26563 8.52086,-1.30295 16.85574,-3.9659 24.7832,-7.29297 5.34679,-2.24399 5.46527,-2.4472 10.5293,-5.00391 2.73359,-1.38014 6.51618,-3.35606 9.4043,-4.41797 5.44259,-2.00115 12.35792,-3.28877 18.1582,-3.78125 1.3869,-0.11775 3.05817,-0.26557 4.43555,0.21289 2.15564,0.7488 3.93276,2.91414 5.61914,4.3125 2.00095,1.65922 4.53772,3.66385 6.80273,4.89844 4.81919,2.62679 10.29458,3.98362 15.67383,4.84375 5.55191,0.88774 11.29954,1.28069 16.91797,1.01172 6.00916,-0.28767 11.9731,-1.33712 17.86328,-2.50196 11.56511,-2.28709 22.8541,-5.68488 34.1875,-8.89062 0.87542,-0.24761 7.37827,-2.36766 8.8125,-2.02344 0.64074,0.15377 2.4485,1.33682 2.89844,1.54492 0.85695,0.39634 1.72145,0.78041 2.60351,1.11719 4.64079,1.77194 9.58551,2.82066 14.55079,3.03516 4.97877,0.21508 9.76533,-0.70595 14.66796,-1.38477 1.18653,-0.16429 8.17001,-1.04619 9.28711,-1.17187 1.1793,-0.13267 7.38486,-0.75187 8.81256,-0.85157 0.4504,-0.0315 4.4409,-0.31259 4.9101,-0.0527 0.1287,0.0713 0.1434,0.25898 0.2364,0.37305 0.2843,0.34897 1.1319,1.0757 1.3594,1.22461 3.004,1.96627 7.0855,2.91141 10.748,2.6289 V 92.955078 c -1.0037,-0.1686 -2.0033,-0.361938 -2.998,-0.607422 -0.7246,-0.17881 -1.4007,-0.536786 -2.1309,-0.691406 -0.435,-0.0921 -3.1615,1.177744 -3.4297,1.277344 -4.0366,1.49929 -8.1653,2.635759 -12.0078,4.630859 -4.73627,2.459217 -9.1825,5.262347 -14.31451,6.867187 -2.93179,0.91681 -3.78717,1.15299 -6.74219,1.54492 -1.54192,0.20451 -3.2578,0.11217 -4.79101,0.42578 -0.99898,0.20434 -1.91785,0.57984 -2.95703,0.74414 -6.19092,0.97884 -12.50435,0.98569 -18.75,1.27735 -2.11003,0.0985 -4.22044,0.21385 -6.33008,0.32031 -1.95192,0.071 -3.90418,0.12649 -5.85547,0.21289 -5.32391,0.23565 -10.63964,0.64821 -15.9707,0.69141 -7.64577,0.062 -15.24988,-0.34584 -22.89063,0.26758 -10.67839,0.85727 -21.16384,3.66667 -31.88086,4.04492 -12.27293,0.43316 -24.35212,-2.49086 -36.61328,-1.86328 -8.47693,0.43389 -16.80005,2.13992 -25.25586,2.76757 -3.8773,0.2878 -6.66808,0.49919 -10.5293,0.16016 -3.03445,-0.26644 -5.91573,-0.88925 -8.8125,-1.81055 -5.09029,-1.61894 -9.33374,-3.96261 -14.84765,-4.09765 -7.41605,-0.18161 -14.77249,1.88625 -22.00196,3.19336 -10.53182,1.90419 -21.18749,3.40107 -31.82226,4.57812 -6.97643,0.77215 -10.92234,1.24595 -17.86328,1.38477 -5.52669,0.11053 -12.18322,0.39898 -17.1543,-2.60938 -3.21544,-1.9459 -4.56157,-5.51696 -7.27539,-7.93164 -2.10517,-1.87313 -3.96552,-2.49852 -6.74219,-2.98047 -2.97831,-0.51695 -6.42123,-0.38311 -9.40429,-0.32031 -6.24053,0.13141 -12.72211,0.94306 -18.92774,-0.0527 -5.25302,-0.84293 -10.03116,-3.38527 -15.14258,-4.738285 -7.07838,-1.87369 -14.30285,-2.235141 -21.58984,-1.863281 -8.29671,0.42339 -16.51832,2.013604 -24.72461,3.195316 -5.43154,0.78214 -11.41011,1.90017 -16.91602,1.00976 -5.30107,-0.85728 -5.37728,-3.904644 -8.99023,-6.759764 -2.00769,-1.58656 -3.57989,-2.352918 -6.15234,-2.767578 -5.02199,-0.80951 -11.31541,-0.06195 -16.32422,0.371094 -11.51118,0.99529 -2.80596,0.322305 -14.43164,1.171875 -3.90558,0.28541 -8.1818,0.715057 -12.12696,0.585937 -2.13719,-0.0699 -5.0946,-0.371173 -7.15625,-1.277343 -1.70045,-0.74741 -2.464,-1.80507 -3.90429,-2.875 -2.53637,-1.88416 -4.98584,-2.426123 -8.16211,-2.289063 -2.58278,0.11145 -9.37758,1.134234 -11.53516,1.490234 -8.1741,1.348731 -16.26642,3.183206 -24.48633,4.259766 -2.94672,0.38593 -9.93352,1.126233 -13.25,0.851563 -2.45392,-0.20324 -4.32233,-0.691611 -5.91406,-2.556641 -1.42919,-1.67458 -1.21733,-4.364249 -2.48437,-5.855469 -1.06065,-1.24829 -2.78416,-1.324012 -4.25977,-1.382812 z"
         style="opacity:1;fill:#3465a4;fill-opacity:1;fill-rule:evenodd;stroke:none;stroke-width:12;stroke-linecap:round;stroke-linejoin:round;stroke-miterlimit:4;stroke-dasharray:none;stroke-dashoffset:0;stroke-opacity:1;marker:none"
         inkscape:connector-curvature="0" />
    </clipPath>
    <filter
       inkscape:collect="always"
       style="color-interpolation-filters:sRGB"
       id="filter4376"
       x="-0.016991029"
       width="1.0339821"
       y="-0.12800689"
       height="1.2560138">
      <feGaussianBlur
         inkscape:collect="always"
         stdDeviation="7.2495057"
         id="feGaussianBlur4378" />
    </filter>
    <filter
       inkscape:collect="always"
       style="color-interpolation-filters:sRGB"
       id="filter4396"
       x="-0.0062478334"
       width="1.0124957"
       y="-0.15125887"
       height="1.3025177">
      <feGaussianBlur
         inkscape:collect="always"
         stdDeviation="1.5999229"
         id="feGaussianBlur4398" />
    </filter>
  </defs>
  <sodipodi:namedview
     pagecolor="#ffffff"
     bordercolor="#666666"
     borderopacity="1"
     objecttolerance="10"
     gridtolerance="10"
     guidetolerance="10"
     inkscape:pageopacity="0"
     inkscape:pageshadow="2"
     inkscape:window-width="1855"
     inkscape:window-height="1056"
     inkscape:document-units="px"
     id="namedview4"
     showgrid="false"
     inkscape:zoom="1.0306197"
     inkscape:cx="518.40214"
     inkscape:cy="142.79698"
     inkscape:window-x="65"
     inkscape:window-y="24"
     inkscape:window-maximized="1"
     inkscape:current-layer="svg2" />
  <rect
     style="color:#000000;clip-rule:nonzero;display:inline;overflow:visible;visibility:visible;opacity:1;isolation:auto;mix-blend-mode:normal;color-interpolation:sRGB;color-interpolation-filters:linearRGB;solid-color:#000000;solid-opacity:1;fill:#edd400;fill-opacity:1;fill-rule:nonzero;stroke:none;stroke-width:2.22838736px;stroke-linecap:round;stroke-linejoin:round;stroke-miterlimit:4;stroke-dasharray:none;stroke-dashoffset:0;stroke-opacity:1;marker:none;color-rendering:auto;image-rendering:auto;shape-rendering:auto;text-rendering:auto;enable-background:accumulate"
     id="rect4216"
     width="1024"
     height="320"
     x="1.4210855e-14"
     y="-9.9550258e-15" />
  <g
     id="g4315"
     transform="translate(0,-0.79851149)"
     clip-path="url(#clipPath4319)">
    <path
       sodipodi:nodetypes="ccccc"
       inkscape:connector-curvature="0"
       id="path4225"
       d="M 676.2041,-44.729752 264.55371,366.92064 H 378.84277 L 790.49316,-44.729752 Z"
       style="fill:#000000;fill-rule:evenodd;stroke:none;stroke-width:1px;stroke-linecap:butt;stroke-linejoin:miter;stroke-opacity:1" />
    <path
       sodipodi:nodetypes="ccccc"
       inkscape:connector-curvature="0"
       id="path4225-8"
       d="M 896.6518,-38.420006 485.00141,373.23038 H 599.29047 L 1010.9409,-38.420006 Z"
       style="fill:#000000;fill-rule:evenodd;stroke:none;stroke-width:1px;stroke-linecap:butt;stroke-linejoin:miter;stroke-opacity:1" />
    <path
       sodipodi:nodetypes="ccccc"
       inkscape:connector-curvature="0"
       id="path4225-9"
       d="M 219.94071,-55.697188 -191.70968,355.95321 H -77.420618 L 334.22977,-55.697188 Z"
       style="fill:#000000;fill-rule:evenodd;stroke:none;stroke-width:1px;stroke-linecap:butt;stroke-linejoin:miter;stroke-opacity:1" />
    <path
       sodipodi:nodetypes="ccccc"
       inkscape:connector-curvature="0"
       id="path4225-8-7"
       d="M 440.38841,-49.387442 28.738024,362.26295 H 143.02708 L 554.67751,-49.387442 Z"
       style="fill:#000000;fill-rule:evenodd;stroke:none;stroke-width:1px;stroke-linecap:butt;stroke-linejoin:miter;stroke-opacity:1" />
    <path
       sodipodi:nodetypes="ccccc"
       inkscape:connector-curvature="0"
       id="path4225-9-6"
       d="M 22.763539,-72.754024 -388.88685,338.89638 h 114.28906 L 137.0526,-72.754024 Z"
       style="fill:#000000;fill-rule:evenodd;stroke:none;stroke-width:1px;stroke-linecap:butt;stroke-linejoin:miter;stroke-opacity:1" />
    <path
       sodipodi:nodetypes="ccccc"
       inkscape:connector-curvature="0"
       id="path4225-8-0"
       d="M 1080.1901,10.701763 668.53975,422.35215 H 782.82881 L 1194.4792,10.701763 Z"
       style="fill:#000000;fill-rule:evenodd;stroke:none;stroke-width:1px;stroke-linecap:butt;stroke-linejoin:miter;stroke-opacity:1" />
    <path
       sodipodi:nodetypes="ccccc"
       inkscape:connector-curvature="0"
       id="path4225-8-0-9"
       d="M 1259.7384,52.837539 848.08803,464.48793 H 962.37709 L 1374.0275,52.837539 Z"
       style="fill:#000000;fill-rule:evenodd;stroke:none;stroke-width:1px;stroke-linecap:butt;stroke-linejoin:miter;stroke-opacity:1" />
  </g>
  <path
     style="opacity:1;fill:#888a85;fill-opacity:1;fill-rule:evenodd;stroke:none;stroke-width:12;stroke-linecap:round;stroke-linejoin:round;stroke-miterlimit:4;stroke-dasharray:none;stroke-dashoffset:0;stroke-opacity:1;marker:none"
     d="M 428.15039 84.949219 C 425.25063 84.833749 421.87164 85.281243 419.04102 85.533203 C 413.79126 86.000483 408.5272 86.524488 403.25 86.492188 C 402.12637 86.485187 397.75478 86.269411 396.38867 86.119141 C 392.71119 85.714621 389.90704 84.895877 386.0957 85.054688 C 381.21042 85.258238 376.3281 85.769053 371.48633 86.439453 C 366.29115 87.158783 361.13778 88.204354 355.92969 88.833984 C 351.80883 89.332184 348.14066 89.130909 344.04102 89.099609 C 340.89117 89.075609 337.91411 89.223772 334.75391 89.419922 C 325.0556 90.021882 315.39591 91.080471 305.71289 91.869141 C 300.16857 92.320711 294.64471 92.552243 289.0918 92.720703 C 284.07581 92.872873 279.26977 94.252347 274.48242 95.648438 C 268.5665 97.373638 262.75669 99.415179 256.85547 101.18555 C 252.64339 102.44917 247.9113 104.13619 243.42773 104.05859 C 239.53298 103.99119 236.8971 101.30193 233.49219 99.90625 C 231.01584 98.8912 229.08589 98.591043 226.39258 98.470703 C 221.60363 98.256733 217.02057 99.090771 212.31641 99.800781 C 208.38948 100.39347 206.99588 100.52328 203.08789 100.86523 C 199.2565 101.20043 195.51204 101.13075 191.67383 101.18555 C 187.39104 101.24675 183.19075 101.52934 178.95508 102.19531 C 172.38037 103.22905 165.77811 105.18227 159.08203 105.23047 C 156.97411 105.24567 155.65224 105.10541 153.87695 104.05859 C 151.74407 102.80093 151.36846 100.76812 148.49414 100.49219 C 144.72207 100.13007 140.64728 101.55276 137.07812 102.46289 C 129.81085 104.31605 122.15591 106.92186 114.54297 106.29492 C 111.54887 106.04834 109.84032 105.45715 107.38477 103.8457 C 103.22685 101.11706 102.07391 98.048768 96.501953 97.085938 C 90.308286 96.015668 82.960465 97.796907 76.865234 98.841797 C 69.296039 100.13937 61.607925 101.42009 53.916016 101.61133 C 49.098254 101.7311 43.097759 101.61074 38.712891 99.267578 C 35.280388 97.433328 35.91874 94.522463 31.023438 94.476562 C 26.465003 94.433863 21.98145 95.708276 17.65625 96.978516 C 11.65217 98.741823 5.6538573 100.73339 0 103.44531 L 0 199.96289 C 1.6853282 199.93223 3.3730416 200.04281 5.0585938 200.30664 C 6.9008528 200.59499 8.4882735 201.06873 10.380859 200.94531 C 11.716823 200.85821 14.502708 200.36175 15.646484 200.19922 C 19.824271 199.60553 23.959119 199.16383 28.185547 199.56055 C 33.89218 200.0962 39.489843 201.59501 45.042969 202.91602 C 52.508926 204.69206 60.069151 206.51006 67.755859 207.01367 C 74.860557 207.47915 81.238948 206.51861 88.162109 205.20508 C 91.393913 204.59191 96.470613 203.2626 99.814453 203.3418 C 105.85059 203.48476 99.503816 212.15034 104.7832 212.33789 C 106.88038 212.41239 109.83888 211.31828 111.64453 210.74023 C 116.35585 209.23197 120.99979 207.53063 125.72266 206.05664 C 126.74058 205.73895 129.21276 204.82368 130.57227 204.9375 C 130.84723 204.9605 131.15824 205.1163 131.28125 205.36328 C 131.44762 205.6973 131.3418 206.10926 131.3418 206.48242 C 131.3418 208.35538 130.99934 211.46413 133.76562 211.5918 C 136.85465 211.73438 144.60815 208.52338 147.25195 207.49414 C 153.55788 205.03923 159.80957 202.36544 165.94336 199.50781 C 167.212 198.91678 174.37142 195.1313 175.93945 194.92969 C 178.42629 194.60996 178.65494 197.99282 179.13281 199.56055 C 180.69547 204.68709 182.13112 209.1948 188.65625 208.50391 C 192.63121 208.08303 198.40569 205.71074 201.8457 204.24609 C 209.95577 200.79307 217.82228 196.77014 225.91992 193.2793 C 230.30287 191.38985 232.66643 190.43654 236.92188 188.86133 C 237.80094 188.53594 239.88778 187.62603 241.12109 187.68945 C 241.34487 187.70095 241.57758 187.83116 241.71289 188.00977 C 241.89438 188.24933 241.90769 188.57866 242.00977 188.86133 C 242.29263 189.64465 242.7486 190.95262 243.19141 191.62891 C 244.1508 193.09416 244.97675 193.68356 246.62305 194.45117 C 250.452 196.23648 254.95915 196.54327 259.10352 196.90039 C 260.9427 197.05888 263.03361 196.8948 264.83984 197.37891 C 267.47669 198.08581 269.7981 200.46805 272.41211 201.53125 C 279.87394 204.5662 287.26439 203.18289 294.94727 202.16992 C 298.52138 201.69868 302.43077 200.94258 305.94922 202.22266 C 311.94598 204.40446 315.00093 211.6774 320.79492 214.73242 C 325.76166 217.35124 331.65093 216.84928 337.06055 217.23438 C 338.88492 217.36425 346.25538 218.16807 348.00391 218.40625 C 354.52038 219.2939 352.23031 219.28876 358.76953 219.89648 C 360.59947 220.06655 362.43171 220.26953 364.26953 220.26953 C 374.87371 220.26953 384.84857 216.05731 394.55469 212.28516 C 404.6316 208.3689 414.63862 204.36909 424.89844 200.94531 C 430.79804 198.97656 438.08307 196.3557 444.35742 196.58008 C 455.49118 196.97824 460.50186 206.4159 468.01758 212.92383 C 472.42089 216.73669 476.69692 218.69385 482.44922 219.68359 C 489.74982 220.93972 497.17605 220.38813 504.51172 219.89648 C 512.87892 219.3357 521.21064 218.49707 529.47266 217.02148 C 533.45874 216.30957 539.21151 214.98328 543.19531 213.98828 C 551.52804 211.90709 560.36061 208.3457 569.04297 208.3457 C 572.74956 208.3457 576.1915 209.18349 579.09961 211.53906 C 580.66082 212.80364 581.77141 214.23561 583.0625 215.74414 C 583.59438 216.3656 584.03792 217.07416 584.6582 217.60742 C 587.46786 220.02289 591.59144 220.5358 595.12891 220.74805 C 602.83973 221.2107 612.00176 220.07569 619.49805 218.24609 C 623.75357 217.20745 627.89733 215.66611 632.03711 214.25391 C 635.09294 213.21148 636.63437 212.79457 639.66797 211.53906 C 641.09653 210.94782 646.55401 208.40664 647.94922 207.75977 C 650.84356 206.41785 653.69919 204.99077 656.88086 204.45898 C 659.17628 204.07531 661.66836 204.2222 663.91797 204.77734 C 666.25443 205.35392 668.41408 206.18995 670.83984 206.42773 C 676.35901 206.96872 682.014 205.52483 687.3418 204.29883 C 689.13887 203.8853 690.94542 203.50619 692.72461 203.02148 C 700.13069 201.00383 706.60495 198.09833 713.42578 194.66406 C 716.10704 193.31406 721.56505 189.95521 724.72461 190.13867 C 726.81949 190.26031 728.06714 192.0584 729.33789 193.43945 C 730.44039 194.63763 731.76415 196.09268 733.12305 197.00586 C 736.63276 199.36439 740.98886 199.60588 745.01172 200.30664 C 747.43944 200.72953 750.09984 201.31716 752.46484 202.00977 C 756.51194 203.19499 760.41252 204.89328 764.53125 205.84375 C 769.91285 207.08566 775.29526 206.94168 780.73828 206.10938 C 789.25914 204.80643 797.59402 202.14348 805.52148 198.81641 C 810.86827 196.57242 810.98675 196.36921 816.05078 193.8125 C 818.78437 192.43236 822.56696 190.45644 825.45508 189.39453 C 830.89767 187.39338 837.813 186.10576 843.61328 185.61328 C 845.00018 185.49553 846.67145 185.34771 848.04883 185.82617 C 850.20447 186.57497 851.98159 188.74031 853.66797 190.13867 C 855.66892 191.79789 858.20569 193.80252 860.4707 195.03711 C 865.28989 197.6639 870.76528 199.02073 876.14453 199.88086 C 881.69644 200.7686 887.44407 201.16155 893.0625 200.89258 C 899.07166 200.60491 905.0356 199.55546 910.92578 198.39062 C 922.49089 196.10353 933.77988 192.70574 945.11328 189.5 C 945.9887 189.25239 952.49155 187.13234 953.92578 187.47656 C 954.56652 187.63033 956.37428 188.81338 956.82422 189.02148 C 957.68117 189.41782 958.54567 189.80189 959.42773 190.13867 C 964.06852 191.91061 969.01324 192.95933 973.97852 193.17383 C 978.95729 193.38891 983.74385 192.46788 988.64648 191.78906 C 989.83301 191.62477 996.81649 190.74287 997.93359 190.61719 C 999.11289 190.48452 1005.3184 189.86532 1006.7461 189.76562 C 1007.1965 189.73413 1011.187 189.45303 1011.6562 189.71289 C 1011.7849 189.78419 1011.7996 189.97187 1011.8926 190.08594 C 1012.1769 190.43491 1013.0245 191.16164 1013.252 191.31055 C 1016.256 193.27682 1020.3375 194.22196 1024 193.93945 L 1024 92.955078 C 1022.9963 92.786478 1021.9967 92.59314 1021.002 92.347656 C 1020.2774 92.168846 1019.6013 91.81087 1018.8711 91.65625 C 1018.4361 91.56415 1015.7096 92.833994 1015.4414 92.933594 C 1011.4048 94.432884 1007.2761 95.569353 1003.4336 97.564453 C 998.69738 100.02367 994.25115 102.8268 989.11914 104.43164 C 986.18735 105.34845 985.33197 105.58463 982.37695 105.97656 C 980.83503 106.18107 979.11915 106.08873 977.58594 106.40234 C 976.58696 106.60668 975.66809 106.98218 974.62891 107.14648 C 968.43799 108.12532 962.12456 108.13217 955.87891 108.42383 C 953.76888 108.52233 951.65847 108.63768 949.54883 108.74414 C 947.59691 108.81514 945.64465 108.87063 943.69336 108.95703 C 938.36945 109.19268 933.05372 109.60524 927.72266 109.64844 C 920.07689 109.71044 912.47278 109.3026 904.83203 109.91602 C 894.15364 110.77329 883.66819 113.58269 872.95117 113.96094 C 860.67824 114.3941 848.59905 111.47008 836.33789 112.09766 C 827.86096 112.53155 819.53784 114.23758 811.08203 114.86523 C 807.20473 115.15303 804.41395 115.36442 800.55273 115.02539 C 797.51828 114.75895 794.637 114.13614 791.74023 113.21484 C 786.64994 111.5959 782.40649 109.25223 776.89258 109.11719 C 769.47653 108.93558 762.12009 111.00344 754.89062 112.31055 C 744.3588 114.21474 733.70313 115.71162 723.06836 116.88867 C 716.09193 117.66082 712.14602 118.13462 705.20508 118.27344 C 699.67839 118.38397 693.02186 118.67242 688.05078 115.66406 C 684.83534 113.71816 683.48921 110.1471 680.77539 107.73242 C 678.67022 105.85929 676.80987 105.2339 674.0332 104.75195 C 671.05489 104.235 667.61197 104.36884 664.62891 104.43164 C 658.38838 104.56305 651.9068 105.3747 645.70117 104.37891 C 640.44815 103.53598 635.67001 100.99364 630.55859 99.640625 C 623.48021 97.766935 616.25574 97.405484 608.96875 97.777344 C 600.67204 98.200734 592.45043 99.790948 584.24414 100.97266 C 578.8126 101.7548 572.83403 102.87283 567.32812 101.98242 C 562.02705 101.12514 561.95084 98.077776 558.33789 95.222656 C 556.3302 93.636096 554.758 92.869738 552.18555 92.455078 C 547.16356 91.645568 540.87014 92.393132 535.86133 92.826172 C 524.35015 93.821462 533.05537 93.148477 521.42969 93.998047 C 517.52411 94.283457 513.24789 94.713104 509.30273 94.583984 C 507.16554 94.514084 504.20813 94.212811 502.14648 93.306641 C 500.44603 92.559231 499.68248 91.501571 498.24219 90.431641 C 495.70582 88.547481 493.25635 88.005518 490.08008 88.142578 C 487.4973 88.254028 480.7025 89.276812 478.54492 89.632812 C 470.37082 90.981543 462.2785 92.816018 454.05859 93.892578 C 451.11187 94.278508 444.12507 95.018811 440.80859 94.744141 C 438.35467 94.540901 436.48626 94.05253 434.89453 92.1875 C 433.46534 90.51292 433.6772 87.823251 432.41016 86.332031 C 431.34951 85.083741 429.626 85.008019 428.15039 84.949219 z "
     id="path4348" />
  <g
     id="g4356"
     clip-path="url(#clipPath4360)">
    <path
       style="opacity:1;fill:none;fill-opacity:1;fill-rule:evenodd;stroke:#000000;stroke-width:12;stroke-linecap:round;stroke-linejoin:round;stroke-miterlimit:4;stroke-dasharray:none;stroke-dashoffset:0;stroke-opacity:1;marker:none;filter:url(#filter4376)"
       d="M 428.15039 84.949219 C 425.25063 84.833749 421.87164 85.281243 419.04102 85.533203 C 413.79126 86.000483 408.5272 86.524488 403.25 86.492188 C 402.12637 86.485187 397.75478 86.269411 396.38867 86.119141 C 392.71119 85.714621 389.90704 84.895877 386.0957 85.054688 C 381.21042 85.258238 376.3281 85.769053 371.48633 86.439453 C 366.29115 87.158783 361.13778 88.204354 355.92969 88.833984 C 351.80883 89.332184 348.14066 89.130909 344.04102 89.099609 C 340.89117 89.075609 337.91411 89.223772 334.75391 89.419922 C 325.0556 90.021882 315.39591 91.080471 305.71289 91.869141 C 300.16857 92.320711 294.64471 92.552243 289.0918 92.720703 C 284.07581 92.872873 279.26977 94.252347 274.48242 95.648438 C 268.5665 97.373638 262.75669 99.415179 256.85547 101.18555 C 252.64339 102.44917 247.9113 104.13619 243.42773 104.05859 C 239.53298 103.99119 236.8971 101.30193 233.49219 99.90625 C 231.01584 98.8912 229.08589 98.591043 226.39258 98.470703 C 221.60363 98.256733 217.02057 99.090771 212.31641 99.800781 C 208.38948 100.39347 206.99588 100.52328 203.08789 100.86523 C 199.2565 101.20043 195.51204 101.13075 191.67383 101.18555 C 187.39104 101.24675 183.19075 101.52934 178.95508 102.19531 C 172.38037 103.22905 165.77811 105.18227 159.08203 105.23047 C 156.97411 105.24567 155.65224 105.10541 153.87695 104.05859 C 151.74407 102.80093 151.36846 100.76812 148.49414 100.49219 C 144.72207 100.13007 140.64728 101.55276 137.07812 102.46289 C 129.81085 104.31605 122.15591 106.92186 114.54297 106.29492 C 111.54887 106.04834 109.84032 105.45715 107.38477 103.8457 C 103.22685 101.11706 102.07391 98.048768 96.501953 97.085938 C 90.308286 96.015668 82.960465 97.796907 76.865234 98.841797 C 69.296039 100.13937 61.607925 101.42009 53.916016 101.61133 C 49.098254 101.7311 43.097759 101.61074 38.712891 99.267578 C 35.280388 97.433328 35.91874 94.522463 31.023438 94.476562 C 26.465003 94.433863 21.98145 95.708276 17.65625 96.978516 C 11.65217 98.741823 5.6538573 100.73339 0 103.44531 L 0 199.96289 C 1.6853282 199.93223 3.3730416 200.04281 5.0585938 200.30664 C 6.9008528 200.59499 8.4882735 201.06873 10.380859 200.94531 C 11.716823 200.85821 14.502708 200.36175 15.646484 200.19922 C 19.824271 199.60553 23.959119 199.16383 28.185547 199.56055 C 33.89218 200.0962 39.489843 201.59501 45.042969 202.91602 C 52.508926 204.69206 60.069151 206.51006 67.755859 207.01367 C 74.860557 207.47915 81.238948 206.51861 88.162109 205.20508 C 91.393913 204.59191 96.470613 203.2626 99.814453 203.3418 C 105.85059 203.48476 99.503816 212.15034 104.7832 212.33789 C 106.88038 212.41239 109.83888 211.31828 111.64453 210.74023 C 116.35585 209.23197 120.99979 207.53063 125.72266 206.05664 C 126.74058 205.73895 129.21276 204.82368 130.57227 204.9375 C 130.84723 204.9605 131.15824 205.1163 131.28125 205.36328 C 131.44762 205.6973 131.3418 206.10926 131.3418 206.48242 C 131.3418 208.35538 130.99934 211.46413 133.76562 211.5918 C 136.85465 211.73438 144.60815 208.52338 147.25195 207.49414 C 153.55788 205.03923 159.80957 202.36544 165.94336 199.50781 C 167.212 198.91678 174.37142 195.1313 175.93945 194.92969 C 178.42629 194.60996 178.65494 197.99282 179.13281 199.56055 C 180.69547 204.68709 182.13112 209.1948 188.65625 208.50391 C 192.63121 208.08303 198.40569 205.71074 201.8457 204.24609 C 209.95577 200.79307 217.82228 196.77014 225.91992 193.2793 C 230.30287 191.38985 232.66643 190.43654 236.92188 188.86133 C 237.80094 188.53594 239.88778 187.62603 241.12109 187.68945 C 241.34487 187.70095 241.57758 187.83116 241.71289 188.00977 C 241.89438 188.24933 241.90769 188.57866 242.00977 188.86133 C 242.29263 189.64465 242.7486 190.95262 243.19141 191.62891 C 244.1508 193.09416 244.97675 193.68356 246.62305 194.45117 C 250.452 196.23648 254.95915 196.54327 259.10352 196.90039 C 260.9427 197.05888 263.03361 196.8948 264.83984 197.37891 C 267.47669 198.08581 269.7981 200.46805 272.41211 201.53125 C 279.87394 204.5662 287.26439 203.18289 294.94727 202.16992 C 298.52138 201.69868 302.43077 200.94258 305.94922 202.22266 C 311.94598 204.40446 315.00093 211.6774 320.79492 214.73242 C 325.76166 217.35124 331.65093 216.84928 337.06055 217.23438 C 338.88492 217.36425 346.25538 218.16807 348.00391 218.40625 C 354.52038 219.2939 352.23031 219.28876 358.76953 219.89648 C 360.59947 220.06655 362.43171 220.26953 364.26953 220.26953 C 374.87371 220.26953 384.84857 216.05731 394.55469 212.28516 C 404.6316 208.3689 414.63862 204.36909 424.89844 200.94531 C 430.79804 198.97656 438.08307 196.3557 444.35742 196.58008 C 455.49118 196.97824 460.50186 206.4159 468.01758 212.92383 C 472.42089 216.73669 476.69692 218.69385 482.44922 219.68359 C 489.74982 220.93972 497.17605 220.38813 504.51172 219.89648 C 512.87892 219.3357 521.21064 218.49707 529.47266 217.02148 C 533.45874 216.30957 539.21151 214.98328 543.19531 213.98828 C 551.52804 211.90709 560.36061 208.3457 569.04297 208.3457 C 572.74956 208.3457 576.1915 209.18349 579.09961 211.53906 C 580.66082 212.80364 581.77141 214.23561 583.0625 215.74414 C 583.59438 216.3656 584.03792 217.07416 584.6582 217.60742 C 587.46786 220.02289 591.59144 220.5358 595.12891 220.74805 C 602.83973 221.2107 612.00176 220.07569 619.49805 218.24609 C 623.75357 217.20745 627.89733 215.66611 632.03711 214.25391 C 635.09294 213.21148 636.63437 212.79457 639.66797 211.53906 C 641.09653 210.94782 646.55401 208.40664 647.94922 207.75977 C 650.84356 206.41785 653.69919 204.99077 656.88086 204.45898 C 659.17628 204.07531 661.66836 204.2222 663.91797 204.77734 C 666.25443 205.35392 668.41408 206.18995 670.83984 206.42773 C 676.35901 206.96872 682.014 205.52483 687.3418 204.29883 C 689.13887 203.8853 690.94542 203.50619 692.72461 203.02148 C 700.13069 201.00383 706.60495 198.09833 713.42578 194.66406 C 716.10704 193.31406 721.56505 189.95521 724.72461 190.13867 C 726.81949 190.26031 728.06714 192.0584 729.33789 193.43945 C 730.44039 194.63763 731.76415 196.09268 733.12305 197.00586 C 736.63276 199.36439 740.98886 199.60588 745.01172 200.30664 C 747.43944 200.72953 750.09984 201.31716 752.46484 202.00977 C 756.51194 203.19499 760.41252 204.89328 764.53125 205.84375 C 769.91285 207.08566 775.29526 206.94168 780.73828 206.10938 C 789.25914 204.80643 797.59402 202.14348 805.52148 198.81641 C 810.86827 196.57242 810.98675 196.36921 816.05078 193.8125 C 818.78437 192.43236 822.56696 190.45644 825.45508 189.39453 C 830.89767 187.39338 837.813 186.10576 843.61328 185.61328 C 845.00018 185.49553 846.67145 185.34771 848.04883 185.82617 C 850.20447 186.57497 851.98159 188.74031 853.66797 190.13867 C 855.66892 191.79789 858.20569 193.80252 860.4707 195.03711 C 865.28989 197.6639 870.76528 199.02073 876.14453 199.88086 C 881.69644 200.7686 887.44407 201.16155 893.0625 200.89258 C 899.07166 200.60491 905.0356 199.55546 910.92578 198.39062 C 922.49089 196.10353 933.77988 192.70574 945.11328 189.5 C 945.9887 189.25239 952.49155 187.13234 953.92578 187.47656 C 954.56652 187.63033 956.37428 188.81338 956.82422 189.02148 C 957.68117 189.41782 958.54567 189.80189 959.42773 190.13867 C 964.06852 191.91061 969.01324 192.95933 973.97852 193.17383 C 978.95729 193.38891 983.74385 192.46788 988.64648 191.78906 C 989.83301 191.62477 996.81649 190.74287 997.93359 190.61719 C 999.11289 190.48452 1005.3184 189.86532 1006.7461 189.76562 C 1007.1965 189.73413 1011.187 189.45303 1011.6562 189.71289 C 1011.7849 189.78419 1011.7996 189.97187 1011.8926 190.08594 C 1012.1769 190.43491 1013.0245 191.16164 1013.252 191.31055 C 1016.256 193.27682 1020.3375 194.22196 1024 193.93945 L 1024 92.955078 C 1022.9963 92.786478 1021.9967 92.59314 1021.002 92.347656 C 1020.2774 92.168846 1019.6013 91.81087 1018.8711 91.65625 C 1018.4361 91.56415 1015.7096 92.833994 1015.4414 92.933594 C 1011.4048 94.432884 1007.2761 95.569353 1003.4336 97.564453 C 998.69738 100.02367 994.25115 102.8268 989.11914 104.43164 C 986.18735 105.34845 985.33197 105.58463 982.37695 105.97656 C 980.83503 106.18107 979.11915 106.08873 977.58594 106.40234 C 976.58696 106.60668 975.66809 106.98218 974.62891 107.14648 C 968.43799 108.12532 962.12456 108.13217 955.87891 108.42383 C 953.76888 108.52233 951.65847 108.63768 949.54883 108.74414 C 947.59691 108.81514 945.64465 108.87063 943.69336 108.95703 C 938.36945 109.19268 933.05372 109.60524 927.72266 109.64844 C 920.07689 109.71044 912.47278 109.3026 904.83203 109.91602 C 894.15364 110.77329 883.66819 113.58269 872.95117 113.96094 C 860.67824 114.3941 848.59905 111.47008 836.33789 112.09766 C 827.86096 112.53155 819.53784 114.23758 811.08203 114.86523 C 807.20473 115.15303 804.41395 115.36442 800.55273 115.02539 C 797.51828 114.75895 794.637 114.13614 791.74023 113.21484 C 786.64994 111.5959 782.40649 109.25223 776.89258 109.11719 C 769.47653 108.93558 762.12009 111.00344 754.89062 112.31055 C 744.3588 114.21474 733.70313 115.71162 723.06836 116.88867 C 716.09193 117.66082 712.14602 118.13462 705.20508 118.27344 C 699.67839 118.38397 693.02186 118.67242 688.05078 115.66406 C 684.83534 113.71816 683.48921 110.1471 680.77539 107.73242 C 678.67022 105.85929 676.80987 105.2339 674.0332 104.75195 C 671.05489 104.235 667.61197 104.36884 664.62891 104.43164 C 658.38838 104.56305 651.9068 105.3747 645.70117 104.37891 C 640.44815 103.53598 635.67001 100.99364 630.55859 99.640625 C 623.48021 97.766935 616.25574 97.405484 608.96875 97.777344 C 600.67204 98.200734 592.45043 99.790948 584.24414 100.97266 C 578.8126 101.7548 572.83403 102.87283 567.32812 101.98242 C 562.02705 101.12514 561.95084 98.077776 558.33789 95.222656 C 556.3302 93.636096 554.758 92.869738 552.18555 92.455078 C 547.16356 91.645568 540.87014 92.393132 535.86133 92.826172 C 524.35015 93.821462 533.05537 93.148477 521.42969 93.998047 C 517.52411 94.283457 513.24789 94.713104 509.30273 94.583984 C 507.16554 94.514084 504.20813 94.212811 502.14648 93.306641 C 500.44603 92.559231 499.68248 91.501571 498.24219 90.431641 C 495.70582 88.547481 493.25635 88.005518 490.08008 88.142578 C 487.4973 88.254028 480.7025 89.276812 478.54492 89.632812 C 470.37082 90.981543 462.2785 92.816018 454.05859 93.892578 C 451.11187 94.278508 444.12507 95.018811 440.80859 94.744141 C 438.35467 94.540901 436.48626 94.05253 434.89453 92.1875 C 433.46534 90.51292 433.6772 87.823251 432.41016 86.332031 C 431.34951 85.083741 429.626 85.008019 428.15039 84.949219 z "
       id="path4353" />
  </g>
  <text
     xml:space="preserve"
     style="font-style:normal;font-weight:normal;font-size:33.56355667px;line-height:125%;font-family:sans-serif;text-align:start;letter-spacing:0px;word-spacing:0px;text-anchor:start;fill:#000000;fill-opacity:1;stroke:#000000;stroke-width:5;stroke-linecap:butt;stroke-linejoin:miter;stroke-opacity:1;filter:url(#filter4396);stroke-miterlimit:4;stroke-dasharray:none"
     x="201.72459"
     y="166.4558"
     id="text4382"
     sodipodi:linespacing="125%"><tspan
       sodipodi:role="line"
       id="tspan4380"
       x="201.72459"
       y="166.4558"
       style="fill:#000000;stroke-width:5;stroke:#000000;stroke-miterlimit:4;stroke-dasharray:none">THIS IS NOT THE INKSCAPE WEBSITE</tspan></text>
  <text
     sodipodi:linespacing="125%"
     id="text4386"
     y="164.4558"
     x="199.72459"
     style="font-style:normal;font-weight:normal;font-size:33.56355667px;line-height:125%;font-family:sans-serif;text-align:start;letter-spacing:0px;word-spacing:0px;text-anchor:start;fill:#edd400;fill-opacity:1;stroke:#000000;stroke-width:2.28842425px;stroke-linecap:butt;stroke-linejoin:miter;stroke-opacity:1"
     xml:space="preserve"><tspan
       style="fill:#edd400;stroke:#000000;stroke-width:2.28842425px"
       y="164.4558"
       x="199.72459"
       id="tspan4384"
       sodipodi:role="line">THIS IS NOT THE INKSCAPE WEBSITE</tspan></text>
  <text
     xml:space="preserve"
     style="font-style:normal;font-weight:normal;font-size:33.56355667px;line-height:125%;font-family:sans-serif;text-align:start;letter-spacing:0px;word-spacing:0px;text-anchor:start;fill:#ffffff;fill-opacity:1;stroke:none;stroke-width:2.28842425px;stroke-linecap:butt;stroke-linejoin:miter;stroke-opacity:1"
     x="199.72459"
     y="164.4558"
     id="text4421"
     sodipodi:linespacing="125%"><tspan
       sodipodi:role="line"
       id="tspan4419"
       x="199.72459"
       y="164.4558"
       style="fill:#ffffff;stroke:none;stroke-width:2.28842425px">THIS IS NOT THE INKSCAPE WEBSITE</tspan></text>
</svg>
