<?xml version="1.0" encoding="UTF-8" standalone="no"?>
<!-- Created with Inkscape (http://www.inkscape.org/) -->

<svg
   xmlns:dc="http://purl.org/dc/elements/1.1/"
   xmlns:cc="http://creativecommons.org/ns#"
   xmlns:rdf="http://www.w3.org/1999/02/22-rdf-syntax-ns#"
   xmlns:svg="http://www.w3.org/2000/svg"
   xmlns="http://www.w3.org/2000/svg"
   xmlns:sodipodi="http://sodipodi.sourceforge.net/DTD/sodipodi-0.dtd"
   xmlns:inkscape="http://www.inkscape.org/namespaces/inkscape"
   width="750"
   height="625"
   viewBox="0 0 198.4375 165.36459"
   version="1.1"
   id="svg8"
   inkscape:version="0.92.4 (unknown)"
   sodipodi:docname="image_missing.svg"
   inkscape:export-filename="/home/doctormo/Desktop/image_missing.png"
   inkscape:export-xdpi="96"
   inkscape:export-ydpi="96">
  <defs
     id="defs2" />
  <sodipodi:namedview
     id="base"
     pagecolor="#ffffff"
     bordercolor="#666666"
     borderopacity="1.0"
     inkscape:pageopacity="1"
     inkscape:pageshadow="2"
     inkscape:zoom="1.1853333"
     inkscape:cx="203.009"
     inkscape:cy="553.25084"
     inkscape:document-units="mm"
     inkscape:current-layer="layer1"
     showgrid="false"
     units="px"
     inkscape:pagecheckerboard="true" />
  <metadata
     id="metadata5">
    <rdf:RDF>
      <cc:Work
         rdf:about="">
        <dc:format>image/svg+xml</dc:format>
        <dc:type
           rdf:resource="http://purl.org/dc/dcmitype/StillImage" />
        <dc:title></dc:title>
      </cc:Work>
    </rdf:RDF>
  </metadata>
  <g
     inkscape:label="Layer 1"
     inkscape:groupmode="layer"
     id="layer1"
     transform="translate(0,-131.6354)">
    <g
       aria-label="Image
Missing"
       style="font-size:27.44294167px;line-height:1.25;font-family:sans-serif;text-align:center;letter-spacing:0px;word-spacing:0px;text-anchor:middle;fill:#888a85;stroke-width:0.68607348"
       id="text817">
      <path
         d="m 65.541167,203.12085 v -0.5092 q 1.661585,0 2.11718,-0.45559 0.482396,-0.4824 0.482396,-1.95638 v -11.89909 q 0,-1.52759 -0.482396,-1.95638 -0.455595,-0.4556 -2.11718,-0.4556 v -0.50919 h 7.959525 v 0.50919 q -1.554385,0 -2.09038,0.4556 -0.535995,0.42879 -0.535995,1.95638 v 11.89909 q 0,1.50078 0.535995,1.95638 0.535995,0.45559 2.09038,0.45559 v 0.5092 z"
         style="font-style:normal;font-variant:normal;font-weight:normal;font-stretch:normal;font-family:Rekha;-inkscape-font-specification:Rekha;fill:#888a85;stroke-width:0.68607348"
         id="path844" />
      <path
         d="m 76.314666,200.84287 v -6.78034 q 0,-1.12558 -0.294798,-1.47398 -0.187598,-0.2412 -0.643193,-0.2412 -0.428796,0 -0.857592,0.1072 v -0.4556 q 1.929581,-0.53599 3.751964,-1.20598 l 0.187599,0.0536 v 2.00998 q 1.420386,-1.07199 2.11718,-1.47399 1.04519,-0.58959 2.009981,-0.58959 1.205988,0 1.983181,0.69679 0.616394,0.56279 0.884392,1.55438 0.723593,-0.83079 1.554385,-1.36678 1.366787,-0.88439 2.760374,-0.88439 1.849183,0 2.626375,1.63478 0.535995,1.15239 0.535995,3.13557 v 5.52075 q 0,0.64319 0.133999,0.93799 0.241198,0.5092 1.01839,0.64319 l 0.696794,0.0536 v 0.402 h -5.869145 v -0.402 q 1.12559,-0.134 1.393587,-0.37519 0.375196,-0.3216 0.375196,-1.55439 v -5.65475 q 0,-1.42038 -0.241197,-1.98318 -0.428796,-0.96479 -1.715184,-0.96479 -1.07199,0 -1.822383,0.4556 -0.643194,0.37519 -1.152389,1.17919 v 6.75353 q 0,1.39359 0.535995,1.82239 0.401996,0.32159 1.393587,0.32159 v 0.402 h -6.003144 v -0.402 q 1.018391,0 1.366787,-0.29479 0.455596,-0.3752 0.455596,-1.60799 v -5.81554 q 0,-1.39359 -0.428796,-2.09038 -0.428796,-0.7236 -1.420387,-0.7236 -1.205988,0 -2.224379,0.7236 -0.857592,0.58959 -0.857592,0.85759 v 7.55753 q 0,0.88439 0.562795,1.17919 0.401996,0.21439 1.259588,0.21439 v 0.402 h -5.949544 v -0.402 q 0.991591,0 1.339988,-0.24119 0.535995,-0.3752 0.535995,-1.63479 z"
         style="font-style:normal;font-variant:normal;font-weight:normal;font-stretch:normal;font-family:Rekha;-inkscape-font-specification:Rekha;fill:#888a85;stroke-width:0.68607348"
         id="path846" />
      <path
         d="m 102.55162,199.82448 v -3.88596 q -2.653177,0.88439 -3.671567,2.03678 -0.669994,0.75039 -0.669994,1.71518 0,0.96479 0.509196,1.55439 0.509195,0.58959 1.259588,0.58959 0.401997,0 0.884387,-0.1608 0.4824,-0.1608 0.7772,-0.32159 0.58959,-0.268 0.75039,-0.5628 0.1608,-0.3216 0.1608,-0.96479 z m 4.15396,1.52759 v 0.69679 q -0.72359,0.85759 -1.44719,1.15239 -0.45559,0.1876 -0.93799,0.1876 -0.66999,0 -1.04519,-0.2412 -0.69679,-0.4556 -0.69679,-1.71518 -0.99159,0.88439 -1.74199,1.31318 -1.125585,0.6432 -2.143975,0.6432 -1.152389,0 -2.009981,-0.7504 -0.830792,-0.75039 -0.830792,-2.03678 0,-1.82238 1.715183,-3.00157 1.179189,-0.80399 4.984755,-2.30478 v -1.63478 q 0,-1.25959 -0.72359,-1.82238 -0.536,-0.402 -1.33999,-0.402 -0.723595,0 -1.31319,0.3752 -0.589594,0.34839 -0.589594,0.93799 0,0.26799 0.0268,0.56279 0.0536,0.268 0.107199,0.4824 0,0.45559 -0.348397,0.80399 -0.348397,0.3484 -0.857592,0.3484 -0.562795,0 -0.857592,-0.3752 -0.294797,-0.402 -0.294797,-0.80399 0,-0.99159 1.01839,-1.87598 1.259588,-1.09879 3.349973,-1.09879 2.59957,0 3.48396,1.52758 0.5092,0.88439 0.5092,2.76038 v 5.22595 q 0,0.83079 0.1072,1.20598 0.134,0.3484 0.66999,0.3484 0.3752,0 0.64319,-0.134 0.268,-0.134 0.5628,-0.37519 z"
         style="font-style:normal;font-variant:normal;font-weight:normal;font-stretch:normal;font-family:Rekha;-inkscape-font-specification:Rekha;fill:#888a85;stroke-width:0.68607348"
         id="path848" />
      <path
         d="m 109.38556,205.53283 q 0,0.75039 0.85759,1.25959 1.07199,0.64319 3.16237,0.64319 2.30478,0 3.61796,-0.75039 1.33999,-0.7236 1.33999,-1.84919 0,-0.83079 -0.80399,-1.07199 -0.77719,-0.24119 -2.49238,-0.24119 -2.03678,0 -2.62637,-0.0536 -0.5896,-0.0536 -1.74199,-0.2948 -0.58959,0.69679 -0.77719,0.96479 -0.53599,0.75039 -0.53599,1.39359 z m 1.44718,-11.57749 q 0,1.87598 0.5896,3.05517 0.72359,1.44718 2.19758,1.44718 0.91119,0 1.42038,-0.66999 0.536,-0.69679 0.536,-1.90278 0,-1.82239 -0.83079,-3.16237 -0.7236,-1.17919 -1.90279,-1.17919 -0.85759,0 -1.36678,0.50919 -0.6432,0.6164 -0.6432,1.90279 z m 8.52232,-1.23279 h -2.22438 q 0.268,0.61639 0.3752,1.09879 0.134,0.48239 0.134,1.36678 0,1.95639 -1.55439,3.05518 -1.23279,0.88439 -2.70677,0.88439 l -1.44719,-0.134 q -0.40199,0.0536 -1.01839,0.66999 -0.58959,0.6164 -0.58959,1.01839 0,0.402 0.61639,0.5628 0.6432,0.1608 1.47399,0.1608 l 3.45716,0.16079 q 1.44719,0 2.27798,0.6968 0.96479,0.83079 0.96479,2.17078 0,2.06358 -2.51917,3.40357 -2.11718,1.12558 -4.34156,1.12558 -2.06358,0 -3.40357,-0.75039 -1.33999,-0.75039 -1.33999,-1.84918 0,-0.80399 0.804,-1.71518 0.64319,-0.7236 1.82238,-1.55439 -0.80399,-0.402 -0.99159,-0.536 -0.4288,-0.34839 -0.4288,-0.88439 0,-0.42879 0.2948,-0.83079 0.48239,-0.66999 2.09038,-2.09038 -2.49238,-1.09879 -2.49238,-3.48397 0,-2.19758 1.52759,-3.43036 1.31319,-1.04519 3.08197,-1.04519 0.61639,0 1.15239,0.16079 0.56279,0.134 1.44719,0.4556 0.40199,0.1608 0.75039,0.2144 0.3484,0.0536 0.72359,0.0536 h 2.06358 z"
         style="font-style:normal;font-variant:normal;font-weight:normal;font-stretch:normal;font-family:Rekha;-inkscape-font-specification:Rekha;fill:#888a85;stroke-width:0.68607348"
         id="path850" />
      <path
         d="m 131.09335,198.72569 0.4288,0.1876 q -0.4556,1.39359 -1.47399,2.54598 -1.71518,1.92958 -4.20756,1.92958 -2.27798,0 -3.64477,-1.58119 -1.36678,-1.58118 -1.36678,-4.42196 0,-3.34996 1.92958,-5.14555 1.55438,-1.44718 3.53756,-1.44718 2.00999,0 3.18917,1.12559 1.31319,1.23278 1.52759,3.77876 h -8.33472 q 0,3.21597 1.44719,4.68996 1.12558,1.15238 2.81397,1.15238 1.55438,0 2.73357,-1.01839 0.67,-0.58959 1.42039,-1.79558 z m -8.33472,-3.88596 h 5.52075 q -0.2144,-1.39359 -0.5628,-2.00998 -0.61639,-1.07199 -2.00998,-1.07199 -1.20599,0 -1.92958,0.69679 -0.69679,0.66999 -1.01839,2.38518 z"
         style="font-style:normal;font-variant:normal;font-weight:normal;font-stretch:normal;font-family:Rekha;-inkscape-font-specification:Rekha;fill:#888a85;stroke-width:0.68607348"
         id="path852" />
      <path
         d="m 78.458646,222.18374 v 0.50919 q -1.339988,0 -1.849183,0.4556 -0.482395,0.42879 -0.482395,1.95638 v 11.89909 q 0,1.50078 0.482395,1.95638 0.482395,0.4556 1.849183,0.4556 v 0.50919 h -7.50393 v -0.50919 q 1.581185,0 2.009981,-0.4824 0.428796,-0.5092 0.428796,-2.22438 v -12.03309 l -6.860735,15.24906 h -0.375197 l -6.673137,-14.63266 -0.0536,10.6931 q 0,2.06358 0.509195,2.76037 0.509195,0.67 2.009981,0.67 v 0.50919 h -6.297941 v -0.50919 q 1.581185,0 2.090381,-0.6432 0.509195,-0.64319 0.509195,-2.78717 v -10.8807 q 0,-1.52759 -0.509195,-1.95638 -0.482396,-0.4556 -2.036781,-0.4556 v -0.50919 h 5.30635 l 6.190742,13.53387 5.922744,-13.53387 z"
         style="font-style:normal;font-variant:normal;font-weight:normal;font-stretch:normal;font-family:Rekha;-inkscape-font-specification:Rekha;fill:#888a85;stroke-width:0.68607348"
         id="path854" />
      <path
         d="m 79.611035,239.92517 v -0.402 q 1.313188,0 1.715184,-0.40199 0.401997,-0.402 0.401997,-1.92958 v -6.21755 q 0,-1.04519 -0.294798,-1.39358 -0.187598,-0.2144 -0.643194,-0.2144 -0.267997,0 -0.428796,0.0268 -0.133998,0 -0.643194,0.0804 v -0.402 q 1.259589,-0.40199 2.063581,-0.69679 1.393587,-0.536 2.09038,-0.77719 l 0.107199,0.0804 v 9.51391 q 0,1.42038 0.321597,1.87598 0.348397,0.45559 1.661585,0.45559 v 0.402 z m 1.661585,-16.93744 q 0,-0.4824 0.294797,-0.85759 0.401996,-0.5092 1.04519,-0.5092 0.589595,0 0.991591,0.402 0.401996,0.402 0.401996,0.96479 0,0.58959 -0.401996,0.99159 -0.375197,0.3752 -0.991591,0.3752 -0.643194,0 -0.99159,-0.4556 -0.348397,-0.45559 -0.348397,-0.91119 z"
         style="font-style:normal;font-variant:normal;font-weight:normal;font-stretch:normal;font-family:Rekha;-inkscape-font-specification:Rekha;fill:#888a85;stroke-width:0.68607348"
         id="path856" />
      <path
         d="m 95.074489,231.51005 h -0.401996 q -0.401997,-1.90278 -1.259589,-2.67998 -0.669993,-0.61639 -1.715183,-0.61639 -0.991591,0 -1.527586,0.5628 -0.509195,0.53599 -0.509195,1.17918 0,0.67 0.294797,1.12559 0.321597,0.4556 0.857592,0.7772 l 2.894373,1.71518 q 1.152389,0.69679 1.607985,1.25959 0.643194,0.77719 0.643194,1.90278 0,1.63478 -1.286388,2.59958 -1.12559,0.85759 -2.599576,0.85759 -0.643194,0 -1.715184,-0.2412 -1.07199,-0.2412 -1.393587,-0.2412 -0.375196,0 -0.589594,0.3216 h -0.348397 v -4.18076 h 0.428796 q 0.375197,1.68838 0.857592,2.41198 0.884392,1.33998 2.599576,1.33998 0.830792,0 1.420386,-0.40199 0.750393,-0.5092 0.750393,-1.55439 0,-1.20599 -1.393587,-1.98318 l -1.554385,-0.88439 q -1.956382,-1.09879 -2.545976,-1.95638 -0.589595,-0.88439 -0.589595,-1.95638 0,-1.28639 0.884392,-2.19758 1.04519,-1.07199 2.867573,-1.07199 0.589595,0 1.205989,0.18759 0.616394,0.1608 1.259588,0.3484 0.241198,0 0.455596,-0.2948 h 0.294797 z"
         style="font-style:normal;font-variant:normal;font-weight:normal;font-stretch:normal;font-family:Rekha;-inkscape-font-specification:Rekha;fill:#888a85;stroke-width:0.68607348"
         id="path858" />
      <path
         d="m 105.52639,231.51005 h -0.402 q -0.40199,-1.90278 -1.25959,-2.67998 -0.66999,-0.61639 -1.71518,-0.61639 -0.99159,0 -1.52758,0.5628 -0.5092,0.53599 -0.5092,1.17918 0,0.67 0.2948,1.12559 0.32159,0.4556 0.85759,0.7772 l 2.89437,1.71518 q 1.15239,0.69679 1.60799,1.25959 0.64319,0.77719 0.64319,1.90278 0,1.63478 -1.28639,2.59958 -1.12559,0.85759 -2.59957,0.85759 -0.6432,0 -1.71519,-0.2412 -1.071986,-0.2412 -1.393583,-0.2412 -0.375197,0 -0.589595,0.3216 h -0.348396 v -4.18076 h 0.428796 q 0.375196,1.68838 0.857592,2.41198 0.884396,1.33998 2.599576,1.33998 0.83079,0 1.42039,-0.40199 0.75039,-0.5092 0.75039,-1.55439 0,-1.20599 -1.39359,-1.98318 l -1.55438,-0.88439 q -1.956385,-1.09879 -2.54598,-1.95638 -0.589594,-0.88439 -0.589594,-1.95638 0,-1.28639 0.884392,-2.19758 1.045192,-1.07199 2.867572,-1.07199 0.5896,0 1.20599,0.18759 0.61639,0.1608 1.25959,0.3484 0.2412,0 0.45559,-0.2948 h 0.2948 z"
         style="font-style:normal;font-variant:normal;font-weight:normal;font-stretch:normal;font-family:Rekha;-inkscape-font-specification:Rekha;fill:#888a85;stroke-width:0.68607348"
         id="path860" />
      <path
         d="m 107.96517,239.92517 v -0.402 q 1.31319,0 1.71518,-0.40199 0.402,-0.402 0.402,-1.92958 v -6.21755 q 0,-1.04519 -0.2948,-1.39358 -0.1876,-0.2144 -0.64319,-0.2144 -0.268,0 -0.4288,0.0268 -0.134,0 -0.64319,0.0804 v -0.402 q 1.25959,-0.40199 2.06358,-0.69679 1.39359,-0.536 2.09038,-0.77719 l 0.1072,0.0804 v 9.51391 q 0,1.42038 0.32159,1.87598 0.3484,0.45559 1.66159,0.45559 v 0.402 z m 1.66158,-16.93744 q 0,-0.4824 0.2948,-0.85759 0.402,-0.5092 1.04519,-0.5092 0.5896,0 0.99159,0.402 0.402,0.402 0.402,0.96479 0,0.58959 -0.402,0.99159 -0.3752,0.3752 -0.99159,0.3752 -0.64319,0 -0.99159,-0.4556 -0.3484,-0.45559 -0.3484,-0.91119 z"
         style="font-style:normal;font-variant:normal;font-weight:normal;font-stretch:normal;font-family:Rekha;-inkscape-font-specification:Rekha;fill:#888a85;stroke-width:0.68607348"
         id="path862" />
      <path
         d="m 117.13068,237.51319 v -6.64633 q 0,-1.12559 -0.2948,-1.47399 -0.18759,-0.2412 -0.64319,-0.2412 -0.56279,0 -0.77719,0.1072 v -0.4556 q 1.98318,-0.56279 3.69836,-1.20598 l 0.1876,0.0536 v 2.11718 q 1.25959,-1.17919 1.84918,-1.55439 0.96479,-0.61639 2.06358,-0.61639 1.20599,0 2.00999,0.75039 1.12558,1.04519 1.12558,3.26957 v 6.13714 q 0,0.96479 0.3484,1.36679 0.3484,0.40199 1.28639,0.40199 v 0.402 h -5.57435 v -0.402 q 0.85759,0 1.20599,-0.34839 0.4824,-0.5092 0.4824,-1.90278 v -5.60115 q 0,-1.28639 -0.4556,-1.92958 -0.4556,-0.67 -1.60798,-0.67 -0.6164,0 -1.23279,0.3752 -0.6164,0.3752 -1.42039,1.15239 v 7.53073 q 0,0.69679 0.3752,1.04519 0.40199,0.34839 1.39358,0.34839 v 0.402 h -5.68154 v -0.402 q 0.93799,0 1.28639,-0.40199 0.37519,-0.4288 0.37519,-1.60799 z"
         style="font-style:normal;font-variant:normal;font-weight:normal;font-stretch:normal;font-family:Rekha;-inkscape-font-specification:Rekha;fill:#888a85;stroke-width:0.68607348"
         id="path864" />
      <path
         d="m 131.01295,242.33715 q 0,0.75039 0.85759,1.25959 1.07199,0.64319 3.16237,0.64319 2.30478,0 3.61797,-0.75039 1.33999,-0.7236 1.33999,-1.84919 0,-0.83079 -0.80399,-1.07199 -0.7772,-0.24119 -2.49238,-0.24119 -2.03678,0 -2.62638,-0.0536 -0.58959,-0.0536 -1.74198,-0.2948 -0.58959,0.69679 -0.77719,0.96479 -0.536,0.75039 -0.536,1.39359 z m 1.44719,-11.57749 q 0,1.87598 0.58959,3.05517 0.7236,1.44718 2.19758,1.44718 0.91119,0 1.42039,-0.66999 0.53599,-0.69679 0.53599,-1.90278 0,-1.82238 -0.83079,-3.16237 -0.72359,-1.17919 -1.90278,-1.17919 -0.85759,0 -1.36679,0.50919 -0.64319,0.6164 -0.64319,1.90279 z m 8.52232,-1.23279 h -2.22438 q 0.268,0.61639 0.3752,1.09879 0.134,0.48239 0.134,1.36678 0,1.95639 -1.55439,3.05518 -1.23279,0.88439 -2.70677,0.88439 l -1.44719,-0.134 q -0.402,0.0536 -1.01839,0.66999 -0.5896,0.6164 -0.5896,1.01839 0,0.402 0.6164,0.5628 0.64319,0.1608 1.47398,0.1608 l 3.45717,0.16079 q 1.44719,0 2.27798,0.6968 0.96479,0.83079 0.96479,2.17078 0,2.06358 -2.51918,3.40357 -2.11718,1.12559 -4.34155,1.12559 -2.06358,0 -3.40357,-0.7504 -1.33999,-0.75039 -1.33999,-1.84918 0,-0.80399 0.80399,-1.71518 0.6432,-0.7236 1.82239,-1.55439 -0.804,-0.402 -0.99159,-0.53599 -0.4288,-0.3484 -0.4288,-0.8844 0,-0.42879 0.2948,-0.83079 0.48239,-0.66999 2.09038,-2.09038 -2.49238,-1.09879 -2.49238,-3.48397 0,-2.19758 1.52759,-3.43036 1.31318,-1.04519 3.08197,-1.04519 0.61639,0 1.15239,0.16079 0.56279,0.134 1.44718,0.4556 0.402,0.1608 0.7504,0.2144 0.34839,0.0536 0.72359,0.0536 h 2.06358 z"
         style="font-style:normal;font-variant:normal;font-weight:normal;font-stretch:normal;font-family:Rekha;-inkscape-font-specification:Rekha;fill:#888a85;stroke-width:0.68607348"
         id="path866" />
    </g>
  </g>
</svg>
