<?xml version="1.0" encoding="UTF-8" standalone="no"?>
<svg
   xmlns:dc="http://purl.org/dc/elements/1.1/"
   xmlns:cc="http://creativecommons.org/ns#"
   xmlns:rdf="http://www.w3.org/1999/02/22-rdf-syntax-ns#"
   xmlns:svg="http://www.w3.org/2000/svg"
   xmlns="http://www.w3.org/2000/svg"
   width="700.00037"
   height="220"
   viewBox="0 0 185.20843 58.208335"
   version="1.1"
   id="svg243962">
  <metadata
     id="metadata885">
    <rdf:RDF>
      <cc:Work
         rdf:about="">
        <dc:format>image/svg+xml</dc:format>
        <dc:type
           rdf:resource="http://purl.org/dc/dcmitype/StillImage" />
        <dc:title></dc:title>
      </cc:Work>
    </rdf:RDF>
  </metadata>
  <defs
     id="defs243959" />
  <path
     id="path973"
     style="font-style:normal;font-variant:normal;font-weight:bold;font-stretch:normal;font-size:4.50056px;line-height:1.25;font-family:Raleway;-inkscape-font-specification:'Raleway, Bold';font-variant-ligatures:normal;font-variant-caps:normal;font-variant-numeric:normal;font-variant-east-asian:normal;fill:#386582;fill-opacity:1;stroke-width:0.281284"
     d="m 77.920464,26.914253 v -0.733591 h 0.589574 v 0.733591 z m -1.072399,0 v -0.733591 h 0.589573 v 0.733591 z m -1.072399,0 v -0.733591 h 0.589573 v 0.733591 z m -1.305373,0.04501 q -0.301538,0 -0.594074,-0.09451 -0.292536,-0.09901 -0.495062,-0.283535 l 0.256532,-0.441055 q 0.216027,0.148518 0.418552,0.229528 0.207026,0.08101 0.39605,0.08101 0.139517,0 0.216027,-0.04951 0.07651,-0.04951 0.07651,-0.144017 0,-0.09451 -0.09901,-0.148519 -0.09451,-0.05851 -0.337542,-0.121515 -0.23853,-0.06751 -0.405051,-0.130516 -0.16202,-0.06301 -0.265533,-0.139518 -0.103512,-0.07651 -0.148518,-0.175522 -0.04501,-0.09901 -0.04501,-0.234029 0,-0.180022 0.07201,-0.32854 0.07201,-0.148519 0.198025,-0.252032 0.126016,-0.103513 0.297037,-0.16202 0.175522,-0.05851 0.378047,-0.05851 0.265533,0 0.495061,0.07201 0.23403,0.07201 0.450056,0.261032 l -0.279034,0.432054 q -0.202525,-0.139517 -0.360045,-0.202525 -0.15752,-0.06301 -0.306038,-0.06301 -0.117015,0 -0.198025,0.04951 -0.08101,0.04501 -0.08101,0.148519 0,0.09901 0.08551,0.148518 0.09001,0.04951 0.328541,0.108013 0.252031,0.06751 0.423052,0.135017 0.175522,0.06751 0.283536,0.153019 0.108013,0.08101 0.157519,0.189024 0.04951,0.108013 0.04951,0.256532 0,0.351043 -0.261032,0.558069 -0.261033,0.207026 -0.706588,0.207026 z m -2.898079,0 q -0.175522,0 -0.328541,-0.05401 -0.148519,-0.05851 -0.256532,-0.157519 -0.108014,-0.103513 -0.171021,-0.23853 -0.06301,-0.139518 -0.06301,-0.301538 0,-0.175521 0.07201,-0.319539 0.07651,-0.144018 0.211526,-0.247531 0.135017,-0.103513 0.31954,-0.16202 0.184523,-0.05851 0.409551,-0.05851 0.148518,0 0.288036,0.027 0.139517,0.0225 0.24303,0.07201 v -0.108014 q 0,-0.409551 -0.472559,-0.409551 -0.193524,0 -0.369046,0.06751 -0.175522,0.06301 -0.369046,0.193524 l -0.211526,-0.450056 q 0.234029,-0.153019 0.48606,-0.229529 0.252032,-0.07651 0.535567,-0.07651 0.535567,0 0.828103,0.252031 0.292536,0.252031 0.292536,0.738092 v 0.607575 q 0,0.108014 0.0315,0.15302 0.03601,0.0405 0.121515,0.04951 v 0.607575 q -0.09451,0.0225 -0.171021,0.027 -0.07651,0.009 -0.139517,0.009 -0.202525,0 -0.306038,-0.07651 -0.103513,-0.08101 -0.130517,-0.225028 l -0.0135,-0.108013 q -0.15752,0.202525 -0.378047,0.310538 -0.216027,0.108014 -0.459057,0.108014 z m 0.211526,-0.517565 q 0.117015,0 0.225028,-0.0405 0.112514,-0.0405 0.184523,-0.108013 0.103513,-0.08101 0.103513,-0.171021 v -0.225028 q -0.09451,-0.036 -0.207026,-0.05401 -0.108013,-0.0225 -0.202525,-0.0225 -0.198025,0 -0.328541,0.09001 -0.126016,0.09001 -0.126016,0.23403 0,0.130516 0.09901,0.216026 0.09901,0.08101 0.252031,0.08101 z m -2.191983,0.517565 q -0.301538,0 -0.594074,-0.09451 -0.292537,-0.09901 -0.495062,-0.283535 l 0.256532,-0.441055 q 0.216027,0.148518 0.418552,0.229528 0.207026,0.08101 0.396049,0.08101 0.139518,0 0.216027,-0.04951 0.07651,-0.04951 0.07651,-0.144017 0,-0.09451 -0.09901,-0.148519 -0.09451,-0.05851 -0.337542,-0.121515 -0.23853,-0.06751 -0.405051,-0.130516 -0.16202,-0.06301 -0.265533,-0.139518 -0.103513,-0.07651 -0.148518,-0.175522 -0.04501,-0.09901 -0.04501,-0.234029 0,-0.180022 0.07201,-0.32854 0.07201,-0.148519 0.198025,-0.252032 0.126015,-0.103513 0.297037,-0.16202 0.175521,-0.05851 0.378047,-0.05851 0.265533,0 0.495061,0.07201 0.234029,0.07201 0.450056,0.261032 l -0.279035,0.432054 q -0.202525,-0.139517 -0.360044,-0.202525 -0.15752,-0.06301 -0.306038,-0.06301 -0.117015,0 -0.198025,0.04951 -0.08101,0.04501 -0.08101,0.148519 0,0.09901 0.08551,0.148518 0.09001,0.04951 0.32854,0.108013 0.252032,0.06751 0.423053,0.135017 0.175522,0.06751 0.283535,0.153019 0.108014,0.08101 0.15752,0.189024 0.04951,0.108013 0.04951,0.256532 0,0.351043 -0.261032,0.558069 -0.261033,0.207026 -0.706588,0.207026 z m -2.549003,0 q -0.301538,0 -0.540067,-0.09901 -0.234029,-0.09901 -0.39605,-0.265534 -0.16202,-0.171021 -0.24753,-0.391548 -0.08101,-0.225028 -0.08101,-0.468058 0,-0.243031 0.08101,-0.463558 0.08551,-0.225028 0.24753,-0.391549 0.162021,-0.171021 0.39605,-0.270033 0.238529,-0.103513 0.540067,-0.103513 0.301537,0 0.535566,0.103513 0.23403,0.09901 0.39605,0.270033 0.16202,0.166521 0.24753,0.391549 0.08551,0.220527 0.08551,0.463558 0,0.24303 -0.08551,0.468058 -0.08101,0.220527 -0.24303,0.391548 -0.16202,0.166521 -0.40055,0.265534 -0.234029,0.09901 -0.535566,0.09901 z m -0.526566,-1.224152 q 0,0.279034 0.148519,0.450056 0.148518,0.16652 0.378047,0.16652 0.112514,0 0.207026,-0.045 0.09451,-0.04501 0.16202,-0.126016 0.07201,-0.08101 0.112514,-0.193524 0.0405,-0.117015 0.0405,-0.252031 0,-0.279035 -0.148519,-0.445556 -0.148518,-0.171021 -0.373546,-0.171021 -0.112514,0 -0.211527,0.045 -0.09451,0.04501 -0.16652,0.126016 -0.06751,0.08101 -0.108014,0.198025 -0.0405,0.112514 -0.0405,0.247531 z m -3.278447,-0.0045 q 0,-0.24303 0.08551,-0.463558 0.08551,-0.225028 0.247531,-0.391548 0.16202,-0.171022 0.396049,-0.270034 0.23853,-0.09901 0.540068,-0.09901 0.409551,0 0.688585,0.175522 0.279035,0.171021 0.418552,0.450056 l -0.702087,0.211526 q -0.139517,-0.225028 -0.409551,-0.225028 -0.225028,0 -0.378047,0.166521 -0.148518,0.16652 -0.148518,0.445555 0,0.139517 0.04051,0.256532 0.0405,0.112514 0.112514,0.193524 0.07201,0.08101 0.16652,0.126016 0.09901,0.045 0.207026,0.045 0.135017,0 0.247531,-0.06301 0.112514,-0.06751 0.166521,-0.171021 l 0.702087,0.216027 q -0.130516,0.274534 -0.418552,0.450056 -0.283535,0.175522 -0.693086,0.175522 -0.297037,0 -0.535567,-0.09901 -0.234029,-0.103513 -0.40055,-0.270034 -0.16202,-0.171021 -0.247531,-0.391549 -0.08551,-0.225028 -0.08551,-0.468058 z m -2.216385,1.228653 q -0.301537,0 -0.594073,-0.09451 -0.292537,-0.09901 -0.495062,-0.283535 l 0.256532,-0.441055 q 0.216027,0.148518 0.418552,0.229528 0.207026,0.08101 0.396049,0.08101 0.139518,0 0.216027,-0.04951 0.07651,-0.04951 0.07651,-0.144017 0,-0.09451 -0.09901,-0.148519 -0.09451,-0.05851 -0.337542,-0.121515 -0.238529,-0.06751 -0.40505,-0.130516 -0.16202,-0.06301 -0.265533,-0.139518 -0.103513,-0.07651 -0.148519,-0.175522 -0.045,-0.09901 -0.045,-0.234029 0,-0.180022 0.07201,-0.32854 0.07201,-0.148519 0.198024,-0.252032 0.126016,-0.103513 0.297037,-0.16202 0.175522,-0.05851 0.378047,-0.05851 0.265533,0 0.495062,0.07201 0.234029,0.07201 0.450056,0.261032 l -0.279035,0.432054 q -0.202525,-0.139517 -0.360045,-0.202525 -0.157519,-0.06301 -0.306038,-0.06301 -0.117014,0 -0.198024,0.04951 -0.08101,0.04501 -0.08101,0.148519 0,0.09901 0.08551,0.148518 0.09001,0.04951 0.328541,0.108013 0.252032,0.06751 0.423053,0.135017 0.175522,0.06751 0.283535,0.153019 0.108014,0.08101 0.15752,0.189024 0.04951,0.108013 0.04951,0.256532 0,0.351043 -0.261033,0.558069 -0.261032,0.207026 -0.706588,0.207026 z m -2.898079,0 q -0.175522,0 -0.328541,-0.05401 -0.148518,-0.05851 -0.256532,-0.157519 -0.108013,-0.103513 -0.171021,-0.23853 -0.06301,-0.139518 -0.06301,-0.301538 0,-0.175521 0.07201,-0.319539 0.07651,-0.144018 0.211527,-0.247531 0.135016,-0.103513 0.319539,-0.16202 0.184523,-0.05851 0.409551,-0.05851 0.148519,0 0.288036,0.027 0.139517,0.0225 0.24303,0.07201 v -0.108014 q 0,-0.409551 -0.472558,-0.409551 -0.193525,0 -0.369046,0.06751 -0.175522,0.06301 -0.369046,0.193524 L 57.42569,24.812492 q 0.23403,-0.153019 0.486061,-0.229529 0.252031,-0.07651 0.535567,-0.07651 0.535566,0 0.828103,0.252031 0.292536,0.252031 0.292536,0.738092 v 0.607575 q 0,0.108014 0.0315,0.15302 0.036,0.0405 0.121515,0.04951 v 0.607575 q -0.09451,0.0225 -0.171021,0.027 -0.07651,0.009 -0.139518,0.009 -0.202525,0 -0.306038,-0.07651 -0.103513,-0.08101 -0.130516,-0.225028 l -0.0135,-0.108013 q -0.157519,0.202525 -0.378047,0.310538 -0.216027,0.108014 -0.459057,0.108014 z m 0.211527,-0.517565 q 0.117014,0 0.225028,-0.0405 0.112513,-0.0405 0.184522,-0.108013 0.103513,-0.08101 0.103513,-0.171021 v -0.225028 q -0.09451,-0.036 -0.207025,-0.05401 -0.108014,-0.0225 -0.202526,-0.0225 -0.198024,0 -0.32854,0.09001 -0.126016,0.09001 -0.126016,0.23403 0,0.130516 0.09901,0.216026 0.09901,0.08101 0.252032,0.08101 z m -1.356147,0.472559 h -0.720089 v -1.327665 q 0,-0.234029 -0.09001,-0.337542 -0.08551,-0.108013 -0.229528,-0.108013 -0.07651,0 -0.153019,0.0315 -0.07651,0.0315 -0.148519,0.09001 -0.07201,0.05401 -0.130516,0.130516 -0.05401,0.07651 -0.08551,0.166521 v 1.354668 h -0.720089 v -2.362794 h 0.648081 v 0.39605 q 0.130516,-0.211527 0.369045,-0.324041 0.23853,-0.117014 0.549069,-0.117014 0.229528,0 0.369046,0.08551 0.139517,0.08101 0.216026,0.216027 0.07651,0.130516 0.09901,0.288036 0.027,0.15752 0.027,0.306038 z m -4.383334,0.04501 q -0.364545,0 -0.553569,-0.225028 -0.184523,-0.229529 -0.184523,-0.670584 v -1.512188 h 0.72009 v 1.354669 q 0,0.216027 0.08551,0.333041 0.08551,0.112514 0.243031,0.112514 0.144017,0 0.279034,-0.07651 0.135017,-0.07651 0.23853,-0.265533 v -1.458182 h 0.720089 v 1.552693 q 0,0.108014 0.0315,0.15302 0.03601,0.0405 0.121516,0.04951 v 0.607575 q -0.103513,0.0225 -0.175522,0.027 -0.07201,0.009 -0.130517,0.009 -0.387048,0 -0.441054,-0.301538 l -0.0135,-0.144018 q -0.16202,0.234029 -0.40505,0.346543 -0.23853,0.108014 -0.535567,0.108014 z m -2.680646,-0.036 q -0.234029,0 -0.427553,-0.09451 -0.193524,-0.09451 -0.333042,-0.256532 -0.135016,-0.16202 -0.211526,-0.378047 -0.07651,-0.216027 -0.07651,-0.463558 0,-0.261032 0.08101,-0.48156 0.08101,-0.225028 0.225028,-0.387048 0.144018,-0.166521 0.346543,-0.261033 0.202525,-0.09451 0.445555,-0.09451 0.270034,0 0.468058,0.117014 0.202526,0.112514 0.324041,0.315039 v -0.387048 h 0.625578 v 2.200774 q 0,0.270034 -0.103513,0.486061 -0.09901,0.216026 -0.279035,0.364545 -0.180022,0.153019 -0.432054,0.234029 -0.252031,0.08101 -0.553569,0.08101 -0.382547,0 -0.652581,-0.121515 -0.270033,-0.121515 -0.472559,-0.351044 l 0.387049,-0.391548 q 0.130516,0.148518 0.32404,0.234029 0.193524,0.09001 0.414051,0.09001 0.130517,0 0.247531,-0.03601 0.117015,-0.036 0.207026,-0.112514 0.09001,-0.07201 0.139517,-0.193524 0.05401,-0.117014 0.05401,-0.283535 v -0.229528 q -0.108013,0.198024 -0.310539,0.301537 -0.202525,0.09901 -0.436554,0.09901 z m 0.247531,-0.571571 q 0.166521,0 0.297037,-0.09001 0.130516,-0.09451 0.202525,-0.23853 v -0.495061 q -0.07201,-0.189024 -0.220527,-0.297037 -0.148519,-0.112514 -0.31504,-0.112514 -0.117014,0 -0.216027,0.05401 -0.09451,0.04951 -0.16652,0.139517 -0.06751,0.08551 -0.108014,0.202525 -0.036,0.112514 -0.036,0.234029 0,0.130516 0.04051,0.24303 0.045,0.108014 0.121515,0.189024 0.07651,0.08101 0.175522,0.126016 0.103513,0.045 0.225028,0.045 z m -2.686552,-2.722838 h 0.72009 v 2.443804 q 0,0.270033 0.229528,0.270033 0.05401,0 0.117015,-0.0135 0.06751,-0.018 0.121515,-0.04951 l 0.09451,0.540067 q -0.135017,0.06301 -0.310539,0.09901 -0.175522,0.036 -0.328541,0.036 -0.310539,0 -0.477059,-0.16202 -0.166521,-0.16202 -0.166521,-0.468058 z m -1.957462,3.330414 q -0.175522,0 -0.328541,-0.05401 -0.148519,-0.05851 -0.256532,-0.157519 -0.108013,-0.103513 -0.171021,-0.23853 -0.06301,-0.139518 -0.06301,-0.301538 0,-0.175521 0.07201,-0.319539 0.07651,-0.144018 0.211526,-0.247531 0.135017,-0.103513 0.31954,-0.16202 0.184523,-0.05851 0.409551,-0.05851 0.148518,0 0.288036,0.027 0.139517,0.0225 0.24303,0.07201 v -0.108014 q 0,-0.409551 -0.472559,-0.409551 -0.193524,0 -0.369046,0.06751 -0.175522,0.06301 -0.369046,0.193524 l -0.211526,-0.450056 q 0.234029,-0.153019 0.48606,-0.229529 0.252032,-0.07651 0.535567,-0.07651 0.535567,0 0.828103,0.252031 0.292536,0.252031 0.292536,0.738092 v 0.607575 q 0,0.108014 0.0315,0.15302 0.03601,0.0405 0.121515,0.04951 v 0.607575 q -0.09451,0.0225 -0.171021,0.027 -0.07651,0.009 -0.139517,0.009 -0.202525,0 -0.306038,-0.07651 -0.103513,-0.08101 -0.130516,-0.225028 l -0.0135,-0.108013 q -0.15752,0.202525 -0.378047,0.310538 -0.216027,0.108014 -0.459057,0.108014 z m 0.211526,-0.517565 q 0.117015,0 0.225028,-0.0405 0.112514,-0.0405 0.184523,-0.108013 0.103513,-0.08101 0.103513,-0.171021 v -0.225028 q -0.09451,-0.036 -0.207026,-0.05401 -0.108013,-0.0225 -0.202525,-0.0225 -0.198025,0 -0.328541,0.09001 -0.126016,0.09001 -0.126016,0.23403 0,0.130516 0.09901,0.216026 0.09901,0.08101 0.252031,0.08101 z m -3.238013,0.517565 q -0.301538,0 -0.594074,-0.09451 -0.292537,-0.09901 -0.495062,-0.283535 l 0.256532,-0.441055 q 0.216027,0.148518 0.418552,0.229528 0.207026,0.08101 0.39605,0.08101 0.139517,0 0.216026,-0.04951 0.07651,-0.04951 0.07651,-0.144017 0,-0.09451 -0.09901,-0.148519 -0.09451,-0.05851 -0.337542,-0.121515 -0.23853,-0.06751 -0.405051,-0.130516 -0.16202,-0.06301 -0.265533,-0.139518 -0.103513,-0.07651 -0.148518,-0.175522 -0.04501,-0.09901 -0.04501,-0.234029 0,-0.180022 0.07201,-0.32854 0.07201,-0.148519 0.198025,-0.252032 0.126015,-0.103513 0.297037,-0.16202 0.175521,-0.05851 0.378047,-0.05851 0.265533,0 0.495061,0.07201 0.234029,0.07201 0.450056,0.261032 l -0.279034,0.432054 q -0.202526,-0.139517 -0.360045,-0.202525 -0.15752,-0.06301 -0.306038,-0.06301 -0.117015,0 -0.198025,0.04951 -0.08101,0.04501 -0.08101,0.148519 0,0.09901 0.08551,0.148518 0.09001,0.04951 0.32854,0.108013 0.252032,0.06751 0.423053,0.135017 0.175522,0.06751 0.283535,0.153019 0.108014,0.08101 0.15752,0.189024 0.04951,0.108013 0.04951,0.256532 0,0.351043 -0.261032,0.558069 -0.261033,0.207026 -0.706588,0.207026 z m -2.549005,0 q -0.301538,0 -0.540067,-0.09901 -0.234029,-0.09901 -0.39605,-0.265534 -0.16202,-0.171021 -0.24753,-0.391548 -0.08101,-0.225028 -0.08101,-0.468058 0,-0.243031 0.08101,-0.463558 0.08551,-0.225028 0.24753,-0.391549 0.162021,-0.171021 0.39605,-0.270033 0.238529,-0.103513 0.540067,-0.103513 0.301537,0 0.535567,0.103513 0.234029,0.09901 0.396049,0.270033 0.16202,0.166521 0.247531,0.391549 0.08551,0.220527 0.08551,0.463558 0,0.24303 -0.08551,0.468058 -0.08101,0.220527 -0.243031,0.391548 -0.16202,0.166521 -0.400549,0.265534 -0.23403,0.09901 -0.535567,0.09901 z m -0.526566,-1.224152 q 0,0.279034 0.148519,0.450056 0.148518,0.16652 0.378047,0.16652 0.112514,0 0.207026,-0.045 0.09451,-0.04501 0.16202,-0.126016 0.07201,-0.08101 0.112514,-0.193524 0.04051,-0.117015 0.04051,-0.252031 0,-0.279035 -0.148519,-0.445556 -0.148518,-0.171021 -0.373546,-0.171021 -0.112514,0 -0.211526,0.045 -0.09451,0.04501 -0.166521,0.126016 -0.06751,0.08101 -0.108014,0.198025 -0.0405,0.112514 -0.0405,0.247531 z m -1.073593,1.179146 h -0.72009 v -1.327665 q 0,-0.234029 -0.08551,-0.337542 -0.08551,-0.108013 -0.220528,-0.108013 -0.07201,0 -0.148518,0.0315 -0.07201,0.0315 -0.135017,0.09001 -0.06301,0.05401 -0.117014,0.130516 -0.04951,0.07651 -0.08101,0.166521 v 1.354668 h -0.72009 v -1.327665 q 0,-0.234029 -0.08551,-0.337542 -0.08551,-0.108013 -0.220527,-0.108013 -0.144018,0 -0.283535,0.117014 -0.135017,0.112514 -0.198025,0.301538 v 1.354668 h -0.72009 v -2.362794 h 0.648081 v 0.39605 q 0.130516,-0.216027 0.351044,-0.328541 0.225028,-0.112514 0.522065,-0.112514 0.148518,0 0.256532,0.036 0.112514,0.036 0.193524,0.09901 0.08101,0.06301 0.130516,0.148518 0.04951,0.08101 0.07201,0.175522 0.135017,-0.220528 0.355544,-0.337542 0.220527,-0.121515 0.504063,-0.121515 0.225028,0 0.360044,0.08551 0.139518,0.08101 0.216027,0.216027 0.07651,0.130516 0.09901,0.288036 0.027,0.15752 0.027,0.306038 z m -5.321982,0.04501 q -0.297037,0 -0.535567,-0.09451 -0.234029,-0.09901 -0.400549,-0.265533 -0.162021,-0.166521 -0.247531,-0.382548 -0.08551,-0.220527 -0.08551,-0.459057 0,-0.256532 0.08551,-0.48156 0.08551,-0.229528 0.247531,-0.400549 0.16202,-0.171022 0.396049,-0.270034 0.238529,-0.09901 0.540067,-0.09901 0.301538,0 0.535567,0.09901 0.234029,0.09901 0.396049,0.270034 0.16202,0.16652 0.24303,0.387048 0.08551,0.220527 0.08551,0.463557 0,0.06301 -0.0045,0.126016 -0.0045,0.05851 -0.0135,0.103513 h -1.746218 q 0.018,0.23853 0.171022,0.364545 0.157519,0.121515 0.355544,0.121515 0.157519,0 0.301537,-0.07651 0.148519,-0.07651 0.198025,-0.207026 l 0.612076,0.171021 q -0.139517,0.279035 -0.432054,0.454557 -0.292536,0.175522 -0.702087,0.175522 z m 0.499562,-1.44918 q -0.0225,-0.225028 -0.16202,-0.355545 -0.139517,-0.130516 -0.346543,-0.130516 -0.211526,0 -0.351044,0.135017 -0.135017,0.130516 -0.157519,0.351044 z m -1.818226,-0.342043 q -0.261032,0.0045 -0.472559,0.08551 -0.211526,0.08101 -0.306038,0.24303 v 1.417676 h -0.720089 v -2.362794 h 0.661582 v 0.47706 q 0.121515,-0.23853 0.310539,-0.373547 0.193524,-0.135017 0.409551,-0.139517 0.04951,0 0.07201,0 0.0225,0 0.045,0.0045 z m -3.604738,1.791223 q -0.364546,0 -0.553569,-0.225028 -0.184523,-0.229529 -0.184523,-0.670584 v -1.512188 h 0.720089 v 1.354669 q 0,0.216027 0.08551,0.333041 0.08551,0.112514 0.24303,0.112514 0.144018,0 0.279035,-0.07651 0.135017,-0.07651 0.23853,-0.265533 v -1.458182 h 0.720089 v 1.552693 q 0,0.108014 0.0315,0.15302 0.036,0.0405 0.121515,0.04951 v 0.607575 q -0.103513,0.0225 -0.175522,0.027 -0.07201,0.009 -0.130516,0.009 -0.387048,0 -0.441055,-0.301538 l -0.0135,-0.144018 q -0.16202,0.234029 -0.405051,0.346543 -0.238529,0.108014 -0.535566,0.108014 z m -2.680646,-0.036 q -0.234029,0 -0.427553,-0.09451 -0.193524,-0.09451 -0.333042,-0.256532 -0.135017,-0.16202 -0.211526,-0.378047 -0.07651,-0.216027 -0.07651,-0.463558 0,-0.261032 0.08101,-0.48156 0.08101,-0.225028 0.225028,-0.387048 0.144018,-0.166521 0.346544,-0.261033 0.202525,-0.09451 0.445555,-0.09451 0.270034,0 0.468058,0.117014 0.202525,0.112514 0.324041,0.315039 v -0.387048 h 0.625577 v 2.200774 q 0,0.270034 -0.103513,0.486061 -0.09901,0.216026 -0.279034,0.364545 -0.180023,0.153019 -0.432054,0.234029 -0.252031,0.08101 -0.553569,0.08101 -0.382547,0 -0.652581,-0.121515 -0.270034,-0.121515 -0.472559,-0.351044 l 0.387048,-0.391548 q 0.130517,0.148518 0.324041,0.234029 0.193524,0.09001 0.414051,0.09001 0.130516,0 0.247531,-0.03601 0.117014,-0.036 0.207026,-0.112514 0.09001,-0.07201 0.139517,-0.193524 0.05401,-0.117014 0.05401,-0.283535 v -0.229528 q -0.108014,0.198024 -0.310539,0.301537 -0.202525,0.09901 -0.436554,0.09901 z m 0.247531,-0.571571 q 0.16652,0 0.297037,-0.09001 0.130516,-0.09451 0.202525,-0.23853 v -0.495061 q -0.07201,-0.189024 -0.220528,-0.297037 -0.148518,-0.112514 -0.315039,-0.112514 -0.117014,0 -0.216027,0.05401 -0.09451,0.04951 -0.16652,0.139517 -0.06751,0.08551 -0.108014,0.202525 -0.036,0.112514 -0.036,0.234029 0,0.130516 0.0405,0.24303 0.045,0.108014 0.121515,0.189024 0.07651,0.08101 0.175522,0.126016 0.103513,0.045 0.225028,0.045 z m -3.684833,-1.062132 h -0.301538 v -0.544568 h 0.301538 v -0.193524 q 0,-0.207025 0.07201,-0.382547 0.07201,-0.180023 0.202525,-0.310539 0.135017,-0.130516 0.32404,-0.202525 0.189024,-0.07201 0.418552,-0.07201 0.256532,0 0.48156,0.08551 0.229529,0.08551 0.463558,0.238529 l -0.279035,0.544568 q -0.135017,-0.117015 -0.301537,-0.189023 -0.162021,-0.07201 -0.31954,-0.07201 -0.171021,0 -0.256532,0.09451 -0.08551,0.09451 -0.08551,0.23853 v 0.220527 h 1.305163 v 2.16927 h -0.72009 V 25.289551 H 22.6993 v 1.624702 h -0.720089 z m -0.600685,1.624702 h -0.720089 v -1.327665 q 0,-0.234029 -0.09001,-0.337542 -0.08551,-0.108013 -0.229528,-0.108013 -0.07651,0 -0.153019,0.0315 -0.07651,0.0315 -0.148519,0.09001 -0.07201,0.05401 -0.130516,0.130516 -0.05401,0.07651 -0.08551,0.166521 v 1.354668 h -0.720089 v -2.362794 h 0.64808 v 0.39605 q 0.130517,-0.211527 0.369046,-0.324041 0.23853,-0.117014 0.549069,-0.117014 0.229528,0 0.369046,0.08551 0.139517,0.08101 0.216026,0.216027 0.07651,0.130516 0.09901,0.288036 0.027,0.15752 0.027,0.306038 z m -3.894672,0.04501 q -0.301537,0 -0.540067,-0.09901 -0.234029,-0.09901 -0.396049,-0.265534 -0.16202,-0.171021 -0.247531,-0.391548 -0.08101,-0.225028 -0.08101,-0.468058 0,-0.243031 0.08101,-0.463558 0.08551,-0.225028 0.247531,-0.391549 0.16202,-0.171021 0.396049,-0.270033 0.23853,-0.103513 0.540067,-0.103513 0.301538,0 0.535567,0.103513 0.234029,0.09901 0.396049,0.270033 0.16202,0.166521 0.247531,0.391549 0.08551,0.220527 0.08551,0.463558 0,0.24303 -0.08551,0.468058 -0.08101,0.220527 -0.24303,0.391548 -0.16202,0.166521 -0.40055,0.265534 -0.234029,0.09901 -0.535567,0.09901 z m -0.526565,-1.224152 q 0,0.279034 0.148518,0.450056 0.148519,0.16652 0.378047,0.16652 0.112514,0 0.207026,-0.045 0.09451,-0.04501 0.16202,-0.126016 0.07201,-0.08101 0.112514,-0.193524 0.0405,-0.117015 0.0405,-0.252031 0,-0.279035 -0.148518,-0.445556 -0.148519,-0.171021 -0.373547,-0.171021 -0.112514,0 -0.211526,0.045 -0.09451,0.04501 -0.166521,0.126016 -0.06751,0.08101 -0.108013,0.198025 -0.0405,0.112514 -0.0405,0.247531 z m -3.818725,-0.445556 q 0,-0.288036 0.108013,-0.571571 0.108014,-0.288036 0.31504,-0.513064 0.207025,-0.225028 0.504062,-0.364545 0.297037,-0.139517 0.675084,-0.139517 0.450056,0 0.778597,0.193524 0.333042,0.193524 0.495062,0.504062 l -0.567071,0.39605 q -0.05401,-0.126016 -0.139517,-0.207026 -0.08101,-0.08551 -0.180023,-0.135017 -0.09901,-0.05401 -0.202525,-0.07201 -0.103513,-0.0225 -0.202525,-0.0225 -0.211526,0 -0.369046,0.08551 -0.157519,0.08551 -0.261032,0.220527 -0.103513,0.135017 -0.153019,0.306038 -0.04951,0.171022 -0.04951,0.346544 0,0.189023 0.05851,0.364545 0.05851,0.175522 0.16652,0.310538 0.112514,0.135017 0.265533,0.216027 0.15752,0.07651 0.351044,0.07651 0.09901,0 0.202525,-0.0225 0.108014,-0.027 0.202526,-0.07651 0.09901,-0.05401 0.180022,-0.135017 0.08101,-0.08551 0.130516,-0.207026 l 0.603075,0.355544 q -0.07201,0.175522 -0.216027,0.315039 -0.139517,0.139518 -0.32404,0.23403 -0.184523,0.09451 -0.391549,0.144017 -0.207025,0.04951 -0.40505,0.04951 -0.346543,0 -0.63908,-0.139518 -0.288035,-0.144018 -0.499562,-0.378047 -0.207025,-0.234029 -0.32404,-0.531066 -0.112514,-0.297037 -0.112514,-0.603075 z m 55.716927,-6.823269 v -4.004593 h 1.472953 v 4.004593 z m 0,2.596081 v -1.52819 h 1.472953 v 1.52819 z m -4.701082,-5.551194 q 0.681241,0 1.307247,0.220943 0.626005,0.211737 1.104715,0.653623 0.487916,0.43268 0.773301,1.095509 0.29459,0.662829 0.29459,1.546601 0,0.128884 -0.01841,0.340621 -0.0092,0.211737 -0.05523,0.451092 -0.04603,0.239355 -0.13809,0.487916 -0.09206,0.248561 -0.257767,0.451092 -0.156501,0.202531 -0.405062,0.322209 -0.239355,0.128883 -0.579975,0.128883 -0.248561,0 -0.423474,-0.07365 -0.165708,-0.06444 -0.266973,-0.165707 -0.101266,-0.101265 -0.156502,-0.230149 -0.04603,-0.128883 -0.06444,-0.248561 -0.294591,0.294591 -0.708859,0.451092 -0.405063,0.156502 -0.856155,0.156502 -0.690447,0 -1.058685,-0.359033 -0.359033,-0.368238 -0.359033,-0.948214 0,-0.38665 0.147296,-0.653623 0.156501,-0.266973 0.395856,-0.423474 0.239355,-0.165707 0.543152,-0.230149 0.313002,-0.07365 0.635211,-0.07365 0.359033,0 0.607593,0.07365 0.257767,0.06444 0.386651,0.119677 0,-0.220943 -0.04603,-0.405062 -0.04603,-0.184119 -0.165707,-0.313003 -0.110472,-0.128883 -0.313003,-0.202531 -0.193325,-0.07365 -0.497122,-0.07365 -0.38665,0 -0.690447,0.110471 -0.294591,0.101266 -0.506328,0.285385 l -0.257767,-0.764095 q 0.681242,-0.460298 1.601838,-0.460298 0.626005,0 0.975831,0.193325 0.349827,0.18412 0.515534,0.469504 0.174913,0.285385 0.211737,0.635212 0.03682,0.34062 0.03682,0.644417 v 0.754889 q 0,0.202531 0.0092,0.405062 0.0092,0.193325 0.05524,0.349826 0.04603,0.147296 0.138089,0.248561 0.09206,0.09206 0.248561,0.09206 0.230149,0 0.377444,-0.174913 0.147296,-0.18412 0.220944,-0.432681 0.07365,-0.257766 0.101265,-0.524739 0.02762,-0.276179 0.02762,-0.451092 0,-0.626006 -0.211737,-1.159951 -0.202531,-0.533946 -0.589182,-0.920596 -0.38665,-0.395857 -0.929802,-0.6168 -0.543151,-0.220943 -1.20598,-0.220943 -0.653624,0 -1.187569,0.220943 -0.533946,0.211737 -0.91139,0.598388 -0.377445,0.377444 -0.589182,0.91139 -0.202531,0.524739 -0.202531,1.150745 0,0.598387 0.193325,1.123127 0.193325,0.52474 0.552358,0.920596 0.359032,0.395856 0.86536,0.616799 0.515534,0.230149 1.159951,0.230149 0.460298,0 0.773301,-0.101265 0.322208,-0.101266 0.672035,-0.248561 l 0.165707,0.543151 q -0.38665,0.18412 -0.800918,0.276179 -0.414269,0.09206 -0.828537,0.09206 -0.690447,0 -1.29804,-0.248561 -0.607594,-0.248561 -1.067892,-0.699653 -0.451092,-0.451092 -0.718064,-1.086303 -0.257767,-0.644418 -0.257767,-1.43613 0,-0.828537 0.285384,-1.463748 0.294591,-0.644417 0.782507,-1.077097 0.487916,-0.43268 1.123127,-0.653623 0.635211,-0.230149 1.334864,-0.230149 z m 0.414269,4.695039 q 0.193325,-0.09206 0.303796,-0.239355 0.119678,-0.147295 0.119678,-0.331414 V 19.2672 q -0.128884,-0.04603 -0.405062,-0.110471 -0.266973,-0.06444 -0.57077,-0.06444 -0.414268,0 -0.644417,0.165707 -0.220943,0.156502 -0.220943,0.515534 0,0.294591 0.165707,0.451092 0.165707,0.156502 0.487916,0.156502 0.156501,0 0.368238,-0.03682 0.220943,-0.04603 0.395857,-0.13809 z m -7.818592,0.948214 q -0.497122,0 -0.920597,-0.184119 -0.414268,-0.193325 -0.718064,-0.533946 -0.303797,-0.34062 -0.47871,-0.791712 -0.165708,-0.460298 -0.165708,-1.00345 0,-0.52474 0.156502,-0.985038 0.156501,-0.460298 0.441886,-0.791712 0.285385,-0.340621 0.672035,-0.533946 0.395856,-0.193325 0.86536,-0.193325 0.506328,0 0.91139,0.239355 0.414268,0.239355 0.635211,0.644417 v -2.678934 h 1.472954 v 5.063278 q 0,0.220943 0.06444,0.313002 0.07365,0.08285 0.248561,0.101266 v 1.242805 q -0.202531,0.04603 -0.349827,0.05523 -0.147295,0.01841 -0.276179,0.01841 -0.38665,0 -0.626005,-0.156501 -0.239355,-0.165707 -0.276179,-0.469504 l -0.02762,-0.248561 q -0.257766,0.451092 -0.699652,0.672035 -0.432681,0.220943 -0.929802,0.220943 z m 0.395856,-1.242804 q 0.303797,0 0.579975,-0.174914 0.285385,-0.184119 0.43268,-0.497121 v -1.012656 q -0.138089,-0.368239 -0.451092,-0.598388 -0.303796,-0.239354 -0.635211,-0.239354 -0.239355,0 -0.441886,0.110471 -0.193325,0.101266 -0.34062,0.276179 -0.147296,0.174913 -0.230149,0.405062 -0.07365,0.230149 -0.07365,0.487916 0,0.266973 0.08285,0.497122 0.09206,0.230149 0.239355,0.395856 0.156502,0.165707 0.368239,0.257767 0.220943,0.09206 0.469504,0.09206 z m -4.884049,1.150745 v -4.833129 h 1.472954 v 4.833129 z m 0,-5.385487 v -1.334864 h 1.472954 v 1.334864 z m -0.969648,5.385487 h -1.472954 v -2.715759 q 0,-0.47871 -0.184119,-0.690447 -0.174914,-0.220943 -0.469504,-0.220943 -0.156502,0 -0.313003,0.06444 -0.156501,0.06444 -0.303797,0.184119 -0.147295,0.110472 -0.266972,0.266973 -0.110472,0.156501 -0.174914,0.340621 v 2.770994 h -1.472953 v -4.833129 h 1.325658 v 0.810124 q 0.266973,-0.43268 0.754889,-0.662829 0.487916,-0.239355 1.123127,-0.239355 0.469504,0 0.754889,0.174913 0.285384,0.165707 0.441886,0.441886 0.156501,0.266973 0.202531,0.589182 0.05524,0.322208 0.05524,0.626005 z m -7.903461,0.09206 q -0.607593,0 -1.095509,-0.193325 -0.47871,-0.202531 -0.819331,-0.543152 -0.331414,-0.34062 -0.506328,-0.782506 -0.174913,-0.451092 -0.174913,-0.939008 0,-0.52474 0.174913,-0.985038 0.174914,-0.469504 0.506328,-0.81933 0.331415,-0.349827 0.810125,-0.552358 0.487916,-0.202531 1.104715,-0.202531 0.616799,0 1.095509,0.202531 0.47871,0.202531 0.810125,0.552358 0.331414,0.34062 0.497122,0.791712 0.174913,0.451092 0.174913,0.948214 0,0.128884 -0.0092,0.257767 -0.0092,0.119678 -0.02762,0.211737 H 42.35772 q 0.03682,0.487916 0.349827,0.745683 0.322209,0.248561 0.727271,0.248561 0.322208,0 0.616799,-0.156501 0.303797,-0.156502 0.405062,-0.423475 l 1.252011,0.349827 q -0.285385,0.570769 -0.883772,0.929802 -0.598388,0.359032 -1.43613,0.359032 z m 1.021862,-2.964319 q -0.04603,-0.460298 -0.331415,-0.727271 -0.285385,-0.266973 -0.708859,-0.266973 -0.43268,0 -0.718065,0.276179 -0.276179,0.266973 -0.322208,0.718065 z m -7.043135,2.87226 -1.712308,-4.833129 h 1.518983 l 1.058685,3.654766 1.067892,-3.654766 h 1.371688 l -1.703103,4.833129 z m -2.113774,0 h -1.472954 v -2.715759 q 0,-0.47871 -0.184119,-0.690447 -0.174913,-0.220943 -0.469504,-0.220943 -0.156501,0 -0.313002,0.06444 -0.156502,0.06444 -0.303797,0.184119 -0.147295,0.110472 -0.266973,0.266973 -0.110471,0.156501 -0.174913,0.340621 v 2.770994 h -1.472954 v -4.833129 h 1.325658 v 0.810124 q 0.266973,-0.43268 0.754889,-0.662829 0.487916,-0.239355 1.123127,-0.239355 0.469504,0 0.754889,0.174913 0.285385,0.165707 0.441886,0.441886 0.156501,0.266973 0.202531,0.589182 0.05524,0.322208 0.05524,0.626005 z m -7.903461,0.09206 q -0.607594,0 -1.09551,-0.193325 -0.47871,-0.202531 -0.81933,-0.543152 -0.331415,-0.34062 -0.506328,-0.782506 -0.174913,-0.451092 -0.174913,-0.939008 0,-0.52474 0.174913,-0.985038 0.174913,-0.469504 0.506328,-0.81933 0.331414,-0.349827 0.810124,-0.552358 0.487916,-0.202531 1.104716,-0.202531 0.616799,0 1.095509,0.202531 0.47871,0.202531 0.810124,0.552358 0.331415,0.34062 0.497122,0.791712 0.174913,0.451092 0.174913,0.948214 0,0.128884 -0.0092,0.257767 -0.0092,0.119678 -0.02762,0.211737 h -3.571913 q 0.03682,0.487916 0.349827,0.745683 0.322208,0.248561 0.72727,0.248561 0.322209,0 0.6168,-0.156501 0.303796,-0.156502 0.405062,-0.423475 l 1.252011,0.349827 q -0.285385,0.570769 -0.883773,0.929802 -0.598387,0.359032 -1.436129,0.359032 z m 1.021861,-2.964319 q -0.04603,-0.460298 -0.331414,-0.727271 -0.285385,-0.266973 -0.708859,-0.266973 -0.43268,0 -0.718065,0.276179 -0.276179,0.266973 -0.322209,0.718065 z m -5.813851,2.87226 v -4.833129 h 1.472954 v 4.833129 z m 0,-5.385487 v -1.334864 h 1.472954 v 1.334864 z m -0.769561,3.710002 q 0,0.423474 -0.174913,0.736477 -0.174914,0.313002 -0.47871,0.524739 -0.303797,0.202532 -0.708859,0.313003 -0.405063,0.101266 -0.856155,0.101266 h -3.185262 v -6.536232 h 3.636354 q 0.340621,0 0.6168,0.147295 0.276179,0.147296 0.469504,0.386651 0.193325,0.230149 0.29459,0.533945 0.110472,0.294591 0.110472,0.607594 0,0.469504 -0.239355,0.883772 -0.230149,0.414268 -0.699653,0.626005 0.561564,0.165707 0.883772,0.589182 0.331415,0.423474 0.331415,1.086303 z m -1.537396,-0.303797 q 0,-0.303796 -0.174913,-0.515534 Q 19.901503,18.35581 19.63453,18.35581 h -1.739926 v 1.426924 h 1.675484 q 0.294591,0 0.487916,-0.193325 0.193325,-0.193325 0.193325,-0.506328 z m -2.356725,-3.268116 v 1.353276 h 1.482159 q 0.248561,0 0.441886,-0.165707 0.193325,-0.165707 0.193325,-0.515534 0,-0.322208 -0.174913,-0.497121 -0.165707,-0.174914 -0.405062,-0.174914 z m -2.919009,1.298041 v 4.004592 h -1.472954 v -4.004592 z m 0,-2.596081 v 1.528189 h -1.472954 v -1.528189 z" />
</svg>
