<?xml version="1.0" encoding="UTF-8" standalone="no"?>
<svg
   xmlns:dc="http://purl.org/dc/elements/1.1/"
   xmlns:cc="http://creativecommons.org/ns#"
   xmlns:rdf="http://www.w3.org/1999/02/22-rdf-syntax-ns#"
   xmlns:svg="http://www.w3.org/2000/svg"
   xmlns="http://www.w3.org/2000/svg"
   xmlns:sodipodi="http://sodipodi.sourceforge.net/DTD/sodipodi-0.dtd"
   xmlns:inkscape="http://www.inkscape.org/namespaces/inkscape"
   inkscape:version="1.0.2 (1.0.2+r75+1)"
   inkscape:export-ydpi="96"
   inkscape:export-xdpi="96"
   inkscape:export-filename="/home/doctormo/Desktop/contribute_vectors.png"
   sodipodi:docname="icon_contribute_vectors.svg"
   id="svg6"
   height="32"
   width="32"
   viewBox="0 0 32 32"
   version="1.1">
  <metadata
     id="metadata896">
    <rdf:RDF>
      <cc:Work
         rdf:about="">
        <dc:format>image/svg+xml</dc:format>
        <dc:type
           rdf:resource="http://purl.org/dc/dcmitype/StillImage" />
        <dc:title></dc:title>
      </cc:Work>
    </rdf:RDF>
  </metadata>
  <defs
     id="defs10" />
  <sodipodi:namedview
     inkscape:current-layer="svg6"
     inkscape:window-maximized="1"
     inkscape:window-y="20"
     inkscape:window-x="66"
     inkscape:cy="22.261352"
     inkscape:cx="34.548874"
     inkscape:zoom="5.502726"
     showgrid="false"
     id="namedview8"
     inkscape:window-height="843"
     inkscape:window-width="1534"
     inkscape:pageshadow="2"
     inkscape:pageopacity="0"
     guidetolerance="10"
     gridtolerance="10"
     objecttolerance="10"
     borderopacity="1"
     bordercolor="#666666"
     pagecolor="#535353"
     inkscape:document-rotation="0"
     inkscape:snap-global="false" />
  <g
     id="g6372-2"
     transform="matrix(0.0703542,0,0,0.0703542,-598.53556,442.32533)"
     inkscape:export-filename="/home/doctormo/Desktop/programming.png"
     inkscape:export-xdpi="96"
     inkscape:export-ydpi="96">
    <g
       id="g6292-5"
       transform="matrix(1.0124212,0,0,1.0124212,-108.49763,75.268694)"
       style="stroke-width:0.987731">
      <path
         inkscape:connector-curvature="0"
         id="path6195-3"
         d="m 8734.8809,-5835.0693 v -449.2609"
         style="fill:none;stroke:#fdfdfd;stroke-width:29.6319;stroke-linecap:butt;stroke-linejoin:miter;stroke-miterlimit:4;stroke-dasharray:none;stroke-opacity:1" />
      <path
         inkscape:connector-curvature="0"
         id="path6195-9-1"
         d="m 8510.2504,-6059.6998 h 449.261"
         style="fill:none;stroke:#fdfdfd;stroke-width:29.6319;stroke-linecap:butt;stroke-linejoin:miter;stroke-miterlimit:4;stroke-dasharray:none;stroke-opacity:1" />
      <path
         inkscape:connector-curvature="0"
         id="path6195-4-2"
         d="m 8576.0431,-5900.8621 317.6755,-317.6754"
         style="fill:none;stroke:#fdfdfd;stroke-width:29.6319;stroke-linecap:butt;stroke-linejoin:miter;stroke-miterlimit:4;stroke-dasharray:none;stroke-opacity:1" />
      <path
         inkscape:connector-curvature="0"
         id="path6195-9-5-1"
         d="m 8576.0431,-6218.5375 317.6755,317.6754"
         style="fill:none;stroke:#fdfdfd;stroke-width:29.6319;stroke-linecap:butt;stroke-linejoin:miter;stroke-miterlimit:4;stroke-dasharray:none;stroke-opacity:1" />
      <path
         inkscape:connector-curvature="0"
         id="path6195-6-2"
         d="m 8622.5656,-5865.1641 224.6305,-389.0714"
         style="fill:none;stroke:#fdfdfd;stroke-width:29.6319;stroke-linecap:butt;stroke-linejoin:miter;stroke-miterlimit:4;stroke-dasharray:none;stroke-opacity:1" />
      <path
         inkscape:connector-curvature="0"
         id="path6195-9-2-9"
         d="m 8540.3451,-6172.015 389.0715,224.6305"
         style="fill:none;stroke:#fdfdfd;stroke-width:29.6319;stroke-linecap:butt;stroke-linejoin:miter;stroke-miterlimit:4;stroke-dasharray:none;stroke-opacity:1" />
      <path
         inkscape:connector-curvature="0"
         id="path6195-4-5-2"
         d="m 8517.9046,-6001.5613 433.9526,-116.277"
         style="fill:none;stroke:#fdfdfd;stroke-width:29.6319;stroke-linecap:butt;stroke-linejoin:miter;stroke-miterlimit:4;stroke-dasharray:none;stroke-opacity:1" />
      <path
         inkscape:connector-curvature="0"
         id="path6195-9-5-9-6"
         d="m 8676.7421,-6276.676 116.2775,433.9524"
         style="fill:none;stroke:#fdfdfd;stroke-width:29.6319;stroke-linecap:butt;stroke-linejoin:miter;stroke-miterlimit:4;stroke-dasharray:none;stroke-opacity:1" />
      <path
         inkscape:connector-curvature="0"
         id="path6195-6-1-4"
         d="m 8676.7422,-5842.7236 116.2773,-433.9522"
         style="fill:none;stroke:#fdfdfd;stroke-width:29.6319;stroke-linecap:butt;stroke-linejoin:miter;stroke-miterlimit:4;stroke-dasharray:none;stroke-opacity:1" />
      <path
         inkscape:connector-curvature="0"
         id="path6195-9-2-7-6"
         d="m 8517.9046,-6117.8379 433.9528,116.2774"
         style="fill:none;stroke:#fdfdfd;stroke-width:29.6319;stroke-linecap:butt;stroke-linejoin:miter;stroke-miterlimit:4;stroke-dasharray:none;stroke-opacity:1" />
      <path
         inkscape:connector-curvature="0"
         id="path6195-4-5-7-9"
         d="m 8540.3453,-5947.3842 389.0711,-224.6309"
         style="fill:none;stroke:#fdfdfd;stroke-width:29.6319;stroke-linecap:butt;stroke-linejoin:miter;stroke-miterlimit:4;stroke-dasharray:none;stroke-opacity:1" />
      <path
         inkscape:connector-curvature="0"
         id="path6195-9-5-9-4-6"
         d="m 8622.5655,-6254.2354 224.6307,389.0714"
         style="fill:none;stroke:#fdfdfd;stroke-width:29.6319;stroke-linecap:butt;stroke-linejoin:miter;stroke-miterlimit:4;stroke-dasharray:none;stroke-opacity:1" />
    </g>
    <circle
       style="opacity:1;vector-effect:none;fill:#383838;fill-opacity:1;stroke:#fdfdfd;stroke-width:30;stroke-linecap:butt;stroke-linejoin:miter;stroke-miterlimit:4;stroke-dasharray:none;stroke-dashoffset:0;stroke-opacity:1;paint-order:fill markers stroke"
       id="path6174-99"
       cx="8734.8809"
       cy="-6059.6997"
       r="186.38393" />
  </g>
  <circle
     id="circle2"
     style="fill:none;stroke:#ffffff;stroke-width:2.46154"
     r="14.769231"
     cy="16"
     cx="16" />
  <g
     inkscape:export-ydpi="50"
     inkscape:export-xdpi="50"
     inkscape:export-filename="/home/ryangorley/Nextcloud/Personal/SCaLE Booth/banner-inkscape-d6b.png"
     transform="matrix(2.1248264,0,0,2.1248264,8.1262093,-606.2252)"
     id="layer1-6-1"
     inkscape:label="Layer 1"
     style="fill:#ffffff;stroke:#fdfdfd;stroke-width:0.378048;stroke-miterlimit:4;stroke-dasharray:none;stroke-opacity:1">
    <path
       inkscape:connector-curvature="0"
       id="path1126-9"
       d="m 2.0794176,289.93677 c -0.3087132,-0.0169 -0.6427948,0.0424 -0.9846163,0.22945 -1.34554249,0.78687 -1.29731171,2.09311 -0.67603733,3.0711 1.04595633,1.63841 3.28538023,3.30615 3.28538023,3.30615 0,0 2.2394685,-1.66774 3.2854249,-3.30615 0.6212742,-0.97799 0.6695051,-2.28423 -0.6760374,-3.0711 -1.3674206,-0.74781 -2.6093875,0.55095 -2.6093875,0.55095 0,0 -0.6985422,-0.73055 -1.6247266,-0.7804 z"
       style="fill:#ffffff;fill-opacity:1;stroke:#fdfdfd;stroke-width:0.378048;stroke-linecap:butt;stroke-linejoin:miter;stroke-miterlimit:4;stroke-dasharray:none;stroke-opacity:1" />
  </g>
</svg>
